﻿<?xml version="1.0" encoding="utf-8"?>
<!DOCTYPE svg PUBLIC "-//W3C//DTD SVG 1.0//EN" "http://www.w3.org/TR/2001/REC-SVG-20010904/DTD/svg10.dtd"[
	<!ENTITY ns_flows "http://ns.adobe.com/Flows/1.0/">
	<!ENTITY ns_svg "http://www.w3.org/2000/svg">
	<!ENTITY ns_xlink "http://www.w3.org/1999/xlink">
	<!ENTITY st0 "font-size:7px;font-family:'MS-PGothic';adobe-font-script:japanese;">
	<!ENTITY st1 "font-size:6px;font-family:'ArialMT';">
	<!-- White fill  -->
	<!ENTITY st2 "fill:#FFFFFF;stroke:#000000; stroke-width:1.41;stroke-linecap:round;stroke-linejoin:round;">
	<!-- Yellow fill  -->
	<!ENTITY st3 "fill:#FFFFCC;stroke:#FFFFCC; stroke-width:0.1;stroke-linecap:round;stroke-linejoin:round;">
	<!-- Gray fill  -->
	<!ENTITY st4 "fill:#CCCCCC;stroke:#CCCCCC; stroke-width:0.1;stroke-linecap:round;stroke-linejoin:round;">
	<!-- Light-blue fill -->
	<!ENTITY st5 "fill:#CCECF4;stroke:#000000; stroke-width:1.133;stroke-linecap:round;stroke-linejoin:round;">
	<!ENTITY st6 "fill:none;stroke-linecap:butt; stroke-linejoin:round;">
	<!ENTITY st7 "fill:none;stroke:#000000;stroke-linecap:round;stroke-linejoin:round;">
	<!ENTITY st8 "enable-background:new    ;">
	<!-- Black fill -->
	<!ENTITY st9 "fill:#000000;stroke:#000000; stroke-linecap:round;stroke-linejoin:round;">
	<!-- SRS note   -->
	<!ENTITY st10 "font-size:9px;font-family:'ArialMT';">
	<!ENTITY st11 "font-size:9px;font-family:'Svg Symbol';">
	<!ENTITY st12 "font-size:6px;font-family:'Svg Symbol';">
	<!ENTITY st13 "fill:none;stroke:#ff0000;stroke-linecap:round;stroke-linejoin:round;">
	<!-- Yellow fill  -->
	<!ENTITY st14 "fill:#FFFF00;stroke:#FFFF00; stroke-width:0.1;stroke-linecap:round;stroke-linejoin:round;">
	<!ENTITY st15 "font-size:6px;font-family:'MS-PGothic';adobe-font-script:japanese;">
	<!ENTITY st16 "1.00 0.00 0.00 1.00">
	<!ENTITY st17 "0.00 -1.00 1.00 0.00">
	<!ENTITY st18 "font-size:6px;font-family:'Arial';">
	<!ENTITY st19 "font-size:9px;font-family:'Arial';">
	<!ENTITY st20 "font-size:6px;font-family:'MS-PGothic','MS PGothic';adobe-font-script:japanese;">
	<!ENTITY st21 "font-size:7px;font-family:'MS-PGothic','MS PGothic';adobe-font-script:japanese;">
	<!ATTLIST svg
		xmlns:ewd CDATA #FIXED "http://shcl.co.jp/ewd"
		xmlns:a CDATA #FIXED "http://ns.adobe.com/AdobeSVGViewerExtensions/3.0/"
		ewd:ver CDATA #IMPLIED
	>
	<!ATTLIST a
		ewd:lineID CDATA #IMPLIED
		ewd:groupID CDATA #IMPLIED
		ewd:figtype CDATA #IMPLIED
		ewd:code CDATA #IMPLIED
		ewd:figID CDATA #IMPLIED
		ewd:pinNo CDATA #IMPLIED
		ewd:comment CDATA #IMPLIED >
	<!ATTLIST g
		ewd:lineID CDATA #IMPLIED
		ewd:groupID CDATA #IMPLIED
		ewd:figtype CDATA #IMPLIED
		ewd:code CDATA #IMPLIED
		ewd:figID CDATA #IMPLIED
		ewd:pinNo CDATA #IMPLIED
		ewd:comment CDATA #IMPLIED >
	<!ATTLIST text
		ewd:textID CDATA #IMPLIED >
	<!ATTLIST title
		ewd:textID CDATA #IMPLIED >
]>
<!-- Generator: Shintec Hozumi YS   -->
<svg onload="call_execInitLoadProc_svg('system')" style="overflow:visible;  enable-background:new 0 0 2567.279 710.000" viewBox="0 0 2567.279 710.000" height="710.000" width="2567.279" xml:space="preserve" ewd:ver="L2.1.2.7" xmlns="&ns_svg;" xmlns:a="http://ns.adobe.com/AdobeSVGViewerExtensions/3.0/" xmlns:ewd="http://shcl.co.jp/ewd" xmlns:xlink="&ns_xlink;">
<path d=" M  603.40,  511.70  L  594.90,  511.70 " style="stroke-width: 1.42 ;&st7; " /><path d=" M  645.89,  511.70  L  637.39,  511.70 " style="stroke-width: 1.42 ;&st7; " /><path d=" M  688.38,  511.70  L  679.89,  511.70 " style="stroke-width: 1.42 ;&st7; " /><path d=" M  730.88,  511.70  L  722.38,  511.70 " style="stroke-width: 1.42 ;&st7; " /><path d=" M  603.40,  426.71  L  594.90,  426.71 " style="stroke-width: 1.42 ;&st7; " /><path d=" M  645.89,  426.71  L  637.39,  426.71 " style="stroke-width: 1.42 ;&st7; " /><path d=" M  688.38,  426.71  L  679.89,  426.71 " style="stroke-width: 1.42 ;&st7; " /><path d=" M  730.88,  426.71  L  722.38,  426.71 " style="stroke-width: 1.42 ;&st7; " /><path d=" M  892.35,  443.71  L  900.85,  443.71 " style="stroke-width: 1.42 ;&st7; " /><path d=" M  858.36,  443.71  L  866.86,  443.71 " style="stroke-width: 1.42 ;&st7; " /><path d=" M  824.36,  443.71  L  832.86,  443.71 " style="stroke-width: 1.42 ;&st7; " /><path d=" M  790.37,  443.71  L  798.87,  443.71 " style="stroke-width: 1.42 ;&st7; " /><path d=" M  603.40,  469.21  L  594.90,  469.21 " style="stroke-width: 1.42 ;&st7; " /><path d=" M  645.89,  469.21  L  637.39,  469.21 " style="stroke-width: 1.42 ;&st7; " /><path d=" M  586.40,  562.69  L  586.40,  571.19 " style="stroke-width: 1.42 ;&st7; " /><path d=" M  603.40,  562.69  L  603.40,  571.19 " style="stroke-width: 1.42 ;&st7; " /><path d=" M  586.40,  579.69  L  586.40,  571.19 " style="stroke-width: 1.42 ;&st7; " /><path d=" M  603.40,  579.69  L  603.40,  571.19 " style="stroke-width: 1.42 ;&st7; " /><path d=" M  594.90,  554.19  L  594.90,  562.69 " style="stroke-width: 0.85 ;&st7; " /><path d=" M  594.90,  579.69  L  594.90,  588.19 " style="stroke-width: 0.85 ;&st7; " /><path d=" M  688.38,  469.21  L  679.89,  469.21 " style="stroke-width: 1.42 ;&st7; " /><path d=" M  730.88,  469.21  L  722.38,  469.21 " style="stroke-width: 1.42 ;&st7; " /><path d=" M  671.39,  562.69  L  671.39,  571.19 " style="stroke-width: 1.42 ;&st7; " /><path d=" M  688.38,  562.69  L  688.38,  571.19 " style="stroke-width: 1.42 ;&st7; " /><path d=" M  671.39,  579.69  L  671.39,  571.19 " style="stroke-width: 1.42 ;&st7; " /><path d=" M  688.38,  579.69  L  688.38,  571.19 " style="stroke-width: 1.42 ;&st7; " /><path d=" M  679.89,  554.19  L  679.89,  562.69 " style="stroke-width: 0.85 ;&st7; " /><path d=" M  679.89,  579.69  L  679.89,  588.19 " style="stroke-width: 0.85 ;&st7; " /><path d=" M  875.35,  506.60  L  888.10,  506.60 " style="stroke-width: 0.85 ;&st7;stroke-dasharray:3, 1.5;" /><path d=" M  841.36,  506.60  L  854.11,  506.60 " style="stroke-width: 0.85 ;&st7;stroke-dasharray:3, 1.5;" /><path d=" M  599.15,  435.78  L  594.90,  431.53  L  590.65,  435.78 " style="stroke-width: 1.42 ;&st7; " /><path d=" M  726.63,  474.87  L  722.38,  470.62  L  718.13,  474.87 " style="stroke-width: 1.42 ;&st7; " /><path d=" M  726.63,  478.27  L  722.38,  474.02  L  718.13,  478.27 " style="stroke-width: 1.42 ;&st7; " /><path d=" M  684.14,  474.87  L  679.89,  470.62  L  675.64,  474.87 " style="stroke-width: 1.42 ;&st7; " /><path d=" M  684.14,  478.27  L  679.89,  474.02  L  675.64,  478.27 " style="stroke-width: 1.42 ;&st7; " /><path d=" M  641.64,  474.87  L  637.39,  470.62  L  633.14,  474.87 " style="stroke-width: 1.42 ;&st7; " /><path d=" M  641.64,  478.27  L  637.39,  474.02  L  633.14,  478.27 " style="stroke-width: 1.42 ;&st7; " /><path d=" M  599.15,  474.87  L  594.90,  470.62  L  590.65,  474.87 " style="stroke-width: 1.42 ;&st7; " /><path d=" M  599.15,  478.27  L  594.90,  474.02  L  590.65,  478.27 " style="stroke-width: 1.42 ;&st7; " /><path d=" M  807.36,  506.60  L  820.11,  506.60 " style="stroke-width: 0.85 ;&st7;stroke-dasharray:3, 1.5;" /><path d=" M  794.62,  452.78  L  798.87,  448.53  L  803.12,  452.78 " style="stroke-width: 1.42 ;&st7; " /><path d=" M  790.37,  443.71  L  807.36,  443.71  L  807.36,  435.21  L  790.37,  435.21  L  790.37,  443.71 " style="stroke-width: 1.42 ;&st7; " /><path d=" M  803.12,  449.38  L  798.87,  445.13  L  794.62,  449.38 " style="stroke-width: 1.42 ;&st7; " /><path d=" M  824.36,  443.71  L  841.36,  443.71  L  841.36,  435.21  L  824.36,  435.21  L  824.36,  443.71 " style="stroke-width: 1.42 ;&st7; " /><path d=" M  828.61,  452.78  L  832.86,  448.53  L  837.11,  452.78 " style="stroke-width: 1.42 ;&st7; " /><path d=" M  837.11,  449.38  L  832.86,  445.13  L  828.61,  449.38 " style="stroke-width: 1.42 ;&st7; " /><path d=" M  858.36,  443.71  L  875.35,  443.71  L  875.35,  435.21  L  858.36,  435.21  L  858.36,  443.71 " style="stroke-width: 1.42 ;&st7; " /><path d=" M  862.61,  452.78  L  866.85,  448.53  L  871.10,  452.78 " style="stroke-width: 1.42 ;&st7; " /><path d=" M  871.10,  449.38  L  866.85,  445.13  L  862.61,  449.38 " style="stroke-width: 1.42 ;&st7; " /><path d=" M  892.35,  443.71  L  909.35,  443.71  L  909.35,  435.21  L  892.35,  435.21  L  892.35,  443.71 " style="stroke-width: 1.42 ;&st7; " /><path d=" M  896.60,  452.78  L  900.85,  448.53  L  905.10,  452.78 " style="stroke-width: 1.42 ;&st7; " /><path d=" M  905.10,  449.38  L  900.85,  445.13  L  896.60,  449.38 " style="stroke-width: 1.42 ;&st7; " /><path d=" M  577.90,  154.76  L  577.90,  205.75  L  747.87,  205.75  L  747.87,  154.76  L  577.90,  154.76 " style="stroke-width: 1.42 ;&st7; " /><path d=" M  940.51,  707.17  L  946.17,  707.17 " style="stroke-width: 0.85 ;&st7; " /><path d=" M  941.93,  710.00  L  944.76,  710.00 " style="stroke-width: 0.85 ;&st7; " /><path d=" M  781.87,  571.19  L  781.87,  520.20  L  917.85,  520.20  L  917.85,  571.19  L  781.87,  571.19 " style="stroke-width: 1.42 ;&st7; " /><path d=" M  943.34,  697.25  L  943.34,  701.50 " style="stroke-width: 0.85 ;&st7; " /><path d=" M  934.84,  701.50  L  951.84,  701.50 " style="stroke-width: 0.85 ;&st7; " /><path d=" M  939.09,  704.33  L  947.59,  704.33 " style="stroke-width: 0.85 ;&st7; " /><path d=" M  599.15,  432.38  L  594.90,  428.13  L  590.65,  432.38 " style="stroke-width: 1.42 ;&st7; " /><path d=" M  671.39,  579.69  L  671.39,  562.69 " style="stroke-width: 1.42 ;&st7; " /><path d=" M  603.40,  579.69  L  603.40,  562.69 " style="stroke-width: 1.42 ;&st7; " /><path d=" M  586.40,  579.69  L  586.40,  562.69 " style="stroke-width: 1.42 ;&st7; " /><path d=" M  688.38,  579.69  L  688.38,  562.69 " style="stroke-width: 1.42 ;&st7; " /><path d=" M  798.87,  154.76  L  798.87,  205.75  L  900.85,  205.75  L  900.85,  154.76  L  798.87,  154.76 " style="stroke-width: 1.42 ;&st7; " /><path d=" M  599.15,  520.77  L  594.90,  516.52  L  590.65,  520.77 " style="stroke-width: 1.42 ;&st7; " /><path d=" M  599.15,  517.37  L  594.90,  513.12  L  590.65,  517.37 " style="stroke-width: 1.42 ;&st7; " /><path d=" M  641.64,  520.77  L  637.39,  516.52  L  633.14,  520.77 " style="stroke-width: 1.42 ;&st7; " /><path d=" M  641.64,  517.37  L  637.39,  513.12  L  633.14,  517.37 " style="stroke-width: 1.42 ;&st7; " /><path d=" M  684.14,  520.77  L  679.89,  516.52  L  675.64,  520.77 " style="stroke-width: 1.42 ;&st7; " /><path d=" M  684.14,  517.37  L  679.89,  513.12  L  675.64,  517.37 " style="stroke-width: 1.42 ;&st7; " /><path d=" M  726.63,  520.77  L  722.38,  516.52  L  718.13,  520.77 " style="stroke-width: 1.42 ;&st7; " /><path d=" M  726.63,  517.37  L  722.38,  513.12  L  718.13,  517.37 " style="stroke-width: 1.42 ;&st7; " /><path d=" M  641.64,  435.78  L  637.39,  431.53  L  633.14,  435.78 " style="stroke-width: 1.42 ;&st7; " /><path d=" M  641.64,  432.38  L  637.39,  428.13  L  633.14,  432.38 " style="stroke-width: 1.42 ;&st7; " /><path d=" M  684.14,  435.78  L  679.89,  431.53  L  675.64,  435.78 " style="stroke-width: 1.42 ;&st7; " /><path d=" M  684.14,  432.38  L  679.89,  428.13  L  675.64,  432.38 " style="stroke-width: 1.42 ;&st7; " /><path d=" M  726.63,  435.78  L  722.38,  431.53  L  718.13,  435.78 " style="stroke-width: 1.42 ;&st7; " /><path d=" M  726.63,  432.38  L  722.38,  428.13  L  718.13,  432.38 " style="stroke-width: 1.42 ;&st7; " /><path d=" M  807.36,  515.67  L  820.11,  515.67 " style="stroke-width: 0.85 ;&st7;stroke-dasharray:3, 1.5;" /><path d=" M  841.36,  515.67  L  854.11,  515.67 " style="stroke-width: 0.85 ;&st7;stroke-dasharray:3, 1.5;" /><path d=" M  875.35,  515.67  L  888.10,  515.67 " style="stroke-width: 0.85 ;&st7;stroke-dasharray:3, 1.5;" /><path d=" M  603.40,  562.69  C  603.40   558.00   599.59   554.19   594.90   554.19 " style="stroke-width: 1.42 ;&st7; " /><path d=" M  594.90,  554.19  C  590.21   554.19   586.40   558.00   586.40   562.69 " style="stroke-width: 1.42 ;&st7; " /><path d=" M  586.40,  579.69  C  586.40   584.38   590.21   588.19   594.90   588.19 " style="stroke-width: 1.42 ;&st7; " /><path d=" M  594.90,  588.19  C  599.59   588.19   603.40   584.38   603.40   579.69 " style="stroke-width: 1.42 ;&st7; " /><path d=" M  688.38,  562.69  C  688.38   558.00   684.58   554.19   679.89   554.19 " style="stroke-width: 1.42 ;&st7; " /><path d=" M  679.89,  554.19  C  675.19   554.19   671.39   558.00   671.39   562.69 " style="stroke-width: 1.42 ;&st7; " /><path d=" M  671.39,  579.69  C  671.39   584.38   675.19   588.19   679.89   588.19 " style="stroke-width: 1.42 ;&st7; " /><path d=" M  679.89,  588.19  C  684.58   588.19   688.38   584.38   688.38   579.69 " style="stroke-width: 1.42 ;&st7; " /><path d=" M  905.38,  515.67  C  905.38   513.16   903.35   511.13   900.85   511.13 " style="stroke-width: 1.42 ;&st7; " /><path d=" M  900.85,  511.13  C  898.35   511.13   896.32   513.16   896.32   515.67 " style="stroke-width: 1.42 ;&st7; " /><path d=" M  896.32,  515.67  C  896.32   518.17   898.35   520.20   900.85   520.20 " style="stroke-width: 1.42 ;&st7; " /><path d=" M  900.85,  520.20  C  903.35   520.20   905.38   518.17   905.38   515.67 " style="stroke-width: 1.42 ;&st7; " /><path d=" M  905.38,  506.60  C  905.38   504.10   903.35   502.07   900.85   502.07 " style="stroke-width: 1.42 ;&st7; " /><path d=" M  900.85,  502.07  C  898.35   502.07   896.32   504.10   896.32   506.60 " style="stroke-width: 1.42 ;&st7; " /><path d=" M  896.32,  506.60  C  896.32   509.10   898.35   511.13   900.85   511.13 " style="stroke-width: 1.42 ;&st7; " /><path d=" M  900.85,  511.13  C  903.35   511.13   905.38   509.10   905.38   506.60 " style="stroke-width: 1.42 ;&st7; " /><path d=" M  871.39,  515.67  C  871.39   513.16   869.36   511.13   866.86   511.13 " style="stroke-width: 1.42 ;&st7; " /><path d=" M  866.86,  511.13  C  864.35   511.13   862.32   513.16   862.32   515.67 " style="stroke-width: 1.42 ;&st7; " /><path d=" M  862.32,  515.67  C  862.32   518.17   864.35   520.20   866.86   520.20 " style="stroke-width: 1.42 ;&st7; " /><path d=" M  866.86,  520.20  C  869.36   520.20   871.39   518.17   871.39   515.67 " style="stroke-width: 1.42 ;&st7; " /><path d=" M  871.39,  506.60  C  871.39   504.10   869.36   502.07   866.86   502.07 " style="stroke-width: 1.42 ;&st7; " /><path d=" M  866.86,  502.07  C  864.35   502.07   862.32   504.10   862.32   506.60 " style="stroke-width: 1.42 ;&st7; " /><path d=" M  862.32,  506.60  C  862.32   509.10   864.35   511.13   866.86   511.13 " style="stroke-width: 1.42 ;&st7; " /><path d=" M  866.86,  511.13  C  869.36   511.13   871.39   509.10   871.39   506.60 " style="stroke-width: 1.42 ;&st7; " /><path d=" M  837.39,  515.67  C  837.39   513.16   835.36   511.13   832.86   511.13 " style="stroke-width: 1.42 ;&st7; " /><path d=" M  832.86,  511.13  C  830.36   511.13   828.33   513.16   828.33   515.67 " style="stroke-width: 1.42 ;&st7; " /><path d=" M  828.33,  515.67  C  828.33   518.17   830.36   520.20   832.86   520.20 " style="stroke-width: 1.42 ;&st7; " /><path d=" M  832.86,  520.20  C  835.36   520.20   837.39   518.17   837.39   515.67 " style="stroke-width: 1.42 ;&st7; " /><path d=" M  837.39,  506.60  C  837.39   504.10   835.36   502.07   832.86   502.07 " style="stroke-width: 1.42 ;&st7; " /><path d=" M  832.86,  502.07  C  830.36   502.07   828.33   504.10   828.33   506.60 " style="stroke-width: 1.42 ;&st7; " /><path d=" M  828.33,  506.60  C  828.33   509.10   830.36   511.13   832.86   511.13 " style="stroke-width: 1.42 ;&st7; " /><path d=" M  832.86,  511.13  C  835.36   511.13   837.39   509.10   837.39   506.60 " style="stroke-width: 1.42 ;&st7; " /><path d=" M  803.40,  515.67  C  803.40   513.16   801.37   511.13   798.87   511.13 " style="stroke-width: 1.42 ;&st7; " /><path d=" M  798.87,  511.13  C  796.36   511.13   794.33   513.16   794.33   515.67 " style="stroke-width: 1.42 ;&st7; " /><path d=" M  794.33,  515.67  C  794.33   518.17   796.36   520.20   798.87   520.20 " style="stroke-width: 1.42 ;&st7; " /><path d=" M  798.87,  520.20  C  801.37   520.20   803.40   518.17   803.40   515.67 " style="stroke-width: 1.42 ;&st7; " /><path d=" M  803.40,  506.60  C  803.40   504.10   801.37   502.07   798.87   502.07 " style="stroke-width: 1.42 ;&st7; " /><path d=" M  798.87,  502.07  C  796.36   502.07   794.33   504.10   794.33   506.60 " style="stroke-width: 1.42 ;&st7; " /><path d=" M  794.33,  506.60  C  794.33   509.10   796.36   511.13   798.87   511.13 " style="stroke-width: 1.42 ;&st7; " /><path d=" M  798.87,  511.13  C  801.37   511.13   803.40   509.10   803.40   506.60 " style="stroke-width: 1.42 ;&st7; " /><path d=" M  603.40,  562.69  C  603.40   558.00   599.59   554.19   594.90   554.19 " style="stroke-width: 1.42 ;&st7; " /><path d=" M  594.90,  554.19  C  590.21   554.19   586.40   558.00   586.40   562.69 " style="stroke-width: 1.42 ;&st7; " /><path d=" M  586.40,  579.69  C  586.40   584.38   590.21   588.19   594.90   588.19 " style="stroke-width: 1.42 ;&st7; " /><path d=" M  594.90,  588.19  C  599.59   588.19   603.40   584.38   603.40   579.69 " style="stroke-width: 1.42 ;&st7; " /><path d=" M  592.37,  568.71  C  593.74   570.11   595.98   570.13   597.38   568.76 " style="stroke-width: 0.85 ;&st7; " /><path d=" M  597.38,  568.76  C  598.78   567.39   598.80   565.15   597.43   563.75 " style="stroke-width: 0.85 ;&st7; " /><path d=" M  597.43,  563.75  C  596.74   563.05   595.89   562.69   594.90   562.69 " style="stroke-width: 0.85 ;&st7; " /><path d=" M  592.37,  573.67  C  593.74   575.07   595.98   575.09   597.38   573.72 " style="stroke-width: 0.85 ;&st7; " /><path d=" M  597.38,  573.72  C  598.78   572.35   598.80   570.11   597.43   568.71 " style="stroke-width: 0.85 ;&st7; " /><path d=" M  597.43,  568.71  C  596.06   567.31   593.82   567.29   592.42   568.66 " style="stroke-width: 0.85 ;&st7; " /><path d=" M  592.42,  568.66  C  592.40   568.68   592.39   568.69   592.37   568.71 " style="stroke-width: 0.85 ;&st7; " /><path d=" M  594.90,  579.69  C  596.86   579.69   598.44   578.10   598.44   576.15 " style="stroke-width: 0.85 ;&st7; " /><path d=" M  598.44,  576.15  C  598.44   574.19   596.86   572.61   594.90   572.61 " style="stroke-width: 0.85 ;&st7; " /><path d=" M  594.90,  572.61  C  593.91   572.61   593.06   572.96   592.37   573.67 " style="stroke-width: 0.85 ;&st7; " /><path d=" M  688.38,  562.69  C  688.38   558.00   684.58   554.19   679.89   554.19 " style="stroke-width: 1.42 ;&st7; " /><path d=" M  679.89,  554.19  C  675.19   554.19   671.39   558.00   671.39   562.69 " style="stroke-width: 1.42 ;&st7; " /><path d=" M  671.39,  579.69  C  671.39   584.38   675.19   588.19   679.89   588.19 " style="stroke-width: 1.42 ;&st7; " /><path d=" M  679.89,  588.19  C  684.58   588.19   688.38   584.38   688.38   579.69 " style="stroke-width: 1.42 ;&st7; " /><path d=" M  677.36,  568.71  C  678.73   570.11   680.97   570.13   682.37   568.76 " style="stroke-width: 0.85 ;&st7; " /><path d=" M  682.37,  568.76  C  683.76   567.39   683.79   565.15   682.42   563.75 " style="stroke-width: 0.85 ;&st7; " /><path d=" M  682.42,  563.75  C  681.72   563.05   680.88   562.69   679.89   562.69 " style="stroke-width: 0.85 ;&st7; " /><path d=" M  677.36,  573.67  C  678.73   575.07   680.97   575.09   682.37   573.72 " style="stroke-width: 0.85 ;&st7; " /><path d=" M  682.37,  573.72  C  683.76   572.35   683.79   570.11   682.42   568.71 " style="stroke-width: 0.85 ;&st7; " /><path d=" M  682.42,  568.71  C  681.05   567.31   678.80   567.29   677.41   568.66 " style="stroke-width: 0.85 ;&st7; " /><path d=" M  677.41,  568.66  C  677.39   568.68   677.37   568.69   677.36   568.71 " style="stroke-width: 0.85 ;&st7; " /><path d=" M  679.89,  579.69  C  681.84   579.69   683.43   578.10   683.43   576.15 " style="stroke-width: 0.85 ;&st7; " /><path d=" M  683.43,  576.15  C  683.43   574.19   681.84   572.61   679.89   572.61 " style="stroke-width: 0.85 ;&st7; " /><path d=" M  679.89,  572.61  C  678.90   572.61   678.05   572.96   677.36   573.67 " style="stroke-width: 0.85 ;&st7; " /><text style="&st18;" transform="matrix(&st16;  852.04  441.43 )">4</text><text style="&st18;" transform="matrix(&st16;  805.12  321.04 )">27</text><text style="&st18;" transform="matrix(&st16;  818.05  441.43 )">3</text><text style="&st18;" transform="matrix(&st16;  839.11  321.04 )">30</text><text style="&st18;" transform="matrix(&st16;  873.11  321.04 )">26</text><text style="&st18;" transform="matrix(&st16;  721.76  332.37 )">BSTP</text><text style="&st18;" transform="matrix(&st16;  690.1  332.37 )">BST</text><text style="&st18;" transform="matrix(&st16;  653.0  332.37 )">PSNO</text><text style="&st18;" transform="matrix(&st16;  619.29  332.37 )">PSNC</text><text style="&st18;" transform="matrix(&st16;  588.12  332.37 )">STS</text><text style="&st18;" transform="matrix(&st16;  876.72  332.37 )">VCP</text><text style="&st18;" transform="matrix(&st16;  843.64  332.37 )">PIM</text><text style="&st18;" transform="matrix(&st16;  811.55  332.37 )">E3</text><text style="&st18;" transform="matrix(&st16;  588.12  202.05 )">STS</text><text style="&st18;" transform="matrix(&st16;  619.29  202.05 )">PSNC</text><text style="&st18;" transform="matrix(&st16;  653.0  202.05 )">PSNO</text><text style="&st18;" transform="matrix(&st16;  690.1  202.05 )">BST</text><text style="&st18;" transform="matrix(&st16;  721.76  202.05 )">BSTP</text><text style="&st18;" transform="matrix(&st16;  811.55  202.05 )">E3</text><text style="&st18;" transform="matrix(&st16;  843.64  202.05 )">PIM</text><text style="&st18;" transform="matrix(&st16;  876.72  202.05 )">VCP</text><text style="&st18;" transform="matrix(&st16;  784.05  441.43 )">5</text><text style="&st18;" transform="matrix(&st17;  897.15  407.94 )">R</text><text style="&st18;" transform="matrix(&st17;  863.16  407.8 )">B</text><text style="&st18;" transform="matrix(&st17;  829.17  408.82 )">W</text><text style="&st18;" transform="matrix(&st17;  795.17  407.8 )">P</text><text style="&st18;" transform="matrix(&st17;  506.22  73.45 )">40A ABS2</text><text style="&st18;" transform="matrix(&st17;  897.15  471.68 )">R</text><text style="&st18;" transform="matrix(&st16;  609.37  143.96 )">A20</text><text style="&st18;" transform="matrix(&st17;  812.17  269.9 )">BE</text><text ewd:textID="19" style="&st18;" transform="matrix(&st16;  609.37  151.06 )">Brake Booster Assembly</text><text style="&st18;" transform="matrix(&st17;  846.16  267.71 )">R</text><text style="&st18;" transform="matrix(&st17;  880.16  268.0 )">G</text><text style="&st18;" transform="matrix(&st17;  591.21  269.9 )">SB</text><text style="&st18;" transform="matrix(&st17;  625.2  267.22 )">L</text><text style="&st18;" transform="matrix(&st17;  659.19  269.97 )">LG</text><text style="&st18;" transform="matrix(&st17;  693.19  267.57 )">B</text><text style="&st18;" transform="matrix(&st17;  727.18  267.57 )">V</text><text style="&st18;" transform="matrix(&st17;  863.16  471.54 )">B</text><text style="&st18;" transform="matrix(&st17;  829.17  472.56 )">W</text><text style="&st18;" transform="matrix(&st16;  788.09  372.03 )">GYAW</text><text style="&st18;" transform="matrix(&st16;  826.22  372.03 )">SS2</text><text style="&st18;" transform="matrix(&st16;  860.6  372.03 )">SS1</text><text style="&st18;" transform="matrix(&st16;  893.86  372.03 )">VYS</text><text style="&st18;" transform="matrix(&st17;  795.17  471.96 )">G</text><text style="&st18;" transform="matrix(&st16;  588.44  372.03 )">RL+</text><text style="&st18;" transform="matrix(&st17;  591.2  398.95 )">L</text><text style="&st18;" transform="matrix(&st16;  584.16  383.92 )">36</text><text style="&st18;" transform="matrix(&st16;  580.09  466.93 )">8</text><text style="&st18;" transform="matrix(&st16;  622.58  466.93 )">7</text><text style="&st18;" transform="matrix(&st16;  626.65  383.92 )">37</text><text style="&st18;" transform="matrix(&st16;  588.89  596.38 )">1</text><text style="&st18;" transform="matrix(&st16;  588.11  550.5 )">2</text><text style="&st18;" transform="matrix(&st16;  630.93  372.03 )">RL-</text><text style="&st18;" transform="matrix(&st17;  633.7  399.3 )">P</text><text ewd:textID="28" style="&st18;" transform="matrix(&st17;  618.12  590.71 )">Rear Speed Sensor LH</text><text style="&st18;" transform="matrix(&st17;  611.01  590.71 )">z6</text><text style="&st18;" transform="matrix(&st17;  591.2  492.43 )">L</text><text style="&st18;" transform="matrix(&st17;  633.7  492.93 )">R</text><text style="&st18;" transform="matrix(&st16;  672.93  372.03 )">RR+</text><text style="&st18;" transform="matrix(&st17;  676.19  399.3 )">B</text><text style="&st18;" transform="matrix(&st16;  669.14  383.92 )">43</text><text style="&st18;" transform="matrix(&st16;  665.07  466.93 )">3</text><text style="&st18;" transform="matrix(&st16;  707.57  466.93 )">2</text><text style="&st18;" transform="matrix(&st16;  711.63  383.92 )">42</text><text style="&st18;" transform="matrix(&st16;  673.87  596.38 )">1</text><text style="&st18;" transform="matrix(&st16;  673.1  550.5 )">2</text><text style="&st18;" transform="matrix(&st16;  715.42  372.03 )">RR-</text><text style="&st18;" transform="matrix(&st17;  718.68  400.32 )">W</text><text ewd:textID="29" style="&st18;" transform="matrix(&st17;  703.1  590.71 )">Rear Speed Sensor RH</text><text style="&st18;" transform="matrix(&st17;  696.0  590.71 )">z5</text><text style="&st18;" transform="matrix(&st17;  676.19  492.78 )">B</text><text style="&st18;" transform="matrix(&st17;  718.68  493.81 )">W</text><text style="&st18;" transform="matrix(&st17;  591.2  445.69 )">L</text><text style="&st18;" transform="matrix(&st17;  633.7  446.04 )">P</text><text style="&st18;" transform="matrix(&st17;  676.19  448.51 )">BR</text><text style="&st18;" transform="matrix(&st17;  718.68  448.94 )">GR</text><text style="&st18;" transform="matrix(&st16;  933.37  383.92 )">16</text><text style="&st18;" transform="matrix(&st17;  939.65  413.17 )">W-B</text><text style="&st18;" transform="matrix(&st16;  934.05  372.03 )">GND1</text><text style="&st18;" transform="matrix(&st17;  939.65  604.39 )">W-B</text><text style="&st18;" transform="matrix(&st16;  886.04  441.43 )">2</text><text style="&st18;" transform="matrix(&st16;  893.86  527.83 )">VYS</text><text style="&st18;" transform="matrix(&st16;  857.25  527.83 )">YAW1</text><text style="&st18;" transform="matrix(&st16;  822.86  527.83 )">YAW2</text><text style="&st18;" transform="matrix(&st16;  788.09  527.83 )">GYAW</text><text ewd:textID="35" style="&st18;" transform="matrix(&st16;  804.84  585.91 )">Yaw Rate Sensor Assembly</text><text style="&st18;" transform="matrix(&st16;  804.84  578.8 )">O11(A),O12(B)</text><text style="&st18;" transform="matrix(&st16;  906.82  517.64 )">(2WD)</text><text style="&st18;" transform="matrix(&st16;  889.97  517.64 )">3</text><text style="&st18;" transform="matrix(&st16;  898.52  517.64 )">A</text><text style="&st18;" transform="matrix(&st16;  906.82  508.57 )">(4WD)</text><text style="&st18;" transform="matrix(&st16;  889.97  508.57 )">3</text><text style="&st18;" transform="matrix(&st16;  898.52  508.57 )">B</text><text style="&st18;" transform="matrix(&st16;  855.98  517.64 )">2</text><text style="&st18;" transform="matrix(&st16;  864.52  517.64 )">A</text><text style="&st18;" transform="matrix(&st16;  855.98  508.57 )">2</text><text style="&st18;" transform="matrix(&st16;  864.52  508.57 )">B</text><text style="&st18;" transform="matrix(&st16;  822.76  517.64 )">1</text><text style="&st18;" transform="matrix(&st16;  830.53  517.64 )">A</text><text style="&st18;" transform="matrix(&st16;  822.76  508.57 )">1</text><text style="&st18;" transform="matrix(&st16;  830.53  508.57 )">B</text><text style="&st18;" transform="matrix(&st16;  787.99  517.64 )">5</text><text style="&st18;" transform="matrix(&st16;  796.54  517.64 )">A</text><text style="&st18;" transform="matrix(&st16;  787.99  508.57 )">5</text><text style="&st18;" transform="matrix(&st16;  796.54  508.57 )">B</text><text ewd:textID="5" style="&st18;" transform="matrix(&st16;  575.38  63.24 )">* 5 :Before Nov. 2009 Production</text><text ewd:textID="6" style="&st18;" transform="matrix(&st16;  575.38  71.74 )">* 6 :Before Aug. 2010 Production</text><text ewd:textID="7" style="&st18;" transform="matrix(&st16;  575.38  80.24 )">* 7 :From Aug. 2010 Production</text><text style="&st18;" transform="matrix(&st16;  890.1  383.92 )">22</text><text style="&st18;" transform="matrix(&st16;  856.89  383.92 )">18</text><text style="&st18;" transform="matrix(&st16;  822.89  383.92 )">19</text><text style="&st18;" transform="matrix(&st16;  788.12  383.92 )">29</text><text style="&st18;" transform="matrix(&st16;  584.93  321.04 )">21</text><text style="&st18;" transform="matrix(&st16;  618.15  321.04 )">23</text><text style="&st18;" transform="matrix(&st16;  652.14  321.04 )">24</text><text style="&st18;" transform="matrix(&st16;  686.92  321.04 )">31</text><text style="&st18;" transform="matrix(&st16;  720.91  321.04 )">17</text><text ewd:textID="15" style="&st18;" transform="matrix(&st16;  779.34  350.78 )">ABS and Traction Actuator Assembly</text><text style="&st18;" transform="matrix(&st16;  779.34  343.67 )">A19</text><text style="&st18;" transform="matrix(&st16;  534.37  652.48 )">W(*6)</text><text style="&st18;" transform="matrix(&st16;  534.97  669.48 )">G(*6)</text><text ewd:textID="19" style="&st18;" transform="matrix(&st16;  804.84  151.06 )">Brake Booster Assembly</text><text style="&st18;" transform="matrix(&st16;  804.84  143.96 )">A21</text><text style="&st18;" transform="matrix(&st16;  588.11  213.94 )">5</text><text style="&st18;" transform="matrix(&st16;  622.11  213.94 )">2</text><text style="&st18;" transform="matrix(&st16;  656.88  213.94 )">1</text><text style="&st18;" transform="matrix(&st16;  690.09  213.94 )">3</text><text style="&st18;" transform="matrix(&st16;  724.09  213.94 )">4</text><text style="&st18;" transform="matrix(&st16;  809.07  213.94 )">3</text><text style="&st18;" transform="matrix(&st16;  843.07  213.94 )">5</text><text style="&st18;" transform="matrix(&st16;  877.84  213.94 )">1</text><text style="&st18;" transform="matrix(&st16;  580.09  509.42 )">2</text><text style="&st18;" transform="matrix(&st16;  623.36  509.42 )">1</text><text style="&st18;" transform="matrix(&st16;  665.07  509.42 )">2</text><text style="&st18;" transform="matrix(&st16;  708.34  509.42 )">1</text><text style="&st18;" transform="matrix(&st17;  591.2  536.3 )">W</text><text style="&st18;" transform="matrix(&st17;  633.7  535.28 )">B</text><text style="&st18;" transform="matrix(&st17;  676.19  536.3 )">W</text><text style="&st18;" transform="matrix(&st17;  718.68  535.28 )">B</text><text style="&st18;" transform="matrix(&st16;  580.09  424.43 )">8</text><text style="&st18;" transform="matrix(&st16;  622.58  424.43 )">7</text><text style="&st18;" transform="matrix(&st16;  661.89  424.43 )">10</text><text style="&st18;" transform="matrix(&st16;  707.57  424.43 )">9</text><text ewd:textID="3" style="&st18;" transform="matrix(&st16;  575.38  46.25 )">* 3 :Before Apr. 2009 Production</text><text ewd:textID="4" style="&st18;" transform="matrix(&st16;  575.38  54.75 )">* 4 :From Apr. 2009 Production</text><text style="&st18;" transform="matrix(&st16;  534.37  618.48 )">W(*7)</text><text style="&st18;" transform="matrix(&st16;  534.97  635.48 )">G(*7)</text></svg>