﻿<?xml version="1.0" encoding="utf-8"?>
<!DOCTYPE svg PUBLIC "-//W3C//DTD SVG 1.0//EN" "http://www.w3.org/TR/2001/REC-SVG-20010904/DTD/svg10.dtd"[
	<!ENTITY ns_flows "http://ns.adobe.com/Flows/1.0/">
	<!ENTITY ns_svg "http://www.w3.org/2000/svg">
	<!ENTITY ns_xlink "http://www.w3.org/1999/xlink">
	<!ENTITY st0 "font-size:7px;font-family:'MS-PGothic';adobe-font-script:japanese;">
	<!ENTITY st1 "font-size:6px;font-family:'ArialMT';">
	<!-- White fill  -->
	<!ENTITY st2 "fill:#FFFFFF;stroke:#000000; stroke-width:1.41;stroke-linecap:round;stroke-linejoin:round;">
	<!-- Yellow fill  -->
	<!ENTITY st3 "fill:#FFFFCC;stroke:#FFFFCC; stroke-width:0.1;stroke-linecap:round;stroke-linejoin:round;">
	<!-- Gray fill  -->
	<!ENTITY st4 "fill:#CCCCCC;stroke:#CCCCCC; stroke-width:0.1;stroke-linecap:round;stroke-linejoin:round;">
	<!-- Light-blue fill -->
	<!ENTITY st5 "fill:#CCECF4;stroke:#000000; stroke-width:1.133;stroke-linecap:round;stroke-linejoin:round;">
	<!ENTITY st6 "fill:none;stroke-linecap:butt; stroke-linejoin:round;">
	<!ENTITY st7 "fill:none;stroke:#000000;stroke-linecap:round;stroke-linejoin:round;">
	<!ENTITY st8 "enable-background:new    ;">
	<!-- Black fill -->
	<!ENTITY st9 "fill:#000000;stroke:#000000; stroke-linecap:round;stroke-linejoin:round;">
	<!-- SRS note   -->
	<!ENTITY st10 "font-size:9px;font-family:'ArialMT';">
	<!ENTITY st11 "font-size:9px;font-family:'Svg Symbol';">
	<!ENTITY st12 "font-size:6px;font-family:'Svg Symbol';">
	<!ENTITY st13 "fill:none;stroke:#ff0000;stroke-linecap:round;stroke-linejoin:round;">
	<!-- Yellow fill  -->
	<!ENTITY st14 "fill:#FFFF00;stroke:#FFFF00; stroke-width:0.1;stroke-linecap:round;stroke-linejoin:round;">
	<!ENTITY st15 "font-size:6px;font-family:'MS-PGothic';adobe-font-script:japanese;">
	<!ENTITY st16 "1.00 0.00 0.00 1.00">
	<!ENTITY st17 "0.00 -1.00 1.00 0.00">
	<!ENTITY st18 "font-size:6px;font-family:'Arial';">
	<!ENTITY st19 "font-size:9px;font-family:'Arial';">
	<!ENTITY st20 "font-size:6px;font-family:'MS-PGothic','MS PGothic';adobe-font-script:japanese;">
	<!ENTITY st21 "font-size:7px;font-family:'MS-PGothic','MS PGothic';adobe-font-script:japanese;">
	<!ATTLIST svg
		xmlns:ewd CDATA #FIXED "http://shcl.co.jp/ewd"
		xmlns:a CDATA #FIXED "http://ns.adobe.com/AdobeSVGViewerExtensions/3.0/"
		ewd:ver CDATA #IMPLIED
	>
	<!ATTLIST a
		ewd:lineID CDATA #IMPLIED
		ewd:groupID CDATA #IMPLIED
		ewd:figtype CDATA #IMPLIED
		ewd:code CDATA #IMPLIED
		ewd:figID CDATA #IMPLIED
		ewd:pinNo CDATA #IMPLIED
		ewd:comment CDATA #IMPLIED >
	<!ATTLIST g
		ewd:lineID CDATA #IMPLIED
		ewd:groupID CDATA #IMPLIED
		ewd:figtype CDATA #IMPLIED
		ewd:code CDATA #IMPLIED
		ewd:figID CDATA #IMPLIED
		ewd:pinNo CDATA #IMPLIED
		ewd:comment CDATA #IMPLIED >
	<!ATTLIST text
		ewd:textID CDATA #IMPLIED >
	<!ATTLIST title
		ewd:textID CDATA #IMPLIED >
]>
<!-- Generator: Shintec Hozumi YS   -->
<svg onload="call_execInitLoadProc_svg('system')" style="overflow:visible;  enable-background:new 0 0 4629.404 710.000" viewBox="0 0 4629.404 710.000" height="710.000" width="4629.404" xml:space="preserve" ewd:ver="L2.1.2.7" xmlns="&ns_svg;" xmlns:a="http://ns.adobe.com/AdobeSVGViewerExtensions/3.0/" xmlns:ewd="http://shcl.co.jp/ewd" xmlns:xlink="&ns_xlink;">
<path d=" M 2524.08,  350.23  L 2515.58,  350.23 " style="stroke-width: 1.42 ;&st7; " /><path d=" M 2634.56,  392.72  L 2643.06,  392.72 " style="stroke-width: 1.42 ;&st7; " /><path d=" M 2685.55,  392.72  L 2694.05,  392.72 " style="stroke-width: 1.42 ;&st7; " /><path d=" M 2651.56,  545.69  L 2643.06,  545.69 " style="stroke-width: 1.42 ;&st7; " /><path d=" M 2702.55,  545.69  L 2694.05,  545.69 " style="stroke-width: 1.42 ;&st7; " /><path d=" M 2519.83,  359.29  L 2515.58,  355.04  L 2511.33,  359.29 " style="stroke-width: 1.42 ;&st7; " /><path d=" M 2519.83,  355.89  L 2515.58,  351.64  L 2511.33,  355.89 " style="stroke-width: 1.42 ;&st7; " /><path d=" M 2804.53,  418.22  L 2915.01,  418.22  L 2915.01,  443.71  L 2804.53,  443.71  L 2804.53,  418.22 " style="stroke-width: 1.42 ;&st7; " /><path d=" M 2626.06,  350.23  L 2711.05,  350.23  L 2711.05,  316.23  L 2626.06,  316.23  L 2626.06,  350.23 " style="stroke-width: 1.42 ;&st7; " /><path d=" M 2698.30,  551.36  L 2694.05,  547.11  L 2689.80,  551.36 " style="stroke-width: 1.42 ;&st7; " /><path d=" M 2845.83,  434.21  L 2845.56,  434.68  L 2845.47,  435.21  L 2845.56,  435.75  L 2845.83,  436.22  L 2846.24,  436.56  L 2846.75,  436.75  L 2847.30,  436.75  L 2847.80,  436.56  L 2848.22,  436.22  L 2848.49,  435.75  L 2848.58,  435.21  L 2848.49,  434.68  L 2848.22,  434.21  L 2847.80,  433.86  L 2847.30,  433.68  L 2846.75,  433.68  L 2846.24,  433.86  L 2845.83,  434.21  L 2846.22,  434.92  L 2846.22,  435.50  L 2846.60,  435.95  L 2847.17,  436.05  L 2847.67,  435.76  L 2847.87,  435.21  L 2847.67,  434.67  L 2847.17,  434.38  L 2846.60,  434.48  L 2847.02,  435.21 " style="stroke-width: 0.85 ;&st7; " /><path d=" M 2811.84,  425.71  L 2811.56,  426.18  L 2811.47,  426.71  L 2811.56,  427.25  L 2811.84,  427.72  L 2812.25,  428.06  L 2812.76,  428.25  L 2813.30,  428.25  L 2813.81,  428.06  L 2814.22,  427.72  L 2814.49,  427.25  L 2814.59,  426.71  L 2814.49,  426.18  L 2814.22,  425.71  L 2813.81,  425.37  L 2813.30,  425.18  L 2812.76,  425.18  L 2812.25,  425.37  L 2811.84,  425.71  L 2812.23,  426.42  L 2812.23,  427.01  L 2812.60,  427.45  L 2813.18,  427.55  L 2813.68,  427.26  L 2813.88,  426.71  L 2813.68,  426.17  L 2813.18,  425.88  L 2812.60,  425.98  L 2813.03,  426.71 " style="stroke-width: 0.85 ;&st7; " /><path d=" M 2847.02,  571.19  L 2847.02,  588.19 " style="stroke-width: 0.85 ;&st7; " /><path d=" M 2813.03,  588.19  L 2762.04,  588.19  L 2762.04,  596.69 " style="stroke-width: 0.85 ;&st7; " /><path d=" M 2847.02,  579.69  L 2728.04,  579.69  L 2728.04,  596.69 " style="stroke-width: 0.85 ;&st7; " /><path d=" M 2813.03,  426.71  L 2881.02,  426.71  L 2881.02,  418.22 " style="stroke-width: 0.85 ;&st7; " /><path d=" M 2847.02,  435.21  L 2906.51,  435.21  L 2906.51,  418.22 " style="stroke-width: 0.85 ;&st7; " /><path d=" M 2847.02,  443.71  L 2847.02,  418.22 " style="stroke-width: 0.85 ;&st7; " /><path d=" M 2813.03,  443.71  L 2813.03,  418.22 " style="stroke-width: 0.85 ;&st7; " /><path d=" M 2698.30,  554.76  L 2694.05,  550.51  L 2689.80,  554.76 " style="stroke-width: 1.42 ;&st7; " /><path d=" M 2719.54,  571.19  L 2719.54,  596.69  L 2855.52,  596.69  L 2855.52,  571.19  L 2719.54,  571.19 " style="stroke-width: 1.42 ;&st7; " /><path d=" M 2647.31,  554.76  L 2643.06,  550.51  L 2638.81,  554.76 " style="stroke-width: 1.42 ;&st7; " /><path d=" M 2647.31,  551.36  L 2643.06,  547.11  L 2638.81,  551.36 " style="stroke-width: 1.42 ;&st7; " /><path d=" M 2634.56,  460.71  L 2634.56,  477.71  L 2702.55,  477.71  L 2702.55,  460.71  L 2634.56,  460.71 " style="stroke-width: 1.42 ;&st7; " /><path d=" M 2643.06,  477.71  L 2643.06,  460.71 " style="stroke-width: 0.85 ;&st7; " /><path d=" M 2694.05,  477.71  L 2694.05,  460.71 " style="stroke-width: 0.85 ;&st7; " /><path d=" M 2689.80,  383.65  L 2694.05,  387.90  L 2698.30,  383.65 " style="stroke-width: 1.42 ;&st7; " /><path d=" M 2698.30,  387.05  L 2694.05,  391.30  L 2689.80,  387.05 " style="stroke-width: 1.42 ;&st7; " /><path d=" M 2647.31,  387.05  L 2643.06,  391.30  L 2638.81,  387.05 " style="stroke-width: 1.42 ;&st7; " /><path d=" M 2638.81,  383.65  L 2643.06,  387.90  L 2647.31,  383.65 " style="stroke-width: 1.42 ;&st7; " /><path d=" M 2811.84,  587.18  L 2811.56,  587.65  L 2811.47,  588.19  L 2811.56,  588.72  L 2811.84,  589.19  L 2812.25,  589.54  L 2812.76,  589.72  L 2813.30,  589.72  L 2813.81,  589.54  L 2814.22,  589.19  L 2814.49,  588.72  L 2814.59,  588.19  L 2814.49,  587.65  L 2814.22,  587.18  L 2813.81,  586.84  L 2813.30,  586.65  L 2812.76,  586.65  L 2812.25,  586.84  L 2811.84,  587.18  L 2812.23,  587.90  L 2812.23,  588.48  L 2812.60,  588.92  L 2813.18,  589.02  L 2813.68,  588.73  L 2813.88,  588.19  L 2813.68,  587.64  L 2813.18,  587.35  L 2812.60,  587.45  L 2813.03,  588.19 " style="stroke-width: 0.85 ;&st7; " /><path d=" M 2845.83,  578.69  L 2845.56,  579.16  L 2845.47,  579.69  L 2845.56,  580.22  L 2845.83,  580.69  L 2846.24,  581.04  L 2846.75,  581.22  L 2847.30,  581.22  L 2847.80,  581.04  L 2848.22,  580.69  L 2848.49,  580.22  L 2848.58,  579.69  L 2848.49,  579.16  L 2848.22,  578.69  L 2847.80,  578.34  L 2847.30,  578.15  L 2846.75,  578.15  L 2846.24,  578.34  L 2845.83,  578.69  L 2846.22,  579.40  L 2846.22,  579.98  L 2846.60,  580.43  L 2847.17,  580.52  L 2847.67,  580.24  L 2847.87,  579.69  L 2847.67,  579.14  L 2847.17,  578.85  L 2846.60,  578.95  L 2847.02,  579.69 " style="stroke-width: 0.85 ;&st7; " /><path d=" M 2847.02,  588.19  L 2847.02,  596.69 " style="stroke-width: 0.85 ;&st7; " /><path d=" M 2813.03,  596.69  L 2813.03,  571.19 " style="stroke-width: 0.85 ;&st7; " /><path d=" M 2881.02,  554.19  L 3008.50,  554.19  L 3008.50,  579.69  L 2881.02,  579.69  L 2881.02,  554.19 " style="stroke-width: 1.42 ;&st7; " /><path d=" M 2889.52,  579.69  L 2889.52,  562.69  L 3000.00,  562.69 " style="stroke-width: 0.85 ;&st7; " /><path d=" M 2923.51,  579.69  L 2923.51,  571.19  L 2966.00,  571.19 " style="stroke-width: 0.85 ;&st7; " /><path d=" M 2966.00,  554.19  L 2966.00,  579.69 " style="stroke-width: 0.85 ;&st7; " /><path d=" M 2964.81,  570.19  L 2964.54,  570.66  L 2964.45,  571.19  L 2964.54,  571.72  L 2964.81,  572.19  L 2965.22,  572.54  L 2965.73,  572.73  L 2966.27,  572.73  L 2966.78,  572.54  L 2967.20,  572.19  L 2967.47,  571.72  L 2967.56,  571.19  L 2967.47,  570.66  L 2967.20,  570.19  L 2966.78,  569.84  L 2966.27,  569.65  L 2965.73,  569.65  L 2965.22,  569.84  L 2964.81,  570.19  L 2965.20,  570.90  L 2965.20,  571.48  L 2965.58,  571.93  L 2966.15,  572.03  L 2966.65,  571.74  L 2966.85,  571.19  L 2966.65,  570.64  L 2966.15,  570.35  L 2965.58,  570.45  L 2966.00,  571.19 " style="stroke-width: 0.85 ;&st7; " /><path d=" M 2998.80,  561.69  L 2998.53,  562.16  L 2998.44,  562.69  L 2998.53,  563.22  L 2998.80,  563.69  L 2999.22,  564.04  L 2999.73,  564.23  L 3000.27,  564.23  L 3000.78,  564.04  L 3001.19,  563.69  L 3001.46,  563.22  L 3001.56,  562.69  L 3001.46,  562.16  L 3001.19,  561.69  L 3000.78,  561.34  L 3000.27,  561.16  L 2999.73,  561.16  L 2999.22,  561.34  L 2998.80,  561.69  L 2999.20,  562.40  L 2999.20,  562.98  L 2999.57,  563.43  L 3000.14,  563.53  L 3000.65,  563.24  L 3000.85,  562.69  L 3000.65,  562.14  L 3000.14,  561.86  L 2999.57,  561.95  L 3000.00,  562.69 " style="stroke-width: 0.85 ;&st7; " /><path d=" M 2974.50,  584.22  L 2983.00,  584.22 " style="stroke-width: 0.85 ;&st7;stroke-dasharray:3, 1.5;" /><path d=" M 2983.00,  593.29  L 2974.50,  593.29 " style="stroke-width: 0.85 ;&st7;stroke-dasharray:3, 1.5;" /><path d=" M 2953.26,  593.29  L 2932.01,  593.29 " style="stroke-width: 0.85 ;&st7;stroke-dasharray:3, 1.5;" /><path d=" M 2932.01,  584.22  L 2953.26,  584.22 " style="stroke-width: 0.85 ;&st7;stroke-dasharray:3, 1.5;" /><path d=" M 2983.00,  549.66  L 2974.50,  549.66 " style="stroke-width: 0.85 ;&st7;stroke-dasharray:3, 1.5;" /><path d=" M 2974.50,  540.60  L 2983.00,  540.60 " style="stroke-width: 0.85 ;&st7;stroke-dasharray:3, 1.5;" /><path d=" M 2898.01,  584.22  L 2910.76,  584.22 " style="stroke-width: 0.85 ;&st7;stroke-dasharray:3, 1.5;" /><path d=" M 2910.76,  593.29  L 2898.01,  593.29 " style="stroke-width: 0.85 ;&st7;stroke-dasharray:3, 1.5;" /><path d=" M 2520.11,  295.27  C 2520.11   292.77  2518.08   290.74  2515.58   290.74 " style="stroke-width: 1.42 ;&st7; " /><path d=" M 2515.58,  290.74  C 2513.08   290.74  2511.05   292.77  2511.05   295.27 " style="stroke-width: 1.42 ;&st7; " /><path d=" M 2511.05,  295.27  C 2511.05   297.77  2513.08   299.80  2515.58   299.80 " style="stroke-width: 1.42 ;&st7; " /><path d=" M 2515.58,  299.80  C 2518.08   299.80  2520.11   297.77  2520.11   295.27 " style="stroke-width: 1.42 ;&st7; " /><path d=" M 2817.56,  601.22  C 2817.56   598.71  2815.53   596.69  2813.03   596.69 " style="stroke-width: 1.42 ;&st7; " /><path d=" M 2813.03,  596.69  C 2810.53   596.69  2808.50   598.71  2808.50   601.22 " style="stroke-width: 1.42 ;&st7; " /><path d=" M 2808.50,  601.22  C 2808.50   603.72  2810.53   605.75  2813.03   605.75 " style="stroke-width: 1.42 ;&st7; " /><path d=" M 2813.03,  605.75  C 2815.53   605.75  2817.56   603.72  2817.56   601.22 " style="stroke-width: 1.42 ;&st7; " /><path d=" M 2851.56,  601.22  C 2851.56   598.71  2849.53   596.69  2847.02   596.69 " style="stroke-width: 1.42 ;&st7; " /><path d=" M 2847.02,  596.69  C 2844.52   596.69  2842.49   598.71  2842.49   601.22 " style="stroke-width: 1.42 ;&st7; " /><path d=" M 2842.49,  601.22  C 2842.49   603.72  2844.52   605.75  2847.02   605.75 " style="stroke-width: 1.42 ;&st7; " /><path d=" M 2847.02,  605.75  C 2849.53   605.75  2851.56   603.72  2851.56   601.22 " style="stroke-width: 1.42 ;&st7; " /><path d=" M 2732.58,  601.22  C 2732.58   598.71  2730.55   596.69  2728.04   596.69 " style="stroke-width: 1.42 ;&st7; " /><path d=" M 2728.04,  596.69  C 2725.54   596.69  2723.51   598.71  2723.51   601.22 " style="stroke-width: 1.42 ;&st7; " /><path d=" M 2723.51,  601.22  C 2723.51   603.72  2725.54   605.75  2728.04   605.75 " style="stroke-width: 1.42 ;&st7; " /><path d=" M 2728.04,  605.75  C 2730.55   605.75  2732.58   603.72  2732.58   601.22 " style="stroke-width: 1.42 ;&st7; " /><path d=" M 2766.57,  601.22  C 2766.57   598.71  2764.54   596.69  2762.04   596.69 " style="stroke-width: 1.42 ;&st7; " /><path d=" M 2762.04,  596.69  C 2759.54   596.69  2757.51   598.71  2757.51   601.22 " style="stroke-width: 1.42 ;&st7; " /><path d=" M 2757.51,  601.22  C 2757.51   603.72  2759.54   605.75  2762.04   605.75 " style="stroke-width: 1.42 ;&st7; " /><path d=" M 2762.04,  605.75  C 2764.54   605.75  2766.57   603.72  2766.57   601.22 " style="stroke-width: 1.42 ;&st7; " /><path d=" M 2970.54,  549.66  C 2970.54   547.16  2968.51   545.13  2966.00   545.13 " style="stroke-width: 1.42 ;&st7; " /><path d=" M 2966.00,  545.13  C 2963.50   545.13  2961.47   547.16  2961.47   549.66 " style="stroke-width: 1.42 ;&st7; " /><path d=" M 2961.47,  549.66  C 2961.47   552.16  2963.50   554.19  2966.00   554.19 " style="stroke-width: 1.42 ;&st7; " /><path d=" M 2966.00,  554.19  C 2968.51   554.19  2970.54   552.16  2970.54   549.66 " style="stroke-width: 1.42 ;&st7; " /><path d=" M 2970.54,  540.59  C 2970.54   538.09  2968.51   536.06  2966.00   536.06 " style="stroke-width: 1.42 ;&st7; " /><path d=" M 2966.00,  536.06  C 2963.50   536.06  2961.47   538.09  2961.47   540.59 " style="stroke-width: 1.42 ;&st7; " /><path d=" M 2961.47,  540.59  C 2961.47   543.10  2963.50   545.13  2966.00   545.13 " style="stroke-width: 1.42 ;&st7; " /><path d=" M 2966.00,  545.13  C 2968.51   545.13  2970.54   543.10  2970.54   540.59 " style="stroke-width: 1.42 ;&st7; " /><path d=" M 2928.04,  584.22  C 2928.04   581.72  2926.01   579.69  2923.51   579.69 " style="stroke-width: 1.42 ;&st7; " /><path d=" M 2923.51,  579.69  C 2921.01   579.69  2918.98   581.72  2918.98   584.22 " style="stroke-width: 1.42 ;&st7; " /><path d=" M 2918.98,  584.22  C 2918.98   586.72  2921.01   588.75  2923.51   588.75 " style="stroke-width: 1.42 ;&st7; " /><path d=" M 2923.51,  588.75  C 2926.01   588.75  2928.04   586.72  2928.04   584.22 " style="stroke-width: 1.42 ;&st7; " /><path d=" M 2928.04,  593.29  C 2928.04   590.78  2926.01   588.75  2923.51   588.75 " style="stroke-width: 1.42 ;&st7; " /><path d=" M 2923.51,  588.75  C 2921.01   588.75  2918.98   590.78  2918.98   593.29 " style="stroke-width: 1.42 ;&st7; " /><path d=" M 2918.98,  593.29  C 2918.98   595.79  2921.01   597.82  2923.51   597.82 " style="stroke-width: 1.42 ;&st7; " /><path d=" M 2923.51,  597.82  C 2926.01   597.82  2928.04   595.79  2928.04   593.29 " style="stroke-width: 1.42 ;&st7; " /><path d=" M 2970.54,  584.22  C 2970.54   581.72  2968.51   579.69  2966.00   579.69 " style="stroke-width: 1.42 ;&st7; " /><path d=" M 2966.00,  579.69  C 2963.50   579.69  2961.47   581.72  2961.47   584.22 " style="stroke-width: 1.42 ;&st7; " /><path d=" M 2961.47,  584.22  C 2961.47   586.72  2963.50   588.75  2966.00   588.75 " style="stroke-width: 1.42 ;&st7; " /><path d=" M 2966.00,  588.75  C 2968.51   588.75  2970.54   586.72  2970.54   584.22 " style="stroke-width: 1.42 ;&st7; " /><path d=" M 2970.54,  593.29  C 2970.54   590.78  2968.51   588.75  2966.00   588.75 " style="stroke-width: 1.42 ;&st7; " /><path d=" M 2966.00,  588.75  C 2963.50   588.75  2961.47   590.78  2961.47   593.29 " style="stroke-width: 1.42 ;&st7; " /><path d=" M 2961.47,  593.29  C 2961.47   595.79  2963.50   597.82  2966.00   597.82 " style="stroke-width: 1.42 ;&st7; " /><path d=" M 2966.00,  597.82  C 2968.51   597.82  2970.54   595.79  2970.54   593.29 " style="stroke-width: 1.42 ;&st7; " /><path d=" M 2995.47,  549.66  C 2995.47   552.16  2997.50   554.19  3000.00   554.19 " style="stroke-width: 1.42 ;&st7; " /><path d=" M 2995.47,  540.59  C 2995.47   543.10  2997.50   545.13  3000.00   545.13 " style="stroke-width: 1.42 ;&st7; " /><path d=" M 2995.47,  584.22  C 2995.47   586.72  2997.50   588.75  3000.00   588.75 " style="stroke-width: 1.42 ;&st7; " /><path d=" M 2995.47,  593.29  C 2995.47   595.79  2997.50   597.82  3000.00   597.82 " style="stroke-width: 1.42 ;&st7; " /><path d=" M 2894.05,  584.22  C 2894.05   581.72  2892.02   579.69  2889.52   579.69 " style="stroke-width: 1.42 ;&st7; " /><path d=" M 2889.52,  579.69  C 2887.01   579.69  2884.98   581.72  2884.98   584.22 " style="stroke-width: 1.42 ;&st7; " /><path d=" M 2884.98,  584.22  C 2884.98   586.72  2887.01   588.75  2889.52   588.75 " style="stroke-width: 1.42 ;&st7; " /><path d=" M 2889.52,  588.75  C 2892.02   588.75  2894.05   586.72  2894.05   584.22 " style="stroke-width: 1.42 ;&st7; " /><path d=" M 2894.05,  593.29  C 2894.05   590.78  2892.02   588.75  2889.52   588.75 " style="stroke-width: 1.42 ;&st7; " /><path d=" M 2889.52,  588.75  C 2887.01   588.75  2884.98   590.78  2884.98   593.29 " style="stroke-width: 1.42 ;&st7; " /><path d=" M 2884.98,  593.29  C 2884.98   595.79  2887.01   597.82  2889.52   597.82 " style="stroke-width: 1.42 ;&st7; " /><path d=" M 2889.52,  597.82  C 2892.02   597.82  2894.05   595.79  2894.05   593.29 " style="stroke-width: 1.42 ;&st7; " /><path d=" M 2851.56,  295.27  C 2851.56   292.77  2849.53   290.74  2847.02   290.74 " style="stroke-width: 1.42 ;&st7; " /><path d=" M 2847.02,  290.74  C 2844.52   290.74  2842.49   292.77  2842.49   295.27 " style="stroke-width: 1.42 ;&st7; " /><path d=" M 2842.49,  295.27  C 2842.49   297.77  2844.52   299.80  2847.02   299.80 " style="stroke-width: 1.42 ;&st7; " /><path d=" M 2847.02,  299.80  C 2849.53   299.80  2851.56   297.77  2851.56   295.27 " style="stroke-width: 1.42 ;&st7; " /><path d=" M 2817.56,  295.27  C 2817.56   292.77  2815.53   290.74  2813.03   290.74 " style="stroke-width: 1.42 ;&st7; " /><path d=" M 2813.03,  290.74  C 2810.53   290.74  2808.50   292.77  2808.50   295.27 " style="stroke-width: 1.42 ;&st7; " /><path d=" M 2808.50,  295.27  C 2808.50   297.77  2810.53   299.80  2813.03   299.80 " style="stroke-width: 1.42 ;&st7; " /><path d=" M 2813.03,  299.80  C 2815.53   299.80  2817.56   297.77  2817.56   295.27 " style="stroke-width: 1.42 ;&st7; " /><path d=" M 2817.56,  448.24  C 2817.56   445.74  2815.53   443.71  2813.03   443.71 " style="stroke-width: 1.42 ;&st7; " /><path d=" M 2813.03,  443.71  C 2810.53   443.71  2808.50   445.74  2808.50   448.24 " style="stroke-width: 1.42 ;&st7; " /><path d=" M 2808.50,  448.24  C 2808.50   450.75  2810.53   452.78  2813.03   452.78 " style="stroke-width: 1.42 ;&st7; " /><path d=" M 2813.03,  452.78  C 2815.53   452.78  2817.56   450.75  2817.56   448.24 " style="stroke-width: 1.42 ;&st7; " /><path d=" M 2851.56,  448.24  C 2851.56   445.74  2849.53   443.71  2847.02   443.71 " style="stroke-width: 1.42 ;&st7; " /><path d=" M 2847.02,  443.71  C 2844.52   443.71  2842.49   445.74  2842.49   448.24 " style="stroke-width: 1.42 ;&st7; " /><path d=" M 2842.49,  448.24  C 2842.49   450.75  2844.52   452.78  2847.02   452.78 " style="stroke-width: 1.42 ;&st7; " /><path d=" M 2847.02,  452.78  C 2849.53   452.78  2851.56   450.75  2851.56   448.24 " style="stroke-width: 1.42 ;&st7; " /><path d=" M 2817.56,  413.68  C 2817.56   411.18  2815.53   409.15  2813.03   409.15 " style="stroke-width: 1.42 ;&st7; " /><path d=" M 2813.03,  409.15  C 2810.53   409.15  2808.50   411.18  2808.50   413.68 " style="stroke-width: 1.42 ;&st7; " /><path d=" M 2808.50,  413.68  C 2808.50   416.19  2810.53   418.22  2813.03   418.22 " style="stroke-width: 1.42 ;&st7; " /><path d=" M 2813.03,  418.22  C 2815.53   418.22  2817.56   416.19  2817.56   413.68 " style="stroke-width: 1.42 ;&st7; " /><path d=" M 2851.56,  413.68  C 2851.56   411.18  2849.53   409.15  2847.02   409.15 " style="stroke-width: 1.42 ;&st7; " /><path d=" M 2847.02,  409.15  C 2844.52   409.15  2842.49   411.18  2842.49   413.68 " style="stroke-width: 1.42 ;&st7; " /><path d=" M 2842.49,  413.68  C 2842.49   416.19  2844.52   418.22  2847.02   418.22 " style="stroke-width: 1.42 ;&st7; " /><path d=" M 2847.02,  418.22  C 2849.53   418.22  2851.56   416.19  2851.56   413.68 " style="stroke-width: 1.42 ;&st7; " /><path d=" M 2885.55,  413.68  C 2885.55   411.18  2883.52   409.15  2881.02   409.15 " style="stroke-width: 1.42 ;&st7; " /><path d=" M 2881.02,  409.15  C 2878.52   409.15  2876.49   411.18  2876.49   413.68 " style="stroke-width: 1.42 ;&st7; " /><path d=" M 2876.49,  413.68  C 2876.49   416.19  2878.52   418.22  2881.02   418.22 " style="stroke-width: 1.42 ;&st7; " /><path d=" M 2881.02,  418.22  C 2883.52   418.22  2885.55   416.19  2885.55   413.68 " style="stroke-width: 1.42 ;&st7; " /><path d=" M 2911.05,  413.68  C 2911.05   411.18  2909.02   409.15  2906.51   409.15 " style="stroke-width: 1.42 ;&st7; " /><path d=" M 2906.51,  409.15  C 2904.01   409.15  2901.98   411.18  2901.98   413.68 " style="stroke-width: 1.42 ;&st7; " /><path d=" M 2901.98,  413.68  C 2901.98   416.19  2904.01   418.22  2906.51   418.22 " style="stroke-width: 1.42 ;&st7; " /><path d=" M 2906.51,  418.22  C 2909.02   418.22  2911.05   416.19  2911.05   413.68 " style="stroke-width: 1.42 ;&st7; " /><path d=" M 2817.56,  566.66  C 2817.56   564.15  2815.53   562.12  2813.03   562.12 " style="stroke-width: 1.42 ;&st7; " /><path d=" M 2813.03,  562.12  C 2810.53   562.12  2808.50   564.15  2808.50   566.66 " style="stroke-width: 1.42 ;&st7; " /><path d=" M 2808.50,  566.66  C 2808.50   569.16  2810.53   571.19  2813.03   571.19 " style="stroke-width: 1.42 ;&st7; " /><path d=" M 2813.03,  571.19  C 2815.53   571.19  2817.56   569.16  2817.56   566.66 " style="stroke-width: 1.42 ;&st7; " /><path d=" M 2851.56,  566.66  C 2851.56   564.15  2849.53   562.12  2847.02   562.12 " style="stroke-width: 1.42 ;&st7; " /><path d=" M 2847.02,  562.12  C 2844.52   562.12  2842.49   564.15  2842.49   566.66 " style="stroke-width: 1.42 ;&st7; " /><path d=" M 2842.49,  566.66  C 2842.49   569.16  2844.52   571.19  2847.02   571.19 " style="stroke-width: 1.42 ;&st7; " /><path d=" M 2847.02,  571.19  C 2849.53   571.19  2851.56   569.16  2851.56   566.66 " style="stroke-width: 1.42 ;&st7; " /><path d=" M 2647.59,  482.24  C 2647.59   479.73  2645.56   477.71  2643.06   477.71 " style="stroke-width: 1.42 ;&st7; " /><path d=" M 2643.06,  477.71  C 2640.56   477.71  2638.53   479.73  2638.53   482.24 " style="stroke-width: 1.42 ;&st7; " /><path d=" M 2638.53,  482.24  C 2638.53   484.74  2640.56   486.77  2643.06   486.77 " style="stroke-width: 1.42 ;&st7; " /><path d=" M 2643.06,  486.77  C 2645.56   486.77  2647.59   484.74  2647.59   482.24 " style="stroke-width: 1.42 ;&st7; " /><path d=" M 2698.58,  482.24  C 2698.58   479.73  2696.55   477.71  2694.05   477.71 " style="stroke-width: 1.42 ;&st7; " /><path d=" M 2694.05,  477.71  C 2691.55   477.71  2689.52   479.73  2689.52   482.24 " style="stroke-width: 1.42 ;&st7; " /><path d=" M 2689.52,  482.24  C 2689.52   484.74  2691.55   486.77  2694.05   486.77 " style="stroke-width: 1.42 ;&st7; " /><path d=" M 2694.05,  486.77  C 2696.55   486.77  2698.58   484.74  2698.58   482.24 " style="stroke-width: 1.42 ;&st7; " /><path d=" M 2647.59,  456.18  C 2647.59   453.67  2645.56   451.64  2643.06   451.64 " style="stroke-width: 1.42 ;&st7; " /><path d=" M 2643.06,  451.64  C 2640.56   451.64  2638.53   453.67  2638.53   456.18 " style="stroke-width: 1.42 ;&st7; " /><path d=" M 2638.53,  456.18  C 2638.53   458.68  2640.56   460.71  2643.06   460.71 " style="stroke-width: 1.42 ;&st7; " /><path d=" M 2643.06,  460.71  C 2645.56   460.71  2647.59   458.68  2647.59   456.18 " style="stroke-width: 1.42 ;&st7; " /><path d=" M 2698.58,  456.18  C 2698.58   453.67  2696.55   451.64  2694.05   451.64 " style="stroke-width: 1.42 ;&st7; " /><path d=" M 2694.05,  451.64  C 2691.55   451.64  2689.52   453.67  2689.52   456.18 " style="stroke-width: 1.42 ;&st7; " /><path d=" M 2689.52,  456.18  C 2689.52   458.68  2691.55   460.71  2694.05   460.71 " style="stroke-width: 1.42 ;&st7; " /><path d=" M 2694.05,  460.71  C 2696.55   460.71  2698.58   458.68  2698.58   456.18 " style="stroke-width: 1.42 ;&st7; " /><text style="&st18;" transform="matrix(&st16;  2508.79  389.03 )">8</text><text style="&st18;" transform="matrix(&st16;  2508.66  287.04 )">TEC</text><text style="&st18;" transform="matrix(&st16;  2513.25  297.24 )">B</text><text style="&st18;" transform="matrix(&st16;  2504.7  297.24 )">4</text><text style="&st18;" transform="matrix(&st17;  2511.88  318.7 )">R</text><text style="&st18;" transform="matrix(&st17;  2511.88  373.95 )">R</text><text style="&st18;" transform="matrix(&st16;  2518.41  400.91 )">+</text><text style="&st18;" transform="matrix(&st17;  2540.19  565.22 )">P9</text><text ewd:textID="58" style="&st18;" transform="matrix(&st17;  2547.29  565.22 )">Rear Cooling Unit Assembly</text><text style="&st18;" transform="matrix(&st16;  2632.31  358.42 )">33</text><text style="&st18;" transform="matrix(&st16;  2683.3  358.42 )">34</text><text style="&st18;" transform="matrix(&st16;  2633.31  346.53 )">CANH</text><text style="&st18;" transform="matrix(&st16;  2684.8  346.53 )">CANL</text><text ewd:textID="25" style="&st18;" transform="matrix(&st16;  2623.54  312.54 )">Combination Meter Assembly</text><text style="&st18;" transform="matrix(&st16;  2623.54  305.43 )">H37</text><text ewd:textID="1" style="&st18;" transform="matrix(&st16;  2666.03  63.24 )">* 1 :w/ Air Suspension</text><text ewd:textID="2" style="&st18;" transform="matrix(&st16;  2666.03  71.74 )">* 2 :w/o Air Suspension</text><text style="&st18;" transform="matrix(&st16;  2824.67  267.19 )">H24(A),H67(B),z13(C)</text><text ewd:textID="16" style="&st18;" transform="matrix(&st16;  2824.67  274.29 )">A/C Amplifier Assembly</text><text ewd:textID="3" style="&st18;" transform="matrix(&st16;  2666.03  80.24 )">* 3 :Before Apr. 2009 Production</text><text ewd:textID="4" style="&st18;" transform="matrix(&st16;  2666.03  88.74 )">* 4 :From Apr. 2009 Production</text><text style="&st18;" transform="matrix(&st16;  2832.97  297.24 )">12</text><text style="&st18;" transform="matrix(&st16;  2844.69  297.24 )">A</text><text style="&st18;" transform="matrix(&st16;  2837.77  287.04 )">CANL</text><text style="&st18;" transform="matrix(&st16;  2803.28  287.04 )">CANH</text><text style="&st18;" transform="matrix(&st16;  2810.7  297.24 )">A</text><text style="&st18;" transform="matrix(&st16;  2799.75  297.24 )">11</text><text style="&st18;" transform="matrix(&st16;  2802.93  450.21 )">1</text><text style="&st18;" transform="matrix(&st16;  2810.56  450.21 )">D</text><text style="&st18;" transform="matrix(&st16;  2836.15  450.21 )">2</text><text style="&st18;" transform="matrix(&st16;  2844.55  450.21 )">D</text><text style="&st18;" transform="matrix(&st16;  2802.93  415.65 )">1</text><text style="&st18;" transform="matrix(&st16;  2810.7  415.65 )">A</text><text style="&st18;" transform="matrix(&st16;  2844.69  415.65 )">A</text><text style="&st18;" transform="matrix(&st16;  2836.15  415.65 )">2</text><text style="&st18;" transform="matrix(&st16;  2870.92  415.65 )">1</text><text style="&st18;" transform="matrix(&st16;  2878.55  415.65 )">C</text><text style="&st18;" transform="matrix(&st16;  2895.64  415.65 )">2</text><text style="&st18;" transform="matrix(&st16;  2904.04  415.65 )">C</text><text style="&st18;" transform="matrix(&st16;  2802.93  568.63 )">1</text><text style="&st18;" transform="matrix(&st16;  2810.7  568.63 )">E</text><text style="&st18;" transform="matrix(&st16;  2836.15  568.63 )">2</text><text style="&st18;" transform="matrix(&st16;  2844.69  568.63 )">E</text><text style="&st18;" transform="matrix(&st17;  2877.32  361.64 )">GR(*3)</text><text style="&st18;" transform="matrix(&st17;  2902.82  359.76 )">W(*3)</text><text style="&st18;" transform="matrix(&st17;  2639.36  592.85 )">SB</text><text style="&st18;" transform="matrix(&st17;  2690.35  591.54 )">W</text><text style="&st18;" transform="matrix(&st17;  2690.35  374.83 )">W</text><text style="&st18;" transform="matrix(&st17;  2639.36  376.14 )">SB</text><text style="&st18;" transform="matrix(&st16;  2625.07  398.94 )">16</text><text style="&st18;" transform="matrix(&st16;  2676.06  398.94 )">15</text><text style="&st18;" transform="matrix(&st16;  2691.72  484.21 )">A</text><text style="&st18;" transform="matrix(&st16;  2683.17  484.21 )">8</text><text style="&st18;" transform="matrix(&st16;  2632.18  484.21 )">2</text><text style="&st18;" transform="matrix(&st16;  2640.73  484.21 )">A</text><text style="&st18;" transform="matrix(&st16;  2632.96  458.14 )">1</text><text style="&st18;" transform="matrix(&st16;  2640.73  458.14 )">A</text><text style="&st18;" transform="matrix(&st16;  2683.17  458.14 )">7</text><text style="&st18;" transform="matrix(&st16;  2691.72  458.14 )">A</text><text style="&st18;" transform="matrix(&st17;  2639.36  439.87 )">SB</text><text style="&st18;" transform="matrix(&st17;  2690.35  438.57 )">W</text><text ewd:textID="50" style="&st18;" transform="matrix(&st17;  2717.27  480.23 )">Junction <tspan dy="6" x="0">Connector</tspan></text><text style="&st18;" transform="matrix(&st17;  2710.16  480.23 )">O41(A)</text><text style="&st18;" transform="matrix(&st17;  2701.69  441.01 )">(*1)</text><text style="&st18;" transform="matrix(&st17;  2650.69  441.01 )">(*1)</text><text style="&st18;" transform="matrix(&st16;  2628.24  543.41 )">7</text><text style="&st18;" transform="matrix(&st16;  2679.24  543.41 )">6</text><text style="&st18;" transform="matrix(&st17;  2639.36  505.18 )">L</text><text style="&st18;" transform="matrix(&st17;  2650.69  508.99 )">(*1)</text><text style="&st18;" transform="matrix(&st17;  2690.35  506.56 )">W</text><text style="&st18;" transform="matrix(&st17;  2701.69  508.99 )">(*1)</text><text style="&st18;" transform="matrix(&st17;  2732.85  472.56 )">W</text><text style="&st18;" transform="matrix(&st17;  2744.18  475.39 )">(*2)</text><text style="&st18;" transform="matrix(&st17;  2605.37  473.87 )">SB</text><text style="&st18;" transform="matrix(&st17;  2616.7  475.39 )">(*2)</text><text style="&st18;" transform="matrix(&st16;  2963.67  542.56 )">A</text><text style="&st18;" transform="matrix(&st16;  2912.63  586.19 )">2</text><text style="&st18;" transform="matrix(&st16;  2921.18  586.19 )">A</text><text style="&st18;" transform="matrix(&st16;  2912.63  595.26 )">2</text><text style="&st18;" transform="matrix(&st16;  2921.18  595.26 )">B</text><text style="&st18;" transform="matrix(&st16;  2955.13  586.19 )">9</text><text style="&st18;" transform="matrix(&st16;  2963.67  586.19 )">A</text><text style="&st18;" transform="matrix(&st16;  2955.13  595.26 )">9</text><text style="&st18;" transform="matrix(&st16;  2963.67  595.26 )">B</text><text style="&st18;" transform="matrix(&st16;  2997.67  551.63 )">B</text><text style="&st18;" transform="matrix(&st16;  2985.94  551.63 )">16</text><text style="&st18;" transform="matrix(&st16;  2997.67  542.56 )">A</text><text style="&st18;" transform="matrix(&st16;  2985.94  542.56 )">16</text><text style="&st18;" transform="matrix(&st16;  2997.67  586.19 )">A</text><text style="&st18;" transform="matrix(&st16;  2985.17  586.19 )">20</text><text style="&st18;" transform="matrix(&st16;  2997.67  595.26 )">B</text><text style="&st18;" transform="matrix(&st16;  2985.17  595.26 )">20</text><text style="&st18;" transform="matrix(&st16;  2887.19  586.19 )">A</text><text style="&st18;" transform="matrix(&st16;  2875.46  586.19 )">13</text><text style="&st18;" transform="matrix(&st16;  2887.19  595.26 )">B</text><text style="&st18;" transform="matrix(&st16;  2875.46  595.26 )">13</text><text ewd:textID="12" style="&st18;" transform="matrix(&st16;  2666.03  122.73 )">*12 :Before Aug. 2012 Production</text><text ewd:textID="13" style="&st18;" transform="matrix(&st16;  2666.03  131.23 )">*13 :From Aug. 2012 Production</text><text style="&st18;" transform="matrix(&st16;  2810.56  603.19 )">H</text><text style="&st18;" transform="matrix(&st16;  2802.93  603.19 )">1</text><text style="&st18;" transform="matrix(&st16;  2836.15  603.19 )">2</text><text style="&st18;" transform="matrix(&st16;  2844.55  603.19 )">H</text><text style="&st18;" transform="matrix(&st17;  2809.34  511.85 )">R(*3)</text><text style="&st18;" transform="matrix(&st17;  2826.33  513.06 )">R(*11)</text><text style="&st18;" transform="matrix(&st17;  2843.33  512.74 )">W(*3)</text><text style="&st18;" transform="matrix(&st17;  2860.33  513.94 )">W(*11)</text><text style="&st18;" transform="matrix(&st17;  2860.33  359.76 )">W(*4)</text><text style="&st18;" transform="matrix(&st17;  2826.33  358.74 )">B(*4)</text><text style="&st18;" transform="matrix(&st17;  2843.33  359.76 )">W(*3)</text><text style="&st18;" transform="matrix(&st17;  2809.34  358.74 )">B(*3)</text><text ewd:textID="50" style="&st18;" transform="matrix(&st16;  2918.15  435.77 )">Junction Connector</text><text style="&st18;" transform="matrix(&st16;  2918.15  428.66 )">H92(A),H99(C),H100(D)</text><text style="&st18;" transform="matrix(&st17;  2885.82  617.04 )">W</text><text style="&st18;" transform="matrix(&st17;  2897.15  621.45 )">(*10)</text><text style="&st18;" transform="matrix(&st17;  2919.82  618.34 )">SB</text><text style="&st18;" transform="matrix(&st17;  2931.15  621.45 )">(*10)</text><text style="&st18;" transform="matrix(&st17;  2962.31  616.01 )">B</text><text style="&st18;" transform="matrix(&st17;  2973.64  621.45 )">(*10)</text><text style="&st18;" transform="matrix(&st16;  2717.17  603.19 )">2</text><text style="&st18;" transform="matrix(&st16;  2725.71  603.19 )">B</text><text style="&st18;" transform="matrix(&st16;  2751.94  603.19 )">1</text><text style="&st18;" transform="matrix(&st16;  2759.71  603.19 )">B</text><text ewd:textID="50" style="&st18;" transform="matrix(&st16;  2886.99  544.55 )">Junction <tspan dy="6" x="0">Connector</tspan></text><text style="&st18;" transform="matrix(&st16;  2886.99  537.44 )">H115(A),H128(B)</text><text ewd:textID="50" style="&st18;" transform="matrix(&st16;  2717.02  567.49 )">Junction Connector</text><text style="&st18;" transform="matrix(&st16;  2717.02  554.44 )">A59(H),H91(B), <tspan dy="6" x="0">H101(E)</tspan></text><text style="&st18;" transform="matrix(&st17;  2664.86  591.54 )">W</text><text style="&st18;" transform="matrix(&st17;  2676.19  595.96 )">(*10)</text><text style="&st18;" transform="matrix(&st17;  2613.87  592.85 )">SB</text><text style="&st18;" transform="matrix(&st17;  2625.2  595.96 )">(*10)</text><text style="&st18;" transform="matrix(&st17;  2701.69  594.37 )">(*9)</text><text style="&st18;" transform="matrix(&st17;  2650.69  594.37 )">(*9)</text><text style="&st18;" transform="matrix(&st17;  2758.34  626.84 )">SB</text><text style="&st18;" transform="matrix(&st17;  2769.67  628.36 )">(*9)</text><text style="&st18;" transform="matrix(&st17;  2809.33  624.51 )">B</text><text style="&st18;" transform="matrix(&st17;  2820.67  628.36 )">(*9)</text><text style="&st18;" transform="matrix(&st17;  2843.33  625.54 )">W</text><text style="&st18;" transform="matrix(&st17;  2854.66  628.36 )">(*9)</text><text ewd:textID="9" style="&st18;" transform="matrix(&st16;  2666.03  97.24 )">* 9 :Before Aug. 2010 Production</text><text ewd:textID="10" style="&st18;" transform="matrix(&st16;  2666.03  105.74 )">*10 :From Aug. 2010 Production</text><text ewd:textID="11" style="&st18;" transform="matrix(&st16;  2666.03  114.24 )">*11 :From Apr. 2009 Production until Aug. 2010 Production</text><text style="&st18;" transform="matrix(&st16;  2955.13  551.63 )">5</text><text style="&st18;" transform="matrix(&st16;  2963.67  551.63 )">B</text><text style="&st18;" transform="matrix(&st16;  2955.13  542.56 )">5</text></svg>