﻿<?xml version="1.0" encoding="utf-8"?>
<!DOCTYPE svg PUBLIC "-//W3C//DTD SVG 1.0//EN" "http://www.w3.org/TR/2001/REC-SVG-20010904/DTD/svg10.dtd"[
	<!ENTITY ns_flows "http://ns.adobe.com/Flows/1.0/">
	<!ENTITY ns_svg "http://www.w3.org/2000/svg">
	<!ENTITY ns_xlink "http://www.w3.org/1999/xlink">
	<!ENTITY st0 "font-size:7px;font-family:'MS-PGothic';adobe-font-script:japanese;">
	<!ENTITY st1 "font-size:6px;font-family:'ArialMT';">
	<!-- White fill  -->
	<!ENTITY st2 "fill:#FFFFFF;stroke:#000000; stroke-width:1.41;stroke-linecap:round;stroke-linejoin:round;">
	<!-- Yellow fill  -->
	<!ENTITY st3 "fill:#FFFFCC;stroke:#FFFFCC; stroke-width:0.1;stroke-linecap:round;stroke-linejoin:round;">
	<!-- Gray fill  -->
	<!ENTITY st4 "fill:#CCCCCC;stroke:#CCCCCC; stroke-width:0.1;stroke-linecap:round;stroke-linejoin:round;">
	<!-- Light-blue fill -->
	<!ENTITY st5 "fill:#CCECF4;stroke:#000000; stroke-width:1.133;stroke-linecap:round;stroke-linejoin:round;">
	<!ENTITY st6 "fill:none;stroke-linecap:butt; stroke-linejoin:round;">
	<!ENTITY st7 "fill:none;stroke:#000000;stroke-linecap:round;stroke-linejoin:round;">
	<!ENTITY st8 "enable-background:new    ;">
	<!-- Black fill -->
	<!ENTITY st9 "fill:#000000;stroke:#000000; stroke-linecap:round;stroke-linejoin:round;">
	<!-- SRS note   -->
	<!ENTITY st10 "font-size:9px;font-family:'ArialMT';">
	<!ENTITY st11 "font-size:9px;font-family:'Svg Symbol';">
	<!ENTITY st12 "font-size:6px;font-family:'Svg Symbol';">
	<!ENTITY st13 "fill:none;stroke:#ff0000;stroke-linecap:round;stroke-linejoin:round;">
	<!-- Yellow fill  -->
	<!ENTITY st14 "fill:#FFFF00;stroke:#FFFF00; stroke-width:0.1;stroke-linecap:round;stroke-linejoin:round;">
	<!ENTITY st15 "font-size:6px;font-family:'MS-PGothic';adobe-font-script:japanese;">
	<!ENTITY st16 "1.00 0.00 0.00 1.00">
	<!ENTITY st17 "0.00 -1.00 1.00 0.00">
	<!ENTITY st18 "font-size:6px;font-family:'Arial';">
	<!ENTITY st19 "font-size:9px;font-family:'Arial';">
	<!ENTITY st20 "font-size:6px;font-family:'MS-PGothic','MS PGothic';adobe-font-script:japanese;">
	<!ENTITY st21 "font-size:7px;font-family:'MS-PGothic','MS PGothic';adobe-font-script:japanese;">
	<!ATTLIST svg
		xmlns:ewd CDATA #FIXED "http://shcl.co.jp/ewd"
		xmlns:a CDATA #FIXED "http://ns.adobe.com/AdobeSVGViewerExtensions/3.0/"
		ewd:ver CDATA #IMPLIED
	>
	<!ATTLIST a
		ewd:lineID CDATA #IMPLIED
		ewd:groupID CDATA #IMPLIED
		ewd:figtype CDATA #IMPLIED
		ewd:code CDATA #IMPLIED
		ewd:figID CDATA #IMPLIED
		ewd:pinNo CDATA #IMPLIED
		ewd:comment CDATA #IMPLIED >
	<!ATTLIST g
		ewd:lineID CDATA #IMPLIED
		ewd:groupID CDATA #IMPLIED
		ewd:figtype CDATA #IMPLIED
		ewd:code CDATA #IMPLIED
		ewd:figID CDATA #IMPLIED
		ewd:pinNo CDATA #IMPLIED
		ewd:comment CDATA #IMPLIED >
	<!ATTLIST text
		ewd:textID CDATA #IMPLIED >
	<!ATTLIST title
		ewd:textID CDATA #IMPLIED >
]>
<!-- Generator: Shintec Hozumi YS   -->
<svg onload="call_execInitLoadProc_svg('system')" style="overflow:visible;  enable-background:new 0 0 4629.404 710.000" viewBox="0 0 4629.404 710.000" height="710.000" width="4629.404" xml:space="preserve" ewd:ver="L2.1.2.7" xmlns="&ns_svg;" xmlns:a="http://ns.adobe.com/AdobeSVGViewerExtensions/3.0/" xmlns:ewd="http://shcl.co.jp/ewd" xmlns:xlink="&ns_xlink;">
<path d=" M 1410.76,  428.13  L 1409.07,  404.01 " style="stroke-width: 1.42 ;&st7; " /><path d=" M 1461.76,  405.47  L 1461.76,  401.22 " style="stroke-width: 0.85 ;&st7; " /><path d=" M 1461.76,  435.21  L 1461.76,  430.96 " style="stroke-width: 0.85 ;&st7; " /><path d=" M 1436.26,  428.13  L 1434.57,  404.01 " style="stroke-width: 1.42 ;&st7; " /><path d=" M 1436.26,  405.47  L 1436.26,  401.22 " style="stroke-width: 0.85 ;&st7; " /><path d=" M 1436.26,  435.21  L 1436.26,  430.96 " style="stroke-width: 0.85 ;&st7; " /><path d=" M 1461.76,  428.13  L 1467.42,  405.47 " style="stroke-width: 1.42 ;&st7; " /><path d=" M 1215.30,  409.72  L 1215.30,  396.97 " style="stroke-width: 0.85 ;&st7; " /><path d=" M 1218.13,  392.72  L 1212.46,  395.55 " style="stroke-width: 0.85 ;&st7; " /><path d=" M 1212.46,  389.89  L 1218.13,  392.72 " style="stroke-width: 0.85 ;&st7; " /><path d=" M 1218.13,  387.05  L 1212.46,  389.89 " style="stroke-width: 0.85 ;&st7; " /><path d=" M 1212.46,  384.22  L 1218.13,  387.05 " style="stroke-width: 0.85 ;&st7; " /><path d=" M 1218.13,  381.39  L 1212.46,  384.22 " style="stroke-width: 0.85 ;&st7; " /><path d=" M 1215.30,  379.97  L 1218.13,  381.39 " style="stroke-width: 0.85 ;&st7; " /><path d=" M 1212.46,  395.55  L 1215.30,  396.97 " style="stroke-width: 0.85 ;&st7; " /><path d=" M 1215.30,  379.97  L 1215.30,  367.22 " style="stroke-width: 0.85 ;&st7; " /><path d=" M 1206.80,  379.97  L 1206.80,  396.97 " style="stroke-width: 0.85 ;&st7; " /><path d=" M 1223.80,  379.97  L 1223.80,  396.97 " style="stroke-width: 0.85 ;&st7; " /><path d=" M 1087.82,  460.71  L 1087.82,  447.96 " style="stroke-width: 0.85 ;&st7; " /><path d=" M 1090.65,  443.71  L 1084.99,  446.54 " style="stroke-width: 0.85 ;&st7; " /><path d=" M 1084.99,  440.88  L 1090.65,  443.71 " style="stroke-width: 0.85 ;&st7; " /><path d=" M 1090.65,  438.05  L 1084.99,  440.88 " style="stroke-width: 0.85 ;&st7; " /><path d=" M 1084.99,  435.21  L 1090.65,  438.05 " style="stroke-width: 0.85 ;&st7; " /><path d=" M 1090.65,  432.38  L 1084.99,  435.21 " style="stroke-width: 0.85 ;&st7; " /><path d=" M 1087.82,  430.96  L 1090.65,  432.38 " style="stroke-width: 0.85 ;&st7; " /><path d=" M 1084.99,  446.54  L 1087.82,  447.96 " style="stroke-width: 0.85 ;&st7; " /><path d=" M 1087.82,  430.96  L 1087.82,  418.22 " style="stroke-width: 0.85 ;&st7; " /><path d=" M 1079.32,  430.96  L 1079.32,  447.96 " style="stroke-width: 0.85 ;&st7; " /><path d=" M 1096.32,  430.96  L 1096.32,  447.96 " style="stroke-width: 0.85 ;&st7; " /><path d=" M 1308.78,  405.47  L 1308.78,  401.22 " style="stroke-width: 0.85 ;&st7; " /><path d=" M 1308.78,  435.21  L 1308.78,  430.96 " style="stroke-width: 0.85 ;&st7; " /><path d=" M 1308.78,  428.13  L 1314.45,  405.47 " style="stroke-width: 1.42 ;&st7; " /><path d=" M 1283.29,  405.47  L 1283.29,  401.22 " style="stroke-width: 0.85 ;&st7; " /><path d=" M 1283.29,  435.21  L 1283.29,  430.96 " style="stroke-width: 0.85 ;&st7; " /><path d=" M 1283.29,  428.13  L 1281.59,  404.01 " style="stroke-width: 1.42 ;&st7; " /><path d=" M 1257.79,  428.13  L 1256.10,  404.01 " style="stroke-width: 1.42 ;&st7; " /><path d=" M 1202.55,  409.72  L 1202.55,  367.22  L 1228.04,  367.22  L 1228.04,  409.72  L 1202.55,  409.72 " style="stroke-width: 1.42 ;&st7; " /><path d=" M 1215.30,  299.80  L 1215.30,  367.22 " style="stroke-width: 0.85 ;&st7; " /><path d=" M 1215.30,  409.72  L 1215.30,  452.21  L 1172.80,  452.21  L 1172.80,  299.80 " style="stroke-width: 0.85 ;&st7; " /><path d=" M 1075.07,  460.71  L 1075.07,  418.22  L 1100.57,  418.22  L 1100.57,  460.71  L 1075.07,  460.71 " style="stroke-width: 1.42 ;&st7; " /><path d=" M 1283.29,  452.21  L 1282.86,  451.47  L 1283.43,  451.37  L 1283.94,  451.66  L 1284.13,  452.21  L 1283.94,  452.76  L 1283.43,  453.05  L 1282.86,  452.95  L 1282.49,  452.50  L 1282.49,  451.92  L 1282.09,  451.21  L 1282.51,  450.86  L 1283.01,  450.67  L 1283.56,  450.67  L 1284.06,  450.86  L 1284.48,  451.21  L 1284.75,  451.68  L 1284.84,  452.21  L 1284.75,  452.74  L 1284.48,  453.21  L 1284.06,  453.56  L 1283.56,  453.75  L 1283.01,  453.75  L 1282.51,  453.56  L 1282.09,  453.21  L 1281.82,  452.74  L 1281.73,  452.21  L 1281.82,  451.68  L 1282.09,  451.21 " style="stroke-width: 0.85 ;&st7; " /><path d=" M 1240.79,  384.22  L 1376.77,  384.22 " style="stroke-width: 1.42 ;&st7; " /><path d=" M 1240.79,  367.22  L 1240.79,  469.21  L 1376.77,  469.21  L 1376.77,  367.22  L 1240.79,  367.22 " style="stroke-width: 1.42 ;&st7; " /><path d=" M 1283.29,  452.21  L 1283.29,  435.21 " style="stroke-width: 0.85 ;&st7; " /><path d=" M 1257.79,  430.96  L 1257.79,  452.21  L 1308.78,  452.21  L 1308.78,  435.21 " style="stroke-width: 0.85 ;&st7; " /><path d=" M 1334.28,  429.55  L 1334.28,  452.21  L 1359.77,  452.21  L 1359.77,  384.22 " style="stroke-width: 0.85 ;&st7; " /><path d=" M 1308.78,  384.22  L 1308.78,  401.22 " style="stroke-width: 0.85 ;&st7; " /><path d=" M 1283.29,  384.22  L 1283.29,  401.22 " style="stroke-width: 0.85 ;&st7; " /><path d=" M 1334.28,  384.22  L 1334.28,  406.88 " style="stroke-width: 0.85 ;&st7; " /><path d=" M 1338.53,  425.58  L 1338.53,  429.55  L 1330.03,  429.55  L 1330.03,  425.58 " style="stroke-width: 1.42 ;&st7; " /><path d=" M 1338.53,  410.85  L 1338.53,  406.88  L 1330.03,  406.88  L 1330.03,  410.85 " style="stroke-width: 1.42 ;&st7; " /><path d=" M 1257.79,  350.23  L 1257.36,  349.49  L 1257.94,  349.39  L 1258.44,  349.68  L 1258.64,  350.23  L 1258.44,  350.77  L 1257.94,  351.06  L 1257.36,  350.96  L 1256.99,  350.52  L 1256.99,  349.94  L 1256.60,  349.22  L 1257.01,  348.88  L 1257.52,  348.69  L 1258.06,  348.69  L 1258.57,  348.88  L 1258.98,  349.22  L 1259.25,  349.69  L 1259.35,  350.23  L 1259.25,  350.76  L 1258.98,  351.23  L 1258.57,  351.58  L 1258.06,  351.76  L 1257.52,  351.76  L 1257.01,  351.58  L 1256.60,  351.23  L 1256.32,  350.76  L 1256.23,  350.23  L 1256.32,  349.69  L 1256.60,  349.22 " style="stroke-width: 0.85 ;&st7; " /><path d=" M 1308.78,  333.23  L 1308.36,  332.49  L 1308.93,  332.39  L 1309.43,  332.68  L 1309.63,  333.23  L 1309.43,  333.78  L 1308.93,  334.07  L 1308.36,  333.97  L 1307.98,  333.52  L 1307.98,  332.94  L 1307.59,  332.23  L 1308.00,  331.88  L 1308.51,  331.69  L 1309.05,  331.69  L 1309.56,  331.88  L 1309.97,  332.23  L 1310.25,  332.70  L 1310.34,  333.23  L 1310.25,  333.76  L 1309.97,  334.23  L 1309.56,  334.58  L 1309.05,  334.77  L 1308.51,  334.77  L 1308.00,  334.58  L 1307.59,  334.23  L 1307.32,  333.76  L 1307.22,  333.23  L 1307.32,  332.70  L 1307.59,  332.23 " style="stroke-width: 0.85 ;&st7; " /><path d=" M 1359.77,  316.23  L 1359.35,  315.50  L 1359.92,  315.40  L 1360.42,  315.69  L 1360.62,  316.23  L 1360.42,  316.78  L 1359.92,  317.07  L 1359.35,  316.97  L 1358.97,  316.52  L 1358.97,  315.94  L 1358.58,  315.23  L 1358.99,  314.88  L 1359.50,  314.70  L 1360.04,  314.70  L 1360.55,  314.88  L 1360.96,  315.23  L 1361.24,  315.70  L 1361.33,  316.23  L 1361.24,  316.77  L 1360.96,  317.24  L 1360.55,  317.58  L 1360.04,  317.77  L 1359.50,  317.77  L 1358.99,  317.58  L 1358.58,  317.24  L 1358.31,  316.77  L 1358.21,  316.23  L 1358.31,  315.70  L 1358.58,  315.23 " style="stroke-width: 0.85 ;&st7; " /><path d=" M 1257.79,  350.23  L 1903.68,  350.23  L 1903.68,  367.22 " style="stroke-width: 0.85 ;&st7; " /><path d=" M 1308.78,  367.22  L 1308.78,  299.80 " style="stroke-width: 0.85 ;&st7; " /><path d=" M 1359.77,  367.22  L 1359.77,  299.80 " style="stroke-width: 0.85 ;&st7; " /><path d=" M 1257.79,  299.80  L 1257.79,  367.22 " style="stroke-width: 0.85 ;&st7; " /><path d=" M 1257.79,  384.22  L 1257.79,  405.47 " style="stroke-width: 0.85 ;&st7; " /><path d=" M 1257.09,  418.22  L 1325.78,  418.22 " style="stroke-width: 0.85 ;&st7;stroke-dasharray:3, 1.5;" /><path d=" M 1359.77,  316.23  L 2005.66,  316.23  L 2005.66,  367.22 " style="stroke-width: 0.85 ;&st7; " /><path d=" M 1308.78,  333.23  L 1954.67,  333.23  L 1954.67,  367.22 " style="stroke-width: 0.85 ;&st7; " /><path d=" M 2039.66,  299.80  L 1155.81,  299.80  L 1155.81,  494.70  L 2039.66,  494.70  L 2039.66,  299.80 " style="stroke-width: 1.42 ;&st7; " /><path d=" M 1410.76,  384.22  L 1410.76,  405.47 " style="stroke-width: 0.85 ;&st7; " /><path d=" M 1491.50,  410.85  L 1491.50,  406.88  L 1483.00,  406.88  L 1483.00,  410.85 " style="stroke-width: 1.42 ;&st7; " /><path d=" M 1491.50,  425.58  L 1491.50,  429.55  L 1483.00,  429.55  L 1483.00,  425.58 " style="stroke-width: 1.42 ;&st7; " /><path d=" M 1487.25,  384.22  L 1487.25,  406.88 " style="stroke-width: 0.85 ;&st7; " /><path d=" M 1436.26,  384.22  L 1436.26,  401.22 " style="stroke-width: 0.85 ;&st7; " /><path d=" M 1461.76,  384.22  L 1461.76,  401.22 " style="stroke-width: 0.85 ;&st7; " /><path d=" M 1487.25,  429.55  L 1487.25,  452.21  L 1512.75,  452.21  L 1512.75,  384.22 " style="stroke-width: 0.85 ;&st7; " /><path d=" M 1410.76,  430.96  L 1410.76,  452.21  L 1461.76,  452.21  L 1461.76,  435.21 " style="stroke-width: 0.85 ;&st7; " /><path d=" M 1410.76,  350.23  L 1410.34,  349.49  L 1410.91,  349.39  L 1411.42,  349.68  L 1411.61,  350.23  L 1411.42,  350.77  L 1410.91,  351.06  L 1410.34,  350.96  L 1409.96,  350.52  L 1409.96,  349.94  L 1409.57,  349.22  L 1409.98,  348.88  L 1410.49,  348.69  L 1411.04,  348.69  L 1411.54,  348.88  L 1411.96,  349.22  L 1412.23,  349.69  L 1412.32,  350.23  L 1412.23,  350.76  L 1411.96,  351.23  L 1411.54,  351.58  L 1411.04,  351.76  L 1410.49,  351.76  L 1409.98,  351.58  L 1409.57,  351.23  L 1409.30,  350.76  L 1409.21,  350.23  L 1409.30,  349.69  L 1409.57,  349.22 " style="stroke-width: 0.85 ;&st7; " /><path d=" M 1461.76,  333.23  L 1461.33,  332.49  L 1461.90,  332.39  L 1462.41,  332.68  L 1462.61,  333.23  L 1462.41,  333.78  L 1461.90,  334.07  L 1461.33,  333.97  L 1460.96,  333.52  L 1460.96,  332.94  L 1460.56,  332.23  L 1460.98,  331.88  L 1461.48,  331.69  L 1462.03,  331.69  L 1462.53,  331.88  L 1462.95,  332.23  L 1463.22,  332.70  L 1463.31,  333.23  L 1463.22,  333.76  L 1462.95,  334.23  L 1462.53,  334.58  L 1462.03,  334.77  L 1461.48,  334.77  L 1460.98,  334.58  L 1460.56,  334.23  L 1460.29,  333.76  L 1460.20,  333.23  L 1460.29,  332.70  L 1460.56,  332.23 " style="stroke-width: 0.85 ;&st7; " /><path d=" M 1461.76,  367.22  L 1461.76,  333.23 " style="stroke-width: 0.85 ;&st7; " /><path d=" M 1410.76,  350.23  L 1410.76,  367.22 " style="stroke-width: 0.85 ;&st7; " /><path d=" M 1436.26,  452.21  L 1436.26,  435.21 " style="stroke-width: 0.85 ;&st7; " /><path d=" M 1393.77,  367.22  L 1393.77,  469.21  L 1529.74,  469.21  L 1529.74,  367.22  L 1393.77,  367.22 " style="stroke-width: 1.42 ;&st7; " /><path d=" M 1393.77,  384.22  L 1529.74,  384.22 " style="stroke-width: 1.42 ;&st7; " /><path d=" M 1436.26,  452.21  L 1435.83,  451.47  L 1436.41,  451.37  L 1436.91,  451.66  L 1437.11,  452.21  L 1436.91,  452.76  L 1436.41,  453.05  L 1435.83,  452.95  L 1435.46,  452.50  L 1435.46,  451.92  L 1435.07,  451.21  L 1435.48,  450.86  L 1435.99,  450.67  L 1436.53,  450.67  L 1437.04,  450.86  L 1437.45,  451.21  L 1437.72,  451.68  L 1437.82,  452.21  L 1437.72,  452.74  L 1437.45,  453.21  L 1437.04,  453.56  L 1436.53,  453.75  L 1435.99,  453.75  L 1435.48,  453.56  L 1435.07,  453.21  L 1434.79,  452.74  L 1434.70,  452.21  L 1434.79,  451.68  L 1435.07,  451.21 " style="stroke-width: 0.85 ;&st7; " /><path d=" M 1410.07,  418.22  L 1478.75,  418.22 " style="stroke-width: 0.85 ;&st7;stroke-dasharray:3, 1.5;" /><path d=" M 1284.70,  429.55  C 1284.70   428.76  1284.07   428.13  1283.29   428.13 " style="stroke-width: 0.85 ;&st7; " /><path d=" M 1283.29,  428.13  C 1282.50   428.13  1281.87   428.76  1281.87   429.55 " style="stroke-width: 0.85 ;&st7; " /><path d=" M 1281.87,  429.55  C 1281.87   430.33  1282.50   430.96  1283.29   430.96 " style="stroke-width: 0.85 ;&st7; " /><path d=" M 1283.29,  430.96  C 1284.07   430.96  1284.70   430.33  1284.70   429.55 " style="stroke-width: 0.85 ;&st7; " /><path d=" M 1342.78,  418.22  C 1342.78   413.52  1338.97   409.72  1334.28   409.72 " style="stroke-width: 1.42 ;&st7; " /><path d=" M 1334.28,  409.72  C 1329.58   409.72  1325.78   413.52  1325.78   418.22 " style="stroke-width: 1.42 ;&st7; " /><path d=" M 1325.78,  418.22  C 1325.78   422.91  1329.58   426.71  1334.28   426.71 " style="stroke-width: 1.42 ;&st7; " /><path d=" M 1334.28,  426.71  C 1338.97   426.71  1342.78   422.91  1342.78   418.22 " style="stroke-width: 1.42 ;&st7; " /><path d=" M 1259.21,  429.55  C 1259.21   428.76  1258.57   428.13  1257.79   428.13 " style="stroke-width: 0.85 ;&st7; " /><path d=" M 1257.79,  428.13  C 1257.01   428.13  1256.37   428.76  1256.37   429.55 " style="stroke-width: 0.85 ;&st7; " /><path d=" M 1256.37,  429.55  C 1256.37   430.33  1257.01   430.96  1257.79   430.96 " style="stroke-width: 0.85 ;&st7; " /><path d=" M 1257.79,  430.96  C 1258.57   430.96  1259.21   430.33  1259.21   429.55 " style="stroke-width: 0.85 ;&st7; " /><path d=" M 1259.21,  406.88  C 1259.21   406.10  1258.57   405.47  1257.79   405.47 " style="stroke-width: 0.85 ;&st7; " /><path d=" M 1257.79,  405.47  C 1257.01   405.47  1256.37   406.10  1256.37   406.88 " style="stroke-width: 0.85 ;&st7; " /><path d=" M 1256.37,  406.88  C 1256.37   407.67  1257.01   408.30  1257.79   408.30 " style="stroke-width: 0.85 ;&st7; " /><path d=" M 1257.79,  408.30  C 1258.57   408.30  1259.21   407.67  1259.21   406.88 " style="stroke-width: 0.85 ;&st7; " /><path d=" M 1262.32,  295.27  C 1262.32   292.77  1260.29   290.74  1257.79   290.74 " style="stroke-width: 1.42 ;&st7; " /><path d=" M 1257.79,  290.74  C 1255.29   290.74  1253.26   292.77  1253.26   295.27 " style="stroke-width: 1.42 ;&st7; " /><path d=" M 1253.26,  295.27  C 1253.26   297.77  1255.29   299.80  1257.79   299.80 " style="stroke-width: 1.42 ;&st7; " /><path d=" M 1257.79,  299.80  C 1260.29   299.80  1262.32   297.77  1262.32   295.27 " style="stroke-width: 1.42 ;&st7; " /><path d=" M 1313.31,  295.27  C 1313.31   292.77  1311.28   290.74  1308.78   290.74 " style="stroke-width: 1.42 ;&st7; " /><path d=" M 1308.78,  290.74  C 1306.28   290.74  1304.25   292.77  1304.25   295.27 " style="stroke-width: 1.42 ;&st7; " /><path d=" M 1304.25,  295.27  C 1304.25   297.77  1306.28   299.80  1308.78   299.80 " style="stroke-width: 1.42 ;&st7; " /><path d=" M 1308.78,  299.80  C 1311.28   299.80  1313.31   297.77  1313.31   295.27 " style="stroke-width: 1.42 ;&st7; " /><path d=" M 1364.31,  295.27  C 1364.31   292.77  1362.28   290.74  1359.77   290.74 " style="stroke-width: 1.42 ;&st7; " /><path d=" M 1359.77,  290.74  C 1357.27   290.74  1355.24   292.77  1355.24   295.27 " style="stroke-width: 1.42 ;&st7; " /><path d=" M 1355.24,  295.27  C 1355.24   297.77  1357.27   299.80  1359.77   299.80 " style="stroke-width: 1.42 ;&st7; " /><path d=" M 1359.77,  299.80  C 1362.28   299.80  1364.31   297.77  1364.31   295.27 " style="stroke-width: 1.42 ;&st7; " /><path d=" M 1092.35,  295.27  C 1092.35   292.77  1090.32   290.74  1087.82   290.74 " style="stroke-width: 1.42 ;&st7; " /><path d=" M 1087.82,  290.74  C 1085.32   290.74  1083.29   292.77  1083.29   295.27 " style="stroke-width: 1.42 ;&st7; " /><path d=" M 1083.29,  295.27  C 1083.29   297.77  1085.32   299.80  1087.82   299.80 " style="stroke-width: 1.42 ;&st7; " /><path d=" M 1087.82,  299.80  C 1090.32   299.80  1092.35   297.77  1092.35   295.27 " style="stroke-width: 1.42 ;&st7; " /><path d=" M 1134.84,  295.27  C 1134.84   292.77  1132.81   290.74  1130.31   290.74 " style="stroke-width: 1.42 ;&st7; " /><path d=" M 1130.31,  290.74  C 1127.81   290.74  1125.78   292.77  1125.78   295.27 " style="stroke-width: 1.42 ;&st7; " /><path d=" M 1125.78,  295.27  C 1125.78   297.77  1127.81   299.80  1130.31   299.80 " style="stroke-width: 1.42 ;&st7; " /><path d=" M 1130.31,  299.80  C 1132.81   299.80  1134.84   297.77  1134.84   295.27 " style="stroke-width: 1.42 ;&st7; " /><path d=" M 1412.18,  406.88  C 1412.18   406.10  1411.55   405.47  1410.76   405.47 " style="stroke-width: 0.85 ;&st7; " /><path d=" M 1410.76,  405.47  C 1409.98   405.47  1409.35   406.10  1409.35   406.88 " style="stroke-width: 0.85 ;&st7; " /><path d=" M 1409.35,  406.88  C 1409.35   407.67  1409.98   408.30  1410.76   408.30 " style="stroke-width: 0.85 ;&st7; " /><path d=" M 1410.76,  408.30  C 1411.55   408.30  1412.18   407.67  1412.18   406.88 " style="stroke-width: 0.85 ;&st7; " /><path d=" M 1412.18,  429.55  C 1412.18   428.76  1411.55   428.13  1410.76   428.13 " style="stroke-width: 0.85 ;&st7; " /><path d=" M 1410.76,  428.13  C 1409.98   428.13  1409.35   428.76  1409.35   429.55 " style="stroke-width: 0.85 ;&st7; " /><path d=" M 1409.35,  429.55  C 1409.35   430.33  1409.98   430.96  1410.76   430.96 " style="stroke-width: 0.85 ;&st7; " /><path d=" M 1410.76,  430.96  C 1411.55   430.96  1412.18   430.33  1412.18   429.55 " style="stroke-width: 0.85 ;&st7; " /><path d=" M 1495.75,  418.22  C 1495.75   413.52  1491.95   409.72  1487.25   409.72 " style="stroke-width: 1.42 ;&st7; " /><path d=" M 1487.25,  409.72  C 1482.56   409.72  1478.75   413.52  1478.75   418.22 " style="stroke-width: 1.42 ;&st7; " /><path d=" M 1478.75,  418.22  C 1478.75   422.91  1482.56   426.71  1487.25   426.71 " style="stroke-width: 1.42 ;&st7; " /><path d=" M 1487.25,  426.71  C 1491.95   426.71  1495.75   422.91  1495.75   418.22 " style="stroke-width: 1.42 ;&st7; " /><path d=" M 1437.68,  429.55  C 1437.68   428.76  1437.04   428.13  1436.26   428.13 " style="stroke-width: 0.85 ;&st7; " /><path d=" M 1436.26,  428.13  C 1435.48   428.13  1434.84   428.76  1434.84   429.55 " style="stroke-width: 0.85 ;&st7; " /><path d=" M 1434.84,  429.55  C 1434.84   430.33  1435.48   430.96  1436.26   430.96 " style="stroke-width: 0.85 ;&st7; " /><path d=" M 1436.26,  430.96  C 1437.04   430.96  1437.68   430.33  1437.68   429.55 " style="stroke-width: 0.85 ;&st7; " /><path d=" M 1437.68,  406.88  C 1437.68   406.10  1437.04   405.47  1436.26   405.47 " style="stroke-width: 0.85 ;&st7; " /><path d=" M 1436.26,  405.47  C 1435.48   405.47  1434.84   406.10  1434.84   406.88 " style="stroke-width: 0.85 ;&st7; " /><path d=" M 1434.84,  406.88  C 1434.84   407.67  1435.48   408.30  1436.26   408.30 " style="stroke-width: 0.85 ;&st7; " /><path d=" M 1436.26,  408.30  C 1437.04   408.30  1437.68   407.67  1437.68   406.88 " style="stroke-width: 0.85 ;&st7; " /><path d=" M 1463.17,  429.55  C 1463.17   428.76  1462.54   428.13  1461.76   428.13 " style="stroke-width: 0.85 ;&st7; " /><path d=" M 1461.76,  428.13  C 1460.97   428.13  1460.34   428.76  1460.34   429.55 " style="stroke-width: 0.85 ;&st7; " /><path d=" M 1460.34,  429.55  C 1460.34   430.33  1460.97   430.96  1461.76   430.96 " style="stroke-width: 0.85 ;&st7; " /><path d=" M 1461.76,  430.96  C 1462.54   430.96  1463.17   430.33  1463.17   429.55 " style="stroke-width: 0.85 ;&st7; " /><path d=" M 1463.17,  406.88  C 1463.17   406.10  1462.54   405.47  1461.76   405.47 " style="stroke-width: 0.85 ;&st7; " /><path d=" M 1461.76,  405.47  C 1460.97   405.47  1460.34   406.10  1460.34   406.88 " style="stroke-width: 0.85 ;&st7; " /><path d=" M 1460.34,  406.88  C 1460.34   407.67  1460.97   408.30  1461.76   408.30 " style="stroke-width: 0.85 ;&st7; " /><path d=" M 1461.76,  408.30  C 1462.54   408.30  1463.17   407.67  1463.17   406.88 " style="stroke-width: 0.85 ;&st7; " /><path d=" M 1177.34,  295.27  C 1177.34   292.77  1175.31   290.74  1172.80   290.74 " style="stroke-width: 1.42 ;&st7; " /><path d=" M 1172.80,  290.74  C 1170.30   290.74  1168.27   292.77  1168.27   295.27 " style="stroke-width: 1.42 ;&st7; " /><path d=" M 1168.27,  295.27  C 1168.27   297.77  1170.30   299.80  1172.80   299.80 " style="stroke-width: 1.42 ;&st7; " /><path d=" M 1172.80,  299.80  C 1175.31   299.80  1177.34   297.77  1177.34   295.27 " style="stroke-width: 1.42 ;&st7; " /><path d=" M 1219.83,  295.27  C 1219.83   292.77  1217.80   290.74  1215.30   290.74 " style="stroke-width: 1.42 ;&st7; " /><path d=" M 1215.30,  290.74  C 1212.79   290.74  1210.76   292.77  1210.76   295.27 " style="stroke-width: 1.42 ;&st7; " /><path d=" M 1210.76,  295.27  C 1210.76   297.77  1212.79   299.80  1215.30   299.80 " style="stroke-width: 1.42 ;&st7; " /><path d=" M 1215.30,  299.80  C 1217.80   299.80  1219.83   297.77  1219.83   295.27 " style="stroke-width: 1.42 ;&st7; " /><path d=" M 1223.80,  379.97  C 1223.80   375.28  1219.99   371.47  1215.30   371.47 " style="stroke-width: 0.85 ;&st7; " /><path d=" M 1215.30,  371.47  C 1210.60   371.47  1206.80   375.28  1206.80   379.97 " style="stroke-width: 0.85 ;&st7; " /><path d=" M 1206.80,  396.97  C 1206.80   401.66  1210.60   405.47  1215.30   405.47 " style="stroke-width: 0.85 ;&st7; " /><path d=" M 1215.30,  405.47  C 1219.99   405.47  1223.80   401.66  1223.80   396.97 " style="stroke-width: 0.85 ;&st7; " /><path d=" M 1096.32,  430.96  C 1096.32   426.27  1092.51   422.46  1087.82   422.46 " style="stroke-width: 0.85 ;&st7; " /><path d=" M 1087.82,  422.46  C 1083.12   422.46  1079.32   426.27  1079.32   430.96 " style="stroke-width: 0.85 ;&st7; " /><path d=" M 1079.32,  447.96  C 1079.32   452.65  1083.12   456.46  1087.82   456.46 " style="stroke-width: 0.85 ;&st7; " /><path d=" M 1087.82,  456.46  C 1092.51   456.46  1096.32   452.65  1096.32   447.96 " style="stroke-width: 0.85 ;&st7; " /><path d=" M 1310.20,  406.88  C 1310.20   406.10  1309.56   405.47  1308.78   405.47 " style="stroke-width: 0.85 ;&st7; " /><path d=" M 1308.78,  405.47  C 1308.00   405.47  1307.36   406.10  1307.36   406.88 " style="stroke-width: 0.85 ;&st7; " /><path d=" M 1307.36,  406.88  C 1307.36   407.67  1308.00   408.30  1308.78   408.30 " style="stroke-width: 0.85 ;&st7; " /><path d=" M 1308.78,  408.30  C 1309.56   408.30  1310.20   407.67  1310.20   406.88 " style="stroke-width: 0.85 ;&st7; " /><path d=" M 1310.20,  429.55  C 1310.20   428.76  1309.56   428.13  1308.78   428.13 " style="stroke-width: 0.85 ;&st7; " /><path d=" M 1308.78,  428.13  C 1308.00   428.13  1307.36   428.76  1307.36   429.55 " style="stroke-width: 0.85 ;&st7; " /><path d=" M 1307.36,  429.55  C 1307.36   430.33  1308.00   430.96  1308.78   430.96 " style="stroke-width: 0.85 ;&st7; " /><path d=" M 1308.78,  430.96  C 1309.56   430.96  1310.20   430.33  1310.20   429.55 " style="stroke-width: 0.85 ;&st7; " /><path d=" M 1284.70,  406.88  C 1284.70   406.10  1284.07   405.47  1283.29   405.47 " style="stroke-width: 0.85 ;&st7; " /><path d=" M 1283.29,  405.47  C 1282.50   405.47  1281.87   406.10  1281.87   406.88 " style="stroke-width: 0.85 ;&st7; " /><path d=" M 1281.87,  406.88  C 1281.87   407.67  1282.50   408.30  1283.29   408.30 " style="stroke-width: 0.85 ;&st7; " /><path d=" M 1283.29,  408.30  C 1284.07   408.30  1284.70   407.67  1284.70   406.88 " style="stroke-width: 0.85 ;&st7; " /><text style="&st18;" transform="matrix(&st16;  1081.03  468.9 )">2</text><text style="&st18;" transform="matrix(&st16;  1081.81  414.53 )">1</text><text style="&st18;" transform="matrix(&st17;  1058.32  463.23 )">H16</text><text style="&st18;" transform="matrix(&st16;  1083.23  287.04 )">TR</text><text style="&st18;" transform="matrix(&st16;  1121.62  287.04 )">SG-1</text><text style="&st18;" transform="matrix(&st17;  1084.12  331.74 )">G</text><text style="&st18;" transform="matrix(&st17;  1126.62  331.31 )">B</text><text ewd:textID="37" style="&st18;" transform="matrix(&st16;  1275.58  476.84 )">Damper Servo Motor <tspan dy="6" x="0">(Air Inlet)</tspan></text><text style="&st18;" transform="matrix(&st16;  1255.32  297.24 )">C</text><text style="&st18;" transform="matrix(&st16;  1306.31  297.24 )">C</text><text style="&st18;" transform="matrix(&st16;  1357.3  297.24 )">C</text><text style="&st18;" transform="matrix(&st16;  1085.49  297.24 )">A</text><text style="&st18;" transform="matrix(&st16;  1127.98  297.24 )">A</text><text style="&st18;" transform="matrix(&st16;  1246.91  297.24 )">4</text><text style="&st18;" transform="matrix(&st16;  1247.16  287.04 )">B BUS</text><text style="&st18;" transform="matrix(&st16;  1301.65  287.04 )">BUS</text><text style="&st18;" transform="matrix(&st16;  1348.72  287.04 )">BUS G</text><text style="&st18;" transform="matrix(&st16;  1331.38  420.18 )">M</text><text style="&st18;" transform="matrix(&st16;  1115.48  297.24 )">34</text><text style="&st18;" transform="matrix(&st16;  1072.99  297.24 )">29</text><text style="&st18;" transform="matrix(&st16;  1297.9  297.24 )">3</text><text style="&st18;" transform="matrix(&st16;  1348.9  297.24 )">2</text><text style="&st18;" transform="matrix(&st16;  1218.44  267.19 )">H24(A),H67(B),z13(C)</text><text ewd:textID="48" style="&st18;" transform="matrix(&st17;  1065.43  463.23 )">Front Room Temperature Sensor <tspan dy="6" x="0">(Cooler Thermistor)</tspan></text><text ewd:textID="16" style="&st18;" transform="matrix(&st16;  1218.44  274.29 )">A/C Amplifier Assembly</text><text ewd:textID="26" style="&st18;" transform="matrix(&st16;  1274.31  374.87 )">Connector <tspan dy="6" x="0">Housing Color (Black)</tspan></text><text style="&st18;" transform="matrix(&st16;  1484.36  420.18 )">M</text><text ewd:textID="42" style="&st18;" transform="matrix(&st16;  1428.55  476.84 )">Damper Servo Motor <tspan dy="6" x="0">(Cool Air Bypass)</tspan></text><text ewd:textID="31" style="&st18;" transform="matrix(&st16;  1424.56  374.87 )">Connector <tspan dy="6" x="0">Housing Color (Natural)</tspan></text><text ewd:textID="45" style="&st18;" transform="matrix(&st16;  1255.26  509.42 )">Front A/C Blower Assembly</text><text style="&st18;" transform="matrix(&st16;  1255.26  502.31 )">z13(C)</text><text style="&st18;" transform="matrix(&st16;  1207.88  287.04 )">SGA</text><text style="&st18;" transform="matrix(&st16;  1212.82  297.24 )">C</text><text style="&st18;" transform="matrix(&st16;  1170.33  297.24 )">C</text><text style="&st18;" transform="matrix(&st16;  1166.02  287.04 )">TEA</text><text style="&st18;" transform="matrix(&st16;  1161.93  297.24 )">6</text><text style="&st18;" transform="matrix(&st16;  1204.42  297.24 )">5</text><text ewd:textID="18" style="&st18;" transform="matrix(&st17;  1193.2  421.21 )">A/C Evaporator <tspan dy="6" x="0">Temperature Sensor</tspan></text><text ewd:textID="50" style="&st18;" transform="matrix(&st17;  1017.55  539.72 )">Junction <tspan dy="6" x="0">Connector</tspan></text><text style="&st18;" transform="matrix(&st17;  1010.44  539.72 )">H83</text></svg>