﻿<?xml version="1.0" encoding="utf-8"?>
<!DOCTYPE svg PUBLIC "-//W3C//DTD SVG 1.0//EN" "http://www.w3.org/TR/2001/REC-SVG-20010904/DTD/svg10.dtd"[
	<!ENTITY ns_flows "http://ns.adobe.com/Flows/1.0/">
	<!ENTITY ns_svg "http://www.w3.org/2000/svg">
	<!ENTITY ns_xlink "http://www.w3.org/1999/xlink">
	<!ENTITY st0 "font-size:7px;font-family:'MS-PGothic';adobe-font-script:japanese;">
	<!ENTITY st1 "font-size:6px;font-family:'ArialMT';">
	<!-- White fill  -->
	<!ENTITY st2 "fill:#FFFFFF;stroke:#000000; stroke-width:1.41;stroke-linecap:round;stroke-linejoin:round;">
	<!-- Yellow fill  -->
	<!ENTITY st3 "fill:#FFFFCC;stroke:#FFFFCC; stroke-width:0.1;stroke-linecap:round;stroke-linejoin:round;">
	<!-- Gray fill  -->
	<!ENTITY st4 "fill:#CCCCCC;stroke:#CCCCCC; stroke-width:0.1;stroke-linecap:round;stroke-linejoin:round;">
	<!-- Light-blue fill -->
	<!ENTITY st5 "fill:#CCECF4;stroke:#000000; stroke-width:1.133;stroke-linecap:round;stroke-linejoin:round;">
	<!ENTITY st6 "fill:none;stroke-linecap:butt; stroke-linejoin:round;">
	<!ENTITY st7 "fill:none;stroke:#000000;stroke-linecap:round;stroke-linejoin:round;">
	<!ENTITY st8 "enable-background:new    ;">
	<!-- Black fill -->
	<!ENTITY st9 "fill:#000000;stroke:#000000; stroke-linecap:round;stroke-linejoin:round;">
	<!-- SRS note   -->
	<!ENTITY st10 "font-size:9px;font-family:'ArialMT';">
	<!ENTITY st11 "font-size:9px;font-family:'Svg Symbol';">
	<!ENTITY st12 "font-size:6px;font-family:'Svg Symbol';">
	<!ENTITY st13 "fill:none;stroke:#ff0000;stroke-linecap:round;stroke-linejoin:round;">
	<!-- Yellow fill  -->
	<!ENTITY st14 "fill:#FFFF00;stroke:#FFFF00; stroke-width:0.1;stroke-linecap:round;stroke-linejoin:round;">
	<!ENTITY st15 "font-size:6px;font-family:'MS-PGothic';adobe-font-script:japanese;">
	<!ENTITY st16 "1.00 0.00 0.00 1.00">
	<!ENTITY st17 "0.00 -1.00 1.00 0.00">
	<!ENTITY st18 "font-size:6px;font-family:'Arial';">
	<!ENTITY st19 "font-size:9px;font-family:'Arial';">
	<!ENTITY st20 "font-size:6px;font-family:'MS-PGothic','MS PGothic';adobe-font-script:japanese;">
	<!ENTITY st21 "font-size:7px;font-family:'MS-PGothic','MS PGothic';adobe-font-script:japanese;">
	<!ATTLIST svg
		xmlns:ewd CDATA #FIXED "http://shcl.co.jp/ewd"
		xmlns:a CDATA #FIXED "http://ns.adobe.com/AdobeSVGViewerExtensions/3.0/"
		ewd:ver CDATA #IMPLIED
	>
	<!ATTLIST a
		ewd:lineID CDATA #IMPLIED
		ewd:groupID CDATA #IMPLIED
		ewd:figtype CDATA #IMPLIED
		ewd:code CDATA #IMPLIED
		ewd:figID CDATA #IMPLIED
		ewd:pinNo CDATA #IMPLIED
		ewd:comment CDATA #IMPLIED >
	<!ATTLIST g
		ewd:lineID CDATA #IMPLIED
		ewd:groupID CDATA #IMPLIED
		ewd:figtype CDATA #IMPLIED
		ewd:code CDATA #IMPLIED
		ewd:figID CDATA #IMPLIED
		ewd:pinNo CDATA #IMPLIED
		ewd:comment CDATA #IMPLIED >
	<!ATTLIST text
		ewd:textID CDATA #IMPLIED >
	<!ATTLIST title
		ewd:textID CDATA #IMPLIED >
]>
<!-- Generator: Shintec Hozumi YS   -->
<svg onload="call_execInitLoadProc_svg('system')" style="overflow:visible;  enable-background:new 0 0 1011.856 710.000" viewBox="0 0 1011.856 710.000" height="710.000" width="1011.856" xml:space="preserve" ewd:ver="L2.1.2.7" xmlns="&ns_svg;" xmlns:a="http://ns.adobe.com/AdobeSVGViewerExtensions/3.0/" xmlns:ewd="http://shcl.co.jp/ewd" xmlns:xlink="&ns_xlink;">
<path d=" M  773.37,  103.77  L  764.87,  103.77 " style="stroke-width: 1.42 ;&st7; " /><path d=" M  841.36,  103.77  L  832.86,  103.77 " style="stroke-width: 1.42 ;&st7; " /><path d=" M  841.36,  307.73  L  832.86,  307.73 " style="stroke-width: 1.42 ;&st7; " /><path d=" M  909.35,  103.77  L  900.85,  103.77 " style="stroke-width: 1.42 ;&st7; " /><path d=" M  977.34,  103.77  L  968.84,  103.77 " style="stroke-width: 1.42 ;&st7; " /><path d=" M  773.37,  307.73  L  764.87,  307.73 " style="stroke-width: 1.42 ;&st7; " /><path d=" M  909.35,  146.26  L  900.85,  146.26 " style="stroke-width: 1.42 ;&st7; " /><path d=" M  977.34,  146.26  L  968.84,  146.26 " style="stroke-width: 1.42 ;&st7; " /><path d=" M  977.34,  307.73  L  968.84,  307.73 " style="stroke-width: 1.42 ;&st7; " /><path d=" M  909.35,  307.73  L  900.85,  307.73 " style="stroke-width: 1.42 ;&st7; " /><path d=" M  892.35,  265.24  L  900.85,  265.24 " style="stroke-width: 1.42 ;&st7; " /><path d=" M  960.34,  265.24  L  968.84,  265.24 " style="stroke-width: 1.42 ;&st7; " /><path d=" M  790.37,   48.53  L  790.37,   57.03  L  786.12,   65.52  L  811.61,   65.52  L  807.36,   57.03  L  807.36,   48.53  L  790.37,   48.53 " style="stroke-width: 1.42 ;&st7; " /><path d=" M  790.37,   57.03  L  807.36,   57.03 " style="stroke-width: 1.42 ;&st7; " /><path d=" M  769.12,  112.83  L  764.87,  108.58  L  760.62,  112.83 " style="stroke-width: 1.42 ;&st7; " /><path d=" M  769.12,  109.43  L  764.87,  105.18  L  760.62,  109.43 " style="stroke-width: 1.42 ;&st7; " /><path d=" M  837.11,  112.83  L  832.86,  108.58  L  828.61,  112.83 " style="stroke-width: 1.42 ;&st7; " /><path d=" M  837.11,  109.43  L  832.86,  105.18  L  828.61,  109.43 " style="stroke-width: 1.42 ;&st7; " /><path d=" M  769.12,  313.40  L  764.87,  309.15  L  760.62,  313.40 " style="stroke-width: 1.42 ;&st7; " /><path d=" M  769.12,  316.80  L  764.87,  312.55  L  760.62,  316.80 " style="stroke-width: 1.42 ;&st7; " /><path d=" M  926.34,   48.53  L  926.34,   57.03  L  922.10,   65.52  L  947.59,   65.52  L  943.34,   57.03  L  943.34,   48.53  L  926.34,   48.53 " style="stroke-width: 1.42 ;&st7; " /><path d=" M  926.34,   57.03  L  943.34,   57.03 " style="stroke-width: 1.42 ;&st7; " /><path d=" M  905.10,  112.83  L  900.85,  108.58  L  896.60,  112.83 " style="stroke-width: 1.42 ;&st7; " /><path d=" M  905.10,  109.43  L  900.85,  105.18  L  896.60,  109.43 " style="stroke-width: 1.42 ;&st7; " /><path d=" M  973.09,  112.83  L  968.84,  108.58  L  964.59,  112.83 " style="stroke-width: 1.42 ;&st7; " /><path d=" M  973.09,  109.43  L  968.84,  105.18  L  964.59,  109.43 " style="stroke-width: 1.42 ;&st7; " /><path d=" M  837.11,  313.40  L  832.86,  309.15  L  828.61,  313.40 " style="stroke-width: 1.42 ;&st7; " /><path d=" M  837.11,  316.80  L  832.86,  312.55  L  828.61,  316.80 " style="stroke-width: 1.42 ;&st7; " /><path d=" M  905.10,  155.33  L  900.85,  151.08  L  896.60,  155.33 " style="stroke-width: 1.42 ;&st7; " /><path d=" M  905.10,  151.93  L  900.85,  147.68  L  896.60,  151.93 " style="stroke-width: 1.42 ;&st7; " /><path d=" M  973.09,  151.93  L  968.84,  147.68  L  964.59,  151.93 " style="stroke-width: 1.42 ;&st7; " /><path d=" M  973.09,  155.33  L  968.84,  151.08  L  964.59,  155.33 " style="stroke-width: 1.42 ;&st7; " /><path d=" M  883.85,  188.75  L  883.85,  222.75  L  985.83,  222.75  L  985.83,  188.75  L  883.85,  188.75 " style="stroke-width: 1.42 ;&st7; " /><path d=" M  747.87,  188.75  L  747.87,  222.75  L  849.86,  222.75  L  849.86,  188.75  L  747.87,  188.75 " style="stroke-width: 1.42 ;&st7; " /><path d=" M  905.10,  313.40  L  900.85,  309.15  L  896.60,  313.40 " style="stroke-width: 1.42 ;&st7; " /><path d=" M  905.10,  316.80  L  900.85,  312.55  L  896.60,  316.80 " style="stroke-width: 1.42 ;&st7; " /><path d=" M  973.09,  313.40  L  968.84,  309.15  L  964.59,  313.40 " style="stroke-width: 1.42 ;&st7; " /><path d=" M  973.09,  316.80  L  968.84,  312.55  L  964.59,  316.80 " style="stroke-width: 1.42 ;&st7; " /><path d=" M  896.60,  256.18  L  900.85,  260.43  L  905.10,  256.18 " style="stroke-width: 1.42 ;&st7; " /><path d=" M  905.10,  259.58  L  900.85,  263.82  L  896.60,  259.58 " style="stroke-width: 1.42 ;&st7; " /><path d=" M  964.59,  256.18  L  968.84,  260.43  L  973.09,  256.18 " style="stroke-width: 1.42 ;&st7; " /><path d=" M  973.09,  259.58  L  968.84,  263.82  L  964.59,  259.58 " style="stroke-width: 1.42 ;&st7; " /><path d=" M  667.42,  329.26  C  667.42   326.76   665.39   324.73   662.89   324.73 " style="stroke-width: 1.42 ;&st7; " /><path d=" M  662.89,  324.73  C  660.39   324.73   658.36   326.76   658.36   329.26 " style="stroke-width: 1.42 ;&st7; " /><path d=" M  658.36,  329.26  C  658.36   331.77   660.39   333.80   662.89   333.80 " style="stroke-width: 1.42 ;&st7; " /><path d=" M  662.89,  333.80  C  665.39   333.80   667.42   331.77   667.42   329.26 " style="stroke-width: 1.42 ;&st7; " /><path d=" M  633.43,  329.26  C  633.43   326.76   631.40   324.73   628.89   324.73 " style="stroke-width: 1.42 ;&st7; " /><path d=" M  628.89,  324.73  C  626.39   324.73   624.36   326.76   624.36   329.26 " style="stroke-width: 1.42 ;&st7; " /><path d=" M  624.36,  329.26  C  624.36   331.77   626.39   333.80   628.89   333.80 " style="stroke-width: 1.42 ;&st7; " /><path d=" M  628.89,  333.80  C  631.40   333.80   633.43   331.77   633.43   329.26 " style="stroke-width: 1.42 ;&st7; " /><path d=" M  599.43,  329.26  C  599.43   326.76   597.40   324.73   594.90   324.73 " style="stroke-width: 1.42 ;&st7; " /><path d=" M  594.90,  324.73  C  592.40   324.73   590.37   326.76   590.37   329.26 " style="stroke-width: 1.42 ;&st7; " /><path d=" M  590.37,  329.26  C  590.37   331.77   592.40   333.80   594.90   333.80 " style="stroke-width: 1.42 ;&st7; " /><path d=" M  594.90,  333.80  C  597.40   333.80   599.43   331.77   599.43   329.26 " style="stroke-width: 1.42 ;&st7; " /><path d=" M  565.44,  329.26  C  565.44   326.76   563.41   324.73   560.91   324.73 " style="stroke-width: 1.42 ;&st7; " /><path d=" M  560.91,  324.73  C  558.40   324.73   556.37   326.76   556.37   329.26 " style="stroke-width: 1.42 ;&st7; " /><path d=" M  556.37,  329.26  C  556.37   331.77   558.40   333.80   560.91   333.80 " style="stroke-width: 1.42 ;&st7; " /><path d=" M  560.91,  333.80  C  563.41   333.80   565.44   331.77   565.44   329.26 " style="stroke-width: 1.42 ;&st7; " /><text style="&st18;" transform="matrix(&st17;  993.45  225.27 )">O37</text><text style="&st18;" transform="matrix(&st16;  962.04  185.06 )">4</text><text style="&st18;" transform="matrix(&st16;  894.06  185.06 )">3</text><text style="&st18;" transform="matrix(&st16;  962.05  230.94 )">2</text><text style="&st18;" transform="matrix(&st16;  894.84  230.94 )">1</text><text style="&st18;" transform="matrix(&st17;  965.14  172.73 )">GR</text><text style="&st18;" transform="matrix(&st17;  897.15  169.84 )">B</text><text style="&st18;" transform="matrix(&st16;  898.84  219.05 )">+</text><text style="&st18;" transform="matrix(&st16;  966.82  219.05 )">-</text><text style="&st18;" transform="matrix(&st16;  898.84  196.39 )">+</text><text style="&st18;" transform="matrix(&st16;  966.82  196.39 )">-</text><text style="&st18;" transform="matrix(&st17;  857.47  225.27 )">O31</text><text ewd:textID="12" style="&st18;" transform="matrix(&st17;  864.58  225.27 )">Quarter Side <tspan dy="6" x="0">Speaker Assembly LH</tspan></text><text style="&st18;" transform="matrix(&st16;  826.07  185.06 )">4</text><text style="&st18;" transform="matrix(&st16;  758.08  185.06 )">3</text><text style="&st18;" transform="matrix(&st16;  826.07  230.94 )">2</text><text style="&st18;" transform="matrix(&st16;  758.86  230.94 )">1</text><text style="&st18;" transform="matrix(&st16;  762.86  219.05 )">+</text><text style="&st18;" transform="matrix(&st16;  830.85  219.05 )">-</text><text style="&st18;" transform="matrix(&st16;  762.86  196.39 )">+</text><text style="&st18;" transform="matrix(&st16;  830.85  196.39 )">-</text><text style="&st18;" transform="matrix(&st16;  886.04  305.45 )">4</text><text style="&st18;" transform="matrix(&st16;  954.02  305.45 )">3</text><text style="&st18;" transform="matrix(&st16;  886.81  271.46 )">1</text><text style="&st18;" transform="matrix(&st16;  954.02  271.46 )">9</text><text style="&st18;" transform="matrix(&st17;  897.15  253.05 )">BR</text><text style="&st18;" transform="matrix(&st17;  965.14  250.57 )">Y</text><text style="&st18;" transform="matrix(&st17;  965.14  288.82 )">Y</text><text style="&st18;" transform="matrix(&st17;  897.15  288.82 )">B</text><text style="&st18;" transform="matrix(&st17;  761.18  250.72 )">R</text><text style="&st18;" transform="matrix(&st17;  829.17  253.05 )">BR</text><text style="&st18;" transform="matrix(&st16;  652.01  331.23 )">2</text><text style="&st18;" transform="matrix(&st16;  660.56  331.23 )">B</text><text style="&st18;" transform="matrix(&st16;  618.02  331.23 )">6</text><text style="&st18;" transform="matrix(&st16;  626.56  331.23 )">B</text><text style="&st18;" transform="matrix(&st16;  584.8  331.23 )">1</text><text style="&st18;" transform="matrix(&st16;  592.57  331.23 )">B</text><text style="&st18;" transform="matrix(&st16;  550.03  331.23 )">3</text><text style="&st18;" transform="matrix(&st16;  558.58  331.23 )">B</text><text style="&st18;" transform="matrix(&st16;  656.43  321.03 )">RL+</text><text style="&st18;" transform="matrix(&st16;  622.43  321.03 )">RL-</text><text style="&st18;" transform="matrix(&st16;  587.94  321.03 )">RR+</text><text style="&st18;" transform="matrix(&st16;  553.95  321.03 )">RR-</text><text style="&st18;" transform="matrix(&st17;  659.19  352.7 )">R</text><text style="&st18;" transform="matrix(&st17;  625.2  353.58 )">W</text><text style="&st18;" transform="matrix(&st17;  591.2  352.56 )">B</text><text style="&st18;" transform="matrix(&st16;  750.06  305.45 )">5</text><text style="&st18;" transform="matrix(&st16;  784.36  49.09 )">1</text><text style="&st18;" transform="matrix(&st16;  810.2  49.09 )">2</text><text style="&st18;" transform="matrix(&st16;  750.06  101.49 )">5</text><text style="&st18;" transform="matrix(&st16;  818.05  101.49 )">6</text><text style="&st18;" transform="matrix(&st16;  775.1  73.13 )">N7</text><text style="&st18;" transform="matrix(&st17;  761.18  80.74 )">R</text><text style="&st18;" transform="matrix(&st17;  829.17  81.63 )">W</text><text style="&st18;" transform="matrix(&st17;  761.18  159.99 )">GR</text><text style="&st18;" transform="matrix(&st17;  829.16  157.51 )">G</text><text style="&st18;" transform="matrix(&st17;  761.18  331.45 )">R</text><text style="&st18;" transform="matrix(&st17;  829.17  332.34 )">W</text><text style="&st18;" transform="matrix(&st16;  920.33  49.09 )">1</text><text style="&st18;" transform="matrix(&st16;  946.18  49.09 )">2</text><text style="&st18;" transform="matrix(&st16;  886.04  101.49 )">5</text><text style="&st18;" transform="matrix(&st16;  954.02  101.49 )">6</text><text style="&st18;" transform="matrix(&st16;  911.07  73.13 )">N1</text><text style="&st18;" transform="matrix(&st17;  897.15  80.74 )">R</text><text style="&st18;" transform="matrix(&st17;  965.14  81.63 )">W</text><text style="&st18;" transform="matrix(&st17;  897.15  127.77 )">G</text><text style="&st18;" transform="matrix(&st17;  965.14  127.35 )">P</text><text style="&st18;" transform="matrix(&st17;  897.15  331.31 )">B</text><text style="&st18;" transform="matrix(&st17;  965.14  331.31 )">Y</text><text style="&st18;" transform="matrix(&st16;  814.87  305.45 )">10</text><text style="&st18;" transform="matrix(&st16;  886.04  143.98 )">5</text><text style="&st18;" transform="matrix(&st16;  950.84  143.98 )">13</text><text style="&st18;" transform="matrix(&st17;  557.21  352.56 )">Y</text><text style="&st18;" transform="matrix(&st16;  555.55  301.18 )">I1(A),I2(B),I3(C)</text><text ewd:textID="14" style="&st18;" transform="matrix(&st16;  555.55  308.29 )">Radio Receiver Assembly</text><text ewd:textID="16" style="&st18;" transform="matrix(&st16;  911.07  80.24 )">Rear No.2 <tspan dy="6" x="0">Speaker </tspan><tspan dy="6" x="0">Assembly RH</tspan></text><text ewd:textID="15" style="&st18;" transform="matrix(&st16;  775.1  80.24 )">Rear No.2 <tspan dy="6" x="0">Speaker </tspan><tspan dy="6" x="0">Assembly LH</tspan></text></svg>