﻿<?xml version="1.0" encoding="utf-8"?>
<!DOCTYPE svg PUBLIC "-//W3C//DTD SVG 1.0//EN" "http://www.w3.org/TR/2001/REC-SVG-20010904/DTD/svg10.dtd"[
	<!ENTITY ns_flows "http://ns.adobe.com/Flows/1.0/">
	<!ENTITY ns_svg "http://www.w3.org/2000/svg">
	<!ENTITY ns_xlink "http://www.w3.org/1999/xlink">
	<!ENTITY st0 "font-size:7px;font-family:'MS-PGothic';adobe-font-script:japanese;">
	<!ENTITY st1 "font-size:6px;font-family:'ArialMT';">
	<!-- White fill  -->
	<!ENTITY st2 "fill:#FFFFFF;stroke:#000000; stroke-width:1.41;stroke-linecap:round;stroke-linejoin:round;">
	<!-- Yellow fill  -->
	<!ENTITY st3 "fill:#FFFFCC;stroke:#FFFFCC; stroke-width:0.1;stroke-linecap:round;stroke-linejoin:round;">
	<!-- Gray fill  -->
	<!ENTITY st4 "fill:#CCCCCC;stroke:#CCCCCC; stroke-width:0.1;stroke-linecap:round;stroke-linejoin:round;">
	<!-- Light-blue fill -->
	<!ENTITY st5 "fill:#CCECF4;stroke:#000000; stroke-width:1.133;stroke-linecap:round;stroke-linejoin:round;">
	<!ENTITY st6 "fill:none;stroke-linecap:butt; stroke-linejoin:round;">
	<!ENTITY st7 "fill:none;stroke:#000000;stroke-linecap:round;stroke-linejoin:round;">
	<!ENTITY st8 "enable-background:new    ;">
	<!-- Black fill -->
	<!ENTITY st9 "fill:#000000;stroke:#000000; stroke-linecap:round;stroke-linejoin:round;">
	<!-- SRS note   -->
	<!ENTITY st10 "font-size:9px;font-family:'ArialMT';">
	<!ENTITY st11 "font-size:9px;font-family:'Svg Symbol';">
	<!ENTITY st12 "font-size:6px;font-family:'Svg Symbol';">
	<!ENTITY st13 "fill:none;stroke:#ff0000;stroke-linecap:round;stroke-linejoin:round;">
	<!-- Yellow fill  -->
	<!ENTITY st14 "fill:#FFFF00;stroke:#FFFF00; stroke-width:0.1;stroke-linecap:round;stroke-linejoin:round;">
	<!ENTITY st15 "font-size:6px;font-family:'MS-PGothic';adobe-font-script:japanese;">
	<!ENTITY st16 "1.00 0.00 0.00 1.00">
	<!ENTITY st17 "0.00 -1.00 1.00 0.00">
	<!ENTITY st18 "font-size:6px;font-family:'Arial';">
	<!ENTITY st19 "font-size:9px;font-family:'Arial';">
	<!ENTITY st20 "font-size:6px;font-family:'MS-PGothic','MS PGothic';adobe-font-script:japanese;">
	<!ENTITY st21 "font-size:7px;font-family:'MS-PGothic','MS PGothic';adobe-font-script:japanese;">
	<!ATTLIST svg
		xmlns:ewd CDATA #FIXED "http://shcl.co.jp/ewd"
		xmlns:a CDATA #FIXED "http://ns.adobe.com/AdobeSVGViewerExtensions/3.0/"
		ewd:ver CDATA #IMPLIED
	>
	<!ATTLIST a
		ewd:lineID CDATA #IMPLIED
		ewd:groupID CDATA #IMPLIED
		ewd:figtype CDATA #IMPLIED
		ewd:code CDATA #IMPLIED
		ewd:figID CDATA #IMPLIED
		ewd:pinNo CDATA #IMPLIED
		ewd:comment CDATA #IMPLIED >
	<!ATTLIST g
		ewd:lineID CDATA #IMPLIED
		ewd:groupID CDATA #IMPLIED
		ewd:figtype CDATA #IMPLIED
		ewd:code CDATA #IMPLIED
		ewd:figID CDATA #IMPLIED
		ewd:pinNo CDATA #IMPLIED
		ewd:comment CDATA #IMPLIED >
	<!ATTLIST text
		ewd:textID CDATA #IMPLIED >
	<!ATTLIST title
		ewd:textID CDATA #IMPLIED >
]>
<!-- Generator: Shintec Hozumi YS   -->
<svg onload="call_execInitLoadProc_svg('system')" style="overflow:visible;  enable-background:new 0 0 1011.856 710.000" viewBox="0 0 1011.856 710.000" height="710.000" width="1011.856" xml:space="preserve" ewd:ver="L2.1.2.7" xmlns="&ns_svg;" xmlns:a="http://ns.adobe.com/AdobeSVGViewerExtensions/3.0/" xmlns:ewd="http://shcl.co.jp/ewd" xmlns:xlink="&ns_xlink;"><script type="text/javascript" xlink:href="../../../../../system/js/ewd/fig/svgfig.js" xmlns:xlink="http://www.w3.org/1999/xlink" /><defs><font horiz-adv-x="1229"><font-face font-family="Svg Symbol" units-per-em="2048" panose-1="5 5 1 2 1 7 6 2 5 7" ascent="2059" descent="450" alphabetic="0" /><missing-glyph d="M 103,0 l 0,1280 1024,0 0,-1280 -1024,0 z m 32,32 l 960,0 0,1216 -960,0 0,-1216 z" /><glyph unicode="" horiz-adv-x="1573" d="M 1517,0 l -567,0 24,279 q 141,59 207.5,168 66.5,109 66.5,306    0,272 -132.5,417.5 -132.5,145.5 -333.5,145.5 -194,0 -328,-147.5 -134,-147.5 -134,-401.5 0,-200 68.5,-319 68.5,-119     206.5,-169 l 25,-279 -564,0 0,279 35,0 q 3,-61 32,-83 45,-35 137,-35 l 270,0 0,70 q -210,61 -324.5,209 -114.5,148     -114.5,349 0,252 186.5,425 186.5,173 504.5,173 195,0 358.5,-73.5 163.5,-73.5 252,-214.5 88.5,-141 88.5,-310 0,-207     -121.5,-360.5 -121.5,-153.5 -317.5,-197.5 l -8,-70 275,0 q 92,0 128,28 36,28 42,90 l 38,0 0,-279 z" /></font></defs>
<g id="ewd_top"><a ewd:code="H79,H80" ewd:figID="1" ewd:figtype="conn" style="cursor:pointer;"><path d=" M  458.92,  426.71  L  458.92,  452.21  L  475.92,  452.21  L  475.92,  426.71  L  458.92,  426.71 " style="&st5;" /><title ewd:textID="10">Junction Connector</title></a><a ewd:code="H77" ewd:figID="2" ewd:figtype="conn" style="cursor:pointer;"><path d=" M  458.92,  503.20  L  458.92,  520.20  L  475.92,  520.20  L  475.92,  503.20  L  458.92,  503.20 " style="&st5;" /><title ewd:textID="10">Junction Connector</title></a><a ewd:code="H7" ewd:figID="3" ewd:figtype="conn" style="cursor:pointer;"><path d=" M  331.44,  112.27  L  331.44,  146.26  L  501.42,  146.26  L  501.42,  112.27  L  331.44,  112.27 " style="&st5;" /><title ewd:textID="11">No.1 Stereo Jack Adapter Assembly</title></a><a ewd:code="A19" ewd:figID="4" ewd:figtype="conn" style="cursor:pointer;"><path d=" M  118.98,  647.68  L  118.98,  681.67  L  356.94,  681.67  L  356.94,  647.68  L  118.98,  647.68 " style="&st5;" /><title ewd:textID="2">ABS and Traction Actuator Assembly</title></a><a ewd:code="N1" ewd:figID="5" ewd:figtype="conn" style="cursor:pointer;"><path d=" M  926.35,   48.53  L  926.35,   57.03  L  922.10,   65.52  L  947.59,   65.52  L  943.34,   57.03  L  943.34,   48.53  L  926.35,   48.53 " style="&st5;" /><title ewd:textID="16">Rear No.2 Speaker Assembly RH</title></a><a ewd:code="O31" ewd:figID="6" ewd:figtype="conn" style="cursor:pointer;"><path d=" M  747.88,  188.75  L  747.88,  222.75  L  849.86,  222.75  L  849.86,  188.75  L  747.88,  188.75 " style="&st5;" /><title ewd:textID="12">Quarter Side Speaker Assembly LH</title></a><a ewd:code="I23" ewd:figID="7" ewd:figtype="conn" style="cursor:pointer;"><path d=" M  203.97,  180.26  L  220.96,  180.26  L  220.96,  214.25  L  203.97,  214.25  L  203.97,  180.26 " style="&st5;" /><title ewd:textID="3">Amplifier Antenna Assembly</title></a><a ewd:code="O37" ewd:figID="8" ewd:figtype="conn" style="cursor:pointer;"><path d=" M  883.85,  188.75  L  883.85,  222.75  L  985.84,  222.75  L  985.84,  188.75  L  883.85,  188.75 " style="&st5;" /><title ewd:textID="13">Quarter Side Speaker Assembly RH</title></a><a ewd:code="H37" ewd:figID="9" ewd:figtype="conn" style="cursor:pointer;"><path d=" M  314.45,  375.72  L  314.45,  435.21  L  433.43,  435.21  L  433.43,  375.72  L  314.45,  375.72 " style="&st5;" /><title ewd:textID="5">Combination Meter Assembly</title></a><a ewd:code="I11" ewd:figID="10" ewd:figtype="conn" style="cursor:pointer;"><path d=" M  178.47,  375.72  L  178.47,  426.71  L  280.45,  426.71  L  280.45,  375.72  L  178.47,  375.72 " style="&st5;" /><title ewd:textID="7">Front No.1 Speaker Assembly RH</title></a><a ewd:code="M10" ewd:figID="11" ewd:figtype="conn" style="cursor:pointer;"><path d=" M   84.99,  524.45  L   84.99,  532.95  L   80.74,  541.44  L  106.23,  541.44  L  101.98,  532.95  L  101.98,  524.45  L   84.99,  524.45 " style="&st5;" /><title ewd:textID="8">Front No.2 Speaker Assembly LH</title></a><a ewd:code="N7" ewd:figID="12" ewd:figtype="conn" style="cursor:pointer;"><path d=" M  790.37,   48.53  L  790.37,   57.03  L  786.12,   65.52  L  811.61,   65.52  L  807.37,   57.03  L  807.37,   48.53  L  790.37,   48.53 " style="&st5;" /><title ewd:textID="15">Rear No.2 Speaker Assembly LH</title></a><a ewd:code="FUSE22" ewd:figID="13" ewd:figtype="rb" style="cursor:pointer;"><path d=" M   38.24,   78.27  L   38.24,   35.78  L   12.75,   35.78  L   12.75,   78.27  L   38.24,   78.27 " style="&st5;" /></a><a ewd:code="I13" ewd:figID="14" ewd:figtype="conn" style="cursor:pointer;"><path d=" M   42.49,  375.72  L   42.49,  426.71  L  144.48,  426.71  L  144.48,  375.72  L   42.49,  375.72 " style="&st5;" /><title ewd:textID="6">Front No.1 Speaker Assembly LH</title></a><a ewd:code="L8" ewd:figID="15" ewd:figtype="conn" style="cursor:pointer;"><path d=" M  220.96,  524.45  L  220.96,  532.95  L  216.71,  541.44  L  242.21,  541.44  L  237.96,  532.95  L  237.96,  524.45  L  220.96,  524.45 " style="&st5;" /><title ewd:textID="9">Front No.2 Speaker Assembly RH</title></a><a ewd:code="I1,I2,I3" ewd:figID="16" ewd:figtype="conn" style="cursor:pointer;"><path d=" M    8.50,  282.24  L    8.50,  324.73  L  679.89,  324.73  L  679.89,  282.24  L    8.50,  282.24 " style="&st5;" /><title ewd:textID="14">Radio Receiver Assembly</title></a><a ewd:code="D-JB" ewd:figID="17" ewd:figtype="jb" style="cursor:pointer;"><path d=" M   59.49,   35.78  L   59.49,  103.77  L  101.98,  103.77  L  101.98,   35.78  L   59.49,   35.78 " style="&st4;" /></a><a ewd:code="FUSE53" ewd:figID="18" ewd:figtype="fuse" style="cursor:pointer;"><path d=" M   63.74,   35.78  L   63.74,   78.27  L   89.24,   78.27  L   89.24,   35.78  L   63.74,   35.78 " style="&st7;" /></a><a ewd:code="FUSE22" ewd:figID="19" ewd:figtype="fuse" style="cursor:pointer;"><path d=" M   38.24,   78.27  L   38.24,   35.78  L   12.75,   35.78  L   12.75,   78.27  L   38.24,   78.27 " style="&st7;" /></a><a ewd:lineID="1" style="cursor:pointer;"><path d=" M   25.50,  681.67  L   25.50,  333.80 " style="stroke:#000000;stroke-width: 5.10 ;&st6;" /><path d=" M   25.50,  681.67  L   25.50,  333.80 " style="stroke:#FFFFFF;stroke-width: 4.53 ;&st6;" /><path d=" M   25.50,  681.67  L   25.50,  333.80 " style="stroke:#000000;stroke-width: 1.13 ;&st6;" /></a><a ewd:lineID="2" style="cursor:pointer;"><path d=" M   25.50,  273.17  L   25.50,  237.48 " style="stroke:#00A0C6;stroke-width: 5.10 ;&st6;" /></a><a ewd:lineID="3" style="cursor:pointer;"><path d=" M   25.50,  222.75  L   25.50,  186.49 " style="stroke:#56077D;stroke-width: 5.10 ;&st6;" /></a><a ewd:lineID="4" style="cursor:pointer;"><path d=" M   25.50,  171.76  L   25.50,  103.77 " style="stroke:#C3AF96;stroke-width: 5.10 ;&st6;" /></a><a ewd:lineID="5" style="cursor:pointer;"><path d=" M   84.99,  528.70  L   59.49,  528.70  L   59.49,  486.20 " style="stroke:#7FC97F;stroke-width: 5.10 ;&st6;" /></a><a ewd:lineID="6" style="cursor:pointer;"><path d=" M   59.49,  471.47  L   59.49,  426.71 " style="stroke:#000000;stroke-width: 5.10 ;&st6;" /></a><a ewd:lineID="7" style="cursor:pointer;"><path d=" M   59.49,  375.72  L   59.49,  333.80 " style="stroke:#FFE600;stroke-width: 5.10 ;&st6;" /></a><a ewd:lineID="8" style="cursor:pointer;"><path d=" M   76.49,  103.77  L   76.49,  273.17 " style="stroke:#999999;stroke-width: 5.10 ;&st6;" /></a><a ewd:lineID="9" style="cursor:pointer;"><path d=" M  101.98,  528.70  L  127.48,  528.70  L  127.48,  486.20 " style="stroke:#FF0000;stroke-width: 5.10 ;&st6;" /></a><a ewd:lineID="10" style="cursor:pointer;"><path d=" M  127.48,  471.47  L  127.48,  426.71 " style="stroke:#C3AF96;stroke-width: 5.10 ;&st6;" /></a><a ewd:lineID="11" style="cursor:pointer;"><path d=" M  127.48,  375.72  L  127.48,  333.80 " style="stroke:#000000;stroke-width: 5.10 ;&st6;" /><path d=" M  127.48,  375.72  L  127.48,  333.80 " style="stroke:#FFFFFF;stroke-width: 4.53 ;&st6;" /></a><a ewd:lineID="12" style="cursor:pointer;"><path d=" M  135.98,  647.68  L  135.98,  596.69 " style="stroke:#56077D;stroke-width: 5.10 ;&st6;" /></a><a ewd:lineID="13" style="cursor:pointer;"><path d=" M  161.47,  647.68  L  161.47,  596.69 " style="stroke:#7FC97F;stroke-width: 5.10 ;&st6;" /></a><a ewd:lineID="14" style="cursor:pointer;"><path d=" M  186.97,  647.68  L  186.97,  596.69 " style="stroke:#C3AF96;stroke-width: 5.10 ;&st6;" /></a><a ewd:lineID="15" style="cursor:pointer;"><path d=" M  220.96,  528.70  L  195.47,  528.70  L  195.47,  486.20 " style="stroke:#C3AF96;stroke-width: 5.10 ;&st6;" /></a><a ewd:lineID="16" style="cursor:pointer;"><path d=" M  195.47,  471.47  L  195.47,  426.71 " style="stroke:#008837;stroke-width: 5.10 ;&st6;" /></a><a ewd:lineID="17" style="cursor:pointer;"><path d=" M  195.47,  375.72  L  195.47,  333.80 " style="stroke:#7FC97F;stroke-width: 5.10 ;&st6;" /></a><a ewd:lineID="18" style="cursor:pointer;"><path d=" M  212.46,  647.68  L  212.46,  596.69 " style="stroke:#008837;stroke-width: 5.10 ;&st6;" /></a><a ewd:lineID="19" style="cursor:pointer;"><path d=" M  212.46,  273.17  L  212.46,  214.25 " style="stroke:#000000;stroke-width: 5.10 ;&st6;" /><path d=" M  212.46,  273.17  L  212.46,  214.25 " style="stroke:#FFFFFF;stroke-width: 4.53 ;&st6;" /></a><a ewd:lineID="20" style="cursor:pointer;"><path d=" M  237.96,  647.68  L  237.96,  596.69 " style="stroke:#00A0C6;stroke-width: 5.10 ;&st6;" /></a><a ewd:lineID="21" style="cursor:pointer;"><path d=" M  237.96,  528.70  L  263.46,  528.70  L  263.46,  486.20 " style="stroke:#F668B2;stroke-width: 5.10 ;&st6;" /></a><a ewd:lineID="22" style="cursor:pointer;"><path d=" M  263.46,  647.68  L  263.46,  596.69 " style="stroke:#F668B2;stroke-width: 5.10 ;&st6;" /></a><a ewd:lineID="23" style="cursor:pointer;"><path d=" M  263.46,  471.47  L  263.46,  426.71 " style="stroke:#FF0000;stroke-width: 5.10 ;&st6;" /></a><a ewd:lineID="24" style="cursor:pointer;"><path d=" M  263.46,  375.72  L  263.46,  333.80 " style="stroke:#00A0C6;stroke-width: 5.10 ;&st6;" /></a><a ewd:lineID="25" style="cursor:pointer;"><path d=" M  288.95,  647.68  L  288.95,  596.69 " style="stroke:#000000;stroke-width: 5.10 ;&st6;" /></a><a ewd:lineID="26" style="cursor:pointer;"><path d=" M  314.45,  647.68  L  314.45,  596.69 " style="stroke:#000000;stroke-width: 5.10 ;&st6;" /><path d=" M  314.45,  647.68  L  314.45,  596.69 " style="stroke:#FFFFFF;stroke-width: 4.53 ;&st6;" /></a><a ewd:lineID="27" style="cursor:pointer;"><path d=" M  339.94,  647.68  L  339.94,  486.20 " style="stroke:#FFE600;stroke-width: 5.10 ;&st6;" /></a><a ewd:lineID="28" style="cursor:pointer;"><path d=" M  339.94,  471.47  L  339.94,  435.21 " style="stroke:#999999;stroke-width: 5.10 ;&st6;" /></a><a ewd:lineID="29" style="cursor:pointer;"><path d=" M  348.44,  273.17  L  348.44,  220.48 " style="stroke:#000000;stroke-width: 5.10 ;&st6;" /></a><a ewd:lineID="30" style="cursor:pointer;"><path d=" M  348.44,  205.75  L  348.44,  146.26 " style="stroke:#000000;stroke-width: 5.10 ;&st6;" /></a><a ewd:lineID="31" style="cursor:pointer;"><path d=" M  382.44,  273.17  L  382.44,  220.48 " style="stroke:#FF0000;stroke-width: 5.10 ;&st6;" /></a><a ewd:lineID="32" style="cursor:pointer;"><path d=" M  382.44,  205.75  L  382.44,  146.26 " style="stroke:#FF0000;stroke-width: 5.10 ;&st6;" /></a><a ewd:lineID="33" style="cursor:pointer;"><path d=" M  467.42,  529.26  L  467.42,  571.19  L  407.93,  571.19  L  407.93,  435.21 " style="stroke:#56077D;stroke-width: 5.10 ;&st6;" /></a><a ewd:lineID="34" style="cursor:pointer;"><path d=" M  416.43,  273.17  L  416.43,  220.77 " style="stroke:#000000;stroke-width: 5.10 ;&st6;" /><path d=" M  416.43,  273.17  L  416.43,  220.77 " style="stroke:#FFFFFF;stroke-width: 4.53 ;&st6;" /></a><a ewd:lineID="35" style="cursor:pointer;"><path d=" M  416.43,  205.75  L  416.43,  146.26 " style="stroke:#000000;stroke-width: 5.10 ;&st6;" /><path d=" M  416.43,  205.75  L  416.43,  146.26 " style="stroke:#FFFFFF;stroke-width: 4.53 ;&st6;" /></a><a ewd:lineID="36" style="cursor:pointer;"><path d=" M  467.42,  494.14  L  467.42,  461.27 " style="stroke:#7FC97F;stroke-width: 5.10 ;&st6;" /></a><a ewd:lineID="37" style="cursor:pointer;"><path d=" M  467.42,  417.65  L  467.42,  384.22 " style="stroke:#000000;stroke-width: 5.10 ;&st6;" /><path d=" M  467.42,  417.65  L  467.42,  384.22 " style="stroke:#FFFFFF;stroke-width: 4.53 ;&st6;" /></a><a ewd:lineID="38" style="cursor:pointer;"><path d=" M  467.42,  369.21  L  467.42,  333.80 " style="stroke:#000000;stroke-width: 5.10 ;&st6;" /><path d=" M  467.42,  369.21  L  467.42,  333.80 " style="stroke:#FFFFFF;stroke-width: 4.53 ;&st6;" /></a><a ewd:lineID="39" style="cursor:pointer;"><path d=" M  484.42,  273.17  L  484.42,  220.48 " style="stroke:#99D9E8;stroke-width: 5.10 ;&st6;" /></a><a ewd:lineID="40" style="cursor:pointer;"><path d=" M  484.42,  205.75  L  484.42,  146.26 " style="stroke:#99D9E8;stroke-width: 5.10 ;&st6;" /></a><a ewd:lineID="41" style="cursor:pointer;"><path d=" M  968.84,  313.97  L  968.84,  443.71  L  560.91,  443.71  L  560.91,  333.80 " style="stroke:#FFE600;stroke-width: 5.10 ;&st6;" /></a><a ewd:lineID="42" style="cursor:pointer;"><path d=" M  900.85,  313.97  L  900.85,  426.71  L  594.90,  426.71  L  594.90,  333.80 " style="stroke:#000000;stroke-width: 5.10 ;&st6;" /></a><a ewd:lineID="43" style="cursor:pointer;"><path d=" M  832.86,  314.25  L  832.86,  409.72  L  628.89,  409.72  L  628.89,  333.80 " style="stroke:#000000;stroke-width: 5.10 ;&st6;" /><path d=" M  832.86,  314.25  L  832.86,  409.72  L  628.89,  409.72  L  628.89,  333.80 " style="stroke:#FFFFFF;stroke-width: 4.53 ;&st6;" /></a><a ewd:lineID="44" style="cursor:pointer;"><path d=" M  764.87,  313.97  L  764.87,  392.72  L  662.89,  392.72  L  662.89,  333.80 " style="stroke:#FF0000;stroke-width: 5.10 ;&st6;" /></a><a ewd:lineID="45" style="cursor:pointer;"><path d=" M  764.87,  299.24  L  764.87,  222.75 " style="stroke:#FF0000;stroke-width: 5.10 ;&st6;" /></a><a ewd:lineID="46" style="cursor:pointer;"><path d=" M  764.87,  188.75  L  764.87,  110.00 " style="stroke:#999999;stroke-width: 5.10 ;&st6;" /></a><a ewd:lineID="47" style="cursor:pointer;"><path d=" M  790.37,   52.78  L  764.87,   52.78  L  764.87,   95.27 " style="stroke:#FF0000;stroke-width: 5.10 ;&st6;" /></a><a ewd:lineID="48" style="cursor:pointer;"><path d=" M  807.37,   52.78  L  832.86,   52.78  L  832.86,   95.27 " style="stroke:#000000;stroke-width: 5.10 ;&st6;" /><path d=" M  807.37,   52.78  L  832.86,   52.78  L  832.86,   95.27 " style="stroke:#FFFFFF;stroke-width: 4.53 ;&st6;" /></a><a ewd:lineID="49" style="cursor:pointer;"><path d=" M  832.86,  299.24  L  832.86,  222.75 " style="stroke:#992903;stroke-width: 5.10 ;&st6;" /></a><a ewd:lineID="50" style="cursor:pointer;"><path d=" M  832.86,  188.75  L  832.86,  110.00 " style="stroke:#008837;stroke-width: 5.10 ;&st6;" /></a><a ewd:lineID="51" style="cursor:pointer;"><path d=" M  900.85,  299.24  L  900.85,  273.74 " style="stroke:#000000;stroke-width: 5.10 ;&st6;" /></a><a ewd:lineID="52" style="cursor:pointer;"><path d=" M  900.85,  259.01  L  900.85,  222.75 " style="stroke:#992903;stroke-width: 5.10 ;&st6;" /></a><a ewd:lineID="53" style="cursor:pointer;"><path d=" M  900.85,  188.75  L  900.85,  152.49 " style="stroke:#000000;stroke-width: 5.10 ;&st6;" /></a><a ewd:lineID="54" style="cursor:pointer;"><path d=" M  900.85,  137.76  L  900.85,  110.00 " style="stroke:#008837;stroke-width: 5.10 ;&st6;" /></a><a ewd:lineID="55" style="cursor:pointer;"><path d=" M  926.35,   52.78  L  900.85,   52.78  L  900.85,   95.27 " style="stroke:#FF0000;stroke-width: 5.10 ;&st6;" /></a><a ewd:lineID="56" style="cursor:pointer;"><path d=" M  943.34,   52.78  L  968.84,   52.78  L  968.84,   95.27 " style="stroke:#000000;stroke-width: 5.10 ;&st6;" /><path d=" M  943.34,   52.78  L  968.84,   52.78  L  968.84,   95.27 " style="stroke:#FFFFFF;stroke-width: 4.53 ;&st6;" /></a><a ewd:lineID="57" style="cursor:pointer;"><path d=" M  968.84,  299.24  L  968.84,  273.74 " style="stroke:#FFE600;stroke-width: 5.10 ;&st6;" /></a><a ewd:lineID="58" style="cursor:pointer;"><path d=" M  968.84,  259.01  L  968.84,  222.75 " style="stroke:#FFE600;stroke-width: 5.10 ;&st6;" /></a><a ewd:lineID="59" style="cursor:pointer;"><path d=" M  968.84,  188.75  L  968.84,  152.49 " style="stroke:#999999;stroke-width: 5.10 ;&st6;" /></a><a ewd:lineID="60" style="cursor:pointer;"><path d=" M  968.84,  137.76  L  968.84,  110.00 " style="stroke:#F668B2;stroke-width: 5.10 ;&st6;" /></a><a ewd:code="MI1" ewd:figID="20" ewd:figtype="w2w" ewd:pinNo="6" style="cursor:pointer;"><path d=" M   67.99,  477.71  L   50.99,  477.71  L   50.99,  486.20  L   67.99,  486.20  L   67.99,  477.71 " style="&st2;" /><text style="&st8;" transform="matrix(&st16;  53.73  484.45 )"><tspan style="&st18;" x="0" y="0">MI1</tspan></text></a><a ewd:code="LI1" ewd:figID="21" ewd:figtype="w2w" ewd:pinNo="5" style="cursor:pointer;"><path d=" M  271.95,  477.71  L  254.96,  477.71  L  254.96,  486.20  L  271.95,  486.20  L  271.95,  477.71 " style="&st2;" /><text style="&st8;" transform="matrix(&st16;  258.66  484.45 )"><tspan style="&st18;" x="0" y="0">LI1</tspan></text></a><a ewd:code="LI1" ewd:figID="22" ewd:figtype="w2w" ewd:pinNo="4" style="cursor:pointer;"><path d=" M  203.97,  477.71  L  186.97,  477.71  L  186.97,  486.20  L  203.97,  486.20  L  203.97,  477.71 " style="&st2;" /><text style="&st8;" transform="matrix(&st16;  190.67  484.45 )"><tspan style="&st18;" x="0" y="0">LI1</tspan></text></a><a ewd:code="MI1" ewd:figID="23" ewd:figtype="w2w" ewd:pinNo="7" style="cursor:pointer;"><path d=" M  135.98,  477.71  L  118.98,  477.71  L  118.98,  486.20  L  135.98,  486.20  L  135.98,  477.71 " style="&st2;" /><text style="&st8;" transform="matrix(&st16;  121.72  484.45 )"><tspan style="&st18;" x="0" y="0">MI1</tspan></text></a><a ewd:code="HI1" ewd:figID="24" ewd:figtype="w2w" ewd:pinNo="11" style="cursor:pointer;"><path d=" M   33.99,  222.75  L   17.00,  222.75  L   17.00,  231.25  L   33.99,  231.25  L   33.99,  222.75 " style="&st2;" /><text style="&st8;" transform="matrix(&st16;  20.18  229.49 )"><tspan style="&st18;" x="0" y="0">HI1</tspan></text></a><a ewd:code="HI1" ewd:figID="25" ewd:figtype="w2w" ewd:pinNo="2" style="cursor:pointer;"><path d=" M  475.92,  375.72  L  458.92,  375.72  L  458.92,  384.22  L  475.92,  384.22  L  475.92,  375.72 " style="&st2;" /><text style="&st8;" transform="matrix(&st16;  462.1  382.47 )"><tspan style="&st18;" x="0" y="0">HI1</tspan></text></a><a ewd:code="HI2" ewd:figID="26" ewd:figtype="w2w" ewd:pinNo="16" style="cursor:pointer;"><path d=" M  356.94,  205.75  L  339.94,  205.75  L  339.94,  214.25  L  356.94,  214.25  L  356.94,  205.75 " style="&st2;" /><text style="&st8;" transform="matrix(&st16;  342.72  212.49 )"><tspan style="&st18;" x="0" y="0">HI2</tspan></text></a><a ewd:code="HI2" ewd:figID="27" ewd:figtype="w2w" ewd:pinNo="15" style="cursor:pointer;"><path d=" M  390.93,  205.75  L  373.94,  205.75  L  373.94,  214.25  L  390.93,  214.25  L  390.93,  205.75 " style="&st2;" /><text style="&st8;" transform="matrix(&st16;  376.71  212.49 )"><tspan style="&st18;" x="0" y="0">HI2</tspan></text></a><a ewd:code="HI2" ewd:figID="28" ewd:figtype="w2w" ewd:pinNo="17" style="cursor:pointer;"><path d=" M  492.92,  205.75  L  475.92,  205.75  L  475.92,  214.25  L  492.92,  214.25  L  492.92,  205.75 " style="&st2;" /><text style="&st8;" transform="matrix(&st16;  478.69  212.49 )"><tspan style="&st18;" x="0" y="0">HI2</tspan></text></a><a ewd:code="AH8" ewd:figID="29" ewd:figtype="w2w" ewd:pinNo="7" style="cursor:pointer;"><path d=" M   33.99,  171.76  L   17.00,  171.76  L   17.00,  180.26  L   33.99,  180.26  L   33.99,  171.76 " style="&st2;" /><text style="&st8;" transform="matrix(&st16;  18.36  178.5 )"><tspan style="&st18;" x="0" y="0">AH8</tspan></text></a><a ewd:code="HI2" ewd:figID="30" ewd:figtype="w2w" ewd:pinNo="14" style="cursor:pointer;"><path d=" M  424.93,  205.75  L  407.93,  205.75  L  407.93,  214.25  L  424.93,  214.25  L  424.93,  205.75 " style="&st2;" /><text style="&st8;" transform="matrix(&st16;  410.7  212.49 )"><tspan style="&st18;" x="0" y="0">HI2</tspan></text></a><a ewd:code="AH10" ewd:figID="31" ewd:figtype="w2w" ewd:pinNo="19" style="cursor:pointer;"><path d=" M  348.44,  477.71  L  331.44,  477.71  L  331.44,  486.20  L  348.44,  486.20  L  348.44,  477.71 " style="&st2;" /><text style="&st8;" transform="matrix(&st16;  331.13  484.45 )"><tspan style="&st18;" x="0" y="0">AH10</tspan></text></a><a ewd:code="OI1" ewd:figID="32" ewd:figtype="w2w" ewd:pinNo="5" style="cursor:pointer;"><path d=" M  773.37,  299.24  L  756.37,  299.24  L  756.37,  307.73  L  773.37,  307.73  L  773.37,  299.24 " style="&st2;" /><text style="&st8;" transform="matrix(&st16;  759.26  305.98 )"><tspan style="&st18;" x="0" y="0">OI1</tspan></text></a><a ewd:code="NO1" ewd:figID="33" ewd:figtype="w2w" ewd:pinNo="5" style="cursor:pointer;"><path d=" M  773.37,   95.27  L  756.37,   95.27  L  756.37,  103.77  L  773.37,  103.77  L  773.37,   95.27 " style="&st2;" /><text style="&st8;" transform="matrix(&st16;  757.7  102.01 )"><tspan style="&st18;" x="0" y="0">NO1</tspan></text></a><a ewd:code="NO1" ewd:figID="34" ewd:figtype="w2w" ewd:pinNo="6" style="cursor:pointer;"><path d=" M  841.36,   95.27  L  824.36,   95.27  L  824.36,  103.77  L  841.36,  103.77  L  841.36,   95.27 " style="&st2;" /><text style="&st8;" transform="matrix(&st16;  825.68  102.01 )"><tspan style="&st18;" x="0" y="0">NO1</tspan></text></a><a ewd:code="NP1" ewd:figID="35" ewd:figtype="w2w" ewd:pinNo="5" style="cursor:pointer;"><path d=" M  909.35,   95.27  L  892.35,   95.27  L  892.35,  103.77  L  909.35,  103.77  L  909.35,   95.27 " style="&st2;" /><text style="&st8;" transform="matrix(&st16;  894.12  102.01 )"><tspan style="&st18;" x="0" y="0">NP1</tspan></text></a><a ewd:code="NP1" ewd:figID="36" ewd:figtype="w2w" ewd:pinNo="6" style="cursor:pointer;"><path d=" M  977.34,   95.27  L  960.34,   95.27  L  960.34,  103.77  L  977.34,  103.77  L  977.34,   95.27 " style="&st2;" /><text style="&st8;" transform="matrix(&st16;  962.11  102.01 )"><tspan style="&st18;" x="0" y="0">NP1</tspan></text></a><a ewd:code="OI1" ewd:figID="37" ewd:figtype="w2w" ewd:pinNo="10" style="cursor:pointer;"><path d=" M  841.36,  299.24  L  824.36,  299.24  L  824.36,  307.73  L  841.36,  307.73  L  841.36,  299.24 " style="&st2;" /><text style="&st8;" transform="matrix(&st16;  827.25  305.98 )"><tspan style="&st18;" x="0" y="0">OI1</tspan></text></a><a ewd:code="PO1" ewd:figID="38" ewd:figtype="w2w" ewd:pinNo="5" style="cursor:pointer;"><path d=" M  909.35,  137.76  L  892.35,  137.76  L  892.35,  146.26  L  909.35,  146.26  L  909.35,  137.76 " style="&st2;" /><text style="&st8;" transform="matrix(&st16;  893.82  144.51 )"><tspan style="&st18;" x="0" y="0">PO1</tspan></text></a><a ewd:code="PO1" ewd:figID="39" ewd:figtype="w2w" ewd:pinNo="13" style="cursor:pointer;"><path d=" M  977.34,  137.76  L  960.34,  137.76  L  960.34,  146.26  L  977.34,  146.26  L  977.34,  137.76 " style="&st2;" /><text style="&st8;" transform="matrix(&st16;  961.81  144.51 )"><tspan style="&st18;" x="0" y="0">PO1</tspan></text></a><a ewd:code="PI1" ewd:figID="40" ewd:figtype="w2w" ewd:pinNo="4" style="cursor:pointer;"><path d=" M  909.35,  299.24  L  892.35,  299.24  L  892.35,  307.73  L  909.35,  307.73  L  909.35,  299.24 " style="&st2;" /><text style="&st8;" transform="matrix(&st16;  895.68  305.98 )"><tspan style="&st18;" x="0" y="0">PI1</tspan></text></a><a ewd:code="PI1" ewd:figID="41" ewd:figtype="w2w" ewd:pinNo="3" style="cursor:pointer;"><path d=" M  977.34,  299.24  L  960.34,  299.24  L  960.34,  307.73  L  977.34,  307.73  L  977.34,  299.24 " style="&st2;" /><text style="&st8;" transform="matrix(&st16;  963.67  305.98 )"><tspan style="&st18;" x="0" y="0">PI1</tspan></text></a><a ewd:code="PO1" ewd:figID="42" ewd:figtype="w2w" ewd:pinNo="1" style="cursor:pointer;"><path d=" M  909.35,  265.24  L  892.35,  265.24  L  892.35,  273.74  L  909.35,  273.74  L  909.35,  265.24 " style="&st2;" /><text style="&st8;" transform="matrix(&st16;  893.82  271.98 )"><tspan style="&st18;" x="0" y="0">PO1</tspan></text></a><a ewd:code="PO1" ewd:figID="43" ewd:figtype="w2w" ewd:pinNo="9" style="cursor:pointer;"><path d=" M  977.34,  265.24  L  960.34,  265.24  L  960.34,  273.74  L  977.34,  273.74  L  977.34,  265.24 " style="&st2;" /><text style="&st8;" transform="matrix(&st16;  961.81  271.98 )"><tspan style="&st18;" x="0" y="0">PO1</tspan></text></a><a ewd:code="HI2" ewd:figID="44" ewd:figtype="w2w" ewd:pinNo="13" style="cursor:pointer;"><path d=" M  458.92,  205.75  L  441.93,  205.75  L  441.93,  214.25  L  458.92,  214.25  L  458.92,  205.75 " style="&st2;" /><text style="&st8;" transform="matrix(&st16;  444.7  212.49 )"><tspan style="&st18;" x="0" y="0">HI2</tspan></text></a><a ewd:code="I1" ewd:figID="45" ewd:figtype="gp" style="cursor:pointer;"><path d=" M   14.87,  681.67  L   36.12,  681.67  L   25.50,  697.25  L   14.87,  681.67 " style="&st2;" /><text style="&st8;" transform="matrix(&st16;  22.78  689.83 )"><tspan style="&st18;" x="0" y="0">I1</tspan></text></a></g></svg>