﻿<?xml version="1.0" encoding="utf-8"?>
<!DOCTYPE svg PUBLIC "-//W3C//DTD SVG 1.0//EN" "http://www.w3.org/TR/2001/REC-SVG-20010904/DTD/svg10.dtd"[
	<!ENTITY ns_flows "http://ns.adobe.com/Flows/1.0/">
	<!ENTITY ns_svg "http://www.w3.org/2000/svg">
	<!ENTITY ns_xlink "http://www.w3.org/1999/xlink">
	<!ENTITY st0 "font-size:7px;font-family:'MS-PGothic';adobe-font-script:japanese;">
	<!ENTITY st1 "font-size:6px;font-family:'ArialMT';">
	<!-- White fill  -->
	<!ENTITY st2 "fill:#FFFFFF;stroke:#000000; stroke-width:1.41;stroke-linecap:round;stroke-linejoin:round;">
	<!-- Yellow fill  -->
	<!ENTITY st3 "fill:#FFFFCC;stroke:#FFFFCC; stroke-width:0.1;stroke-linecap:round;stroke-linejoin:round;">
	<!-- Gray fill  -->
	<!ENTITY st4 "fill:#CCCCCC;stroke:#CCCCCC; stroke-width:0.1;stroke-linecap:round;stroke-linejoin:round;">
	<!-- Light-blue fill -->
	<!ENTITY st5 "fill:#CCECF4;stroke:#000000; stroke-width:1.133;stroke-linecap:round;stroke-linejoin:round;">
	<!ENTITY st6 "fill:none;stroke-linecap:butt; stroke-linejoin:round;">
	<!ENTITY st7 "fill:none;stroke:#000000;stroke-linecap:round;stroke-linejoin:round;">
	<!ENTITY st8 "enable-background:new    ;">
	<!-- Black fill -->
	<!ENTITY st9 "fill:#000000;stroke:#000000; stroke-linecap:round;stroke-linejoin:round;">
	<!-- SRS note   -->
	<!ENTITY st10 "font-size:9px;font-family:'ArialMT';">
	<!ENTITY st11 "font-size:9px;font-family:'Svg Symbol';">
	<!ENTITY st12 "font-size:6px;font-family:'Svg Symbol';">
	<!ENTITY st13 "fill:none;stroke:#ff0000;stroke-linecap:round;stroke-linejoin:round;">
	<!-- Yellow fill  -->
	<!ENTITY st14 "fill:#FFFF00;stroke:#FFFF00; stroke-width:0.1;stroke-linecap:round;stroke-linejoin:round;">
	<!ENTITY st15 "font-size:6px;font-family:'MS-PGothic';adobe-font-script:japanese;">
	<!ENTITY st16 "1.00 0.00 0.00 1.00">
	<!ENTITY st17 "0.00 -1.00 1.00 0.00">
	<!ENTITY st18 "font-size:6px;font-family:'Arial';">
	<!ENTITY st19 "font-size:9px;font-family:'Arial';">
	<!ENTITY st20 "font-size:6px;font-family:'MS-PGothic','MS PGothic';adobe-font-script:japanese;">
	<!ENTITY st21 "font-size:7px;font-family:'MS-PGothic','MS PGothic';adobe-font-script:japanese;">
	<!ATTLIST svg
		xmlns:ewd CDATA #FIXED "http://shcl.co.jp/ewd"
		xmlns:a CDATA #FIXED "http://ns.adobe.com/AdobeSVGViewerExtensions/3.0/"
		ewd:ver CDATA #IMPLIED
	>
	<!ATTLIST a
		ewd:lineID CDATA #IMPLIED
		ewd:groupID CDATA #IMPLIED
		ewd:figtype CDATA #IMPLIED
		ewd:code CDATA #IMPLIED
		ewd:figID CDATA #IMPLIED
		ewd:pinNo CDATA #IMPLIED
		ewd:comment CDATA #IMPLIED >
	<!ATTLIST g
		ewd:lineID CDATA #IMPLIED
		ewd:groupID CDATA #IMPLIED
		ewd:figtype CDATA #IMPLIED
		ewd:code CDATA #IMPLIED
		ewd:figID CDATA #IMPLIED
		ewd:pinNo CDATA #IMPLIED
		ewd:comment CDATA #IMPLIED >
	<!ATTLIST text
		ewd:textID CDATA #IMPLIED >
	<!ATTLIST title
		ewd:textID CDATA #IMPLIED >
]>
<!-- Generator: Shintec Hozumi YS   -->
<svg onload="call_execInitLoadProc_svg('system')" style="overflow:visible;  enable-background:new 0 0 4108.186 710.000" viewBox="0 0 4108.186 710.000" height="710.000" width="4108.186" xml:space="preserve" ewd:ver="L2.1.2.7" xmlns="&ns_svg;" xmlns:a="http://ns.adobe.com/AdobeSVGViewerExtensions/3.0/" xmlns:ewd="http://shcl.co.jp/ewd" xmlns:xlink="&ns_xlink;">
<path d=" M 2934.13,  137.76  L 2929.89,  137.76 " style="stroke-width: 1.42 ;&st7; " /><path d=" M 2934.13,  146.26  L 2929.89,  146.26 " style="stroke-width: 1.42 ;&st7; " /><path d=" M 2560.20,  163.26  L 2555.95,  163.26 " style="stroke-width: 1.42 ;&st7; " /><path d=" M 2560.20,  154.76  L 2555.95,  154.76 " style="stroke-width: 1.42 ;&st7; " /><path d=" M 2923.51,  701.50  L 2940.51,  701.50 " style="stroke-width: 0.85 ;&st7; " /><path d=" M 2932.01,  697.25  L 2932.01,  701.50 " style="stroke-width: 0.85 ;&st7; " /><path d=" M 2932.01,  132.87  L 2929.18,  130.03  L 2929.18,  134.28  L 2932.01,  137.12  L 2934.84,  134.28  L 2934.84,  130.03  L 2932.01,  132.87 " style="stroke-width: 0.28 ;&st9;" /><path d=" M 2932.01,   86.77  L 2932.01,  137.76 " style="stroke-width: 0.85 ;&st7; " /><path d=" M 2930.82,  111.26  L 2930.54,  111.73  L 2930.45,  112.27  L 2930.54,  112.80  L 2930.82,  113.27  L 2931.23,  113.62  L 2931.74,  113.80  L 2932.28,  113.80  L 2932.79,  113.62  L 2933.20,  113.27  L 2933.47,  112.80  L 2933.57,  112.27  L 2933.47,  111.73  L 2933.20,  111.26  L 2932.79,  110.92  L 2932.28,  110.73  L 2931.74,  110.73  L 2931.23,  110.92  L 2930.82,  111.26  L 2931.21,  111.98  L 2931.21,  112.56  L 2931.58,  113.00  L 2932.16,  113.10  L 2932.66,  112.81  L 2932.86,  112.27  L 2932.66,  111.72  L 2932.16,  111.43  L 2931.58,  111.53  L 2932.01,  112.27 " style="stroke-width: 0.85 ;&st7; " /><path d=" M 2927.76,  704.33  L 2936.26,  704.33 " style="stroke-width: 0.85 ;&st7; " /><path d=" M 2929.18,  707.17  L 2934.84,  707.17 " style="stroke-width: 0.85 ;&st7; " /><path d=" M 2930.59,  710.00  L 2933.43,  710.00 " style="stroke-width: 0.85 ;&st7; " /><path d=" M 2923.51,  384.22  L 2983.00,  384.22  L 2983.00,  401.22  L 2923.51,  401.22  L 2923.51,  384.22 " style="stroke-width: 1.42 ;&st7; " /><path d=" M 2932.01,  384.22  L 2932.01,  401.22 " style="stroke-width: 0.85 ;&st7; " /><path d=" M 2889.52,   86.77  L 2889.52,  112.27  L 2932.01,  112.27 " style="stroke-width: 0.85 ;&st7; " /><path d=" M 2558.07,  154.76  L 2558.07,   86.77 " style="stroke-width: 0.85 ;&st7; " /><path d=" M 2558.07,  149.86  L 2555.24,  147.03  L 2555.24,  151.28  L 2558.07,  154.11  L 2560.90,  151.28  L 2560.90,  147.03  L 2558.07,  149.86 " style="stroke-width: 0.28 ;&st9;" /><path d=" M 2930.82,  391.72  L 2930.54,  392.19  L 2930.45,  392.72  L 2930.54,  393.25  L 2930.82,  393.72  L 2931.23,  394.07  L 2931.74,  394.26  L 2932.28,  394.26  L 2932.79,  394.07  L 2933.20,  393.72  L 2933.47,  393.25  L 2933.57,  392.72  L 2933.47,  392.19  L 2933.20,  391.72  L 2932.79,  391.37  L 2932.28,  391.18  L 2931.74,  391.18  L 2931.23,  391.37  L 2930.82,  391.72  L 2931.21,  392.43  L 2931.21,  393.01  L 2931.58,  393.46  L 2932.16,  393.56  L 2932.66,  393.27  L 2932.86,  392.72  L 2932.66,  392.17  L 2932.16,  391.88  L 2931.58,  391.98  L 2932.01,  392.72 " style="stroke-width: 0.85 ;&st7; " /><path d=" M 2974.50,  401.22  L 2974.50,  392.72  L 2932.01,  392.72 " style="stroke-width: 0.85 ;&st7; " /><path d=" M 2966.00,  701.50  L 2983.00,  701.50 " style="stroke-width: 0.85 ;&st7; " /><path d=" M 2974.50,  697.25  L 2974.50,  701.50 " style="stroke-width: 0.85 ;&st7; " /><path d=" M 2970.25,  704.33  L 2978.75,  704.33 " style="stroke-width: 0.85 ;&st7; " /><path d=" M 2971.67,  707.17  L 2977.33,  707.17 " style="stroke-width: 0.85 ;&st7; " /><path d=" M 2973.09,  710.00  L 2975.92,  710.00 " style="stroke-width: 0.85 ;&st7; " /><path d=" M 2929.89,  137.76  C 2927.54   137.76  2925.64   139.66  2925.64   142.01 " style="stroke-width: 1.42 ;&st7; " /><path d=" M 2925.64,  142.01  C 2925.64   144.36  2927.54   146.26  2929.89   146.26 " style="stroke-width: 1.42 ;&st7; " /><path d=" M 2934.13,  146.26  C 2936.48   146.26  2938.38   144.36  2938.38   142.01 " style="stroke-width: 1.42 ;&st7; " /><path d=" M 2938.38,  142.01  C 2938.38   139.66  2936.48   137.76  2934.13   137.76 " style="stroke-width: 1.42 ;&st7; " /><path d=" M 2564.45,  159.01  C 2564.45   156.66  2562.54   154.76  2560.20   154.76 " style="stroke-width: 1.42 ;&st7; " /><path d=" M 2560.20,  163.26  C 2562.54   163.26  2564.45   161.36  2564.45   159.01 " style="stroke-width: 1.42 ;&st7; " /><path d=" M 2551.70,  159.01  C 2551.70   161.36  2553.60   163.26  2555.95   163.26 " style="stroke-width: 1.42 ;&st7; " /><path d=" M 2555.95,  154.76  C 2553.60   154.76  2551.70   156.66  2551.70   159.01 " style="stroke-width: 1.42 ;&st7; " /><text style="&st18;" transform="matrix(&st16;  2927.06  143.98 )">DD</text><text style="&st18;" transform="matrix(&st16;  2915.36  143.98 )">62</text><text style="&st18;" transform="matrix(&st16;  2922.72  83.07 )">GND1</text><text style="&st18;" transform="matrix(&st16;  2879.84  83.07 )">GND2</text><text style="&st18;" transform="matrix(&st16;  2925.22  94.96 )">5</text><text style="&st18;" transform="matrix(&st16;  2882.73  94.96 )">4</text><text style="&st18;" transform="matrix(&st16;  2925.22  409.41 )">5</text><text style="&st18;" transform="matrix(&st16;  2925.22  380.53 )">4</text><text style="&st18;" transform="matrix(&st17;  2928.32  442.91 )">W-B</text><text style="&st18;" transform="matrix(&st17;  2990.61  403.74 )">H85</text><text style="&st18;" transform="matrix(&st17;  2928.32  221.95 )">W-B</text><text ewd:textID="15" style="&st18;" transform="matrix(&st17;  2997.72  403.74 )">Junction <tspan dy="6" x="0">Connector</tspan></text><text style="&st18;" transform="matrix(&st16;  2964.54  409.41 )">10</text><text style="&st18;" transform="matrix(&st17;  2970.81  442.91 )">W-B</text><text style="&st18;" transform="matrix(&st17;  2554.38  193.98 )">GR</text><text style="&st18;" transform="matrix(&st16;  2547.33  94.96 )">26</text><text style="&st18;" transform="matrix(&st16;  2548.46  83.07 )">BECU</text><text style="&st18;" transform="matrix(&st16;  2542.2  160.98 )">13</text><text style="&st18;" transform="matrix(&st16;  2553.27  160.98 )">DB</text><text style="&st18;" transform="matrix(&st16;  2504.83  94.96 )">22</text><text style="&st18;" transform="matrix(&st16;  2508.3  83.07 )">ACC</text><text style="&st18;" transform="matrix(&st16;  2810.51  24.98 )">H2(B)</text><text ewd:textID="16" style="&st18;" transform="matrix(&st16;  2810.51  32.08 )">Main Body ECU</text><text style="&st18;" transform="matrix(&st16;  2563.22  491.01 )">W</text><text style="&st18;" transform="matrix(&st16;  2561.91  516.5 )">SB</text><text style="&st18;" transform="matrix(&st16;  2612.9  516.5 )">SB</text><text style="&st18;" transform="matrix(&st16;  2614.21  491.01 )">W</text></svg>