﻿<?xml version="1.0" encoding="utf-8"?>
<!DOCTYPE svg PUBLIC "-//W3C//DTD SVG 1.0//EN" "http://www.w3.org/TR/2001/REC-SVG-20010904/DTD/svg10.dtd"[
	<!ENTITY ns_flows "http://ns.adobe.com/Flows/1.0/">
	<!ENTITY ns_svg "http://www.w3.org/2000/svg">
	<!ENTITY ns_xlink "http://www.w3.org/1999/xlink">
	<!ENTITY st0 "font-size:7px;font-family:'MS-PGothic';adobe-font-script:japanese;">
	<!ENTITY st1 "font-size:6px;font-family:'ArialMT';">
	<!-- White fill  -->
	<!ENTITY st2 "fill:#FFFFFF;stroke:#000000; stroke-width:1.41;stroke-linecap:round;stroke-linejoin:round;">
	<!-- Yellow fill  -->
	<!ENTITY st3 "fill:#FFFFCC;stroke:#FFFFCC; stroke-width:0.1;stroke-linecap:round;stroke-linejoin:round;">
	<!-- Gray fill  -->
	<!ENTITY st4 "fill:#CCCCCC;stroke:#CCCCCC; stroke-width:0.1;stroke-linecap:round;stroke-linejoin:round;">
	<!-- Light-blue fill -->
	<!ENTITY st5 "fill:#CCECF4;stroke:#000000; stroke-width:1.133;stroke-linecap:round;stroke-linejoin:round;">
	<!ENTITY st6 "fill:none;stroke-linecap:butt; stroke-linejoin:round;">
	<!ENTITY st7 "fill:none;stroke:#000000;stroke-linecap:round;stroke-linejoin:round;">
	<!ENTITY st8 "enable-background:new    ;">
	<!-- Black fill -->
	<!ENTITY st9 "fill:#000000;stroke:#000000; stroke-linecap:round;stroke-linejoin:round;">
	<!-- SRS note   -->
	<!ENTITY st10 "font-size:9px;font-family:'ArialMT';">
	<!ENTITY st11 "font-size:9px;font-family:'Svg Symbol';">
	<!ENTITY st12 "font-size:6px;font-family:'Svg Symbol';">
	<!ENTITY st13 "fill:none;stroke:#ff0000;stroke-linecap:round;stroke-linejoin:round;">
	<!-- Yellow fill  -->
	<!ENTITY st14 "fill:#FFFF00;stroke:#FFFF00; stroke-width:0.1;stroke-linecap:round;stroke-linejoin:round;">
	<!ENTITY st15 "font-size:6px;font-family:'MS-PGothic';adobe-font-script:japanese;">
	<!ENTITY st16 "1.00 0.00 0.00 1.00">
	<!ENTITY st17 "0.00 -1.00 1.00 0.00">
	<!ENTITY st18 "font-size:6px;font-family:'Arial';">
	<!ENTITY st19 "font-size:9px;font-family:'Arial';">
	<!ENTITY st20 "font-size:6px;font-family:'MS-PGothic','MS PGothic';adobe-font-script:japanese;">
	<!ENTITY st21 "font-size:7px;font-family:'MS-PGothic','MS PGothic';adobe-font-script:japanese;">
	<!ATTLIST svg
		xmlns:ewd CDATA #FIXED "http://shcl.co.jp/ewd"
		xmlns:a CDATA #FIXED "http://ns.adobe.com/AdobeSVGViewerExtensions/3.0/"
		ewd:ver CDATA #IMPLIED
	>
	<!ATTLIST a
		ewd:lineID CDATA #IMPLIED
		ewd:groupID CDATA #IMPLIED
		ewd:figtype CDATA #IMPLIED
		ewd:code CDATA #IMPLIED
		ewd:figID CDATA #IMPLIED
		ewd:pinNo CDATA #IMPLIED
		ewd:comment CDATA #IMPLIED >
	<!ATTLIST g
		ewd:lineID CDATA #IMPLIED
		ewd:groupID CDATA #IMPLIED
		ewd:figtype CDATA #IMPLIED
		ewd:code CDATA #IMPLIED
		ewd:figID CDATA #IMPLIED
		ewd:pinNo CDATA #IMPLIED
		ewd:comment CDATA #IMPLIED >
	<!ATTLIST text
		ewd:textID CDATA #IMPLIED >
	<!ATTLIST title
		ewd:textID CDATA #IMPLIED >
]>
<!-- Generator: Shintec Hozumi YS   -->
<svg onload="call_execInitLoadProc_svg('system')" style="overflow:visible;  enable-background:new 0 0 1014.703 710.000" viewBox="0 0 1014.703 710.000" height="710.000" width="1014.703" xml:space="preserve" ewd:ver="L2.1.2.7" xmlns="&ns_svg;" xmlns:a="http://ns.adobe.com/AdobeSVGViewerExtensions/3.0/" xmlns:ewd="http://shcl.co.jp/ewd" xmlns:xlink="&ns_xlink;">
<path d=" M  645.89,  290.74  L  654.39,  290.74 " style="stroke-width: 1.42 ;&st7; " /><path d=" M  569.40,   69.77  L  569.40,   95.27 " style="stroke-width: 0.85 ;&st7; " /><path d=" M  571.53,   95.27  L  567.28,   95.27 " style="stroke-width: 1.42 ;&st7; " /><path d=" M  571.53,  103.77  L  567.28,  103.77 " style="stroke-width: 1.42 ;&st7; " /><path d=" M  571.53,  137.76  L  567.28,  137.76 " style="stroke-width: 1.42 ;&st7; " /><path d=" M  571.53,  146.26  L  567.28,  146.26 " style="stroke-width: 1.42 ;&st7; " /><path d=" M  571.53,  180.26  L  567.28,  180.26 " style="stroke-width: 1.42 ;&st7; " /><path d=" M  571.53,  188.75  L  567.28,  188.75 " style="stroke-width: 1.42 ;&st7; " /><path d=" M  875.35,   69.77  L  875.35,   95.27 " style="stroke-width: 0.85 ;&st7; " /><path d=" M  877.48,   95.27  L  873.23,   95.27 " style="stroke-width: 1.42 ;&st7; " /><path d=" M  877.48,  103.77  L  873.23,  103.77 " style="stroke-width: 1.42 ;&st7; " /><path d=" M  815.86,  426.71  L  807.37,  426.71 " style="stroke-width: 1.42 ;&st7; " /><path d=" M  798.87,  290.74  L  807.37,  290.74 " style="stroke-width: 1.42 ;&st7; " /><path d=" M  781.87,  426.71  L  773.37,  426.71 " style="stroke-width: 1.42 ;&st7; " /><path d=" M  739.38,  426.71  L  730.88,  426.71 " style="stroke-width: 1.42 ;&st7; " /><path d=" M  910.76,  392.72  L  888.10,  387.05 " style="stroke-width: 1.42 ;&st7; " /><path d=" M  909.35,  362.97  L  909.35,  371.47 " style="stroke-width: 0.85 ;&st7; " /><path d=" M  973.09,  392.72  L  964.59,  392.72 " style="stroke-width: 0.85 ;&st7; " /><path d=" M  981.57,  383.06  L  974.21,  387.31 " style="stroke-width: 0.85 ;&st7; " /><path d=" M  976.21,  390.77  L  983.57,  386.52 " style="stroke-width: 0.85 ;&st7; " /><path d=" M  739.38,  550.67  L  734.40,  545.69 " style="stroke-width: 1.42 ;&st7; " /><path d=" M  722.38,  557.72  L  727.35,  562.69 " style="stroke-width: 1.42 ;&st7; " /><path d=" M  734.40,  562.69  L  739.38,  557.72 " style="stroke-width: 1.42 ;&st7; " /><path d=" M  727.35,  545.69  L  722.38,  550.67 " style="stroke-width: 1.42 ;&st7; " /><path d=" M  729.46,  710.00  L  732.29,  710.00 " style="stroke-width: 0.85 ;&st7; " /><path d=" M  728.04,  707.17  L  733.71,  707.17 " style="stroke-width: 0.85 ;&st7; " /><path d=" M  726.63,  704.33  L  735.13,  704.33 " style="stroke-width: 0.85 ;&st7; " /><path d=" M  722.38,  701.50  L  739.38,  701.50 " style="stroke-width: 0.85 ;&st7; " /><path d=" M  730.88,  697.25  L  730.88,  701.50 " style="stroke-width: 0.85 ;&st7; " /><path d=" M  722.38,  613.68  L  739.38,  613.68  L  739.38,  630.68  L  722.38,  630.68  L  722.38,  613.68 " style="stroke-width: 1.42 ;&st7; " /><path d=" M  730.88,  613.68  L  730.88,  630.68 " style="stroke-width: 0.85 ;&st7; " /><path d=" M  654.39,  137.76  L  654.39,  163.26 " style="stroke-width: 0.85 ;&st7; " /><path d=" M  645.89,  137.76  L  662.89,  137.76  L  662.89,  163.26  L  645.89,  163.26  L  645.89,  137.76 " style="stroke-width: 1.42 ;&st7; " /><path d=" M  654.39,  214.25  L  654.39,  239.75 " style="stroke-width: 0.85 ;&st7; " /><path d=" M  645.89,  214.25  L  662.89,  214.25  L  662.89,  239.75  L  645.89,  239.75  L  645.89,  214.25 " style="stroke-width: 1.42 ;&st7; " /><path d=" M  569.40,  341.73  L  569.40,  375.72  L  824.36,  375.72  L  824.36,  341.73  L  569.40,  341.73 " style="stroke-width: 1.42 ;&st7; " /><path d=" M  658.64,  285.07  L  654.39,  289.32  L  650.14,  285.07 " style="stroke-width: 1.42 ;&st7; " /><path d=" M  650.14,  281.67  L  654.39,  285.92  L  658.64,  281.67 " style="stroke-width: 1.42 ;&st7; " /><path d=" M  645.89,  154.76  L  662.89,  154.76 " style="stroke-width: 1.13 ;&st7;stroke-dasharray:3, 1.5;" /><path d=" M  645.89,  146.26  L  662.89,  146.26 " style="stroke-width: 1.13 ;&st7;stroke-dasharray:3, 1.5;" /><path d=" M  645.89,  231.25  L  662.89,  231.25 " style="stroke-width: 1.13 ;&st7;stroke-dasharray:3, 1.5;" /><path d=" M  645.89,  222.75  L  662.89,  222.75 " style="stroke-width: 1.13 ;&st7;stroke-dasharray:3, 1.5;" /><path d=" M  569.40,   90.37  L  566.57,   87.54  L  566.57,   91.79  L  569.40,   94.62  L  572.24,   91.79  L  572.24,   87.54  L  569.40,   90.37 " style="stroke-width: 0.28 ;&st9;" /><path d=" M  556.66,   35.78  L  556.66,   78.27  L  582.15,   78.27  L  582.15,   35.78  L  556.66,   35.78 " style="stroke-width: 1.42 ;&st7; " /><path d=" M  841.36,  171.76  L  883.85,  171.76  L  883.85,  205.75  L  841.36,  205.75  L  841.36,  171.76 " style="stroke-width: 1.42 ;&st7; " /><path d=" M  875.35,  171.76  L  875.35,  205.75 " style="stroke-width: 0.85 ;&st7; " /><path d=" M  569.40,  151.16  L  572.24,  153.99  L  572.24,  149.74  L  569.40,  146.91  L  566.57,  149.74  L  566.57,  153.99  L  569.40,  151.16 " style="stroke-width: 0.28 ;&st9;" /><path d=" M  569.40,  175.36  L  566.57,  172.53  L  566.57,  176.78  L  569.40,  179.61  L  572.24,  176.78  L  572.24,  172.53  L  569.40,  175.36 " style="stroke-width: 0.28 ;&st9;" /><path d=" M  569.40,  180.26  L  569.40,  146.26 " style="stroke-width: 0.85 ;&st7; " /><path d=" M  875.35,  256.74  L  875.35,  282.24 " style="stroke-width: 0.85 ;&st7; " /><path d=" M  866.85,  256.74  L  883.85,  256.74  L  883.85,  282.24  L  866.85,  282.24  L  866.85,  256.74 " style="stroke-width: 1.42 ;&st7; " /><path d=" M  841.36,  197.25  L  883.85,  197.25 " style="stroke-width: 1.13 ;&st7;stroke-dasharray:3, 1.5;" /><path d=" M  841.36,  180.26  L  883.85,  180.26 " style="stroke-width: 1.13 ;&st7;stroke-dasharray:3, 1.5;" /><path d=" M  866.85,  273.74  L  883.85,  273.74 " style="stroke-width: 1.13 ;&st7;stroke-dasharray:3, 1.5;" /><path d=" M  866.85,  265.24  L  883.85,  265.24 " style="stroke-width: 1.13 ;&st7;stroke-dasharray:3, 1.5;" /><path d=" M  811.61,  432.38  L  807.36,  428.13  L  803.12,  432.38 " style="stroke-width: 1.42 ;&st7; " /><path d=" M  811.61,  435.78  L  807.36,  431.53  L  803.12,  435.78 " style="stroke-width: 1.42 ;&st7; " /><path d=" M  875.35,   90.37  L  872.52,   87.54  L  872.52,   91.79  L  875.35,   94.62  L  878.19,   91.79  L  878.19,   87.54  L  875.35,   90.37 " style="stroke-width: 0.28 ;&st9;" /><path d=" M  862.61,   35.78  L  862.61,   78.27  L  888.10,   78.27  L  888.10,   35.78  L  862.61,   35.78 " style="stroke-width: 1.42 ;&st7; " /><path d=" M  874.16,  187.75  L  873.89,  188.22  L  873.80,  188.75  L  873.89,  189.29  L  874.16,  189.76  L  874.57,  190.10  L  875.08,  190.29  L  875.63,  190.29  L  876.13,  190.10  L  876.55,  189.76  L  876.82,  189.29  L  876.91,  188.75  L  876.82,  188.22  L  876.55,  187.75  L  876.13,  187.41  L  875.63,  187.22  L  875.08,  187.22  L  874.57,  187.41  L  874.16,  187.75  L  874.55,  188.46  L  874.55,  189.05  L  874.93,  189.49  L  875.50,  189.59  L  876.00,  189.30  L  876.20,  188.75  L  876.00,  188.21  L  875.50,  187.92  L  874.93,  188.02  L  875.35,  188.75 " style="stroke-width: 0.85 ;&st7; " /><path d=" M  875.35,  188.75  L  849.86,  188.75  L  849.86,  171.76 " style="stroke-width: 0.85 ;&st7; " /><path d=" M  811.61,  285.07  L  807.36,  289.32  L  803.12,  285.07 " style="stroke-width: 1.42 ;&st7; " /><path d=" M  803.12,  281.67  L  807.36,  285.92  L  811.61,  281.67 " style="stroke-width: 1.42 ;&st7; " /><path d=" M  777.62,  432.38  L  773.37,  428.13  L  769.12,  432.38 " style="stroke-width: 1.42 ;&st7; " /><path d=" M  777.62,  435.78  L  773.37,  431.53  L  769.12,  435.78 " style="stroke-width: 1.42 ;&st7; " /><path d=" M  735.13,  435.78  L  730.88,  431.53  L  726.63,  435.78 " style="stroke-width: 1.42 ;&st7; " /><path d=" M  735.13,  432.38  L  730.88,  428.13  L  726.63,  432.38 " style="stroke-width: 1.42 ;&st7; " /><path d=" M  888.10,  392.72  L  875.35,  392.72  L  875.35,  418.22 " style="stroke-width: 0.85 ;&st7; " /><path d=" M  913.60,  392.72  L  926.34,  392.72  L  926.34,  418.22 " style="stroke-width: 0.85 ;&st7; " /><path d=" M  968.84,  392.72  L  968.84,  367.22  L  951.84,  367.22  L  950.42,  370.06  L  947.59,  364.39  L  944.76,  370.06  L  941.93,  364.39  L  939.09,  370.06  L  936.26,  364.39  L  934.84,  367.22  L  875.35,  367.22  L  875.35,  341.73 " style="stroke-width: 0.85 ;&st7; " /><path d=" M  909.35,  367.22  L  900.85,  372.89  L  900.85,  361.56  L  909.35,  367.22 " style="stroke-width: 0.28 ;&st9;" /><path d=" M  968.84,  392.72  L  963.17,  384.22  L  974.50,  384.22  L  968.84,  392.72 " style="stroke-width: 0.28 ;&st9;" /><path d=" M  981.57,  383.06  L  979.24,  386.10  L  977.77,  383.56  L  981.57,  383.06  L  980.29,  383.80  L  979.30,  385.08  L  978.68,  384.01  L  980.29,  383.80  L  979.65,  384.17  L  979.34,  384.57  L  979.14,  384.23  L  979.65,  384.17 " style="stroke-width: 0.85 ;&st7; " /><path d=" M  983.57,  386.52  L  981.24,  389.57  L  979.77,  387.03  L  983.57,  386.52  L  982.29,  387.27  L  981.31,  388.55  L  980.69,  387.48  L  982.29,  387.27  L  981.65,  387.63  L  981.34,  388.04  L  981.15,  387.70  L  981.65,  387.63 " style="stroke-width: 0.85 ;&st7; " /><path d=" M  858.36,  341.73  L  858.36,  418.22  L  994.33,  418.22  L  994.33,  341.73  L  858.36,  341.73 " style="stroke-width: 1.42 ;&st7; " /><path d=" M  968.84,  392.72  L  968.84,  418.22 " style="stroke-width: 0.85 ;&st7; " /><path d=" M  739.38,  171.76  L  756.37,  171.76  L  756.37,  188.75  L  739.38,  188.75  L  739.38,  171.76 " style="stroke-width: 1.42 ;&st7; " /><path d=" M  747.87,  171.76  L  747.87,  188.75 " style="stroke-width: 0.85 ;&st7; " /><path d=" M  752.41,  167.22  C  752.41   164.72   750.38   162.69   747.88   162.69 " style="stroke-width: 1.42 ;&st7; " /><path d=" M  747.88,  162.69  C  745.37   162.69   743.34   164.72   743.34   167.22 " style="stroke-width: 1.42 ;&st7; " /><path d=" M  743.34,  167.22  C  743.34   169.73   745.37   171.76   747.88   171.76 " style="stroke-width: 1.42 ;&st7; " /><path d=" M  747.88,  171.76  C  750.38   171.76   752.41   169.73   752.41   167.22 " style="stroke-width: 1.42 ;&st7; " /><path d=" M  752.41,  193.29  C  752.41   190.78   750.38   188.75   747.88   188.75 " style="stroke-width: 1.42 ;&st7; " /><path d=" M  747.88,  188.75  C  745.37   188.75   743.34   190.78   743.34   193.29 " style="stroke-width: 1.42 ;&st7; " /><path d=" M  743.34,  193.29  C  743.34   195.79   745.37   197.82   747.88   197.82 " style="stroke-width: 1.42 ;&st7; " /><path d=" M  747.88,  197.82  C  750.38   197.82   752.41   195.79   752.41   193.29 " style="stroke-width: 1.42 ;&st7; " /><path d=" M  879.89,  210.28  C  879.89   207.78   877.86   205.75   875.35   205.75 " style="stroke-width: 1.42 ;&st7; " /><path d=" M  875.35,  205.75  C  872.85   205.75   870.82   207.78   870.82   210.28 " style="stroke-width: 1.42 ;&st7; " /><path d=" M  870.82,  210.28  C  870.82   212.79   872.85   214.82   875.35   214.82 " style="stroke-width: 1.42 ;&st7; " /><path d=" M  875.35,  214.82  C  877.86   214.82   879.89   212.79   879.89   210.28 " style="stroke-width: 1.42 ;&st7; " /><path d=" M  658.92,  133.23  C  658.92   130.73   656.89   128.70   654.39   128.70 " style="stroke-width: 1.42 ;&st7; " /><path d=" M  654.39,  128.70  C  651.89   128.70   649.86   130.73   649.86   133.23 " style="stroke-width: 1.42 ;&st7; " /><path d=" M  649.86,  133.23  C  649.86   135.73   651.89   137.76   654.39   137.76 " style="stroke-width: 1.42 ;&st7; " /><path d=" M  654.39,  137.76  C  656.89   137.76   658.92   135.73   658.92   133.23 " style="stroke-width: 1.42 ;&st7; " /><path d=" M  658.92,  167.79  C  658.92   165.29   656.89   163.26   654.39   163.26 " style="stroke-width: 1.42 ;&st7; " /><path d=" M  654.39,  163.26  C  651.89   163.26   649.86   165.29   649.86   167.79 " style="stroke-width: 1.42 ;&st7; " /><path d=" M  649.86,  167.79  C  649.86   170.29   651.89   172.32   654.39   172.32 " style="stroke-width: 1.42 ;&st7; " /><path d=" M  654.39,  172.32  C  656.89   172.32   658.92   170.29   658.92   167.79 " style="stroke-width: 1.42 ;&st7; " /><path d=" M  658.92,  209.72  C  658.92   207.21   656.89   205.18   654.39   205.18 " style="stroke-width: 1.42 ;&st7; " /><path d=" M  654.39,  205.18  C  651.89   205.18   649.86   207.21   649.86   209.72 " style="stroke-width: 1.42 ;&st7; " /><path d=" M  649.86,  209.72  C  649.86   212.22   651.89   214.25   654.39   214.25 " style="stroke-width: 1.42 ;&st7; " /><path d=" M  654.39,  214.25  C  656.89   214.25   658.92   212.22   658.92   209.72 " style="stroke-width: 1.42 ;&st7; " /><path d=" M  658.92,  244.28  C  658.92   241.77   656.89   239.75   654.39   239.75 " style="stroke-width: 1.42 ;&st7; " /><path d=" M  654.39,  239.75  C  651.89   239.75   649.86   241.77   649.86   244.28 " style="stroke-width: 1.42 ;&st7; " /><path d=" M  649.86,  244.28  C  649.86   246.78   651.89   248.81   654.39   248.81 " style="stroke-width: 1.42 ;&st7; " /><path d=" M  654.39,  248.81  C  656.89   248.81   658.92   246.78   658.92   244.28 " style="stroke-width: 1.42 ;&st7; " /><path d=" M  569.40,   47.11  C  566.67    48.72   565.76    52.25   567.37    54.99 " style="stroke-width: 1.42 ;&st7; " /><path d=" M  567.37,   54.99  C  567.89    55.87   568.52    56.51   569.40    57.03 " style="stroke-width: 1.42 ;&st7; " /><path d=" M  569.40,   66.94  C  572.14    65.33   573.05    61.80   571.44    59.06 " style="stroke-width: 1.42 ;&st7; " /><path d=" M  571.44,   59.06  C  570.92    58.18   570.29    57.55   569.40    57.03 " style="stroke-width: 1.42 ;&st7; " /><path d=" M  570.82,   45.69  C  570.82    44.91   570.19    44.28   569.40    44.28 " style="stroke-width: 0.85 ;&st7; " /><path d=" M  569.40,   44.28  C  568.62    44.28   567.99    44.91   567.99    45.69 " style="stroke-width: 0.85 ;&st7; " /><path d=" M  567.99,   45.69  C  567.99    46.48   568.62    47.11   569.40    47.11 " style="stroke-width: 0.85 ;&st7; " /><path d=" M  569.40,   47.11  C  570.19    47.11   570.82    46.48   570.82    45.69 " style="stroke-width: 0.85 ;&st7; " /><path d=" M  570.82,   68.36  C  570.82    67.57   570.19    66.94   569.40    66.94 " style="stroke-width: 0.85 ;&st7; " /><path d=" M  569.40,   66.94  C  568.62    66.94   567.99    67.57   567.99    68.36 " style="stroke-width: 0.85 ;&st7; " /><path d=" M  567.99,   68.36  C  567.99    69.14   568.62    69.77   569.40    69.77 " style="stroke-width: 0.85 ;&st7; " /><path d=" M  569.40,   69.77  C  570.19    69.77   570.82    69.14   570.82    68.36 " style="stroke-width: 0.85 ;&st7; " /><path d=" M  567.28,   95.27  C  564.93    95.27   563.03    97.17   563.03    99.52 " style="stroke-width: 1.42 ;&st7; " /><path d=" M  563.03,   99.52  C  563.03   101.87   564.93   103.77   567.28   103.77 " style="stroke-width: 1.42 ;&st7; " /><path d=" M  571.53,  103.77  C  573.88   103.77   575.78   101.87   575.78    99.52 " style="stroke-width: 1.42 ;&st7; " /><path d=" M  575.78,   99.52  C  575.78    97.17   573.88    95.27   571.53    95.27 " style="stroke-width: 1.42 ;&st7; " /><path d=" M  879.89,  167.22  C  879.89   164.72   877.86   162.69   875.35   162.69 " style="stroke-width: 1.42 ;&st7; " /><path d=" M  875.35,  162.69  C  872.85   162.69   870.82   164.72   870.82   167.22 " style="stroke-width: 1.42 ;&st7; " /><path d=" M  870.82,  167.22  C  870.82   169.73   872.85   171.76   875.35   171.76 " style="stroke-width: 1.42 ;&st7; " /><path d=" M  875.35,  171.76  C  877.86   171.76   879.89   169.73   879.89   167.22 " style="stroke-width: 1.42 ;&st7; " /><path d=" M  567.28,  137.76  C  564.93   137.76   563.03   139.66   563.03   142.01 " style="stroke-width: 1.42 ;&st7; " /><path d=" M  563.03,  142.01  C  563.03   144.36   564.93   146.26   567.28   146.26 " style="stroke-width: 1.42 ;&st7; " /><path d=" M  571.53,  146.26  C  573.88   146.26   575.78   144.36   575.78   142.01 " style="stroke-width: 1.42 ;&st7; " /><path d=" M  575.78,  142.01  C  575.78   139.66   573.88   137.76   571.53   137.76 " style="stroke-width: 1.42 ;&st7; " /><path d=" M  567.28,  180.26  C  564.93   180.26   563.03   182.16   563.03   184.50 " style="stroke-width: 1.42 ;&st7; " /><path d=" M  563.03,  184.50  C  563.03   186.85   564.93   188.75   567.28   188.75 " style="stroke-width: 1.42 ;&st7; " /><path d=" M  571.53,  188.75  C  573.88   188.75   575.78   186.85   575.78   184.50 " style="stroke-width: 1.42 ;&st7; " /><path d=" M  575.78,  184.50  C  575.78   182.16   573.88   180.26   571.53   180.26 " style="stroke-width: 1.42 ;&st7; " /><path d=" M  879.89,  252.21  C  879.89   249.71   877.86   247.68   875.35   247.68 " style="stroke-width: 1.42 ;&st7; " /><path d=" M  875.35,  247.68  C  872.85   247.68   870.82   249.71   870.82   252.21 " style="stroke-width: 1.42 ;&st7; " /><path d=" M  870.82,  252.21  C  870.82   254.71   872.85   256.74   875.35   256.74 " style="stroke-width: 1.42 ;&st7; " /><path d=" M  875.35,  256.74  C  877.86   256.74   879.89   254.71   879.89   252.21 " style="stroke-width: 1.42 ;&st7; " /><path d=" M  879.89,  286.77  C  879.89   284.27   877.86   282.24   875.35   282.24 " style="stroke-width: 1.42 ;&st7; " /><path d=" M  875.35,  282.24  C  872.85   282.24   870.82   284.27   870.82   286.77 " style="stroke-width: 1.42 ;&st7; " /><path d=" M  870.82,  286.77  C  870.82   289.27   872.85   291.30   875.35   291.30 " style="stroke-width: 1.42 ;&st7; " /><path d=" M  875.35,  291.30  C  877.86   291.30   879.89   289.27   879.89   286.77 " style="stroke-width: 1.42 ;&st7; " /><path d=" M  875.35,   47.11  C  872.62    48.72   871.70    52.25   873.32    54.99 " style="stroke-width: 1.42 ;&st7; " /><path d=" M  873.32,   54.99  C  873.84    55.87   874.47    56.51   875.35    57.03 " style="stroke-width: 1.42 ;&st7; " /><path d=" M  875.35,   66.94  C  878.09    65.33   879.00    61.80   877.39    59.06 " style="stroke-width: 1.42 ;&st7; " /><path d=" M  877.39,   59.06  C  876.87    58.18   876.24    57.55   875.35    57.03 " style="stroke-width: 1.42 ;&st7; " /><path d=" M  876.77,   45.69  C  876.77    44.91   876.14    44.28   875.35    44.28 " style="stroke-width: 0.85 ;&st7; " /><path d=" M  875.35,   44.28  C  874.57    44.28   873.94    44.91   873.94    45.69 " style="stroke-width: 0.85 ;&st7; " /><path d=" M  873.94,   45.69  C  873.94    46.48   874.57    47.11   875.35    47.11 " style="stroke-width: 0.85 ;&st7; " /><path d=" M  875.35,   47.11  C  876.14    47.11   876.77    46.48   876.77    45.69 " style="stroke-width: 0.85 ;&st7; " /><path d=" M  876.77,   68.36  C  876.77    67.57   876.14    66.94   875.35    66.94 " style="stroke-width: 0.85 ;&st7; " /><path d=" M  875.35,   66.94  C  874.57    66.94   873.94    67.57   873.94    68.36 " style="stroke-width: 0.85 ;&st7; " /><path d=" M  873.94,   68.36  C  873.94    69.14   874.57    69.77   875.35    69.77 " style="stroke-width: 0.85 ;&st7; " /><path d=" M  875.35,   69.77  C  876.14    69.77   876.77    69.14   876.77    68.36 " style="stroke-width: 0.85 ;&st7; " /><path d=" M  873.23,   95.27  C  870.88    95.27   868.98    97.17   868.98    99.52 " style="stroke-width: 1.42 ;&st7; " /><path d=" M  868.98,   99.52  C  868.98   101.87   870.88   103.77   873.23   103.77 " style="stroke-width: 1.42 ;&st7; " /><path d=" M  877.48,  103.77  C  879.83   103.77   881.73   101.87   881.73    99.52 " style="stroke-width: 1.42 ;&st7; " /><path d=" M  881.73,   99.52  C  881.73    97.17   879.83    95.27   877.48    95.27 " style="stroke-width: 1.42 ;&st7; " /><path d=" M  854.39,  167.22  C  854.39   164.72   852.36   162.69   849.86   162.69 " style="stroke-width: 1.42 ;&st7; " /><path d=" M  849.86,  162.69  C  847.35   162.69   845.33   164.72   845.33   167.22 " style="stroke-width: 1.42 ;&st7; " /><path d=" M  845.33,  167.22  C  845.33   169.73   847.35   171.76   849.86   171.76 " style="stroke-width: 1.42 ;&st7; " /><path d=" M  849.86,  171.76  C  852.36   171.76   854.39   169.73   854.39   167.22 " style="stroke-width: 1.42 ;&st7; " /><path d=" M  913.60,  392.72  C  913.60   391.94   912.96   391.30   912.18   391.30 " style="stroke-width: 0.85 ;&st7; " /><path d=" M  912.18,  391.30  C  911.40   391.30   910.76   391.94   910.76   392.72 " style="stroke-width: 0.85 ;&st7; " /><path d=" M  910.76,  392.72  C  910.76   393.50   911.40   394.14   912.18   394.14 " style="stroke-width: 0.85 ;&st7; " /><path d=" M  912.18,  394.14  C  912.96   394.14   913.60   393.50   913.60   392.72 " style="stroke-width: 0.85 ;&st7; " /><path d=" M  890.93,  392.72  C  890.93   391.94   890.30   391.30   889.52   391.30 " style="stroke-width: 0.85 ;&st7; " /><path d=" M  889.52,  391.30  C  888.74   391.30   888.10   391.94   888.10   392.72 " style="stroke-width: 0.85 ;&st7; " /><path d=" M  888.10,  392.72  C  888.10   393.50   888.74   394.14   889.52   394.14 " style="stroke-width: 0.85 ;&st7; " /><path d=" M  889.52,  394.14  C  890.30   394.14   890.93   393.50   890.93   392.72 " style="stroke-width: 0.85 ;&st7; " /><text style="&st18;" transform="matrix(&st16;  864.48  212.25 )">2</text><text style="&st18;" transform="matrix(&st16;  666.03  139.71 )">H79(A),H80(B)</text><text ewd:textID="9" style="&st18;" transform="matrix(&st16;  666.03  146.81 )">Junction <tspan dy="6" x="0">Connector</tspan></text><text style="&st18;" transform="matrix(&st16;  643.51  135.2 )">5</text><text style="&st18;" transform="matrix(&st16;  652.06  135.2 )">A</text><text style="&st18;" transform="matrix(&st16;  643.51  169.76 )">5</text><text style="&st18;" transform="matrix(&st16;  652.06  169.76 )">B</text><text style="&st18;" transform="matrix(&st17;  608.2  159.42 )">BE</text><text style="&st18;" transform="matrix(&st16;  666.03  216.19 )">H77(A),H78(B)</text><text ewd:textID="9" style="&st18;" transform="matrix(&st16;  666.03  223.3 )">Junction <tspan dy="6" x="0">Connector</tspan></text><text style="&st18;" transform="matrix(&st16;  643.51  211.69 )">6</text><text style="&st18;" transform="matrix(&st16;  652.06  211.69 )">A</text><text style="&st18;" transform="matrix(&st16;  643.51  246.25 )">6</text><text style="&st18;" transform="matrix(&st16;  652.06  246.25 )">B</text><text style="&st18;" transform="matrix(&st17;  650.69  190.73 )">L</text><text ewd:textID="8" style="&st18;" transform="matrix(&st17;  839.08  378.25 )">Cooling Box Assembly</text><text style="&st18;" transform="matrix(&st16;  650.05  349.36 )">+B</text><text style="&st18;" transform="matrix(&st17;  831.97  378.25 )">S9</text><text style="&st18;" transform="matrix(&st16;  644.42  338.04 )">10</text><text style="&st18;" transform="matrix(&st16;  639.58  296.96 )">2</text><text style="&st18;" transform="matrix(&st17;  650.69  318.56 )">B</text><text style="&st18;" transform="matrix(&st17;  650.69  267.57 )">B</text><text style="&st18;" transform="matrix(&st16;  586.71  56.17 )">7.5A <tspan dy="6" x="0">ECU-B1</tspan></text><text style="&st18;" transform="matrix(&st16;  567.82  101.49 )">1</text><text style="&st18;" transform="matrix(&st16;  560.29  32.08 )">(BAT)</text><text style="&st18;" transform="matrix(&st16;  873.02  169.19 )">A</text><text style="&st18;" transform="matrix(&st16;  864.48  169.19 )">5</text><text ewd:textID="9" style="&st18;" transform="matrix(&st16;  886.99  180.81 )">Junction <tspan dy="6" x="0">Connector</tspan></text><text style="&st18;" transform="matrix(&st16;  886.99  173.7 )">H88(A),H89(B)</text><text style="&st18;" transform="matrix(&st16;  564.6  143.98 )">DB</text><text style="&st18;" transform="matrix(&st16;  553.54  143.98 )">13</text><text style="&st18;" transform="matrix(&st16;  564.46  186.47 )">DD</text><text style="&st18;" transform="matrix(&st16;  553.54  186.47 )">14</text><text style="&st18;" transform="matrix(&st16;  789.37  424.43 )">13</text><text style="&st18;" transform="matrix(&st17;  565.71  125.99 )">GR</text><text style="&st18;" transform="matrix(&st16;  873.02  212.25 )">B</text><text style="&st18;" transform="matrix(&st16;  886.99  258.69 )">H88(A),H89(B)</text><text ewd:textID="9" style="&st18;" transform="matrix(&st16;  886.99  265.79 )">Junction <tspan dy="6" x="0">Connector</tspan></text><text style="&st18;" transform="matrix(&st16;  862.08  254.18 )">11</text><text style="&st18;" transform="matrix(&st16;  873.02  254.18 )">A</text><text style="&st18;" transform="matrix(&st16;  864.48  288.74 )">8</text><text style="&st18;" transform="matrix(&st16;  873.02  288.74 )">B</text><text style="&st18;" transform="matrix(&st17;  871.66  236.05 )">BR</text><text style="&st18;" transform="matrix(&st16;  868.56  338.04 )">2</text><text style="&st18;" transform="matrix(&st17;  871.66  318.56 )">B</text><text ewd:textID="4" style="&st18;" transform="matrix(&st16;  892.66  53.34 )">7.5A <tspan dy="6" x="0">ECU-IG </tspan><tspan dy="6" x="0">No.2</tspan></text><text style="&st18;" transform="matrix(&st16;  870.41  101.49 )">DD</text><text style="&st18;" transform="matrix(&st16;  862.66  101.49 )">7</text><text style="&st18;" transform="matrix(&st16;  869.28  32.08 )">(IG)</text><text style="&st18;" transform="matrix(&st17;  871.66  131.59 )">P</text><text style="&st18;" transform="matrix(&st16;  803.02  372.03 )">+S</text><text style="&st18;" transform="matrix(&st16;  838.98  169.19 )">6</text><text style="&st18;" transform="matrix(&st16;  847.53  169.19 )">A</text><text style="&st18;" transform="matrix(&st16;  805.03  349.36 )">B</text><text style="&st18;" transform="matrix(&st16;  800.58  338.04 )">5</text><text style="&st18;" transform="matrix(&st16;  793.33  296.96 )">1</text><text style="&st18;" transform="matrix(&st17;  803.67  321.46 )">GR</text><text style="&st18;" transform="matrix(&st17;  803.67  233.58 )">V</text><text style="&st18;" transform="matrix(&st16;  766.58  383.92 )">7</text><text style="&st18;" transform="matrix(&st16;  755.38  424.43 )">14</text><text style="&st18;" transform="matrix(&st16;  766.59  372.03 )">ICEI</text><text style="&st18;" transform="matrix(&st17;  803.67  405.95 )">LG</text><text style="&st18;" transform="matrix(&st17;  769.67  404.57 )">W</text><text style="&st18;" transform="matrix(&st16;  919.56  426.41 )">3</text><text style="&st18;" transform="matrix(&st16;  868.56  426.41 )">6</text><text style="&st18;" transform="matrix(&st17;  922.65  448.37 )">BE</text><text style="&st18;" transform="matrix(&st17;  871.66  448.44 )">LG</text><text style="&st18;" transform="matrix(&st17;  965.14  446.18 )">R</text><text style="&st18;" transform="matrix(&st16;  962.05  426.41 )">7</text><text style="&st18;" transform="matrix(&st17;  616.7  403.69 )">R</text><text style="&st18;" transform="matrix(&st16;  724.09  383.92 )">3</text><text style="&st18;" transform="matrix(&st16;  728.9  372.03 )">L</text><text style="&st18;" transform="matrix(&st17;  727.18  408.92 )">W-B</text><text style="&st18;" transform="matrix(&st17;  650.69  403.55 )">P</text><text style="&st18;" transform="matrix(&st17;  684.69  405.88 )">BE</text><text style="&st18;" transform="matrix(&st16;  541.44  525.0 )">R</text><text style="&st18;" transform="matrix(&st16;  539.25  508.0 )">BE</text><text style="&st18;" transform="matrix(&st16;  541.58  491.01 )">P</text><text style="&st18;" transform="matrix(&st16;  541.44  474.01 )">R</text><text style="&st18;" transform="matrix(&st16;  541.15  457.01 )">G</text><text style="&st18;" transform="matrix(&st17;  582.71  403.97 )">G</text><text style="&st18;" transform="matrix(&st16;  681.6  383.92 )">6</text><text style="&st18;" transform="matrix(&st16;  686.37  372.03 )">-</text><text style="&st18;" transform="matrix(&st16;  647.6  383.92 )">9</text><text style="&st18;" transform="matrix(&st16;  646.2  372.03 )">COLI</text><text style="&st18;" transform="matrix(&st16;  613.61  383.92 )">4</text><text style="&st18;" transform="matrix(&st16;  613.47  372.03 )">ACT</text><text style="&st18;" transform="matrix(&st16;  580.39  383.92 )">1</text><text style="&st18;" transform="matrix(&st16;  584.39  372.03 )">+</text><text style="&st18;" transform="matrix(&st16;  712.88  424.43 )">10</text><text style="&st18;" transform="matrix(&st16;  878.19  349.92 )">IND</text><text style="&st18;" transform="matrix(&st16;  878.19  414.53 )">+S</text><text style="&st18;" transform="matrix(&st16;  929.18  414.53 )">-S</text><text style="&st18;" transform="matrix(&st16;  971.67  414.53 )">IND-</text><text style="&st18;" transform="matrix(&st17;  727.18  587.39 )">W-B</text><text style="&st18;" transform="matrix(&st16;  536.21  550.5 )">W-B</text><text style="&st18;" transform="matrix(&st16;  737.0  169.19 )">7</text><text style="&st18;" transform="matrix(&st16;  745.54  169.19 )">A</text><text style="&st18;" transform="matrix(&st16;  737.0  195.26 )">8</text><text style="&st18;" transform="matrix(&st16;  745.54  195.26 )">A</text><text ewd:textID="9" style="&st18;" transform="matrix(&st16;  759.51  180.81 )">Junction <tspan dy="6" x="0">Connector</tspan></text><text style="&st18;" transform="matrix(&st16;  759.51  173.7 )">H88(A)</text><text style="&st18;" transform="matrix(&st17;  744.18  233.58 )">V</text><text style="&st18;" transform="matrix(&st17;  755.51  237.43 )">(*2)</text><text style="&st18;" transform="matrix(&st17;  815.0  237.04 )">(*1)</text><text style="&st18;" transform="matrix(&st17;  744.18  140.23 )">R</text><text style="&st18;" transform="matrix(&st17;  755.51  143.94 )">(*2)</text><text style="&st18;" transform="matrix(&st17;  727.18  663.88 )">W-B</text><text style="&st18;" transform="matrix(&st16;  800.58  383.92 )">2</text><text style="&st18;" transform="matrix(&st17;  727.18  485.41 )">W-B</text><text style="&st18;" transform="matrix(&st16;  721.69  638.87 )">11</text><text style="&st18;" transform="matrix(&st16;  720.91  609.99 )">10</text><text ewd:textID="9" style="&st18;" transform="matrix(&st17;  754.09  633.2 )">Junction <tspan dy="6" x="0">Connector</tspan></text><text style="&st18;" transform="matrix(&st17;  746.99  633.2 )">H83</text></svg>