﻿<?xml version="1.0" encoding="utf-8"?>
<!DOCTYPE svg PUBLIC "-//W3C//DTD SVG 1.0//EN" "http://www.w3.org/TR/2001/REC-SVG-20010904/DTD/svg10.dtd"[
	<!ENTITY ns_flows "http://ns.adobe.com/Flows/1.0/">
	<!ENTITY ns_svg "http://www.w3.org/2000/svg">
	<!ENTITY ns_xlink "http://www.w3.org/1999/xlink">
	<!ENTITY st0 "font-size:7px;font-family:'MS-PGothic';adobe-font-script:japanese;">
	<!ENTITY st1 "font-size:6px;font-family:'ArialMT';">
	<!-- White fill  -->
	<!ENTITY st2 "fill:#FFFFFF;stroke:#000000; stroke-width:1.41;stroke-linecap:round;stroke-linejoin:round;">
	<!-- Yellow fill  -->
	<!ENTITY st3 "fill:#FFFFCC;stroke:#FFFFCC; stroke-width:0.1;stroke-linecap:round;stroke-linejoin:round;">
	<!-- Gray fill  -->
	<!ENTITY st4 "fill:#CCCCCC;stroke:#CCCCCC; stroke-width:0.1;stroke-linecap:round;stroke-linejoin:round;">
	<!-- Light-blue fill -->
	<!ENTITY st5 "fill:#CCECF4;stroke:#000000; stroke-width:1.133;stroke-linecap:round;stroke-linejoin:round;">
	<!ENTITY st6 "fill:none;stroke-linecap:butt; stroke-linejoin:round;">
	<!ENTITY st7 "fill:none;stroke:#000000;stroke-linecap:round;stroke-linejoin:round;">
	<!ENTITY st8 "enable-background:new    ;">
	<!-- Black fill -->
	<!ENTITY st9 "fill:#000000;stroke:#000000; stroke-linecap:round;stroke-linejoin:round;">
	<!-- SRS note   -->
	<!ENTITY st10 "font-size:9px;font-family:'ArialMT';">
	<!ENTITY st11 "font-size:9px;font-family:'Svg Symbol';">
	<!ENTITY st12 "font-size:6px;font-family:'Svg Symbol';">
	<!ENTITY st13 "fill:none;stroke:#ff0000;stroke-linecap:round;stroke-linejoin:round;">
	<!-- Yellow fill  -->
	<!ENTITY st14 "fill:#FFFF00;stroke:#FFFF00; stroke-width:0.1;stroke-linecap:round;stroke-linejoin:round;">
	<!ENTITY st15 "font-size:6px;font-family:'MS-PGothic';adobe-font-script:japanese;">
	<!ENTITY st16 "1.00 0.00 0.00 1.00">
	<!ENTITY st17 "0.00 -1.00 1.00 0.00">
	<!ENTITY st18 "font-size:6px;font-family:'Arial';">
	<!ENTITY st19 "font-size:9px;font-family:'Arial';">
	<!ENTITY st20 "font-size:6px;font-family:'MS-PGothic','MS PGothic';adobe-font-script:japanese;">
	<!ENTITY st21 "font-size:7px;font-family:'MS-PGothic','MS PGothic';adobe-font-script:japanese;">
	<!ATTLIST svg
		xmlns:ewd CDATA #FIXED "http://shcl.co.jp/ewd"
		xmlns:a CDATA #FIXED "http://ns.adobe.com/AdobeSVGViewerExtensions/3.0/"
		ewd:ver CDATA #IMPLIED
	>
	<!ATTLIST a
		ewd:lineID CDATA #IMPLIED
		ewd:groupID CDATA #IMPLIED
		ewd:figtype CDATA #IMPLIED
		ewd:code CDATA #IMPLIED
		ewd:figID CDATA #IMPLIED
		ewd:pinNo CDATA #IMPLIED
		ewd:comment CDATA #IMPLIED >
	<!ATTLIST g
		ewd:lineID CDATA #IMPLIED
		ewd:groupID CDATA #IMPLIED
		ewd:figtype CDATA #IMPLIED
		ewd:code CDATA #IMPLIED
		ewd:figID CDATA #IMPLIED
		ewd:pinNo CDATA #IMPLIED
		ewd:comment CDATA #IMPLIED >
	<!ATTLIST text
		ewd:textID CDATA #IMPLIED >
	<!ATTLIST title
		ewd:textID CDATA #IMPLIED >
]>
<!-- Generator: Shintec Hozumi YS   -->
<svg onload="call_execInitLoadProc_svg('system')" style="overflow:visible;  enable-background:new 0 0 1020.780 710.000" viewBox="0 0 1020.780 710.000" height="710.000" width="1020.780" xml:space="preserve" ewd:ver="L2.1.2.7" xmlns="&ns_svg;" xmlns:a="http://ns.adobe.com/AdobeSVGViewerExtensions/3.0/" xmlns:ewd="http://shcl.co.jp/ewd" xmlns:xlink="&ns_xlink;">
<path d=" M  645.89,  494.70  L  654.39,  494.70 " style="stroke-width: 1.42 ;&st7; " /><path d=" M  586.40,  494.70  L  594.90,  494.70 " style="stroke-width: 1.42 ;&st7; " /><path d=" M  724.50,  358.73  L  720.25,  358.73 " style="stroke-width: 1.42 ;&st7; " /><path d=" M  724.50,  367.22  L  720.25,  367.22 " style="stroke-width: 1.42 ;&st7; " /><path d=" M  656.52,  401.22  L  652.27,  401.22 " style="stroke-width: 1.42 ;&st7; " /><path d=" M  656.52,  409.72  L  652.27,  409.72 " style="stroke-width: 1.42 ;&st7; " /><path d=" M  713.88,  239.75  L  722.38,  239.75 " style="stroke-width: 1.42 ;&st7; " /><path d=" M  817.99,  358.73  L  813.74,  358.73 " style="stroke-width: 1.42 ;&st7; " /><path d=" M  817.99,  367.22  L  813.74,  367.22 " style="stroke-width: 1.42 ;&st7; " /><path d=" M  724.50,  401.22  L  720.25,  401.22 " style="stroke-width: 1.42 ;&st7; " /><path d=" M  724.50,  409.72  L  720.25,  409.72 " style="stroke-width: 1.42 ;&st7; " /><path d=" M  807.37,  239.75  L  815.86,  239.75 " style="stroke-width: 1.42 ;&st7; " /><path d=" M  807.37,  299.24  L  815.86,  299.24 " style="stroke-width: 1.42 ;&st7; " /><path d=" M  656.52,  358.73  L  652.27,  358.73 " style="stroke-width: 1.42 ;&st7; " /><path d=" M  656.52,  367.22  L  652.27,  367.22 " style="stroke-width: 1.42 ;&st7; " /><path d=" M  985.83,  358.73  L  985.83,  367.22  L  892.35,  367.22 " style="stroke-width: 0.85 ;&st7; " /><path d=" M  934.84,  358.73  L  934.84,  375.72 " style="stroke-width: 0.85 ;&st7; " /><path d=" M  658.64,  489.04  L  654.39,  493.29  L  650.14,  489.04 " style="stroke-width: 1.42 ;&st7; " /><path d=" M  650.14,  485.64  L  654.39,  489.89  L  658.64,  485.64 " style="stroke-width: 1.42 ;&st7; " /><path d=" M  705.38,  613.68  L  705.38,  647.68  L  739.38,  647.68  L  739.38,  613.68  L  705.38,  613.68 " style="stroke-width: 1.42 ;&st7; " /><path d=" M  577.90,  613.68  L  577.90,  647.68  L  671.39,  647.68  L  671.39,  613.68  L  577.90,  613.68 " style="stroke-width: 1.42 ;&st7; " /><path d=" M  590.65,  485.64  L  594.90,  489.89  L  599.15,  485.64 " style="stroke-width: 1.42 ;&st7; " /><path d=" M  599.15,  489.04  L  594.90,  493.29  L  590.65,  489.04 " style="stroke-width: 1.42 ;&st7; " /><path d=" M  892.35,  358.73  L  892.35,  375.72 " style="stroke-width: 0.85 ;&st7; " /><path d=" M  883.85,  358.73  L  883.85,  375.72  L  994.33,  375.72  L  994.33,  358.73  L  883.85,  358.73 " style="stroke-width: 1.42 ;&st7; " /><path d=" M  721.19,  383.22  L  720.91,  383.69  L  720.82,  384.22  L  720.91,  384.75  L  721.19,  385.22  L  721.60,  385.57  L  722.11,  385.76  L  722.65,  385.76  L  723.16,  385.57  L  723.57,  385.22  L  723.84,  384.75  L  723.94,  384.22  L  723.84,  383.69  L  723.57,  383.22  L  723.16,  382.87  L  722.65,  382.69  L  722.11,  382.69  L  721.60,  382.87  L  721.19,  383.22  L  721.58,  383.93  L  721.58,  384.51  L  721.95,  384.96  L  722.53,  385.06  L  723.03,  384.77  L  723.23,  384.22  L  723.03,  383.67  L  722.53,  383.39  L  721.95,  383.48  L  722.38,  384.22 " style="stroke-width: 0.85 ;&st7; " /><path d=" M  654.39,  372.12  L  657.22,  374.95  L  657.22,  370.70  L  654.39,  367.87  L  651.56,  370.70  L  651.56,  374.95  L  654.39,  372.12 " style="stroke-width: 0.28 ;&st9;" /><path d=" M  654.39,  401.22  L  654.39,  367.22 " style="stroke-width: 0.85 ;&st7; " /><path d=" M  653.20,  383.22  L  652.93,  383.69  L  652.83,  384.22  L  652.93,  384.75  L  653.20,  385.22  L  653.61,  385.57  L  654.12,  385.76  L  654.66,  385.76  L  655.17,  385.57  L  655.58,  385.22  L  655.85,  384.75  L  655.95,  384.22  L  655.85,  383.69  L  655.58,  383.22  L  655.17,  382.87  L  654.66,  382.69  L  654.12,  382.69  L  653.61,  382.87  L  653.20,  383.22  L  653.59,  383.93  L  653.59,  384.51  L  653.97,  384.96  L  654.54,  385.06  L  655.04,  384.77  L  655.24,  384.22  L  655.04,  383.67  L  654.54,  383.39  L  653.97,  383.48  L  654.39,  384.22 " style="stroke-width: 0.85 ;&st7; " /><path d=" M  705.38,  137.76  L  705.38,  171.76  L  739.38,  171.76  L  739.38,  137.76  L  705.38,  137.76 " style="stroke-width: 1.42 ;&st7; " /><path d=" M  722.38,  372.12  L  725.21,  374.95  L  725.21,  370.70  L  722.38,  367.87  L  719.55,  370.70  L  719.55,  374.95  L  722.38,  372.12 " style="stroke-width: 0.28 ;&st9;" /><path d=" M  654.39,  396.32  L  651.56,  393.49  L  651.56,  397.74  L  654.39,  400.57  L  657.22,  397.74  L  657.22,  393.49  L  654.39,  396.32 " style="stroke-width: 0.28 ;&st9;" /><path d=" M  722.38,  401.22  L  722.38,  367.22 " style="stroke-width: 0.85 ;&st7; " /><path d=" M  718.13,  230.68  L  722.38,  234.93  L  726.63,  230.68 " style="stroke-width: 1.42 ;&st7; " /><path d=" M  726.63,  234.08  L  722.38,  238.33  L  718.13,  234.08 " style="stroke-width: 1.42 ;&st7; " /><path d=" M  798.87,  137.76  L  798.87,  171.76  L  832.86,  171.76  L  832.86,  137.76  L  798.87,  137.76 " style="stroke-width: 1.42 ;&st7; " /><path d=" M  815.86,  372.12  L  818.70,  374.95  L  818.70,  370.70  L  815.86,  367.87  L  813.03,  370.70  L  813.03,  374.95  L  815.86,  372.12 " style="stroke-width: 0.28 ;&st9;" /><path d=" M  722.38,  396.32  L  719.55,  393.49  L  719.55,  397.74  L  722.38,  400.57  L  725.21,  397.74  L  725.21,  393.49  L  722.38,  396.32 " style="stroke-width: 0.28 ;&st9;" /><path d=" M  815.86,  367.22  L  815.86,  384.22  L  654.39,  384.22 " style="stroke-width: 0.85 ;&st7; " /><path d=" M  811.61,  230.68  L  815.86,  234.93  L  820.11,  230.68 " style="stroke-width: 1.42 ;&st7; " /><path d=" M  820.11,  234.08  L  815.86,  238.33  L  811.61,  234.08 " style="stroke-width: 1.42 ;&st7; " /><path d=" M  811.61,  290.17  L  815.86,  294.42  L  820.11,  290.17 " style="stroke-width: 1.42 ;&st7; " /><path d=" M  820.11,  293.57  L  815.86,  297.82  L  811.61,  293.57 " style="stroke-width: 1.42 ;&st7; " /><path d=" M  891.16,  366.22  L  890.89,  366.69  L  890.79,  367.22  L  890.89,  367.76  L  891.16,  368.23  L  891.57,  368.57  L  892.08,  368.76  L  892.62,  368.76  L  893.13,  368.57  L  893.54,  368.23  L  893.82,  367.76  L  893.91,  367.22  L  893.82,  366.69  L  893.54,  366.22  L  893.13,  365.88  L  892.62,  365.69  L  892.08,  365.69  L  891.57,  365.88  L  891.16,  366.22  L  891.55,  366.93  L  891.55,  367.52  L  891.93,  367.96  L  892.50,  368.06  L  893.00,  367.77  L  893.20,  367.22  L  893.00,  366.68  L  892.50,  366.39  L  891.93,  366.49  L  892.35,  367.22 " style="stroke-width: 0.85 ;&st7; " /><path d=" M  933.65,  366.22  L  933.38,  366.69  L  933.29,  367.22  L  933.38,  367.76  L  933.65,  368.23  L  934.06,  368.57  L  934.57,  368.76  L  935.12,  368.76  L  935.62,  368.57  L  936.04,  368.23  L  936.31,  367.76  L  936.40,  367.22  L  936.31,  366.69  L  936.04,  366.22  L  935.62,  365.88  L  935.12,  365.69  L  934.57,  365.69  L  934.06,  365.88  L  933.65,  366.22  L  934.04,  366.93  L  934.04,  367.52  L  934.42,  367.96  L  934.99,  368.06  L  935.49,  367.77  L  935.69,  367.22  L  935.49,  366.68  L  934.99,  366.39  L  934.42,  366.49  L  934.84,  367.22 " style="stroke-width: 0.85 ;&st7; " /><path d=" M  900.85,  389.32  L  917.85,  389.32 " style="stroke-width: 0.85 ;&st7;stroke-dasharray:3, 1.5;" /><path d=" M  900.85,  380.26  L  917.85,  380.26 " style="stroke-width: 0.85 ;&st7;stroke-dasharray:3, 1.5;" /><path d=" M  900.85,  345.13  L  917.85,  345.13 " style="stroke-width: 0.85 ;&st7;stroke-dasharray:3, 1.5;" /><path d=" M  900.85,  354.19  L  917.85,  354.19 " style="stroke-width: 0.85 ;&st7;stroke-dasharray:3, 1.5;" /><path d=" M  943.34,  345.13  L  968.84,  345.13 " style="stroke-width: 0.85 ;&st7;stroke-dasharray:3, 1.5;" /><path d=" M  943.34,  354.19  L  968.84,  354.19 " style="stroke-width: 0.85 ;&st7;stroke-dasharray:3, 1.5;" /><path d=" M  820.40,  185.35  C  820.40   182.85   818.37   180.82   815.86   180.82 " style="stroke-width: 1.42 ;&st7; " /><path d=" M  815.86,  180.82  C  813.36   180.82   811.33   182.85   811.33   185.35 " style="stroke-width: 1.42 ;&st7; " /><path d=" M  811.33,  185.35  C  811.33   187.86   813.36   189.89   815.86   189.89 " style="stroke-width: 1.42 ;&st7; " /><path d=" M  815.86,  189.89  C  818.37   189.89   820.40   187.86   820.40   185.35 " style="stroke-width: 1.42 ;&st7; " /><path d=" M  820.40,  176.29  C  820.40   173.79   818.37   171.76   815.86   171.76 " style="stroke-width: 1.42 ;&st7; " /><path d=" M  815.86,  171.76  C  813.36   171.76   811.33   173.79   811.33   176.29 " style="stroke-width: 1.42 ;&st7; " /><path d=" M  811.33,  176.29  C  811.33   178.79   813.36   180.82   815.86   180.82 " style="stroke-width: 1.42 ;&st7; " /><path d=" M  815.86,  180.82  C  818.37   180.82   820.40   178.79   820.40   176.29 " style="stroke-width: 1.42 ;&st7; " /><path d=" M  720.25,  358.73  C  717.91   358.73   716.01   360.63   716.01   362.97 " style="stroke-width: 1.42 ;&st7; " /><path d=" M  716.01,  362.97  C  716.01   365.32   717.91   367.22   720.25   367.22 " style="stroke-width: 1.42 ;&st7; " /><path d=" M  724.50,  367.22  C  726.85   367.22   728.75   365.32   728.75   362.97 " style="stroke-width: 1.42 ;&st7; " /><path d=" M  728.75,  362.97  C  728.75   360.63   726.85   358.73   724.50   358.73 " style="stroke-width: 1.42 ;&st7; " /><path d=" M  652.27,  401.22  C  649.92   401.22   648.02   403.12   648.02   405.47 " style="stroke-width: 1.42 ;&st7; " /><path d=" M  648.02,  405.47  C  648.02   407.81   649.92   409.72   652.27   409.72 " style="stroke-width: 1.42 ;&st7; " /><path d=" M  656.52,  409.72  C  658.86   409.72   660.76   407.81   660.76   405.47 " style="stroke-width: 1.42 ;&st7; " /><path d=" M  660.76,  405.47  C  660.76   403.12   658.86   401.22   656.52   401.22 " style="stroke-width: 1.42 ;&st7; " /><path d=" M  813.74,  358.73  C  811.39   358.73   809.49   360.63   809.49   362.97 " style="stroke-width: 1.42 ;&st7; " /><path d=" M  809.49,  362.97  C  809.49   365.32   811.39   367.22   813.74   367.22 " style="stroke-width: 1.42 ;&st7; " /><path d=" M  817.99,  367.22  C  820.34   367.22   822.24   365.32   822.24   362.97 " style="stroke-width: 1.42 ;&st7; " /><path d=" M  822.24,  362.97  C  822.24   360.63   820.34   358.73   817.99   358.73 " style="stroke-width: 1.42 ;&st7; " /><path d=" M  720.25,  401.22  C  717.91   401.22   716.01   403.12   716.01   405.47 " style="stroke-width: 1.42 ;&st7; " /><path d=" M  716.01,  405.47  C  716.01   407.81   717.91   409.72   720.25   409.72 " style="stroke-width: 1.42 ;&st7; " /><path d=" M  724.50,  409.72  C  726.85   409.72   728.75   407.81   728.75   405.47 " style="stroke-width: 1.42 ;&st7; " /><path d=" M  728.75,  405.47  C  728.75   403.12   726.85   401.22   724.50   401.22 " style="stroke-width: 1.42 ;&st7; " /><path d=" M  652.27,  358.73  C  649.92   358.73   648.02   360.63   648.02   362.97 " style="stroke-width: 1.42 ;&st7; " /><path d=" M  648.02,  362.97  C  648.02   365.32   649.92   367.22   652.27   367.22 " style="stroke-width: 1.42 ;&st7; " /><path d=" M  656.52,  367.22  C  658.86   367.22   660.76   365.32   660.76   362.97 " style="stroke-width: 1.42 ;&st7; " /><path d=" M  660.76,  362.97  C  660.76   360.63   658.86   358.73   656.52   358.73 " style="stroke-width: 1.42 ;&st7; " /><path d=" M  726.91,  176.29  C  726.91   173.79   724.88   171.76   722.38   171.76 " style="stroke-width: 1.42 ;&st7; " /><path d=" M  722.38,  171.76  C  719.88   171.76   717.85   173.79   717.85   176.29 " style="stroke-width: 1.42 ;&st7; " /><path d=" M  717.85,  176.29  C  717.85   178.79   719.88   180.82   722.38   180.82 " style="stroke-width: 1.42 ;&st7; " /><path d=" M  722.38,  180.82  C  724.88   180.82   726.91   178.79   726.91   176.29 " style="stroke-width: 1.42 ;&st7; " /><path d=" M  896.88,  354.19  C  896.88   351.69   894.85   349.66   892.35   349.66 " style="stroke-width: 1.42 ;&st7; " /><path d=" M  892.35,  349.66  C  889.85   349.66   887.82   351.69   887.82   354.19 " style="stroke-width: 1.42 ;&st7; " /><path d=" M  887.82,  354.19  C  887.82   356.70   889.85   358.73   892.35   358.73 " style="stroke-width: 1.42 ;&st7; " /><path d=" M  892.35,  358.73  C  894.85   358.73   896.88   356.70   896.88   354.19 " style="stroke-width: 1.42 ;&st7; " /><path d=" M  939.38,  354.19  C  939.38   351.69   937.35   349.66   934.84   349.66 " style="stroke-width: 1.42 ;&st7; " /><path d=" M  934.84,  349.66  C  932.34   349.66   930.31   351.69   930.31   354.19 " style="stroke-width: 1.42 ;&st7; " /><path d=" M  930.31,  354.19  C  930.31   356.70   932.34   358.73   934.84   358.73 " style="stroke-width: 1.42 ;&st7; " /><path d=" M  934.84,  358.73  C  937.35   358.73   939.38   356.70   939.38   354.19 " style="stroke-width: 1.42 ;&st7; " /><path d=" M  990.37,  354.19  C  990.37   351.69   988.34   349.66   985.84   349.66 " style="stroke-width: 1.42 ;&st7; " /><path d=" M  985.84,  349.66  C  983.33   349.66   981.30   351.69   981.30   354.19 " style="stroke-width: 1.42 ;&st7; " /><path d=" M  981.30,  354.19  C  981.30   356.70   983.33   358.73   985.84   358.73 " style="stroke-width: 1.42 ;&st7; " /><path d=" M  985.84,  358.73  C  988.34   358.73   990.37   356.70   990.37   354.19 " style="stroke-width: 1.42 ;&st7; " /><path d=" M  896.88,  380.26  C  896.88   377.75   894.85   375.72   892.35   375.72 " style="stroke-width: 1.42 ;&st7; " /><path d=" M  892.35,  375.72  C  889.85   375.72   887.82   377.75   887.82   380.26 " style="stroke-width: 1.42 ;&st7; " /><path d=" M  887.82,  380.26  C  887.82   382.76   889.85   384.79   892.35   384.79 " style="stroke-width: 1.42 ;&st7; " /><path d=" M  892.35,  384.79  C  894.85   384.79   896.88   382.76   896.88   380.26 " style="stroke-width: 1.42 ;&st7; " /><path d=" M  939.38,  380.26  C  939.38   377.75   937.35   375.72   934.84   375.72 " style="stroke-width: 1.42 ;&st7; " /><path d=" M  934.84,  375.72  C  932.34   375.72   930.31   377.75   930.31   380.26 " style="stroke-width: 1.42 ;&st7; " /><path d=" M  930.31,  380.26  C  930.31   382.76   932.34   384.79   934.84   384.79 " style="stroke-width: 1.42 ;&st7; " /><path d=" M  934.84,  384.79  C  937.35   384.79   939.38   382.76   939.38   380.26 " style="stroke-width: 1.42 ;&st7; " /><path d=" M  896.88,  389.32  C  896.88   386.82   894.85   384.79   892.35   384.79 " style="stroke-width: 1.42 ;&st7; " /><path d=" M  892.35,  384.79  C  889.85   384.79   887.82   386.82   887.82   389.32 " style="stroke-width: 1.42 ;&st7; " /><path d=" M  887.82,  389.32  C  887.82   391.82   889.85   393.85   892.35   393.85 " style="stroke-width: 1.42 ;&st7; " /><path d=" M  892.35,  393.85  C  894.85   393.85   896.88   391.82   896.88   389.32 " style="stroke-width: 1.42 ;&st7; " /><path d=" M  939.38,  389.32  C  939.38   386.82   937.35   384.79   934.84   384.79 " style="stroke-width: 1.42 ;&st7; " /><path d=" M  934.84,  384.79  C  932.34   384.79   930.31   386.82   930.31   389.32 " style="stroke-width: 1.42 ;&st7; " /><path d=" M  930.31,  389.32  C  930.31   391.82   932.34   393.85   934.84   393.85 " style="stroke-width: 1.42 ;&st7; " /><path d=" M  934.84,  393.85  C  937.35   393.85   939.38   391.82   939.38   389.32 " style="stroke-width: 1.42 ;&st7; " /><path d=" M  896.88,  345.13  C  896.88   342.62   894.85   340.60   892.35   340.60 " style="stroke-width: 1.42 ;&st7; " /><path d=" M  892.35,  340.60  C  889.85   340.60   887.82   342.62   887.82   345.13 " style="stroke-width: 1.42 ;&st7; " /><path d=" M  887.82,  345.13  C  887.82   347.63   889.85   349.66   892.35   349.66 " style="stroke-width: 1.42 ;&st7; " /><path d=" M  892.35,  349.66  C  894.85   349.66   896.88   347.63   896.88   345.13 " style="stroke-width: 1.42 ;&st7; " /><path d=" M  939.38,  345.13  C  939.38   342.62   937.35   340.60   934.84   340.60 " style="stroke-width: 1.42 ;&st7; " /><path d=" M  934.84,  340.60  C  932.34   340.60   930.31   342.62   930.31   345.13 " style="stroke-width: 1.42 ;&st7; " /><path d=" M  930.31,  345.13  C  930.31   347.63   932.34   349.66   934.84   349.66 " style="stroke-width: 1.42 ;&st7; " /><path d=" M  934.84,  349.66  C  937.35   349.66   939.38   347.63   939.38   345.13 " style="stroke-width: 1.42 ;&st7; " /><path d=" M  990.37,  345.13  C  990.37   342.62   988.34   340.60   985.84   340.60 " style="stroke-width: 1.42 ;&st7; " /><path d=" M  985.84,  340.60  C  983.33   340.60   981.30   342.62   981.30   345.13 " style="stroke-width: 1.42 ;&st7; " /><path d=" M  981.30,  345.13  C  981.30   347.63   983.33   349.66   985.84   349.66 " style="stroke-width: 1.42 ;&st7; " /><path d=" M  985.84,  349.66  C  988.34   349.66   990.37   347.63   990.37   345.13 " style="stroke-width: 1.42 ;&st7; " /><text style="&st18;" transform="matrix(&st16;  635.62  500.92 )">22</text><text style="&st18;" transform="matrix(&st16;  804.99  178.26 )">2</text><text style="&st18;" transform="matrix(&st16;  813.53  178.26 )">A</text><text style="&st18;" transform="matrix(&st17;  650.69  548.02 )">P</text><text style="&st18;" transform="matrix(&st16;  644.42  609.99 )">10</text><text style="&st18;" transform="matrix(&st16;  584.93  409.41 )">12</text><text style="&st18;" transform="matrix(&st16;  590.45  397.52 )">TS</text><text style="&st18;" transform="matrix(&st16;  580.09  500.92 )">2</text><text style="&st18;" transform="matrix(&st16;  590.45  621.32 )">TS</text><text style="&st18;" transform="matrix(&st17;  591.2  549.05 )">W</text><text style="&st18;" transform="matrix(&st16;  588.11  609.99 )">7</text><text style="&st18;" transform="matrix(&st17;  591.2  446.47 )">G</text><text style="&st18;" transform="matrix(&st16;  821.84  187.32 )">(*4)</text><text style="&st18;" transform="matrix(&st16;  821.84  178.26 )">(*3)</text><text style="&st18;" transform="matrix(&st17;  718.68  445.69 )">L</text><text style="&st18;" transform="matrix(&st17;  718.68  200.61 )">W</text><text style="&st18;" transform="matrix(&st16;  717.08  168.06 )">SIL</text><text ewd:textID="10" style="&st18;" transform="matrix(&st16;  702.86  128.12 )">Center Airbag <tspan dy="6" x="0">Sensor Assembly</tspan></text><text style="&st18;" transform="matrix(&st16;  702.86  121.01 )">H56(A)</text><text style="&st18;" transform="matrix(&st16;  717.93  364.94 )">3C</text><text style="&st18;" transform="matrix(&st16;  709.69  364.94 )">3</text><text style="&st18;" transform="matrix(&st16;  650.08  407.44 )">3B</text><text style="&st18;" transform="matrix(&st16;  641.7  407.44 )">4</text><text style="&st18;" transform="matrix(&st16;  707.57  245.96 )">5</text><text style="&st18;" transform="matrix(&st17;  718.68  311.09 )">W</text><text style="&st18;" transform="matrix(&st17;  812.17  223.3 )">BR</text><text style="&st18;" transform="matrix(&st16;  810.07  168.06 )">DIA</text><text ewd:textID="12" style="&st18;" transform="matrix(&st16;  796.34  128.12 )">Occupant <tspan dy="6" x="0">Detection ECU</tspan></text><text style="&st18;" transform="matrix(&st16;  796.34  121.01 )">P14(C),W6(A)</text><text style="&st18;" transform="matrix(&st16;  811.41  364.94 )">3C</text><text style="&st18;" transform="matrix(&st16;  803.17  364.94 )">2</text><text style="&st18;" transform="matrix(&st16;  718.07  407.44 )">3A</text><text style="&st18;" transform="matrix(&st16;  709.69  407.44 )">2</text><text style="&st18;" transform="matrix(&st16;  801.05  245.96 )">3</text><text style="&st18;" transform="matrix(&st17;  812.17  274.29 )">BR</text><text style="&st18;" transform="matrix(&st16;  801.05  305.45 )">2</text><text style="&st18;" transform="matrix(&st17;  812.17  344.2 )">R</text><text style="&st18;" transform="matrix(&st17;  823.5  224.68 )">(*3)</text><text style="&st18;" transform="matrix(&st17;  823.5  275.67 )">(*3)</text><text style="&st18;" transform="matrix(&st17;  778.17  244.55 )">BR</text><text style="&st18;" transform="matrix(&st17;  789.51  245.93 )">(*4)</text><text style="&st18;" transform="matrix(&st17;  591.21  312.4 )">BE</text><text style="&st18;" transform="matrix(&st16;  588.11  346.54 )">7</text><text style="&st18;" transform="matrix(&st16;  589.6  357.86 )">SIL</text><text style="&st18;" transform="matrix(&st16;  719.91  621.32 )">D</text><text style="&st18;" transform="matrix(&st16;  715.59  609.99 )">9</text><text ewd:textID="13" style="&st18;" transform="matrix(&st16;  702.86  662.39 )">Transponder Key <tspan dy="6" x="0">ECU Assembly</tspan></text><text style="&st18;" transform="matrix(&st16;  702.86  655.29 )">H32</text><text style="&st18;" transform="matrix(&st16;  650.08  364.94 )">3B</text><text style="&st18;" transform="matrix(&st16;  641.7  364.94 )">3</text><text style="&st18;" transform="matrix(&st16;  624.23  321.03 )">BE</text><text style="&st18;" transform="matrix(&st16;  623.1  332.37 )">(*1)</text><text style="&st18;" transform="matrix(&st17;  931.15  311.09 )">W</text><text style="&st18;" transform="matrix(&st17;  942.48  313.91 )">(*7)</text><text style="&st18;" transform="matrix(&st17;  982.14  312.4 )">BE</text><text style="&st18;" transform="matrix(&st17;  993.47  313.91 )">(*2)</text><text style="&st18;" transform="matrix(&st17;  888.66  448.44 )">LG</text><text style="&st18;" transform="matrix(&st17;  899.99  449.89 )">(*2)</text><text style="&st18;" transform="matrix(&st17;  931.15  446.04 )">B</text><text style="&st18;" transform="matrix(&st17;  942.48  449.89 )">(*2)</text><text style="&st18;" transform="matrix(&st16;  855.88  321.03 )">R</text><text style="&st18;" transform="matrix(&st16;  852.18  332.37 )">(*2)</text><text style="&st18;" transform="matrix(&st17;  823.5  347.52 )">(*1)</text><text style="&st18;" transform="matrix(&st17;  730.02  313.53 )">(*1)</text><text style="&st18;" transform="matrix(&st17;  662.03  449.5 )">(*1)</text><text style="&st18;" transform="matrix(&st17;  730.02  449.5 )">(*1)</text><text style="&st18;" transform="matrix(&st17;  602.54  313.91 )">(*2)</text><text ewd:textID="11" style="&st18;" transform="matrix(&st16;  966.31  390.44 )">Junction <tspan dy="6" x="0">Connector</tspan></text><text style="&st18;" transform="matrix(&st16;  966.31  383.33 )">H114(A),H127(B)</text><text style="&st18;" transform="matrix(&st17;  679.02  203.43 )">(*7)</text><text style="&st18;" transform="matrix(&st17;  667.69  200.61 )">W</text><text style="&st18;" transform="matrix(&st16;  549.88  346.53 )">DLC3</text><text style="&st18;" transform="matrix(&st16;  549.88  339.42 )">H19</text><text style="&st18;" transform="matrix(&st16;  708.32  178.26 )">16</text><text style="&st18;" transform="matrix(&st16;  720.05  178.26 )">A</text><text style="&st18;" transform="matrix(&st16;  878.3  356.16 )">17</text><text style="&st18;" transform="matrix(&st16;  890.02  356.16 )">B</text><text style="&st18;" transform="matrix(&st16;  920.79  356.16 )">16</text><text style="&st18;" transform="matrix(&st16;  932.51  356.16 )">B</text><text style="&st18;" transform="matrix(&st16;  991.81  356.16 )">(*6)</text><text style="&st18;" transform="matrix(&st16;  971.78  356.16 )">15</text><text style="&st18;" transform="matrix(&st16;  983.5  356.16 )">B</text><text style="&st18;" transform="matrix(&st16;  878.3  382.22 )">14</text><text style="&st18;" transform="matrix(&st16;  890.02  382.22 )">A</text><text style="&st18;" transform="matrix(&st16;  940.82  382.22 )">(*5)</text><text style="&st18;" transform="matrix(&st16;  920.79  382.22 )">12</text><text style="&st18;" transform="matrix(&st16;  932.51  382.22 )">A</text><text style="&st18;" transform="matrix(&st16;  878.3  391.29 )">14</text><text style="&st18;" transform="matrix(&st16;  890.02  391.29 )">B</text><text style="&st18;" transform="matrix(&st16;  940.82  391.29 )">(*6)</text><text style="&st18;" transform="matrix(&st16;  920.79  391.29 )">12</text><text style="&st18;" transform="matrix(&st16;  932.51  391.29 )">B</text><text style="&st18;" transform="matrix(&st16;  878.3  347.1 )">17</text><text style="&st18;" transform="matrix(&st16;  890.02  347.1 )">A</text><text style="&st18;" transform="matrix(&st16;  920.79  347.1 )">16</text><text style="&st18;" transform="matrix(&st16;  932.51  347.1 )">A</text><text style="&st18;" transform="matrix(&st16;  991.81  347.1 )">(*5)</text><text style="&st18;" transform="matrix(&st16;  971.78  347.1 )">15</text><text style="&st18;" transform="matrix(&st16;  983.5  347.1 )">A</text><text style="&st18;" transform="matrix(&st17;  730.02  203.43 )">(*8)</text><text style="&st18;" transform="matrix(&st17;  650.7  448.44 )">LG</text><text style="&st18;" transform="matrix(&st16;  804.99  187.32 )">2</text><text style="&st18;" transform="matrix(&st16;  813.39  187.32 )">C</text><text style="&st18;" transform="matrix(&st16;  648.14  621.32 )">D/G</text><text ewd:textID="9" style="&st18;" transform="matrix(&st16;  583.88  662.39 )">ABS and Traction <tspan dy="6" x="0">Actuator Assembly</tspan></text><text style="&st18;" transform="matrix(&st16;  583.88  655.29 )">A19</text></svg>