﻿<?xml version="1.0" encoding="utf-8"?>
<!DOCTYPE svg PUBLIC "-//W3C//DTD SVG 1.0//EN" "http://www.w3.org/TR/2001/REC-SVG-20010904/DTD/svg10.dtd"[
	<!ENTITY ns_flows "http://ns.adobe.com/Flows/1.0/">
	<!ENTITY ns_svg "http://www.w3.org/2000/svg">
	<!ENTITY ns_xlink "http://www.w3.org/1999/xlink">
	<!ENTITY st0 "font-size:7px;font-family:'MS-PGothic';adobe-font-script:japanese;">
	<!ENTITY st1 "font-size:6px;font-family:'ArialMT';">
	<!-- White fill  -->
	<!ENTITY st2 "fill:#FFFFFF;stroke:#000000; stroke-width:1.41;stroke-linecap:round;stroke-linejoin:round;">
	<!-- Yellow fill  -->
	<!ENTITY st3 "fill:#FFFFCC;stroke:#FFFFCC; stroke-width:0.1;stroke-linecap:round;stroke-linejoin:round;">
	<!-- Gray fill  -->
	<!ENTITY st4 "fill:#CCCCCC;stroke:#CCCCCC; stroke-width:0.1;stroke-linecap:round;stroke-linejoin:round;">
	<!-- Light-blue fill -->
	<!ENTITY st5 "fill:#CCECF4;stroke:#000000; stroke-width:1.133;stroke-linecap:round;stroke-linejoin:round;">
	<!ENTITY st6 "fill:none;stroke-linecap:butt; stroke-linejoin:round;">
	<!ENTITY st7 "fill:none;stroke:#000000;stroke-linecap:round;stroke-linejoin:round;">
	<!ENTITY st8 "enable-background:new    ;">
	<!-- Black fill -->
	<!ENTITY st9 "fill:#000000;stroke:#000000; stroke-linecap:round;stroke-linejoin:round;">
	<!-- SRS note   -->
	<!ENTITY st10 "font-size:9px;font-family:'ArialMT';">
	<!ENTITY st11 "font-size:9px;font-family:'Svg Symbol';">
	<!ENTITY st12 "font-size:6px;font-family:'Svg Symbol';">
	<!ENTITY st13 "fill:none;stroke:#ff0000;stroke-linecap:round;stroke-linejoin:round;">
	<!-- Yellow fill  -->
	<!ENTITY st14 "fill:#FFFF00;stroke:#FFFF00; stroke-width:0.1;stroke-linecap:round;stroke-linejoin:round;">
	<!ENTITY st15 "font-size:6px;font-family:'MS-PGothic';adobe-font-script:japanese;">
	<!ENTITY st16 "1.00 0.00 0.00 1.00">
	<!ENTITY st17 "0.00 -1.00 1.00 0.00">
	<!ENTITY st18 "font-size:6px;font-family:'Arial';">
	<!ENTITY st19 "font-size:9px;font-family:'Arial';">
	<!ENTITY st20 "font-size:6px;font-family:'MS-PGothic','MS PGothic';adobe-font-script:japanese;">
	<!ENTITY st21 "font-size:7px;font-family:'MS-PGothic','MS PGothic';adobe-font-script:japanese;">
	<!ATTLIST svg
		xmlns:ewd CDATA #FIXED "http://shcl.co.jp/ewd"
		xmlns:a CDATA #FIXED "http://ns.adobe.com/AdobeSVGViewerExtensions/3.0/"
		ewd:ver CDATA #IMPLIED
	>
	<!ATTLIST a
		ewd:lineID CDATA #IMPLIED
		ewd:groupID CDATA #IMPLIED
		ewd:figtype CDATA #IMPLIED
		ewd:code CDATA #IMPLIED
		ewd:figID CDATA #IMPLIED
		ewd:pinNo CDATA #IMPLIED
		ewd:comment CDATA #IMPLIED >
	<!ATTLIST g
		ewd:lineID CDATA #IMPLIED
		ewd:groupID CDATA #IMPLIED
		ewd:figtype CDATA #IMPLIED
		ewd:code CDATA #IMPLIED
		ewd:figID CDATA #IMPLIED
		ewd:pinNo CDATA #IMPLIED
		ewd:comment CDATA #IMPLIED >
	<!ATTLIST text
		ewd:textID CDATA #IMPLIED >
	<!ATTLIST title
		ewd:textID CDATA #IMPLIED >
]>
<!-- Generator: Shintec Hozumi YS   -->
<svg onload="call_execInitLoadProc_svg('system')" style="overflow:visible;  enable-background:new 0 0 3077.011 710.000" viewBox="0 0 3077.011 710.000" height="710.000" width="3077.011" xml:space="preserve" ewd:ver="L2.1.2.7" xmlns="&ns_svg;" xmlns:a="http://ns.adobe.com/AdobeSVGViewerExtensions/3.0/" xmlns:ewd="http://shcl.co.jp/ewd" xmlns:xlink="&ns_xlink;">
<path d=" M  934.84,  129.26  L  943.34,  129.26 " style="stroke-width: 1.42 ;&st7; " /><path d=" M  968.84,  129.26  L  977.34,  129.26 " style="stroke-width: 1.42 ;&st7; " /><path d=" M  951.84,  282.24  L  943.34,  282.24 " style="stroke-width: 1.42 ;&st7; " /><path d=" M  985.84,  282.24  L  977.34,  282.24 " style="stroke-width: 1.42 ;&st7; " /><path d=" M  654.39,  290.74  L  645.89,  290.74 " style="stroke-width: 1.42 ;&st7; " /><path d=" M  688.38,  290.74  L  679.89,  290.74 " style="stroke-width: 1.42 ;&st7; " /><path d=" M  977.34,  418.22  L 1274.79,  418.22 " style="stroke-width: 0.85 ;&st7; " /><path d=" M  943.34,  435.21  L 1232.29,  435.21 " style="stroke-width: 0.85 ;&st7; " /><path d=" M  645.89,  384.22  L  645.89,  401.22 " style="stroke-width: 0.85 ;&st7; " /><path d=" M  679.89,  384.22  L  679.89,  401.22 " style="stroke-width: 0.85 ;&st7; " /><path d=" M  934.84,  409.72  L  934.84,  443.71  L 1368.27,  443.71  L 1368.27,  409.72  L  934.84,  409.72 " style="stroke-width: 1.42 ;&st7; " /><path d=" M  943.34,  435.21  L  943.34,  443.71 " style="stroke-width: 0.85 ;&st7; " /><path d=" M  684.14,  296.40  L  679.89,  292.15  L  675.64,  296.40 " style="stroke-width: 1.42 ;&st7; " /><path d=" M  684.14,  299.80  L  679.89,  295.55  L  675.64,  299.80 " style="stroke-width: 1.42 ;&st7; " /><path d=" M  650.14,  296.40  L  645.89,  292.15  L  641.64,  296.40 " style="stroke-width: 1.42 ;&st7; " /><path d=" M  650.14,  299.80  L  645.89,  295.55  L  641.64,  299.80 " style="stroke-width: 1.42 ;&st7; " /><path d=" M  637.39,  384.22  L  637.39,  401.22  L  688.38,  401.22  L  688.38,  384.22  L  637.39,  384.22 " style="stroke-width: 1.42 ;&st7; " /><path d=" M  577.90,  171.76  L  577.90,  214.25  L  696.88,  214.25  L  696.88,  171.76  L  577.90,  171.76 " style="stroke-width: 1.42 ;&st7; " /><path d=" M  977.34,  418.22  L  977.34,  443.71 " style="stroke-width: 0.85 ;&st7; " /><path d=" M  594.90,  316.23  L  594.90,  299.24 " style="stroke-width: 0.85 ;&st7; " /><path d=" M  586.40,  384.22  L  586.40,  418.22 " style="stroke-width: 0.85 ;&st7; " /><path d=" M  569.40,  384.22  L  569.40,  418.22 " style="stroke-width: 0.85 ;&st7; " /><path d=" M  552.41,  384.22  L  552.41,  418.22  L  603.40,  418.22  L  603.40,  384.22  L  552.41,  384.22 " style="stroke-width: 1.42 ;&st7; " /><path d=" M  586.40,  316.23  L  603.40,  316.23  L  603.40,  299.24  L  586.40,  299.24  L  586.40,  316.23 " style="stroke-width: 1.42 ;&st7; " /><path d=" M  552.41,  401.22  L  603.40,  401.22 " style="stroke-width: 0.85 ;&st7; " /><path d=" M  579.32,  409.72  L  593.48,  409.72 " style="stroke-width: 0.85 ;&st7; " /><path d=" M  807.36,  384.22  L  807.36,  401.22 " style="stroke-width: 0.85 ;&st7; " /><path d=" M  849.86,  197.25  L  849.86,  214.25 " style="stroke-width: 0.85 ;&st7; " /><path d=" M  900.85,  197.25  L  900.85,  214.25 " style="stroke-width: 0.85 ;&st7; " /><path d=" M  841.36,  197.25  L  841.36,  214.25  L  909.35,  214.25  L  909.35,  197.25  L  841.36,  197.25 " style="stroke-width: 1.42 ;&st7; " /><path d=" M  981.59,  287.90  L  977.34,  283.65  L  973.09,  287.90 " style="stroke-width: 1.42 ;&st7; " /><path d=" M  981.59,  291.30  L  977.34,  287.05  L  973.09,  291.30 " style="stroke-width: 1.42 ;&st7; " /><path d=" M  947.59,  287.90  L  943.34,  283.65  L  939.09,  287.90 " style="stroke-width: 1.42 ;&st7; " /><path d=" M  947.59,  291.30  L  943.34,  287.05  L  939.09,  291.30 " style="stroke-width: 1.42 ;&st7; " /><path d=" M  981.59,  123.60  L  977.34,  127.85  L  973.09,  123.60 " style="stroke-width: 1.42 ;&st7; " /><path d=" M  973.09,  120.20  L  977.34,  124.45  L  981.59,  120.20 " style="stroke-width: 1.42 ;&st7; " /><path d=" M  947.59,  123.60  L  943.34,  127.85  L  939.09,  123.60 " style="stroke-width: 1.42 ;&st7; " /><path d=" M  939.09,  120.20  L  943.34,  124.45  L  947.59,  120.20 " style="stroke-width: 1.42 ;&st7; " /><path d=" M  747.87,  384.22  L  747.87,  401.22 " style="stroke-width: 0.85 ;&st7; " /><path d=" M  739.38,  384.22  L  739.38,  401.22  L  815.86,  401.22  L  815.86,  384.22  L  739.38,  384.22 " style="stroke-width: 1.42 ;&st7; " /><path d=" M  730.88,  171.76  L  730.88,  214.25  L  798.87,  214.25  L  798.87,  171.76  L  730.88,  171.76 " style="stroke-width: 1.42 ;&st7; " /><path d=" M  942.15,  434.21  L  941.88,  434.68  L  941.78,  435.21  L  941.88,  435.75  L  942.15,  436.22  L  942.56,  436.56  L  943.07,  436.75  L  943.61,  436.75  L  944.12,  436.56  L  944.53,  436.22  L  944.81,  435.75  L  944.90,  435.21  L  944.81,  434.68  L  944.53,  434.21  L  944.12,  433.86  L  943.61,  433.68  L  943.07,  433.68  L  942.56,  433.86  L  942.15,  434.21  L  942.54,  434.92  L  942.54,  435.50  L  942.92,  435.95  L  943.49,  436.05  L  943.99,  435.76  L  944.19,  435.21  L  943.99,  434.67  L  943.49,  434.38  L  942.92,  434.48  L  943.34,  435.21 " style="stroke-width: 0.85 ;&st7; " /><path d=" M  976.14,  417.21  L  975.87,  417.68  L  975.78,  418.22  L  975.87,  418.75  L  976.14,  419.22  L  976.56,  419.56  L  977.06,  419.75  L  977.61,  419.75  L  978.12,  419.56  L  978.53,  419.22  L  978.80,  418.75  L  978.89,  418.22  L  978.80,  417.68  L  978.53,  417.21  L  978.12,  416.87  L  977.61,  416.68  L  977.06,  416.68  L  976.56,  416.87  L  976.14,  417.21  L  976.54,  417.92  L  976.54,  418.51  L  976.91,  418.95  L  977.48,  419.05  L  977.99,  418.76  L  978.19,  418.22  L  977.99,  417.67  L  977.48,  417.38  L  976.91,  417.48  L  977.34,  418.22 " style="stroke-width: 0.85 ;&st7; " /><path d=" M  943.34,  409.72  L  943.34,  435.21 " style="stroke-width: 0.85 ;&st7; " /><path d=" M  977.34,  409.72  L  977.34,  418.22 " style="stroke-width: 0.85 ;&st7; " /><path d=" M  905.38,  192.72  C  905.38   190.22   903.35   188.19   900.85   188.19 " style="stroke-width: 1.42 ;&st7; " /><path d=" M  900.85,  188.19  C  898.35   188.19   896.32   190.22   896.32   192.72 " style="stroke-width: 1.42 ;&st7; " /><path d=" M  896.32,  192.72  C  896.32   195.22   898.35   197.25   900.85   197.25 " style="stroke-width: 1.42 ;&st7; " /><path d=" M  900.85,  197.25  C  903.35   197.25   905.38   195.22   905.38   192.72 " style="stroke-width: 1.42 ;&st7; " /><path d=" M  905.38,  218.78  C  905.38   216.28   903.35   214.25   900.85   214.25 " style="stroke-width: 1.42 ;&st7; " /><path d=" M  900.85,  214.25  C  898.35   214.25   896.32   216.28   896.32   218.78 " style="stroke-width: 1.42 ;&st7; " /><path d=" M  896.32,  218.78  C  896.32   221.29   898.35   223.31   900.85   223.31 " style="stroke-width: 1.42 ;&st7; " /><path d=" M  900.85,  223.31  C  903.35   223.31   905.38   221.29   905.38   218.78 " style="stroke-width: 1.42 ;&st7; " /><path d=" M  854.39,  192.72  C  854.39   190.22   852.36   188.19   849.86   188.19 " style="stroke-width: 1.42 ;&st7; " /><path d=" M  849.86,  188.19  C  847.35   188.19   845.33   190.22   845.33   192.72 " style="stroke-width: 1.42 ;&st7; " /><path d=" M  845.33,  192.72  C  845.33   195.22   847.35   197.25   849.86   197.25 " style="stroke-width: 1.42 ;&st7; " /><path d=" M  849.86,  197.25  C  852.36   197.25   854.39   195.22   854.39   192.72 " style="stroke-width: 1.42 ;&st7; " /><path d=" M  854.39,  218.78  C  854.39   216.28   852.36   214.25   849.86   214.25 " style="stroke-width: 1.42 ;&st7; " /><path d=" M  849.86,  214.25  C  847.35   214.25   845.33   216.28   845.33   218.78 " style="stroke-width: 1.42 ;&st7; " /><path d=" M  845.33,  218.78  C  845.33   221.29   847.35   223.31   849.86   223.31 " style="stroke-width: 1.42 ;&st7; " /><path d=" M  849.86,  223.31  C  852.36   223.31   854.39   221.29   854.39   218.78 " style="stroke-width: 1.42 ;&st7; " /><path d=" M  981.87,  448.24  C  981.87   445.74   979.84   443.71   977.34   443.71 " style="stroke-width: 1.42 ;&st7; " /><path d=" M  977.34,  443.71  C  974.83   443.71   972.80   445.74   972.80   448.24 " style="stroke-width: 1.42 ;&st7; " /><path d=" M  972.80,  448.24  C  972.80   450.75   974.83   452.78   977.34   452.78 " style="stroke-width: 1.42 ;&st7; " /><path d=" M  977.34,  452.78  C  979.84   452.78   981.87   450.75   981.87   448.24 " style="stroke-width: 1.42 ;&st7; " /><path d=" M  947.87,  448.24  C  947.87   445.74   945.85   443.71   943.34   443.71 " style="stroke-width: 1.42 ;&st7; " /><path d=" M  943.34,  443.71  C  940.84   443.71   938.81   445.74   938.81   448.24 " style="stroke-width: 1.42 ;&st7; " /><path d=" M  938.81,  448.24  C  938.81   450.75   940.84   452.78   943.34   452.78 " style="stroke-width: 1.42 ;&st7; " /><path d=" M  943.34,  452.78  C  945.85   452.78   947.87   450.75   947.87   448.24 " style="stroke-width: 1.42 ;&st7; " /><path d=" M  684.42,  405.75  C  684.42   403.25   682.39   401.22   679.89   401.22 " style="stroke-width: 1.42 ;&st7; " /><path d=" M  679.89,  401.22  C  677.38   401.22   675.35   403.25   675.35   405.75 " style="stroke-width: 1.42 ;&st7; " /><path d=" M  675.35,  405.75  C  675.35   408.25   677.38   410.28   679.89   410.28 " style="stroke-width: 1.42 ;&st7; " /><path d=" M  679.89,  410.28  C  682.39   410.28   684.42   408.25   684.42   405.75 " style="stroke-width: 1.42 ;&st7; " /><path d=" M  650.42,  405.75  C  650.42   403.25   648.40   401.22   645.89   401.22 " style="stroke-width: 1.42 ;&st7; " /><path d=" M  645.89,  401.22  C  643.39   401.22   641.36   403.25   641.36   405.75 " style="stroke-width: 1.42 ;&st7; " /><path d=" M  641.36,  405.75  C  641.36   408.25   643.39   410.28   645.89   410.28 " style="stroke-width: 1.42 ;&st7; " /><path d=" M  645.89,  410.28  C  648.40   410.28   650.42   408.25   650.42   405.75 " style="stroke-width: 1.42 ;&st7; " /><path d=" M  650.42,  379.69  C  650.42   377.19   648.40   375.16   645.89   375.16 " style="stroke-width: 1.42 ;&st7; " /><path d=" M  645.89,  375.16  C  643.39   375.16   641.36   377.19   641.36   379.69 " style="stroke-width: 1.42 ;&st7; " /><path d=" M  641.36,  379.69  C  641.36   382.19   643.39   384.22   645.89   384.22 " style="stroke-width: 1.42 ;&st7; " /><path d=" M  645.89,  384.22  C  648.40   384.22   650.42   382.19   650.42   379.69 " style="stroke-width: 1.42 ;&st7; " /><path d=" M  684.42,  379.69  C  684.42   377.19   682.39   375.16   679.89   375.16 " style="stroke-width: 1.42 ;&st7; " /><path d=" M  679.89,  375.16  C  677.38   375.16   675.35   377.19   675.35   379.69 " style="stroke-width: 1.42 ;&st7; " /><path d=" M  675.35,  379.69  C  675.35   382.19   677.38   384.22   679.89   384.22 " style="stroke-width: 1.42 ;&st7; " /><path d=" M  679.89,  384.22  C  682.39   384.22   684.42   382.19   684.42   379.69 " style="stroke-width: 1.42 ;&st7; " /><path d=" M  650.42,  218.78  C  650.42   216.28   648.40   214.25   645.89   214.25 " style="stroke-width: 1.42 ;&st7; " /><path d=" M  645.89,  214.25  C  643.39   214.25   641.36   216.28   641.36   218.78 " style="stroke-width: 1.42 ;&st7; " /><path d=" M  641.36,  218.78  C  641.36   221.29   643.39   223.31   645.89   223.31 " style="stroke-width: 1.42 ;&st7; " /><path d=" M  645.89,  223.31  C  648.40   223.31   650.42   221.29   650.42   218.78 " style="stroke-width: 1.42 ;&st7; " /><path d=" M  684.42,  218.78  C  684.42   216.28   682.39   214.25   679.89   214.25 " style="stroke-width: 1.42 ;&st7; " /><path d=" M  679.89,  214.25  C  677.38   214.25   675.35   216.28   675.35   218.78 " style="stroke-width: 1.42 ;&st7; " /><path d=" M  675.35,  218.78  C  675.35   221.29   677.38   223.31   679.89   223.31 " style="stroke-width: 1.42 ;&st7; " /><path d=" M  679.89,  223.31  C  682.39   223.31   684.42   221.29   684.42   218.78 " style="stroke-width: 1.42 ;&st7; " /><path d=" M  599.43,  218.78  C  599.43   216.28   597.40   214.25   594.90   214.25 " style="stroke-width: 1.42 ;&st7; " /><path d=" M  594.90,  214.25  C  592.40   214.25   590.37   216.28   590.37   218.78 " style="stroke-width: 1.42 ;&st7; " /><path d=" M  590.37,  218.78  C  590.37   221.29   592.40   223.31   594.90   223.31 " style="stroke-width: 1.42 ;&st7; " /><path d=" M  594.90,  223.31  C  597.40   223.31   599.43   221.29   599.43   218.78 " style="stroke-width: 1.42 ;&st7; " /><path d=" M  596.32,  409.72  C  596.32   408.93   595.68   408.30   594.90   408.30 " style="stroke-width: 0.85 ;&st7; " /><path d=" M  594.90,  408.30  C  594.12   408.30   593.48   408.93   593.48   409.72 " style="stroke-width: 0.85 ;&st7; " /><path d=" M  593.48,  409.72  C  593.48   410.50   594.12   411.13   594.90   411.13 " style="stroke-width: 0.85 ;&st7; " /><path d=" M  594.90,  411.13  C  595.68   411.13   596.32   410.50   596.32   409.72 " style="stroke-width: 0.85 ;&st7; " /><path d=" M  579.32,  409.72  C  579.32   408.93   578.69   408.30   577.90   408.30 " style="stroke-width: 0.85 ;&st7; " /><path d=" M  577.90,  408.30  C  577.12   408.30   576.49   408.93   576.49   409.72 " style="stroke-width: 0.85 ;&st7; " /><path d=" M  576.49,  409.72  C  576.49   410.50   577.12   411.13   577.90   411.13 " style="stroke-width: 0.85 ;&st7; " /><path d=" M  577.90,  411.13  C  578.69   411.13   579.32   410.50   579.32   409.72 " style="stroke-width: 0.85 ;&st7; " /><path d=" M  599.43,  294.70  C  599.43   292.20   597.40   290.17   594.90   290.17 " style="stroke-width: 1.42 ;&st7; " /><path d=" M  594.90,  290.17  C  592.40   290.17   590.37   292.20   590.37   294.70 " style="stroke-width: 1.42 ;&st7; " /><path d=" M  590.37,  294.70  C  590.37   297.21   592.40   299.24   594.90   299.24 " style="stroke-width: 1.42 ;&st7; " /><path d=" M  594.90,  299.24  C  597.40   299.24   599.43   297.21   599.43   294.70 " style="stroke-width: 1.42 ;&st7; " /><path d=" M  599.43,  320.77  C  599.43   318.26   597.40   316.23   594.90   316.23 " style="stroke-width: 1.42 ;&st7; " /><path d=" M  594.90,  316.23  C  592.40   316.23   590.37   318.26   590.37   320.77 " style="stroke-width: 1.42 ;&st7; " /><path d=" M  590.37,  320.77  C  590.37   323.27   592.40   325.30   594.90   325.30 " style="stroke-width: 1.42 ;&st7; " /><path d=" M  594.90,  325.30  C  597.40   325.30   599.43   323.27   599.43   320.77 " style="stroke-width: 1.42 ;&st7; " /><path d=" M  947.87,  405.18  C  947.87   402.68   945.85   400.65   943.34   400.65 " style="stroke-width: 1.42 ;&st7; " /><path d=" M  943.34,  400.65  C  940.84   400.65   938.81   402.68   938.81   405.18 " style="stroke-width: 1.42 ;&st7; " /><path d=" M  938.81,  405.18  C  938.81   407.69   940.84   409.72   943.34   409.72 " style="stroke-width: 1.42 ;&st7; " /><path d=" M  943.34,  409.72  C  945.85   409.72   947.87   407.69   947.87   405.18 " style="stroke-width: 1.42 ;&st7; " /><path d=" M  981.87,  405.18  C  981.87   402.68   979.84   400.65   977.34   400.65 " style="stroke-width: 1.42 ;&st7; " /><path d=" M  977.34,  400.65  C  974.83   400.65   972.80   402.68   972.80   405.18 " style="stroke-width: 1.42 ;&st7; " /><path d=" M  972.80,  405.18  C  972.80   407.69   974.83   409.72   977.34   409.72 " style="stroke-width: 1.42 ;&st7; " /><path d=" M  977.34,  409.72  C  979.84   409.72   981.87   407.69   981.87   405.18 " style="stroke-width: 1.42 ;&st7; " /><text style="&st18;" transform="matrix(&st16;  635.02  381.66 )">2</text><text style="&st18;" transform="matrix(&st16;  643.42  381.66 )">C</text><text style="&st18;" transform="matrix(&st16;  669.79  381.66 )">1</text><text style="&st18;" transform="matrix(&st16;  677.41  381.66 )">C</text><text style="&st18;" transform="matrix(&st16;  632.61  220.75 )">11</text><text style="&st18;" transform="matrix(&st16;  643.56  220.75 )">A</text><text style="&st18;" transform="matrix(&st16;  665.83  220.75 )">10</text><text style="&st18;" transform="matrix(&st16;  677.56  220.75 )">A</text><text style="&st18;" transform="matrix(&st16;  600.87  168.06 )">ECM</text><text style="&st18;" transform="matrix(&st16;  600.87  160.95 )">A27(A),D56(B)</text><text style="&st18;" transform="matrix(&st16;  636.64  210.55 )">CANL</text><text style="&st18;" transform="matrix(&st16;  670.14  210.55 )">CANH</text><text style="&st18;" transform="matrix(&st17;  642.2  251.6 )">W</text><text style="&st18;" transform="matrix(&st17;  676.19  253.47 )">GR</text><text ewd:textID="26" style="&st18;" transform="matrix(&st17;  703.1  403.74 )">Junction <tspan dy="6" x="0">Connector</tspan></text><text style="&st18;" transform="matrix(&st17;  696.0  403.74 )">H99(C),H100(D)</text><text ewd:textID="30" style="&st18;" transform="matrix(&st16;  736.85  53.33 )">Main Body ECU</text><text style="&st18;" transform="matrix(&st16;  736.85  46.22 )">H1(A),H2(B),H3(C),H4(D)</text><text style="&st18;" transform="matrix(&st17;  591.21  357.33 )">G-B</text><text style="&st18;" transform="matrix(&st16;  558.58  411.69 )">P</text><text style="&st18;" transform="matrix(&st17;  591.21  255.34 )">G-B</text><text style="&st18;" transform="matrix(&st16;  592.57  220.75 )">B</text><text style="&st18;" transform="matrix(&st16;  584.05  220.75 )">2</text><text style="&st18;" transform="matrix(&st16;  592.57  210.55 )">P</text><text style="&st18;" transform="matrix(&st16;  573.1  394.69 )">RB</text><text style="&st18;" transform="matrix(&st16;  590.59  394.69 )">PL</text><text style="&st18;" transform="matrix(&st17;  611.01  420.74 )">D21</text><text ewd:textID="31" style="&st18;" transform="matrix(&st17;  618.12  420.74 )">Park/Neutral Position <tspan dy="6" x="0">Switch Assembly</tspan></text><text style="&st18;" transform="matrix(&st16;  584.8  296.67 )">1</text><text style="&st18;" transform="matrix(&st16;  592.57  296.67 )">B</text><text style="&st18;" transform="matrix(&st16;  584.02  322.73 )">2</text><text style="&st18;" transform="matrix(&st16;  592.57  322.73 )">B</text><text style="&st18;" transform="matrix(&st16;  571.11  426.41 )">2</text><text style="&st18;" transform="matrix(&st17;  574.21  454.96 )">G</text><text style="&st18;" transform="matrix(&st16;  588.11  380.53 )">6</text><text style="&st18;" transform="matrix(&st16;  975.01  407.15 )">B</text><text style="&st18;" transform="matrix(&st16;  966.46  407.15 )">2</text><text style="&st18;" transform="matrix(&st16;  941.01  407.15 )">B</text><text style="&st18;" transform="matrix(&st16;  933.24  407.15 )">1</text><text ewd:textID="26" style="&st18;" transform="matrix(&st17;  618.12  318.76 )">Junction <tspan dy="6" x="0">Connector</tspan></text><text style="&st18;" transform="matrix(&st17;  611.01  318.76 )">D55(B)</text><text style="&st18;" transform="matrix(&st16;  975.01  450.21 )">E</text><text style="&st18;" transform="matrix(&st16;  966.46  450.21 )">2</text><text style="&st18;" transform="matrix(&st16;  941.01  450.21 )">E</text><text style="&st18;" transform="matrix(&st16;  933.24  450.21 )">1</text><text style="&st18;" transform="matrix(&st16;  677.41  407.72 )">D</text><text style="&st18;" transform="matrix(&st16;  669.79  407.72 )">1</text><text style="&st18;" transform="matrix(&st16;  643.42  407.72 )">D</text><text style="&st18;" transform="matrix(&st16;  635.02  407.72 )">2</text><text style="&st18;" transform="matrix(&st16;  661.89  288.46 )">21</text><text style="&st18;" transform="matrix(&st16;  627.12  288.46 )">22</text><text style="&st18;" transform="matrix(&st16;  737.13  168.07 )">34</text><text style="&st18;" transform="matrix(&st16;  738.62  179.39 )">CANL</text><text style="&st18;" transform="matrix(&st16;  771.12  168.07 )">33</text><text style="&st18;" transform="matrix(&st16;  772.12  179.39 )">CANH</text><text ewd:textID="18" style="&st18;" transform="matrix(&st16;  728.35  228.97 )">Combination <tspan dy="6" x="0">Meter Assembly</tspan></text><text style="&st18;" transform="matrix(&st16;  728.35  221.86 )">H37</text><text ewd:textID="26" style="&st18;" transform="matrix(&st17;  931.15  446.24 )">Junction Connector</text><text style="&st18;" transform="matrix(&st17;  918.09  446.24 )">A59(H),H90(A),H91(B), <tspan dy="6" x="-0.01">H101(E),H103(F)</tspan></text><text style="&st18;" transform="matrix(&st16;  889.88  465.51 )">R</text><text style="&st18;" transform="matrix(&st16;  886.17  476.84 )">(*9)</text><text style="&st18;" transform="matrix(&st16;  889.88  491.01 )">R</text><text style="&st18;" transform="matrix(&st16;  886.17  502.34 )">(*5)</text><text style="&st18;" transform="matrix(&st16;  889.0  516.5 )">W</text><text style="&st18;" transform="matrix(&st16;  886.17  527.83 )">(*9)</text><text style="&st18;" transform="matrix(&st16;  889.0  542.0 )">W</text><text style="&st18;" transform="matrix(&st16;  886.17  553.33 )">(*5)</text><text style="&st18;" transform="matrix(&st17;  718.68  438.57 )">W</text><text style="&st18;" transform="matrix(&st17;  730.02  441.39 )">(*8)</text><text style="&st18;" transform="matrix(&st17;  778.17  437.68 )">R</text><text style="&st18;" transform="matrix(&st17;  789.51  441.39 )">(*8)</text><text style="&st18;" transform="matrix(&st17;  950.98  356.41 )">(*7)</text><text style="&st18;" transform="matrix(&st17;  984.97  356.41 )">(*7)</text><text style="&st18;" transform="matrix(&st17;  744.18  141.12 )">W</text><text style="&st18;" transform="matrix(&st17;  778.17  142.42 )">SB</text><text style="&st18;" transform="matrix(&st16;  925.35  135.48 )">16</text><text style="&st18;" transform="matrix(&st16;  959.34  135.48 )">15</text><text style="&st18;" transform="matrix(&st16;  928.53  279.96 )">7</text><text style="&st18;" transform="matrix(&st16;  962.52  279.96 )">6</text><text style="&st18;" transform="matrix(&st16;  898.52  194.69 )">A</text><text style="&st18;" transform="matrix(&st16;  889.97  194.69 )">7</text><text style="&st18;" transform="matrix(&st16;  898.52  220.75 )">A</text><text style="&st18;" transform="matrix(&st16;  889.97  220.75 )">8</text><text style="&st18;" transform="matrix(&st16;  847.53  194.69 )">A</text><text style="&st18;" transform="matrix(&st16;  839.76  194.69 )">1</text><text style="&st18;" transform="matrix(&st16;  847.53  220.75 )">A</text><text style="&st18;" transform="matrix(&st16;  838.98  220.75 )">2</text><text style="&st18;" transform="matrix(&st17;  939.65  210.41 )">SB</text><text style="&st18;" transform="matrix(&st17;  950.98  211.93 )">(*2)</text><text style="&st18;" transform="matrix(&st17;  973.64  209.11 )">W</text><text style="&st18;" transform="matrix(&st17;  984.97  211.93 )">(*2)</text><text style="&st18;" transform="matrix(&st17;  846.16  176.42 )">SB</text><text style="&st18;" transform="matrix(&st17;  857.49  177.55 )">(*1)</text><text style="&st18;" transform="matrix(&st17;  846.16  241.72 )">L</text><text style="&st18;" transform="matrix(&st17;  857.49  245.54 )">(*1)</text><text style="&st18;" transform="matrix(&st16;  914.49  168.06 )">W</text><text style="&st18;" transform="matrix(&st16;  912.05  179.39 )">(*1)</text><text style="&st18;" transform="matrix(&st16;  914.49  236.05 )">W</text><text style="&st18;" transform="matrix(&st16;  912.05  247.38 )">(*1)</text><text ewd:textID="26" style="&st18;" transform="matrix(&st17;  831.71  216.77 )">Junction <tspan dy="6" x="0">Connector</tspan></text><text style="&st18;" transform="matrix(&st17;  824.61  216.77 )">O41(A)</text><text style="&st18;" transform="matrix(&st17;  939.65  354.89 )">SB</text><text style="&st18;" transform="matrix(&st17;  973.64  353.58 )">W</text><text ewd:textID="26" style="&st18;" transform="matrix(&st17;  830.58  403.74 )">Junction <tspan dy="6" x="0">Connector</tspan></text><text style="&st18;" transform="matrix(&st17;  823.47  403.74 )">H110</text><text style="&st18;" transform="matrix(&st16;  737.91  409.41 )">15</text><text style="&st18;" transform="matrix(&st16;  800.58  409.41 )">4</text><text style="&st18;" transform="matrix(&st16;  737.91  380.53 )">14</text><text style="&st18;" transform="matrix(&st16;  800.58  380.53 )">3</text><text style="&st18;" transform="matrix(&st17;  642.2  353.58 )">W</text><text style="&st18;" transform="matrix(&st17;  653.53  356.41 )">(*5)</text><text style="&st18;" transform="matrix(&st17;  676.19  355.45 )">GR</text><text style="&st18;" transform="matrix(&st17;  687.52  356.41 )">(*5)</text><text style="&st18;" transform="matrix(&st17;  744.18  353.58 )">W</text><text style="&st18;" transform="matrix(&st17;  755.51  356.41 )">(*6)</text><text style="&st18;" transform="matrix(&st17;  803.67  355.45 )">GR</text><text style="&st18;" transform="matrix(&st17;  815.0  356.41 )">(*6)</text><text style="&st18;" transform="matrix(&st17;  803.67  437.68 )">R</text><text style="&st18;" transform="matrix(&st17;  815.0  441.39 )">(*9)</text><text style="&st18;" transform="matrix(&st17;  744.18  438.57 )">W</text><text style="&st18;" transform="matrix(&st17;  755.51  441.39 )">(*9)</text><text style="&st18;" transform="matrix(&st17;  676.19  437.68 )">R</text><text style="&st18;" transform="matrix(&st17;  687.52  441.39 )">(*5)</text><text style="&st18;" transform="matrix(&st17;  642.2  438.57 )">W</text><text style="&st18;" transform="matrix(&st17;  653.53  441.39 )">(*5)</text><text style="&st18;" transform="matrix(&st16;  541.15  499.5 )">G</text></svg>