﻿<?xml version="1.0" encoding="utf-8"?>
<!DOCTYPE svg PUBLIC "-//W3C//DTD SVG 1.0//EN" "http://www.w3.org/TR/2001/REC-SVG-20010904/DTD/svg10.dtd"[
	<!ENTITY ns_flows "http://ns.adobe.com/Flows/1.0/">
	<!ENTITY ns_svg "http://www.w3.org/2000/svg">
	<!ENTITY ns_xlink "http://www.w3.org/1999/xlink">
	<!ENTITY st0 "font-size:7px;font-family:'MS-PGothic';adobe-font-script:japanese;">
	<!ENTITY st1 "font-size:6px;font-family:'ArialMT';">
	<!-- White fill  -->
	<!ENTITY st2 "fill:#FFFFFF;stroke:#000000; stroke-width:1.41;stroke-linecap:round;stroke-linejoin:round;">
	<!-- Yellow fill  -->
	<!ENTITY st3 "fill:#FFFFCC;stroke:#FFFFCC; stroke-width:0.1;stroke-linecap:round;stroke-linejoin:round;">
	<!-- Gray fill  -->
	<!ENTITY st4 "fill:#CCCCCC;stroke:#CCCCCC; stroke-width:0.1;stroke-linecap:round;stroke-linejoin:round;">
	<!-- Light-blue fill -->
	<!ENTITY st5 "fill:#CCECF4;stroke:#000000; stroke-width:1.133;stroke-linecap:round;stroke-linejoin:round;">
	<!ENTITY st6 "fill:none;stroke-linecap:butt; stroke-linejoin:round;">
	<!ENTITY st7 "fill:none;stroke:#000000;stroke-linecap:round;stroke-linejoin:round;">
	<!ENTITY st8 "enable-background:new    ;">
	<!-- Black fill -->
	<!ENTITY st9 "fill:#000000;stroke:#000000; stroke-linecap:round;stroke-linejoin:round;">
	<!-- SRS note   -->
	<!ENTITY st10 "font-size:9px;font-family:'ArialMT';">
	<!ENTITY st11 "font-size:9px;font-family:'Svg Symbol';">
	<!ENTITY st12 "font-size:6px;font-family:'Svg Symbol';">
	<!ENTITY st13 "fill:none;stroke:#ff0000;stroke-linecap:round;stroke-linejoin:round;">
	<!-- Yellow fill  -->
	<!ENTITY st14 "fill:#FFFF00;stroke:#FFFF00; stroke-width:0.1;stroke-linecap:round;stroke-linejoin:round;">
	<!ENTITY st15 "font-size:6px;font-family:'MS-PGothic';adobe-font-script:japanese;">
	<!ENTITY st16 "1.00 0.00 0.00 1.00">
	<!ENTITY st17 "0.00 -1.00 1.00 0.00">
	<!ENTITY st18 "font-size:6px;font-family:'Arial';">
	<!ENTITY st19 "font-size:9px;font-family:'Arial';">
	<!ENTITY st20 "font-size:6px;font-family:'MS-PGothic','MS PGothic';adobe-font-script:japanese;">
	<!ENTITY st21 "font-size:7px;font-family:'MS-PGothic','MS PGothic';adobe-font-script:japanese;">
	<!ATTLIST svg
		xmlns:ewd CDATA #FIXED "http://shcl.co.jp/ewd"
		xmlns:a CDATA #FIXED "http://ns.adobe.com/AdobeSVGViewerExtensions/3.0/"
		ewd:ver CDATA #IMPLIED
	>
	<!ATTLIST a
		ewd:lineID CDATA #IMPLIED
		ewd:groupID CDATA #IMPLIED
		ewd:figtype CDATA #IMPLIED
		ewd:code CDATA #IMPLIED
		ewd:figID CDATA #IMPLIED
		ewd:pinNo CDATA #IMPLIED
		ewd:comment CDATA #IMPLIED >
	<!ATTLIST g
		ewd:lineID CDATA #IMPLIED
		ewd:groupID CDATA #IMPLIED
		ewd:figtype CDATA #IMPLIED
		ewd:code CDATA #IMPLIED
		ewd:figID CDATA #IMPLIED
		ewd:pinNo CDATA #IMPLIED
		ewd:comment CDATA #IMPLIED >
	<!ATTLIST text
		ewd:textID CDATA #IMPLIED >
	<!ATTLIST title
		ewd:textID CDATA #IMPLIED >
]>
<!-- Generator: Shintec Hozumi YS   -->
<svg onload="call_execInitLoadProc_svg('system')" style="overflow:visible;  enable-background:new 0 0 7725.917 710.000" viewBox="0 0 7725.917 710.000" height="710.000" width="7725.917" xml:space="preserve" ewd:ver="L2.1.2.7" xmlns="&ns_svg;" xmlns:a="http://ns.adobe.com/AdobeSVGViewerExtensions/3.0/" xmlns:ewd="http://shcl.co.jp/ewd" xmlns:xlink="&ns_xlink;">
<path d=" M 1946.17,  122.18  L 1940.51,   99.52 " style="stroke-width: 1.42 ;&st7; " /><path d=" M 1946.17,  129.26  L 1946.17,  125.01 " style="stroke-width: 0.85 ;&st7; " /><path d=" M 1946.17,   99.52  L 1946.17,   95.27 " style="stroke-width: 0.85 ;&st7; " /><path d=" M 1971.67,   95.27  L 1971.67,  103.77 " style="stroke-width: 0.85 ;&st7; " /><path d=" M 1971.67,  120.77  L 1971.67,  129.26 " style="stroke-width: 0.85 ;&st7; " /><path d=" M 1948.30,   69.77  L 1944.05,   69.77 " style="stroke-width: 1.42 ;&st7; " /><path d=" M 1948.30,   78.27  L 1944.05,   78.27 " style="stroke-width: 1.42 ;&st7; " /><path d=" M 1973.80,   69.77  L 1969.55,   69.77 " style="stroke-width: 1.42 ;&st7; " /><path d=" M 1973.80,   78.27  L 1969.55,   78.27 " style="stroke-width: 1.42 ;&st7; " /><path d=" M 1948.30,  146.26  L 1944.05,  146.26 " style="stroke-width: 1.42 ;&st7; " /><path d=" M 1948.30,  154.76  L 1944.05,  154.76 " style="stroke-width: 1.42 ;&st7; " /><path d=" M 1973.80,  146.26  L 1969.55,  146.26 " style="stroke-width: 1.42 ;&st7; " /><path d=" M 1973.80,  154.76  L 1969.55,  154.76 " style="stroke-width: 1.42 ;&st7; " /><path d=" M 1869.69,  601.66  L 1864.72,  596.69 " style="stroke-width: 1.42 ;&st7; " /><path d=" M 1852.69,  608.71  L 1857.66,  613.68 " style="stroke-width: 1.42 ;&st7; " /><path d=" M 1864.72,  613.68  L 1869.69,  608.71 " style="stroke-width: 1.42 ;&st7; " /><path d=" M 1857.66,  596.69  L 1852.69,  601.66 " style="stroke-width: 1.42 ;&st7; " /><path d=" M 1801.70,  533.67  L 1796.73,  528.70 " style="stroke-width: 1.42 ;&st7; " /><path d=" M 1784.70,  540.73  L 1789.67,  545.69 " style="stroke-width: 1.42 ;&st7; " /><path d=" M 1796.73,  545.69  L 1801.70,  540.73 " style="stroke-width: 1.42 ;&st7; " /><path d=" M 1789.67,  528.70  L 1784.70,  533.67 " style="stroke-width: 1.42 ;&st7; " /><path d=" M 1903.68,  426.71  L 1903.68,  435.21 " style="stroke-width: 0.85 ;&st7; " /><path d=" M 1903.68,  452.21  L 1903.68,  460.71 " style="stroke-width: 0.85 ;&st7; " /><path d=" M 1861.19,  426.71  L 1861.19,  435.21 " style="stroke-width: 0.85 ;&st7; " /><path d=" M 1861.19,  452.21  L 1861.19,  460.71 " style="stroke-width: 0.85 ;&st7; " /><path d=" M 1869.69,  460.71  L 1869.69,  426.71  L 1852.69,  426.71  L 1852.69,  460.71  L 1869.69,  460.71 " style="stroke-width: 1.42 ;&st7; " /><path d=" M 1912.18,  460.71  L 1912.18,  426.71  L 1895.18,  426.71  L 1895.18,  460.71  L 1912.18,  460.71 " style="stroke-width: 1.42 ;&st7; " /><path d=" M 1640.23,  265.24  L 6135.97,  265.24  L 6135.97,  324.73  L 1640.23,  324.73  L 1640.23,  265.24 " style="stroke-width: 1.42 ;&st7; " /><path d=" M 1980.17,   95.27  L 1937.68,   95.27  L 1937.68,  129.26  L 1980.17,  129.26  L 1980.17,   95.27 " style="stroke-width: 1.42 ;&st7; " /><path d=" M 1946.17,   83.17  L 1949.01,   86.00  L 1949.01,   81.75  L 1946.17,   78.92  L 1943.34,   81.75  L 1943.34,   86.00  L 1946.17,   83.17 " style="stroke-width: 0.28 ;&st9;" /><path d=" M 1971.67,   83.17  L 1974.50,   86.00  L 1974.50,   81.75  L 1971.67,   78.92  L 1968.84,   81.75  L 1968.84,   86.00  L 1971.67,   83.17 " style="stroke-width: 0.28 ;&st9;" /><path d=" M 1946.17,  141.37  L 1943.34,  138.53  L 1943.34,  142.78  L 1946.17,  145.62  L 1949.01,  142.78  L 1949.01,  138.53  L 1946.17,  141.37 " style="stroke-width: 0.28 ;&st9;" /><path d=" M 1971.67,  141.37  L 1968.84,  138.53  L 1968.84,  142.78  L 1971.67,  145.62  L 1974.50,  142.78  L 1974.50,  138.53  L 1971.67,  141.37 " style="stroke-width: 0.28 ;&st9;" /><path d=" M 1946.17,   78.27  L 1946.17,   95.27 " style="stroke-width: 0.85 ;&st7; " /><path d=" M 1971.67,   78.27  L 1971.67,   95.27 " style="stroke-width: 0.85 ;&st7; " /><path d=" M 1946.17,  146.26  L 1946.17,  129.26 " style="stroke-width: 0.85 ;&st7; " /><path d=" M 1971.67,  146.26  L 1971.67,  129.26 " style="stroke-width: 0.85 ;&st7; " /><path d=" M 1623.23,  697.25  L 1623.23,  701.50 " style="stroke-width: 0.85 ;&st7; " /><path d=" M 1614.73,  701.50  L 1631.73,  701.50 " style="stroke-width: 0.85 ;&st7; " /><path d=" M 1618.98,  704.33  L 1627.48,  704.33 " style="stroke-width: 0.85 ;&st7; " /><path d=" M 1620.40,  707.17  L 1626.06,  707.17 " style="stroke-width: 0.85 ;&st7; " /><path d=" M 1621.81,  710.00  L 1624.64,  710.00 " style="stroke-width: 0.85 ;&st7; " /><path d=" M 1763.74,  260.71  C 1763.74   258.21  1761.71   256.18  1759.21   256.18 " style="stroke-width: 1.42 ;&st7; " /><path d=" M 1759.21,  256.18  C 1756.70   256.18  1754.67   258.21  1754.67   260.71 " style="stroke-width: 1.42 ;&st7; " /><path d=" M 1754.67,  260.71  C 1754.67   263.21  1756.70   265.24  1759.21   265.24 " style="stroke-width: 1.42 ;&st7; " /><path d=" M 1759.21,  265.24  C 1761.71   265.24  1763.74   263.21  1763.74   260.71 " style="stroke-width: 1.42 ;&st7; " /><path d=" M 1797.73,  260.71  C 1797.73   258.21  1795.70   256.18  1793.20   256.18 " style="stroke-width: 1.42 ;&st7; " /><path d=" M 1793.20,  256.18  C 1790.70   256.18  1788.67   258.21  1788.67   260.71 " style="stroke-width: 1.42 ;&st7; " /><path d=" M 1788.67,  260.71  C 1788.67   263.21  1790.70   265.24  1793.20   265.24 " style="stroke-width: 1.42 ;&st7; " /><path d=" M 1793.20,  265.24  C 1795.70   265.24  1797.73   263.21  1797.73   260.71 " style="stroke-width: 1.42 ;&st7; " /><path d=" M 1947.59,  123.60  C 1947.59   122.82  1946.96   122.18  1946.17   122.18 " style="stroke-width: 0.85 ;&st7; " /><path d=" M 1946.17,  122.18  C 1945.39   122.18  1944.76   122.82  1944.76   123.60 " style="stroke-width: 0.85 ;&st7; " /><path d=" M 1944.76,  123.60  C 1944.76   124.38  1945.39   125.01  1946.17   125.01 " style="stroke-width: 0.85 ;&st7; " /><path d=" M 1946.17,  125.01  C 1946.96   125.01  1947.59   124.38  1947.59   123.60 " style="stroke-width: 0.85 ;&st7; " /><path d=" M 1947.59,  100.94  C 1947.59   100.15  1946.96    99.52  1946.17    99.52 " style="stroke-width: 0.85 ;&st7; " /><path d=" M 1946.17,   99.52  C 1945.39    99.52  1944.76   100.15  1944.76   100.94 " style="stroke-width: 0.85 ;&st7; " /><path d=" M 1944.76,  100.94  C 1944.76   101.72  1945.39   102.35  1946.17   102.35 " style="stroke-width: 0.85 ;&st7; " /><path d=" M 1946.17,  102.35  C 1946.96   102.35  1947.59   101.72  1947.59   100.94 " style="stroke-width: 0.85 ;&st7; " /><path d=" M 1969.14,  109.79  C 1970.51   111.18  1972.75   111.21  1974.15   109.84 " style="stroke-width: 0.85 ;&st7; " /><path d=" M 1974.15,  109.84  C 1975.55   108.47  1975.57   106.23  1974.20   104.83 " style="stroke-width: 0.85 ;&st7; " /><path d=" M 1974.20,  104.83  C 1973.51   104.12  1972.66   103.77  1971.67   103.77 " style="stroke-width: 0.85 ;&st7; " /><path d=" M 1969.14,  114.75  C 1970.51   116.14  1972.75   116.17  1974.15   114.80 " style="stroke-width: 0.85 ;&st7; " /><path d=" M 1974.15,  114.80  C 1975.55   113.43  1975.57   111.18  1974.20   109.79 " style="stroke-width: 0.85 ;&st7; " /><path d=" M 1974.20,  109.79  C 1972.83   108.39  1970.59   108.37  1969.19   109.74 " style="stroke-width: 0.85 ;&st7; " /><path d=" M 1969.19,  109.74  C 1969.17   109.75  1969.16   109.77  1969.14   109.79 " style="stroke-width: 0.85 ;&st7; " /><path d=" M 1971.67,  120.77  C 1973.63   120.77  1975.21   119.18  1975.21   117.22 " style="stroke-width: 0.85 ;&st7; " /><path d=" M 1975.21,  117.22  C 1975.21   115.27  1973.63   113.68  1971.67   113.68 " style="stroke-width: 0.85 ;&st7; " /><path d=" M 1971.67,  113.68  C 1970.68   113.68  1969.83   114.04  1969.14   114.75 " style="stroke-width: 0.85 ;&st7; " /><path d=" M 1944.05,   69.77  C 1941.70    69.77  1939.80    71.68  1939.80    74.02 " style="stroke-width: 1.42 ;&st7; " /><path d=" M 1939.80,   74.02  C 1939.80    76.37  1941.70    78.27  1944.05    78.27 " style="stroke-width: 1.42 ;&st7; " /><path d=" M 1948.30,   78.27  C 1950.65    78.27  1952.55    76.37  1952.55    74.02 " style="stroke-width: 1.42 ;&st7; " /><path d=" M 1952.55,   74.02  C 1952.55    71.68  1950.65    69.77  1948.30    69.77 " style="stroke-width: 1.42 ;&st7; " /><path d=" M 1969.55,   69.77  C 1967.20    69.77  1965.30    71.68  1965.30    74.02 " style="stroke-width: 1.42 ;&st7; " /><path d=" M 1965.30,   74.02  C 1965.30    76.37  1967.20    78.27  1969.55    78.27 " style="stroke-width: 1.42 ;&st7; " /><path d=" M 1973.80,   78.27  C 1976.14    78.27  1978.04    76.37  1978.04    74.02 " style="stroke-width: 1.42 ;&st7; " /><path d=" M 1978.04,   74.02  C 1978.04    71.68  1976.14    69.77  1973.80    69.77 " style="stroke-width: 1.42 ;&st7; " /><path d=" M 1944.05,  146.26  C 1941.70   146.26  1939.80   148.16  1939.80   150.51 " style="stroke-width: 1.42 ;&st7; " /><path d=" M 1939.80,  150.51  C 1939.80   152.86  1941.70   154.76  1944.05   154.76 " style="stroke-width: 1.42 ;&st7; " /><path d=" M 1948.30,  154.76  C 1950.65   154.76  1952.55   152.86  1952.55   150.51 " style="stroke-width: 1.42 ;&st7; " /><path d=" M 1952.55,  150.51  C 1952.55   148.16  1950.65   146.26  1948.30   146.26 " style="stroke-width: 1.42 ;&st7; " /><path d=" M 1969.55,  146.26  C 1967.20   146.26  1965.30   148.16  1965.30   150.51 " style="stroke-width: 1.42 ;&st7; " /><path d=" M 1965.30,  150.51  C 1965.30   152.86  1967.20   154.76  1969.55   154.76 " style="stroke-width: 1.42 ;&st7; " /><path d=" M 1973.80,  154.76  C 1976.14   154.76  1978.04   152.86  1978.04   150.51 " style="stroke-width: 1.42 ;&st7; " /><path d=" M 1978.04,  150.51  C 1978.04   148.16  1976.14   146.26  1973.80   146.26 " style="stroke-width: 1.42 ;&st7; " /><path d=" M 1946.17,  188.75  C 1943.96   186.93  1940.83   186.99  1938.69   188.89 " style="stroke-width: 1.42 ;&st7; " /><path d=" M 1946.17,  188.75  C 1948.39   190.58  1951.52   190.52  1953.66   188.61 " style="stroke-width: 1.42 ;&st7; " /><path d=" M 1946.17,   35.78  C 1943.96    33.96  1940.83    34.02  1938.69    35.92 " style="stroke-width: 1.42 ;&st7; " /><path d=" M 1946.17,   35.78  C 1948.39    37.60  1951.52    37.54  1953.66    35.64 " style="stroke-width: 1.42 ;&st7; " /><path d=" M 1661.76,  260.71  C 1661.76   258.21  1659.73   256.18  1657.22   256.18 " style="stroke-width: 1.42 ;&st7; " /><path d=" M 1657.22,  256.18  C 1654.72   256.18  1652.69   258.21  1652.69   260.71 " style="stroke-width: 1.42 ;&st7; " /><path d=" M 1652.69,  260.71  C 1652.69   263.21  1654.72   265.24  1657.22   265.24 " style="stroke-width: 1.42 ;&st7; " /><path d=" M 1657.22,  265.24  C 1659.73   265.24  1661.76   263.21  1661.76   260.71 " style="stroke-width: 1.42 ;&st7; " /><path d=" M 1695.75,  260.71  C 1695.75   258.21  1693.72   256.18  1691.22   256.18 " style="stroke-width: 1.42 ;&st7; " /><path d=" M 1691.22,  256.18  C 1688.71   256.18  1686.68   258.21  1686.68   260.71 " style="stroke-width: 1.42 ;&st7; " /><path d=" M 1686.68,  260.71  C 1686.68   263.21  1688.71   265.24  1691.22   265.24 " style="stroke-width: 1.42 ;&st7; " /><path d=" M 1691.22,  265.24  C 1693.72   265.24  1695.75   263.21  1695.75   260.71 " style="stroke-width: 1.42 ;&st7; " /><path d=" M 1729.74,  260.71  C 1729.74   258.21  1727.71   256.18  1725.21   256.18 " style="stroke-width: 1.42 ;&st7; " /><path d=" M 1725.21,  256.18  C 1722.71   256.18  1720.68   258.21  1720.68   260.71 " style="stroke-width: 1.42 ;&st7; " /><path d=" M 1720.68,  260.71  C 1720.68   263.21  1722.71   265.24  1725.21   265.24 " style="stroke-width: 1.42 ;&st7; " /><path d=" M 1725.21,  265.24  C 1727.71   265.24  1729.74   263.21  1729.74   260.71 " style="stroke-width: 1.42 ;&st7; " /><path d=" M 1661.76,  329.26  C 1661.76   326.76  1659.73   324.73  1657.22   324.73 " style="stroke-width: 1.42 ;&st7; " /><path d=" M 1657.22,  324.73  C 1654.72   324.73  1652.69   326.76  1652.69   329.26 " style="stroke-width: 1.42 ;&st7; " /><path d=" M 1652.69,  329.26  C 1652.69   331.77  1654.72   333.80  1657.22   333.80 " style="stroke-width: 1.42 ;&st7; " /><path d=" M 1657.22,  333.80  C 1659.73   333.80  1661.76   331.77  1661.76   329.26 " style="stroke-width: 1.42 ;&st7; " /><path d=" M 1695.75,  329.26  C 1695.75   326.76  1693.72   324.73  1691.22   324.73 " style="stroke-width: 1.42 ;&st7; " /><path d=" M 1691.22,  324.73  C 1688.71   324.73  1686.68   326.76  1686.68   329.26 " style="stroke-width: 1.42 ;&st7; " /><path d=" M 1686.68,  329.26  C 1686.68   331.77  1688.71   333.80  1691.22   333.80 " style="stroke-width: 1.42 ;&st7; " /><path d=" M 1691.22,  333.80  C 1693.72   333.80  1695.75   331.77  1695.75   329.26 " style="stroke-width: 1.42 ;&st7; " /><path d=" M 1729.74,  329.26  C 1729.74   326.76  1727.71   324.73  1725.21   324.73 " style="stroke-width: 1.42 ;&st7; " /><path d=" M 1725.21,  324.73  C 1722.71   324.73  1720.68   326.76  1720.68   329.26 " style="stroke-width: 1.42 ;&st7; " /><path d=" M 1720.68,  329.26  C 1720.68   331.77  1722.71   333.80  1725.21   333.80 " style="stroke-width: 1.42 ;&st7; " /><path d=" M 1725.21,  333.80  C 1727.71   333.80  1729.74   331.77  1729.74   329.26 " style="stroke-width: 1.42 ;&st7; " /><path d=" M 1797.73,  329.26  C 1797.73   326.76  1795.70   324.73  1793.20   324.73 " style="stroke-width: 1.42 ;&st7; " /><path d=" M 1793.20,  324.73  C 1790.70   324.73  1788.67   326.76  1788.67   329.26 " style="stroke-width: 1.42 ;&st7; " /><path d=" M 1788.67,  329.26  C 1788.67   331.77  1790.70   333.80  1793.20   333.80 " style="stroke-width: 1.42 ;&st7; " /><path d=" M 1793.20,  333.80  C 1795.70   333.80  1797.73   331.77  1797.73   329.26 " style="stroke-width: 1.42 ;&st7; " /><path d=" M 1831.73,  260.71  C 1831.73   258.21  1829.70   256.18  1827.19   256.18 " style="stroke-width: 1.42 ;&st7; " /><path d=" M 1827.19,  256.18  C 1824.69   256.18  1822.66   258.21  1822.66   260.71 " style="stroke-width: 1.42 ;&st7; " /><path d=" M 1822.66,  260.71  C 1822.66   263.21  1824.69   265.24  1827.19   265.24 " style="stroke-width: 1.42 ;&st7; " /><path d=" M 1827.19,  265.24  C 1829.70   265.24  1831.73   263.21  1831.73   260.71 " style="stroke-width: 1.42 ;&st7; " /><path d=" M 1865.72,  260.71  C 1865.72   258.21  1863.69   256.18  1861.19   256.18 " style="stroke-width: 1.42 ;&st7; " /><path d=" M 1861.19,  256.18  C 1858.69   256.18  1856.66   258.21  1856.66   260.71 " style="stroke-width: 1.42 ;&st7; " /><path d=" M 1856.66,  260.71  C 1856.66   263.21  1858.69   265.24  1861.19   265.24 " style="stroke-width: 1.42 ;&st7; " /><path d=" M 1861.19,  265.24  C 1863.69   265.24  1865.72   263.21  1865.72   260.71 " style="stroke-width: 1.42 ;&st7; " /><path d=" M 1763.74,  329.26  C 1763.74   326.76  1761.71   324.73  1759.21   324.73 " style="stroke-width: 1.42 ;&st7; " /><path d=" M 1759.21,  324.73  C 1756.70   324.73  1754.67   326.76  1754.67   329.26 " style="stroke-width: 1.42 ;&st7; " /><path d=" M 1754.67,  329.26  C 1754.67   331.77  1756.70   333.80  1759.21   333.80 " style="stroke-width: 1.42 ;&st7; " /><path d=" M 1759.21,  333.80  C 1761.71   333.80  1763.74   331.77  1763.74   329.26 " style="stroke-width: 1.42 ;&st7; " /><path d=" M 1831.73,  329.26  C 1831.73   326.76  1829.70   324.73  1827.19   324.73 " style="stroke-width: 1.42 ;&st7; " /><path d=" M 1827.19,  324.73  C 1824.69   324.73  1822.66   326.76  1822.66   329.26 " style="stroke-width: 1.42 ;&st7; " /><path d=" M 1822.66,  329.26  C 1822.66   331.77  1824.69   333.80  1827.19   333.80 " style="stroke-width: 1.42 ;&st7; " /><path d=" M 1827.19,  333.80  C 1829.70   333.80  1831.73   331.77  1831.73   329.26 " style="stroke-width: 1.42 ;&st7; " /><path d=" M 1901.15,  446.19  C 1902.52   447.59  1904.76   447.61  1906.16   446.24 " style="stroke-width: 0.85 ;&st7; " /><path d=" M 1906.16,  446.24  C 1907.56   444.87  1907.58   442.63  1906.21   441.23 " style="stroke-width: 0.85 ;&st7; " /><path d=" M 1906.21,  441.23  C 1904.84   439.84  1902.60   439.81  1901.20   441.18 " style="stroke-width: 0.85 ;&st7; " /><path d=" M 1901.20,  441.18  C 1901.19   441.20  1901.17   441.21  1901.15   441.23 " style="stroke-width: 0.85 ;&st7; " /><path d=" M 1901.15,  441.23  C 1902.52   442.63  1904.76   442.65  1906.16   441.28 " style="stroke-width: 0.85 ;&st7; " /><path d=" M 1906.16,  441.28  C 1907.56   439.91  1907.58   437.67  1906.21   436.27 " style="stroke-width: 0.85 ;&st7; " /><path d=" M 1906.21,  436.27  C 1905.52   435.57  1904.67   435.21  1903.68   435.21 " style="stroke-width: 0.85 ;&st7; " /><path d=" M 1903.68,  452.21  C 1905.64   452.21  1907.22   450.62  1907.22   448.67 " style="stroke-width: 0.85 ;&st7; " /><path d=" M 1907.22,  448.67  C 1907.22   446.71  1905.64   445.13  1903.68   445.13 " style="stroke-width: 0.85 ;&st7; " /><path d=" M 1903.68,  445.13  C 1902.69   445.13  1901.85   445.48  1901.15   446.19 " style="stroke-width: 0.85 ;&st7; " /><path d=" M 1908.21,  329.26  C 1908.21   326.76  1906.19   324.73  1903.68   324.73 " style="stroke-width: 1.42 ;&st7; " /><path d=" M 1903.68,  324.73  C 1901.18   324.73  1899.15   326.76  1899.15   329.26 " style="stroke-width: 1.42 ;&st7; " /><path d=" M 1899.15,  329.26  C 1899.15   331.77  1901.18   333.80  1903.68   333.80 " style="stroke-width: 1.42 ;&st7; " /><path d=" M 1903.68,  333.80  C 1906.19   333.80  1908.21   331.77  1908.21   329.26 " style="stroke-width: 1.42 ;&st7; " /><path d=" M 1865.72,  329.26  C 1865.72   326.76  1863.69   324.73  1861.19   324.73 " style="stroke-width: 1.42 ;&st7; " /><path d=" M 1861.19,  324.73  C 1858.69   324.73  1856.66   326.76  1856.66   329.26 " style="stroke-width: 1.42 ;&st7; " /><path d=" M 1856.66,  329.26  C 1856.66   331.77  1858.69   333.80  1861.19   333.80 " style="stroke-width: 1.42 ;&st7; " /><path d=" M 1861.19,  333.80  C 1863.69   333.80  1865.72   331.77  1865.72   329.26 " style="stroke-width: 1.42 ;&st7; " /><path d=" M 1861.19,  452.21  C 1863.14   452.21  1864.73   450.62  1864.73   448.67 " style="stroke-width: 0.85 ;&st7; " /><path d=" M 1864.73,  448.67  C 1864.73   446.71  1863.14   445.13  1861.19   445.13 " style="stroke-width: 0.85 ;&st7; " /><path d=" M 1861.19,  445.13  C 1860.20   445.13  1859.35   445.48  1858.66   446.19 " style="stroke-width: 0.85 ;&st7; " /><path d=" M 1858.66,  446.19  C 1860.03   447.59  1862.27   447.61  1863.67   446.24 " style="stroke-width: 0.85 ;&st7; " /><path d=" M 1863.67,  446.24  C 1865.06   444.87  1865.09   442.63  1863.72   441.23 " style="stroke-width: 0.85 ;&st7; " /><path d=" M 1863.72,  441.23  C 1862.35   439.84  1860.11   439.81  1858.71   441.18 " style="stroke-width: 0.85 ;&st7; " /><path d=" M 1858.71,  441.18  C 1858.69   441.20  1858.68   441.21  1858.66   441.23 " style="stroke-width: 0.85 ;&st7; " /><path d=" M 1858.66,  441.23  C 1860.03   442.63  1862.27   442.65  1863.67   441.28 " style="stroke-width: 0.85 ;&st7; " /><path d=" M 1863.67,  441.28  C 1865.06   439.91  1865.09   437.67  1863.72   436.27 " style="stroke-width: 0.85 ;&st7; " /><path d=" M 1863.72,  436.27  C 1863.03   435.57  1862.18   435.21  1861.19   435.21 " style="stroke-width: 0.85 ;&st7; " /><text style="&st18;" transform="matrix(&st16;  1895.56  321.03 )">ACIS</text><text style="&st18;" transform="matrix(&st16;  1901.35  331.23 )">B</text><text style="&st18;" transform="matrix(&st16;  1853.63  321.03 )">PRG</text><text style="&st18;" transform="matrix(&st16;  1858.86  331.23 )">B</text><text style="&st18;" transform="matrix(&st16;  1846.38  331.23 )">63</text><text style="&st18;" transform="matrix(&st16;  1854.4  423.02 )">2</text><text ewd:textID="74" style="&st18;" transform="matrix(&st17;  1884.41  463.23 )">Purge VSV</text><text style="&st18;" transform="matrix(&st16;  1855.18  468.9 )">1</text><text style="&st18;" transform="matrix(&st16;  1897.67  468.9 )">1</text><text style="&st18;" transform="matrix(&st16;  1766.73  533.5 )">GR</text><text style="&st18;" transform="matrix(&st17;  1926.9  463.23 )">VSV (ACIS)</text><text style="&st18;" transform="matrix(&st16;  1875.09  601.49 )">L-W</text><text style="&st18;" transform="matrix(&st16;  1796.34  292.68 )">A27(A),D56(B)</text><text style="&st18;" transform="matrix(&st16;  1796.34  299.79 )">ECM</text><text style="&st18;" transform="matrix(&st17;  1899.99  382.04 )">L-Y</text><text style="&st18;" transform="matrix(&st16;  1888.88  331.23 )">62</text><text style="&st18;" transform="matrix(&st17;  1899.99  502.05 )">L-W</text><text style="&st18;" transform="matrix(&st17;  1857.49  502.05 )">L-W</text><text style="&st18;" transform="matrix(&st17;  1857.49  382.04 )">L-B</text><text style="&st18;" transform="matrix(&st17;  1919.79  463.23 )">D40</text><text style="&st18;" transform="matrix(&st17;  1877.3  463.23 )">D16</text><text style="&st18;" transform="matrix(&st16;  1896.89  423.02 )">2</text><text style="&st18;" transform="matrix(&st17;  1823.5  380.95 )">GR</text><text style="&st18;" transform="matrix(&st16;  1820.87  321.03 )">+B2</text><text style="&st18;" transform="matrix(&st16;  1816.35  331.23 )">2</text><text style="&st18;" transform="matrix(&st16;  1824.86  331.23 )">A</text><text style="&st18;" transform="matrix(&st16;  1817.52  272.88 )">MREL</text><text style="&st18;" transform="matrix(&st16;  1852.29  272.88 )">BATT</text><text style="&st18;" transform="matrix(&st17;  1857.49  241.72 )">L</text><text style="&st18;" transform="matrix(&st17;  1823.5  243.1 )">W</text><text style="&st18;" transform="matrix(&st16;  1754.61  321.03 )">FC</text><text style="&st18;" transform="matrix(&st16;  1812.39  262.68 )">34</text><text style="&st18;" transform="matrix(&st16;  1744.4  331.23 )">48</text><text style="&st18;" transform="matrix(&st16;  1756.87  331.23 )">A</text><text style="&st18;" transform="matrix(&st16;  1824.86  262.68 )">A</text><text style="&st18;" transform="matrix(&st16;  1851.12  262.68 )">1</text><text style="&st18;" transform="matrix(&st16;  1858.86  262.68 )">A</text><text style="&st18;" transform="matrix(&st16;  1790.87  331.23 )">A</text><text style="&st18;" transform="matrix(&st16;  1782.35  331.23 )">3</text><text style="&st18;" transform="matrix(&st16;  1788.86  321.03 )">+B</text><text style="&st18;" transform="matrix(&st17;  1789.5  380.95 )">GR</text><text style="&st18;" transform="matrix(&st16;  1520.81  465.51 )">G(*6)</text><text style="&st18;" transform="matrix(&st16;  1571.8  465.51 )">G(*6)</text><text style="&st18;" transform="matrix(&st16;  1521.23  482.51 )">P(*6)</text><text style="&st18;" transform="matrix(&st16;  1567.45  219.05 )">G-Y(*6)</text><text style="&st18;" transform="matrix(&st16;  1518.76  499.5 )">BR(*6)</text><text style="&st18;" transform="matrix(&st16;  1568.23  202.05 )">P-L(*6)</text><text style="&st18;" transform="matrix(&st16;  1520.0  516.5 )">L(*10)</text><text style="&st18;" transform="matrix(&st16;  1572.22  185.06 )">V(*6)</text><text style="&st18;" transform="matrix(&st16;  1524.52  533.5 )">GR</text><text style="&st18;" transform="matrix(&st16;  1576.07  168.06 )">BE</text><text style="&st18;" transform="matrix(&st16;  1517.24  550.5 )">B-L(*6)</text><text style="&st18;" transform="matrix(&st16;  1570.63  151.06 )">Y(*10)</text><text style="&st18;" transform="matrix(&st16;  1515.86  584.49 )">B-W(*6)</text><text style="&st18;" transform="matrix(&st16;  1577.38  134.07 )">W</text><text style="&st18;" transform="matrix(&st16;  1578.76  117.07 )">L</text><text style="&st18;" transform="matrix(&st16;  1522.4  601.49 )">L-W</text><text style="&st18;" transform="matrix(&st16;  1522.04  635.48 )">B-W</text><text style="&st18;" transform="matrix(&st16;  1573.04  635.48 )">B-W</text><text style="&st18;" transform="matrix(&st16;  1828.35  601.49 )">L-W</text><text style="&st18;" transform="matrix(&st17;  1755.51  377.7 )">L</text><text style="&st18;" transform="matrix(&st16;  1744.37  262.68 )">52</text><text style="&st18;" transform="matrix(&st16;  1756.87  262.68 )">A</text><text style="&st18;" transform="matrix(&st16;  1779.14  262.68 )">18</text><text style="&st18;" transform="matrix(&st16;  1790.87  262.68 )">A</text><text style="&st18;" transform="matrix(&st17;  1755.51  244.41 )">BE</text><text style="&st18;" transform="matrix(&st17;  1789.5  242.08 )">Y</text><text style="&st18;" transform="matrix(&st16;  1752.28  272.88 )">FPC</text><text style="&st18;" transform="matrix(&st16;  1789.74  272.88 )">DI</text><text style="&st18;" transform="matrix(&st16;  1654.89  262.68 )">B</text><text style="&st18;" transform="matrix(&st16;  1642.39  262.68 )">29</text><text style="&st18;" transform="matrix(&st16;  1676.38  262.68 )">53</text><text style="&st18;" transform="matrix(&st16;  1688.89  262.68 )">B</text><text style="&st18;" transform="matrix(&st16;  1710.38  262.68 )">43</text><text style="&st18;" transform="matrix(&st16;  1722.88  262.68 )">A</text><text style="&st18;" transform="matrix(&st16;  1642.39  331.23 )">30</text><text style="&st18;" transform="matrix(&st16;  1654.89  331.23 )">B</text><text style="&st18;" transform="matrix(&st16;  1676.38  331.23 )">54</text><text style="&st18;" transform="matrix(&st16;  1688.89  331.23 )">B</text><text style="&st18;" transform="matrix(&st16;  1710.38  331.23 )">28</text><text style="&st18;" transform="matrix(&st16;  1722.88  331.23 )">B</text><text ewd:textID="23" style="&st18;" transform="matrix(&st17;  1518.97  318.76 )">Air Injection <tspan dy="6" x="0">Control Driver (Bank 2)</tspan></text><text style="&st18;" transform="matrix(&st17;  1511.86  318.76 )">D33(A),D34(B)</text><text style="&st18;" transform="matrix(&st16;  1717.09  321.03 )">AIRV</text><text style="&st18;" transform="matrix(&st16;  1683.09  321.03 )">AIRP</text><text style="&st18;" transform="matrix(&st16;  1650.44  321.03 )">AIDI</text><text style="&st18;" transform="matrix(&st16;  1649.45  272.88 )">AID2</text><text style="&st18;" transform="matrix(&st16;  1682.1  272.88 )">ARP2</text><text style="&st18;" transform="matrix(&st17;  1721.52  380.53 )">BR</text><text style="&st18;" transform="matrix(&st17;  1687.52  378.05 )">P</text><text style="&st18;" transform="matrix(&st17;  1653.53  378.48 )">G</text><text style="&st18;" transform="matrix(&st16;  1716.1  272.88 )">ARV2</text><text style="&st18;" transform="matrix(&st17;  1721.52  242.08 )">V</text><text style="&st18;" transform="matrix(&st17;  1687.52  246.07 )">P-L</text><text style="&st18;" transform="matrix(&st17;  1653.53  246.84 )">G-Y</text><text style="&st18;" transform="matrix(&st16;  1573.39  601.49 )">L-W</text><text style="&st18;" transform="matrix(&st16;  1527.77  117.07 )">L</text><text style="&st18;" transform="matrix(&st16;  1526.39  134.07 )">W</text><text style="&st18;" transform="matrix(&st16;  1566.85  584.49 )">B-W(*6)</text><text style="&st18;" transform="matrix(&st16;  1519.64  151.06 )">Y(*10)</text><text style="&st18;" transform="matrix(&st16;  1568.23  550.5 )">B-L(*6)</text><text style="&st18;" transform="matrix(&st16;  1525.08  168.06 )">BE</text><text style="&st18;" transform="matrix(&st16;  1575.51  533.5 )">GR</text><text style="&st18;" transform="matrix(&st16;  1521.23  185.06 )">V(*6)</text><text style="&st18;" transform="matrix(&st16;  1570.99  516.5 )">L(*10)</text><text style="&st18;" transform="matrix(&st16;  1517.24  202.05 )">P-L(*6)</text><text style="&st18;" transform="matrix(&st16;  1569.75  499.5 )">BR(*6)</text><text style="&st18;" transform="matrix(&st16;  1516.46  219.05 )">G-Y(*6)</text><text style="&st18;" transform="matrix(&st16;  1572.22  482.51 )">P(*6)</text><text ewd:textID="75" style="&st18;" transform="matrix(&st17;  1987.81  126.78 )">ST Relay</text><text style="&st18;" transform="matrix(&st16;  1970.08  75.99 )">1</text><text style="&st18;" transform="matrix(&st16;  1944.59  152.48 )">1</text><text style="&st18;" transform="matrix(&st16;  1970.08  152.48 )">1</text><text style="&st18;" transform="matrix(&st17;  1967.98  187.96 )">W-B</text><text style="&st18;" transform="matrix(&st17;  1942.48  174.09 )">V</text><text style="&st18;" transform="matrix(&st17;  1942.48  58.0 )">GR</text><text style="&st18;" transform="matrix(&st17;  1619.53  676.62 )">W-B</text><text style="&st18;" transform="matrix(&st16;  1939.39  137.46 )">3</text><text style="&st18;" transform="matrix(&st16;  1964.88  137.46 )">2</text><text style="&st18;" transform="matrix(&st16;  1939.38  91.58 )">5</text><text style="&st18;" transform="matrix(&st16;  1965.65  91.58 )">1</text><text style="&st18;" transform="matrix(&st16;  1944.59  75.99 )">1</text><text style="&st18;" transform="matrix(&st17;  1664.86  245.93 )">(*6)</text><text style="&st18;" transform="matrix(&st17;  1698.85  245.93 )">(*6)</text><text style="&st18;" transform="matrix(&st17;  1732.85  245.93 )">(*6)</text><text style="&st18;" transform="matrix(&st17;  1664.86  381.9 )">(*6)</text><text style="&st18;" transform="matrix(&st17;  1698.85  381.9 )">(*6)</text><text style="&st18;" transform="matrix(&st17;  1732.85  381.9 )">(*6)</text><text ewd:textID="6" style="&st18;" transform="matrix(&st16;  1739.68  37.75 )">* 6 :Before Nov. 2009 Production</text><text style="&st18;" transform="matrix(&st17;  1766.84  383.49 )">(*10)</text><text ewd:textID="10" style="&st18;" transform="matrix(&st16;  1739.68  46.25 )">*10 :Before Aug. 2011 Production</text><text style="&st18;" transform="matrix(&st17;  1800.84  247.52 )">(*10)</text></svg>