﻿<?xml version="1.0" encoding="utf-8"?>
<!DOCTYPE svg PUBLIC "-//W3C//DTD SVG 1.0//EN" "http://www.w3.org/TR/2001/REC-SVG-20010904/DTD/svg10.dtd"[
	<!ENTITY ns_flows "http://ns.adobe.com/Flows/1.0/">
	<!ENTITY ns_svg "http://www.w3.org/2000/svg">
	<!ENTITY ns_xlink "http://www.w3.org/1999/xlink">
	<!ENTITY st0 "font-size:7px;font-family:'MS-PGothic';adobe-font-script:japanese;">
	<!ENTITY st1 "font-size:6px;font-family:'ArialMT';">
	<!-- White fill  -->
	<!ENTITY st2 "fill:#FFFFFF;stroke:#000000; stroke-width:1.41;stroke-linecap:round;stroke-linejoin:round;">
	<!-- Yellow fill  -->
	<!ENTITY st3 "fill:#FFFFCC;stroke:#FFFFCC; stroke-width:0.1;stroke-linecap:round;stroke-linejoin:round;">
	<!-- Gray fill  -->
	<!ENTITY st4 "fill:#CCCCCC;stroke:#CCCCCC; stroke-width:0.1;stroke-linecap:round;stroke-linejoin:round;">
	<!-- Light-blue fill -->
	<!ENTITY st5 "fill:#CCECF4;stroke:#000000; stroke-width:1.133;stroke-linecap:round;stroke-linejoin:round;">
	<!ENTITY st6 "fill:none;stroke-linecap:butt; stroke-linejoin:round;">
	<!ENTITY st7 "fill:none;stroke:#000000;stroke-linecap:round;stroke-linejoin:round;">
	<!ENTITY st8 "enable-background:new    ;">
	<!-- Black fill -->
	<!ENTITY st9 "fill:#000000;stroke:#000000; stroke-linecap:round;stroke-linejoin:round;">
	<!-- SRS note   -->
	<!ENTITY st10 "font-size:9px;font-family:'ArialMT';">
	<!ENTITY st11 "font-size:9px;font-family:'Svg Symbol';">
	<!ENTITY st12 "font-size:6px;font-family:'Svg Symbol';">
	<!ENTITY st13 "fill:none;stroke:#ff0000;stroke-linecap:round;stroke-linejoin:round;">
	<!-- Yellow fill  -->
	<!ENTITY st14 "fill:#FFFF00;stroke:#FFFF00; stroke-width:0.1;stroke-linecap:round;stroke-linejoin:round;">
	<!ENTITY st15 "font-size:6px;font-family:'MS-PGothic';adobe-font-script:japanese;">
	<!ENTITY st16 "1.00 0.00 0.00 1.00">
	<!ENTITY st17 "0.00 -1.00 1.00 0.00">
	<!ENTITY st18 "font-size:6px;font-family:'Arial';">
	<!ENTITY st19 "font-size:9px;font-family:'Arial';">
	<!ENTITY st20 "font-size:6px;font-family:'MS-PGothic','MS PGothic';adobe-font-script:japanese;">
	<!ENTITY st21 "font-size:7px;font-family:'MS-PGothic','MS PGothic';adobe-font-script:japanese;">
	<!ATTLIST svg
		xmlns:ewd CDATA #FIXED "http://shcl.co.jp/ewd"
		xmlns:a CDATA #FIXED "http://ns.adobe.com/AdobeSVGViewerExtensions/3.0/"
		ewd:ver CDATA #IMPLIED
	>
	<!ATTLIST a
		ewd:lineID CDATA #IMPLIED
		ewd:groupID CDATA #IMPLIED
		ewd:figtype CDATA #IMPLIED
		ewd:code CDATA #IMPLIED
		ewd:figID CDATA #IMPLIED
		ewd:pinNo CDATA #IMPLIED
		ewd:comment CDATA #IMPLIED >
	<!ATTLIST g
		ewd:lineID CDATA #IMPLIED
		ewd:groupID CDATA #IMPLIED
		ewd:figtype CDATA #IMPLIED
		ewd:code CDATA #IMPLIED
		ewd:figID CDATA #IMPLIED
		ewd:pinNo CDATA #IMPLIED
		ewd:comment CDATA #IMPLIED >
	<!ATTLIST text
		ewd:textID CDATA #IMPLIED >
	<!ATTLIST title
		ewd:textID CDATA #IMPLIED >
]>
<!-- Generator: Shintec Hozumi YS   -->
<svg onload="call_execInitLoadProc_svg('system')" style="overflow:visible;  enable-background:new 0 0 382.961 710.000" viewBox="0 0 382.961 710.000" height="710.000" width="382.961" xml:space="preserve" ewd:ver="L2.1.2.7" xmlns="&ns_svg;" xmlns:a="http://ns.adobe.com/AdobeSVGViewerExtensions/3.0/" xmlns:ewd="http://shcl.co.jp/ewd" xmlns:xlink="&ns_xlink;">
<path d=" M  212.46,  503.20  L  212.46,  537.20 " style="stroke:#00A0C6;stroke-width: 5.10 ;&st6;" /><path d=" M  214.59,  290.74  L  210.34,  290.74 " style="stroke-width: 1.42 ;&st7; " /><path d=" M  214.59,  299.24  L  210.34,  299.24 " style="stroke-width: 1.42 ;&st7; " /><path d=" M  214.59,  248.24  L  210.34,  248.24 " style="stroke-width: 1.42 ;&st7; " /><path d=" M  214.59,  256.74  L  210.34,  256.74 " style="stroke-width: 1.42 ;&st7; " /><path d=" M  212.46,  564.11  L  218.13,  541.44 " style="stroke-width: 1.42 ;&st7; " /><path d=" M  212.46,  571.19  L  212.46,  566.94 " style="stroke-width: 0.85 ;&st7; " /><path d=" M  212.46,  541.44  L  212.46,  537.20 " style="stroke-width: 0.85 ;&st7; " /><path d=" M  212.46,   69.77  L  212.46,  112.27 " style="stroke-width: 0.85 ;&st7; " /><path d=" M  212.46,  112.27  L  212.46,  120.77 " style="stroke-width: 0.85 ;&st7; " /><path d=" M  212.46,  137.76  L  212.46,  146.26 " style="stroke-width: 0.85 ;&st7; " /><path d=" M  214.59,  171.76  L  210.34,  171.76 " style="stroke-width: 1.42 ;&st7; " /><path d=" M  214.59,  180.26  L  210.34,  180.26 " style="stroke-width: 1.42 ;&st7; " /><path d=" M  240.08,  171.76  L  235.84,  171.76 " style="stroke-width: 1.42 ;&st7; " /><path d=" M  240.08,  180.26  L  235.84,  180.26 " style="stroke-width: 1.42 ;&st7; " /><path d=" M  144.48,  564.11  L  150.14,  541.44 " style="stroke-width: 1.42 ;&st7; " /><path d=" M  144.48,  571.19  L  144.48,  566.94 " style="stroke-width: 0.85 ;&st7; " /><path d=" M  144.48,  541.44  L  144.48,  537.20 " style="stroke-width: 0.85 ;&st7; " /><path d=" M  237.96,  119.35  L  243.63,  142.01 " style="stroke-width: 1.42 ;&st7; " /><path d=" M  237.96,  146.26  L  237.96,  142.01 " style="stroke-width: 0.85 ;&st7; " /><path d=" M  237.96,  112.27  L  237.96,  116.52 " style="stroke-width: 0.85 ;&st7; " /><path d=" M  212.46,  285.84  L  209.63,  283.01  L  209.63,  287.26  L  212.46,  290.09  L  215.30,  287.26  L  215.30,  283.01  L  212.46,  285.84 " style="stroke-width: 0.28 ;&st9;" /><path d=" M  212.46,  261.64  L  215.30,  264.47  L  215.30,  260.22  L  212.46,  257.39  L  209.63,  260.22  L  209.63,  264.47  L  212.46,  261.64 " style="stroke-width: 0.28 ;&st9;" /><path d=" M  212.46,  290.74  L  212.46,  256.74 " style="stroke-width: 0.85 ;&st7; " /><path d=" M  348.44,  384.22  L  348.44,  392.72 " style="stroke-width: 0.85 ;&st7; " /><path d=" M  339.94,  392.72  L  356.94,  392.72 " style="stroke-width: 0.85 ;&st7; " /><path d=" M  344.19,  395.55  L  352.69,  395.55 " style="stroke-width: 0.85 ;&st7; " /><path d=" M  345.61,  398.39  L  351.27,  398.39 " style="stroke-width: 0.85 ;&st7; " /><path d=" M  347.03,  401.22  L  349.86,  401.22 " style="stroke-width: 0.85 ;&st7; " /><path d=" M  342.15,  370.06  L  331.44,  370.06  L  331.44,  384.22  L  340.48,  378.56 " style="stroke-width: 1.42 ;&st7; " /><path d=" M  282.66,  370.06  L  271.95,  370.06  L  271.95,  384.22  L  280.99,  378.56 " style="stroke-width: 1.42 ;&st7; " /><path d=" M  287.54,  401.22  L  290.37,  401.22 " style="stroke-width: 0.85 ;&st7; " /><path d=" M  286.12,  398.39  L  291.78,  398.39 " style="stroke-width: 0.85 ;&st7; " /><path d=" M  284.70,  395.55  L  293.20,  395.55 " style="stroke-width: 0.85 ;&st7; " /><path d=" M  280.45,  392.72  L  297.45,  392.72 " style="stroke-width: 0.85 ;&st7; " /><path d=" M  288.95,  384.22  L  288.95,  392.72 " style="stroke-width: 0.85 ;&st7; " /><path d=" M  220.96,  571.19  L  220.96,  537.20  L  203.97,  537.20  L  203.97,  571.19  L  220.96,  571.19 " style="stroke-width: 1.42 ;&st7; " /><path d=" M  212.46,  571.19  L  212.46,  579.69 " style="stroke-width: 0.85 ;&st7; " /><path d=" M  203.97,  579.69  L  220.96,  579.69 " style="stroke-width: 0.85 ;&st7; " /><path d=" M  208.22,  582.52  L  216.71,  582.52 " style="stroke-width: 0.85 ;&st7; " /><path d=" M  209.63,  585.35  L  215.30,  585.35 " style="stroke-width: 0.85 ;&st7; " /><path d=" M  211.05,  588.19  L  213.88,  588.19 " style="stroke-width: 0.85 ;&st7; " /><path d=" M  212.46,  452.21  L  212.46,  494.14 " style="stroke-width: 0.85 ;&st7; " /><path d=" M  186.97,  503.20  L  186.97,  596.69  L  237.96,  596.69  L  237.96,  503.20  L  186.97,  503.20 " style="stroke-width: 1.42 ;&st7; " /><path d=" M  118.98,  452.21  L  237.96,  452.21  L  237.96,  494.14  L  118.98,  494.14  L  118.98,  452.21 " style="stroke-width: 1.42 ;&st7; " /><path d=" M  199.72,   35.78  L  199.72,   78.27  L  225.21,   78.27  L  225.21,   35.78  L  199.72,   35.78 " style="stroke-width: 1.42 ;&st7; " /><path d=" M  212.46,  171.76  L  212.46,  146.26 " style="stroke-width: 0.85 ;&st7; " /><path d=" M  246.46,  112.27  L  203.97,  112.27  L  203.97,  146.26  L  246.46,  146.26  L  246.46,  112.27 " style="stroke-width: 1.42 ;&st7; " /><path d=" M  212.46,  166.86  L  209.63,  164.03  L  209.63,  168.28  L  212.46,  171.11  L  215.30,  168.28  L  215.30,  164.03  L  212.46,  166.86 " style="stroke-width: 0.28 ;&st9;" /><path d=" M  237.96,  166.86  L  235.13,  164.03  L  235.13,  168.28  L  237.96,  171.11  L  240.79,  168.28  L  240.79,  164.03  L  237.96,  166.86 " style="stroke-width: 0.28 ;&st9;" /><path d=" M  237.96,  171.76  L  237.96,  146.26 " style="stroke-width: 0.85 ;&st7; " /><path d=" M  212.46,   95.27  L  237.96,   95.27  L  237.96,  112.27 " style="stroke-width: 0.85 ;&st7; " /><path d=" M  211.27,   94.27  L  211.00,   94.74  L  210.91,   95.27  L  211.00,   95.80  L  211.27,   96.27  L  211.69,   96.62  L  212.19,   96.81  L  212.74,   96.81  L  213.24,   96.62  L  213.66,   96.27  L  213.93,   95.80  L  214.02,   95.27  L  213.93,   94.74  L  213.66,   94.27  L  213.24,   93.92  L  212.74,   93.73  L  212.19,   93.73  L  211.69,   93.92  L  211.27,   94.27  L  211.67,   94.98  L  211.67,   95.56  L  212.04,   96.01  L  212.61,   96.11  L  213.12,   95.82  L  213.31,   95.27  L  213.12,   94.72  L  212.61,   94.43  L  212.04,   94.53  L  212.46,   95.27 " style="stroke-width: 0.85 ;&st7; " /><path d=" M  212.46,  452.21  L  195.47,  469.21  L  144.48,  469.21  L  144.48,  494.70 " style="stroke-width: 0.85 ;&st7; " /><path d=" M  152.97,  571.19  L  152.97,  537.20  L  135.98,  537.20  L  135.98,  571.19  L  152.97,  571.19 " style="stroke-width: 1.42 ;&st7; " /><path d=" M  144.48,  571.19  L  144.48,  579.69 " style="stroke-width: 0.85 ;&st7; " /><path d=" M  135.98,  579.69  L  152.97,  579.69 " style="stroke-width: 0.85 ;&st7; " /><path d=" M  140.23,  582.52  L  148.73,  582.52 " style="stroke-width: 0.85 ;&st7; " /><path d=" M  141.64,  585.35  L  147.31,  585.35 " style="stroke-width: 0.85 ;&st7; " /><path d=" M  143.06,  588.19  L  145.89,  588.19 " style="stroke-width: 0.85 ;&st7; " /><path d=" M  144.48,  503.20  L  144.48,  537.20 " style="stroke-width: 0.85 ;&st7; " /><path d=" M  118.98,  503.20  L  118.98,  596.69  L  169.97,  596.69  L  169.97,  503.20  L  118.98,  503.20 " style="stroke-width: 1.42 ;&st7; " /><path d=" M  210.34,  290.74  C  207.99   290.74   206.09   292.64   206.09   294.99 " style="stroke-width: 1.42 ;&st7; " /><path d=" M  206.09,  294.99  C  206.09   297.33   207.99   299.24   210.34   299.24 " style="stroke-width: 1.42 ;&st7; " /><path d=" M  214.59,  299.24  C  216.94   299.24   218.84   297.33   218.84   294.99 " style="stroke-width: 1.42 ;&st7; " /><path d=" M  218.84,  294.99  C  218.84   292.64   216.94   290.74   214.59   290.74 " style="stroke-width: 1.42 ;&st7; " /><path d=" M  210.34,  248.24  C  207.99   248.24   206.09   250.15   206.09   252.49 " style="stroke-width: 1.42 ;&st7; " /><path d=" M  206.09,  252.49  C  206.09   254.84   207.99   256.74   210.34   256.74 " style="stroke-width: 1.42 ;&st7; " /><path d=" M  214.59,  256.74  C  216.94   256.74   218.84   254.84   218.84   252.49 " style="stroke-width: 1.42 ;&st7; " /><path d=" M  218.84,  252.49  C  218.84   250.15   216.94   248.24   214.59   248.24 " style="stroke-width: 1.42 ;&st7; " /><path d=" M  340.44,  378.58  C  342.02   383.00   346.88   385.30   351.30   383.73 " style="stroke-width: 1.42 ;&st7; " /><path d=" M  351.30,  383.73  C  355.72   382.15   358.02   377.28   356.44   372.86 " style="stroke-width: 1.42 ;&st7; " /><path d=" M  356.44,  372.86  C  354.87   368.44   350.00   366.14   345.58   367.72 " style="stroke-width: 1.42 ;&st7; " /><path d=" M  345.58,  367.72  C  344.18   368.22   343.10   368.95   342.11   370.06 " style="stroke-width: 1.42 ;&st7; " /><path d=" M  342.11,  370.06  C  339.97   372.45   339.36   375.56   340.44   378.58 " style="stroke-width: 1.42 ;&st7; " /><path d=" M  282.62,  370.06  C  280.48   372.45   279.87   375.56   280.95   378.58 " style="stroke-width: 1.42 ;&st7; " /><path d=" M  280.95,  378.58  C  282.53   383.00   287.39   385.30   291.81   383.73 " style="stroke-width: 1.42 ;&st7; " /><path d=" M  291.81,  383.73  C  296.23   382.15   298.53   377.28   296.95   372.86 " style="stroke-width: 1.42 ;&st7; " /><path d=" M  296.95,  372.86  C  295.38   368.44   290.51   366.14   286.09   367.72 " style="stroke-width: 1.42 ;&st7; " /><path d=" M  286.09,  367.72  C  284.69   368.22   283.61   368.95   282.62   370.06 " style="stroke-width: 1.42 ;&st7; " /><path d=" M  213.88,  565.52  C  213.88   564.74   213.25   564.11   212.46   564.11 " style="stroke-width: 0.85 ;&st7; " /><path d=" M  212.46,  564.11  C  211.68   564.11   211.05   564.74   211.05   565.52 " style="stroke-width: 0.85 ;&st7; " /><path d=" M  211.05,  565.52  C  211.05   566.31   211.68   566.94   212.46   566.94 " style="stroke-width: 0.85 ;&st7; " /><path d=" M  212.46,  566.94  C  213.25   566.94   213.88   566.31   213.88   565.52 " style="stroke-width: 0.85 ;&st7; " /><path d=" M  213.88,  542.86  C  213.88   542.08   213.25   541.44   212.46   541.44 " style="stroke-width: 0.85 ;&st7; " /><path d=" M  212.46,  541.44  C  211.68   541.44   211.05   542.08   211.05   542.86 " style="stroke-width: 0.85 ;&st7; " /><path d=" M  211.05,  542.86  C  211.05   543.64   211.68   544.28   212.46   544.28 " style="stroke-width: 0.85 ;&st7; " /><path d=" M  212.46,  544.28  C  213.25   544.28   213.88   543.64   213.88   542.86 " style="stroke-width: 0.85 ;&st7; " /><path d=" M  217.00,  447.68  C  217.00   445.17   214.97   443.14   212.46   443.14 " style="stroke-width: 1.42 ;&st7; " /><path d=" M  212.46,  443.14  C  209.96   443.14   207.93   445.17   207.93   447.68 " style="stroke-width: 1.42 ;&st7; " /><path d=" M  207.93,  447.68  C  207.93   450.18   209.96   452.21   212.46   452.21 " style="stroke-width: 1.42 ;&st7; " /><path d=" M  212.46,  452.21  C  214.97   452.21   217.00   450.18   217.00   447.68 " style="stroke-width: 1.42 ;&st7; " /><path d=" M  217.00,  498.67  C  217.00   496.17   214.97   494.14   212.46   494.14 " style="stroke-width: 1.42 ;&st7; " /><path d=" M  212.46,  494.14  C  209.96   494.14   207.93   496.17   207.93   498.67 " style="stroke-width: 1.42 ;&st7; " /><path d=" M  207.93,  498.67  C  207.93   501.17   209.96   503.20   212.46   503.20 " style="stroke-width: 1.42 ;&st7; " /><path d=" M  212.46,  503.20  C  214.97   503.20   217.00   501.17   217.00   498.67 " style="stroke-width: 1.42 ;&st7; " /><path d=" M  212.46,   47.11  C  209.73    48.72   208.81    52.25   210.43    54.99 " style="stroke-width: 1.42 ;&st7; " /><path d=" M  210.43,   54.99  C  210.95    55.87   211.58    56.51   212.46    57.03 " style="stroke-width: 1.42 ;&st7; " /><path d=" M  212.46,   66.94  C  215.20    65.33   216.11    61.80   214.50    59.06 " style="stroke-width: 1.42 ;&st7; " /><path d=" M  214.50,   59.06  C  213.98    58.18   213.35    57.55   212.46    57.03 " style="stroke-width: 1.42 ;&st7; " /><path d=" M  213.88,   45.69  C  213.88    44.91   213.25    44.28   212.46    44.28 " style="stroke-width: 0.85 ;&st7; " /><path d=" M  212.46,   44.28  C  211.68    44.28   211.05    44.91   211.05    45.69 " style="stroke-width: 0.85 ;&st7; " /><path d=" M  211.05,   45.69  C  211.05    46.48   211.68    47.11   212.46    47.11 " style="stroke-width: 0.85 ;&st7; " /><path d=" M  212.46,   47.11  C  213.25    47.11   213.88    46.48   213.88    45.69 " style="stroke-width: 0.85 ;&st7; " /><path d=" M  213.88,   68.36  C  213.88    67.57   213.25    66.94   212.46    66.94 " style="stroke-width: 0.85 ;&st7; " /><path d=" M  212.46,   66.94  C  211.68    66.94   211.05    67.57   211.05    68.36 " style="stroke-width: 0.85 ;&st7; " /><path d=" M  211.05,   68.36  C  211.05    69.14   211.68    69.77   212.46    69.77 " style="stroke-width: 0.85 ;&st7; " /><path d=" M  212.46,   69.77  C  213.25    69.77   213.88    69.14   213.88    68.36 " style="stroke-width: 0.85 ;&st7; " /><path d=" M  209.93,  126.78  C  211.30   128.18   213.55   128.20   214.94   126.84 " style="stroke-width: 0.85 ;&st7; " /><path d=" M  214.94,  126.84  C  216.34   125.47   216.36   123.22   214.99   121.83 " style="stroke-width: 0.85 ;&st7; " /><path d=" M  214.99,  121.83  C  214.30   121.12   213.46   120.76   212.46   120.76 " style="stroke-width: 0.85 ;&st7; " /><path d=" M  209.93,  131.74  C  211.30   133.14   213.55   133.16   214.94   131.79 " style="stroke-width: 0.85 ;&st7; " /><path d=" M  214.94,  131.79  C  216.34   130.42   216.36   128.18   214.99   126.78 " style="stroke-width: 0.85 ;&st7; " /><path d=" M  214.99,  126.78  C  213.63   125.39   211.38   125.36   209.99   126.73 " style="stroke-width: 0.85 ;&st7; " /><path d=" M  209.99,  126.73  C  209.97   126.75   209.95   126.77   209.93   126.78 " style="stroke-width: 0.85 ;&st7; " /><path d=" M  212.46,  137.76  C  214.42   137.76   216.01   136.18   216.01   134.22 " style="stroke-width: 0.85 ;&st7; " /><path d=" M  216.01,  134.22  C  216.01   132.27   214.42   130.68   212.46   130.68 " style="stroke-width: 0.85 ;&st7; " /><path d=" M  212.46,  130.68  C  211.47   130.68   210.63   131.04   209.94   131.74 " style="stroke-width: 0.85 ;&st7; " /><path d=" M  210.34,  171.76  C  207.99   171.76   206.09   173.66   206.09   176.01 " style="stroke-width: 1.42 ;&st7; " /><path d=" M  206.09,  176.01  C  206.09   178.35   207.99   180.26   210.34   180.26 " style="stroke-width: 1.42 ;&st7; " /><path d=" M  214.59,  180.26  C  216.94   180.26   218.84   178.35   218.84   176.01 " style="stroke-width: 1.42 ;&st7; " /><path d=" M  218.84,  176.01  C  218.84   173.66   216.94   171.76   214.59   171.76 " style="stroke-width: 1.42 ;&st7; " /><path d=" M  235.84,  171.76  C  233.49   171.76   231.59   173.66   231.59   176.01 " style="stroke-width: 1.42 ;&st7; " /><path d=" M  231.59,  176.01  C  231.59   178.35   233.49   180.26   235.84   180.26 " style="stroke-width: 1.42 ;&st7; " /><path d=" M  240.08,  180.26  C  242.43   180.26   244.33   178.35   244.33   176.01 " style="stroke-width: 1.42 ;&st7; " /><path d=" M  244.33,  176.01  C  244.33   173.66   242.43   171.76   240.08   171.76 " style="stroke-width: 1.42 ;&st7; " /><path d=" M  145.89,  565.52  C  145.89   564.74   145.26   564.11   144.48   564.11 " style="stroke-width: 0.85 ;&st7; " /><path d=" M  144.48,  564.11  C  143.69   564.11   143.06   564.74   143.06   565.52 " style="stroke-width: 0.85 ;&st7; " /><path d=" M  143.06,  565.52  C  143.06   566.31   143.69   566.94   144.48   566.94 " style="stroke-width: 0.85 ;&st7; " /><path d=" M  144.48,  566.94  C  145.26   566.94   145.89   566.31   145.89   565.52 " style="stroke-width: 0.85 ;&st7; " /><path d=" M  145.89,  542.86  C  145.89   542.08   145.26   541.44   144.48   541.44 " style="stroke-width: 0.85 ;&st7; " /><path d=" M  144.48,  541.44  C  143.69   541.44   143.06   542.08   143.06   542.86 " style="stroke-width: 0.85 ;&st7; " /><path d=" M  143.06,  542.86  C  143.06   543.64   143.69   544.28   144.48   544.28 " style="stroke-width: 0.85 ;&st7; " /><path d=" M  144.48,  544.28  C  145.26   544.28   145.89   543.64   145.89   542.86 " style="stroke-width: 0.85 ;&st7; " /><path d=" M  149.01,  498.67  C  149.01   496.17   146.98   494.14   144.48   494.14 " style="stroke-width: 1.42 ;&st7; " /><path d=" M  144.48,  494.14  C  141.97   494.14   139.94   496.17   139.94   498.67 " style="stroke-width: 1.42 ;&st7; " /><path d=" M  139.94,  498.67  C  139.94   501.17   141.97   503.20   144.48   503.20 " style="stroke-width: 1.42 ;&st7; " /><path d=" M  144.48,  503.20  C  146.98   503.20   149.01   501.17   149.01   498.67 " style="stroke-width: 1.42 ;&st7; " /><path d=" M  239.38,  140.60  C  239.38   139.81   238.74   139.18   237.96   139.18 " style="stroke-width: 0.85 ;&st7; " /><path d=" M  237.96,  139.18  C  237.18   139.18   236.54   139.81   236.54   140.60 " style="stroke-width: 0.85 ;&st7; " /><path d=" M  236.54,  140.60  C  236.54   141.38   237.18   142.01   237.96   142.01 " style="stroke-width: 0.85 ;&st7; " /><path d=" M  237.96,  142.01  C  238.74   142.01   239.38   141.38   239.38   140.60 " style="stroke-width: 0.85 ;&st7; " /><path d=" M  239.38,  117.93  C  239.38   117.15   238.74   116.52   237.96   116.52 " style="stroke-width: 0.85 ;&st7; " /><path d=" M  237.96,  116.52  C  237.18   116.52   236.54   117.15   236.54   117.93 " style="stroke-width: 0.85 ;&st7; " /><path d=" M  236.54,  117.93  C  236.54   118.71   237.18   119.35   237.96   119.35 " style="stroke-width: 0.85 ;&st7; " /><path d=" M  237.96,  119.35  C  238.74   119.35   239.38   118.71   239.38   117.93 " style="stroke-width: 0.85 ;&st7; " /><text style="&st18;" transform="matrix(&st16;  207.52  296.96 )">DD</text><text style="&st18;" transform="matrix(&st16;  196.6  296.96 )">21</text><text style="&st18;" transform="matrix(&st16;  207.66  254.46 )">DB</text><text style="&st18;" transform="matrix(&st16;  200.55  254.46 )">1</text><text style="&st18;" transform="matrix(&st17;  208.77  329.39 )">BE</text><text style="&st18;" transform="matrix(&st16;  342.43  363.53 )">1</text><text style="&st18;" transform="matrix(&st16;  282.94  363.53 )">1</text><text style="&st18;" transform="matrix(&st17;  285.26  326.71 )">L</text><text style="&st18;" transform="matrix(&st17;  208.77  203.83 )">V</text><text style="&st18;" transform="matrix(&st16;  320.97  338.03 )">L</text><text style="&st18;" transform="matrix(&st16;  210.13  449.65 )">A</text><text style="&st18;" transform="matrix(&st16;  201.59  449.65 )">8</text><text style="&st18;" transform="matrix(&st16;  215.3  460.4 )">HO</text><text style="&st18;" transform="matrix(&st16;  209.99  500.64 )">C</text><text style="&st18;" transform="matrix(&st16;  202.36  500.64 )">1</text><text ewd:textID="6" style="&st18;" transform="matrix(&st17;  200.27  573.37 )">Horn Switch</text><text ewd:textID="12" style="&st18;" transform="matrix(&st16;  184.44  611.4 )">Steering Pad <tspan dy="6" x="0">Switch Assembly</tspan></text><text style="&st18;" transform="matrix(&st16;  184.44  604.3 )">z12(C)</text><text style="&st18;" transform="matrix(&st16;  229.77  56.17 )">10A <tspan dy="6" x="0">HORN</tspan></text><text style="&st18;" transform="matrix(&st16;  203.35  32.08 )">(BAT)</text><text style="&st18;" transform="matrix(&st16;  208.54  177.98 )">1A</text><text style="&st18;" transform="matrix(&st16;  199.77  177.98 )">7</text><text style="&st18;" transform="matrix(&st16;  234.04  177.98 )">1A</text><text style="&st18;" transform="matrix(&st16;  225.27  177.98 )">8</text><text ewd:textID="4" style="&st18;" transform="matrix(&st17;  200.27  149.5 )">HORN Relay</text><text style="&st18;" transform="matrix(&st17;  234.26  203.48 )">L</text><text ewd:textID="7" style="&st18;" transform="matrix(&st17;  312.17  395.24 )">Low Pitched <tspan dy="6" x="0">Horn Assembly</tspan></text><text style="&st18;" transform="matrix(&st17;  305.06  395.24 )">A9</text><text ewd:textID="5" style="&st18;" transform="matrix(&st17;  371.66  395.24 )">High Pitched <tspan dy="6" x="0">Horn Assembly</tspan></text><text style="&st18;" transform="matrix(&st17;  364.55  395.24 )">A8</text><text ewd:textID="8" style="&st18;" transform="matrix(&st17;  252.68  497.23 )">Spiral Cable <tspan dy="6" x="0">Sub-Assembly</tspan></text><text style="&st18;" transform="matrix(&st17;  245.57  497.23 )">H54(A),z11(B),z12(C)</text><text style="&st18;" transform="matrix(&st16;  142.14  500.64 )">B</text><text style="&st18;" transform="matrix(&st16;  133.6  500.64 )">2</text><text ewd:textID="6" style="&st18;" transform="matrix(&st17;  132.28  573.37 )">Horn Switch</text><text ewd:textID="3" style="&st18;" transform="matrix(&st16;  116.46  611.4 )">Cruise Control <tspan dy="6" x="0">Main Switch</tspan></text><text style="&st18;" transform="matrix(&st16;  116.46  604.3 )">z11(B)</text><text ewd:textID="2" style="&st18;" transform="matrix(&st16;  39.97  54.75 )">* 2 :w/o Steering Pad Switch</text><text ewd:textID="1" style="&st18;" transform="matrix(&st16;  39.97  46.25 )">* 1 :w/ Steering Pad Switch</text><text style="&st18;" transform="matrix(&st16;  205.68  86.47 )">2</text><text style="&st18;" transform="matrix(&st17;  220.1  483.5 )">(*1)</text><text style="&st18;" transform="matrix(&st16;  163.79  476.84 )">(*2)</text><text style="&st18;" transform="matrix(&st17;  208.77  522.18 )">L</text></svg>