﻿<?xml version="1.0" encoding="utf-8"?>
<!DOCTYPE svg PUBLIC "-//W3C//DTD SVG 1.0//EN" "http://www.w3.org/TR/2001/REC-SVG-20010904/DTD/svg10.dtd"[
	<!ENTITY ns_flows "http://ns.adobe.com/Flows/1.0/">
	<!ENTITY ns_svg "http://www.w3.org/2000/svg">
	<!ENTITY ns_xlink "http://www.w3.org/1999/xlink">
	<!ENTITY st0 "font-size:7px;font-family:'MS-PGothic';adobe-font-script:japanese;">
	<!ENTITY st1 "font-size:6px;font-family:'ArialMT';">
	<!-- White fill  -->
	<!ENTITY st2 "fill:#FFFFFF;stroke:#000000; stroke-width:1.41;stroke-linecap:round;stroke-linejoin:round;">
	<!-- Yellow fill  -->
	<!ENTITY st3 "fill:#FFFFCC;stroke:#FFFFCC; stroke-width:0.1;stroke-linecap:round;stroke-linejoin:round;">
	<!-- Gray fill  -->
	<!ENTITY st4 "fill:#CCCCCC;stroke:#CCCCCC; stroke-width:0.1;stroke-linecap:round;stroke-linejoin:round;">
	<!-- Light-blue fill -->
	<!ENTITY st5 "fill:#CCECF4;stroke:#000000; stroke-width:1.133;stroke-linecap:round;stroke-linejoin:round;">
	<!ENTITY st6 "fill:none;stroke-linecap:butt; stroke-linejoin:round;">
	<!ENTITY st7 "fill:none;stroke:#000000;stroke-linecap:round;stroke-linejoin:round;">
	<!ENTITY st8 "enable-background:new    ;">
	<!-- Black fill -->
	<!ENTITY st9 "fill:#000000;stroke:#000000; stroke-linecap:round;stroke-linejoin:round;">
	<!-- SRS note   -->
	<!ENTITY st10 "font-size:9px;font-family:'ArialMT';">
	<!ENTITY st11 "font-size:9px;font-family:'Svg Symbol';">
	<!ENTITY st12 "font-size:6px;font-family:'Svg Symbol';">
	<!ENTITY st13 "fill:none;stroke:#ff0000;stroke-linecap:round;stroke-linejoin:round;">
	<!-- Yellow fill  -->
	<!ENTITY st14 "fill:#FFFF00;stroke:#FFFF00; stroke-width:0.1;stroke-linecap:round;stroke-linejoin:round;">
	<!ENTITY st15 "font-size:6px;font-family:'MS-PGothic';adobe-font-script:japanese;">
	<!ENTITY st16 "1.00 0.00 0.00 1.00">
	<!ENTITY st17 "0.00 -1.00 1.00 0.00">
	<!ENTITY st18 "font-size:6px;font-family:'Arial';">
	<!ENTITY st19 "font-size:9px;font-family:'Arial';">
	<!ENTITY st20 "font-size:6px;font-family:'MS-PGothic','MS PGothic';adobe-font-script:japanese;">
	<!ENTITY st21 "font-size:7px;font-family:'MS-PGothic','MS PGothic';adobe-font-script:japanese;">
	<!ATTLIST svg
		xmlns:ewd CDATA #FIXED "http://shcl.co.jp/ewd"
		xmlns:a CDATA #FIXED "http://ns.adobe.com/AdobeSVGViewerExtensions/3.0/"
		ewd:ver CDATA #IMPLIED
	>
	<!ATTLIST a
		ewd:lineID CDATA #IMPLIED
		ewd:groupID CDATA #IMPLIED
		ewd:figtype CDATA #IMPLIED
		ewd:code CDATA #IMPLIED
		ewd:figID CDATA #IMPLIED
		ewd:pinNo CDATA #IMPLIED
		ewd:comment CDATA #IMPLIED >
	<!ATTLIST g
		ewd:lineID CDATA #IMPLIED
		ewd:groupID CDATA #IMPLIED
		ewd:figtype CDATA #IMPLIED
		ewd:code CDATA #IMPLIED
		ewd:figID CDATA #IMPLIED
		ewd:pinNo CDATA #IMPLIED
		ewd:comment CDATA #IMPLIED >
	<!ATTLIST text
		ewd:textID CDATA #IMPLIED >
	<!ATTLIST title
		ewd:textID CDATA #IMPLIED >
]>
<!-- Generator: Shintec Hozumi YS   -->
<svg onload="call_execInitLoadProc_svg('system')" style="overflow:visible;  enable-background:new 0 0 4649.431 710.000" viewBox="0 0 4649.431 710.000" height="710.000" width="4649.431" xml:space="preserve" ewd:ver="L2.1.2.7" xmlns="&ns_svg;" xmlns:a="http://ns.adobe.com/AdobeSVGViewerExtensions/3.0/" xmlns:ewd="http://shcl.co.jp/ewd" xmlns:xlink="&ns_xlink;">
<path d=" M 1500.00,  367.22  L 1491.50,  367.22 " style="stroke-width: 0.85 ;&st7; " /><path d=" M 1419.26,  460.71  L 1427.76,  460.71 " style="stroke-width: 1.42 ;&st7; " /><path d=" M 1436.26,  231.25  L 1427.76,  231.25 " style="stroke-width: 1.42 ;&st7; " /><path d=" M 1228.04,  367.22  L 1219.55,  367.22 " style="stroke-width: 0.85 ;&st7; " /><path d=" M 1236.53,  357.56  L 1229.17,  361.81 " style="stroke-width: 0.85 ;&st7; " /><path d=" M 1231.17,  365.28  L 1238.53,  361.03 " style="stroke-width: 0.85 ;&st7; " /><path d=" M 1296.03,  367.22  L 1287.53,  367.22 " style="stroke-width: 0.85 ;&st7; " /><path d=" M 1304.52,  357.56  L 1297.16,  361.81 " style="stroke-width: 0.85 ;&st7; " /><path d=" M 1299.16,  365.28  L 1306.52,  361.03 " style="stroke-width: 0.85 ;&st7; " /><path d=" M 1364.02,  367.22  L 1355.52,  367.22 " style="stroke-width: 0.85 ;&st7; " /><path d=" M 1372.50,  357.56  L 1365.14,  361.81 " style="stroke-width: 0.85 ;&st7; " /><path d=" M 1367.15,  365.28  L 1374.51,  361.03 " style="stroke-width: 0.85 ;&st7; " /><path d=" M 1432.01,  367.22  L 1423.51,  367.22 " style="stroke-width: 0.85 ;&st7; " /><path d=" M 1440.49,  357.56  L 1433.13,  361.81 " style="stroke-width: 0.85 ;&st7; " /><path d=" M 1435.14,  365.28  L 1442.50,  361.03 " style="stroke-width: 0.85 ;&st7; " /><path d=" M 1300.28,  270.21  L 1295.31,  265.24 " style="stroke-width: 1.42 ;&st7; " /><path d=" M 1283.29,  277.27  L 1288.25,  282.24 " style="stroke-width: 1.42 ;&st7; " /><path d=" M 1295.31,  282.24  L 1300.28,  277.27 " style="stroke-width: 1.42 ;&st7; " /><path d=" M 1288.25,  265.24  L 1283.29,  270.21 " style="stroke-width: 1.42 ;&st7; " /><path d=" M 1368.27,  270.21  L 1363.30,  265.24 " style="stroke-width: 1.42 ;&st7; " /><path d=" M 1351.27,  277.27  L 1356.24,  282.24 " style="stroke-width: 1.42 ;&st7; " /><path d=" M 1363.30,  282.24  L 1368.27,  277.27 " style="stroke-width: 1.42 ;&st7; " /><path d=" M 1356.24,  265.24  L 1351.27,  270.21 " style="stroke-width: 1.42 ;&st7; " /><path d=" M 1436.26,  270.21  L 1431.29,  265.24 " style="stroke-width: 1.42 ;&st7; " /><path d=" M 1419.26,  277.27  L 1424.23,  282.24 " style="stroke-width: 1.42 ;&st7; " /><path d=" M 1431.29,  282.24  L 1436.26,  277.27 " style="stroke-width: 1.42 ;&st7; " /><path d=" M 1424.23,  265.24  L 1419.26,  270.21 " style="stroke-width: 1.42 ;&st7; " /><path d=" M 1436.26,  423.19  L 1431.29,  418.22 " style="stroke-width: 1.42 ;&st7; " /><path d=" M 1419.26,  430.24  L 1424.23,  435.21 " style="stroke-width: 1.42 ;&st7; " /><path d=" M 1431.29,  435.21  L 1436.26,  430.24 " style="stroke-width: 1.42 ;&st7; " /><path d=" M 1424.23,  418.22  L 1419.26,  423.19 " style="stroke-width: 1.42 ;&st7; " /><path d=" M 1368.27,  423.19  L 1363.30,  418.22 " style="stroke-width: 1.42 ;&st7; " /><path d=" M 1351.27,  430.24  L 1356.24,  435.21 " style="stroke-width: 1.42 ;&st7; " /><path d=" M 1363.30,  435.21  L 1368.27,  430.24 " style="stroke-width: 1.42 ;&st7; " /><path d=" M 1356.24,  418.22  L 1351.27,  423.19 " style="stroke-width: 1.42 ;&st7; " /><path d=" M 1300.28,  423.19  L 1295.31,  418.22 " style="stroke-width: 1.42 ;&st7; " /><path d=" M 1283.29,  430.24  L 1288.25,  435.21 " style="stroke-width: 1.42 ;&st7; " /><path d=" M 1295.31,  435.21  L 1300.28,  430.24 " style="stroke-width: 1.42 ;&st7; " /><path d=" M 1288.25,  418.22  L 1283.29,  423.19 " style="stroke-width: 1.42 ;&st7; " /><path d=" M 1206.80,  341.73  L 1206.80,  384.22  L 1249.29,  384.22  L 1249.29,  341.73  L 1206.80,  341.73 " style="stroke-width: 1.42 ;&st7; " /><path d=" M 1274.79,  341.73  L 1274.79,  384.22  L 1317.28,  384.22  L 1317.28,  341.73  L 1274.79,  341.73 " style="stroke-width: 1.42 ;&st7; " /><path d=" M 1495.75,  367.22  L 1490.08,  358.73  L 1501.42,  358.73  L 1495.75,  367.22 " style="stroke-width: 0.28 ;&st9;" /><path d=" M 1359.77,  341.73  L 1359.77,  384.22 " style="stroke-width: 0.85 ;&st7; " /><path d=" M 1427.76,  384.22  L 1427.76,  341.73 " style="stroke-width: 0.85 ;&st7; " /><path d=" M 1342.78,  341.73  L 1342.78,  384.22  L 1385.27,  384.22  L 1385.27,  341.73  L 1342.78,  341.73 " style="stroke-width: 1.42 ;&st7; " /><path d=" M 1410.76,  341.73  L 1410.76,  384.22  L 1453.26,  384.22  L 1453.26,  341.73  L 1410.76,  341.73 " style="stroke-width: 1.42 ;&st7; " /><path d=" M 1291.78,  384.22  L 1291.78,  341.73 " style="stroke-width: 0.85 ;&st7; " /><path d=" M 1223.80,  341.73  L 1223.80,  384.22 " style="stroke-width: 0.85 ;&st7; " /><path d=" M 1495.75,  384.22  L 1495.75,  341.73 " style="stroke-width: 0.85 ;&st7; " /><path d=" M 1478.75,  341.73  L 1478.75,  384.22  L 1521.25,  384.22  L 1521.25,  341.73  L 1478.75,  341.73 " style="stroke-width: 1.42 ;&st7; " /><path d=" M 1423.51,  451.64  L 1427.76,  455.89  L 1432.01,  451.64 " style="stroke-width: 1.42 ;&st7; " /><path d=" M 1432.01,  455.04  L 1427.76,  459.29  L 1423.51,  455.04 " style="stroke-width: 1.42 ;&st7; " /><path d=" M 1432.01,  240.31  L 1427.76,  236.06  L 1423.51,  240.31 " style="stroke-width: 1.42 ;&st7; " /><path d=" M 1432.01,  236.91  L 1427.76,  232.66  L 1423.51,  236.91 " style="stroke-width: 1.42 ;&st7; " /><path d=" M 1223.80,  367.22  L 1218.13,  358.73  L 1229.46,  358.73  L 1223.80,  367.22 " style="stroke-width: 0.28 ;&st9;" /><path d=" M 1236.53,  357.56  L 1234.19,  360.60  L 1232.73,  358.06  L 1236.53,  357.56  L 1235.25,  358.30  L 1234.26,  359.58  L 1233.64,  358.51  L 1235.25,  358.30  L 1234.61,  358.67  L 1234.29,  359.07  L 1234.10,  358.74  L 1234.61,  358.67 " style="stroke-width: 0.85 ;&st7; " /><path d=" M 1238.53,  361.03  L 1236.20,  364.07  L 1234.73,  361.53  L 1238.53,  361.03  L 1237.25,  361.77  L 1236.27,  363.05  L 1235.64,  361.98  L 1237.25,  361.77  L 1236.61,  362.14  L 1236.30,  362.54  L 1236.10,  362.21  L 1236.61,  362.14 " style="stroke-width: 0.85 ;&st7; " /><path d=" M 1291.78,  367.22  L 1286.12,  358.73  L 1297.45,  358.73  L 1291.78,  367.22 " style="stroke-width: 0.28 ;&st9;" /><path d=" M 1304.52,  357.56  L 1302.18,  360.60  L 1300.72,  358.06  L 1304.52,  357.56  L 1303.23,  358.30  L 1302.25,  359.58  L 1301.63,  358.51  L 1303.23,  358.30  L 1302.59,  358.67  L 1302.28,  359.07  L 1302.09,  358.74  L 1302.59,  358.67 " style="stroke-width: 0.85 ;&st7; " /><path d=" M 1306.52,  361.03  L 1304.19,  364.07  L 1302.72,  361.53  L 1306.52,  361.03  L 1305.24,  361.77  L 1304.25,  363.05  L 1303.63,  361.98  L 1305.24,  361.77  L 1304.60,  362.14  L 1304.29,  362.54  L 1304.09,  362.21  L 1304.60,  362.14 " style="stroke-width: 0.85 ;&st7; " /><path d=" M 1359.77,  367.22  L 1354.11,  358.73  L 1365.44,  358.73  L 1359.77,  367.22 " style="stroke-width: 0.28 ;&st9;" /><path d=" M 1372.51,  357.56  L 1370.17,  360.60  L 1368.70,  358.06  L 1372.51,  357.56  L 1371.22,  358.30  L 1370.24,  359.58  L 1369.62,  358.51  L 1371.22,  358.30  L 1370.58,  358.67  L 1370.27,  359.07  L 1370.08,  358.74  L 1370.58,  358.67 " style="stroke-width: 0.85 ;&st7; " /><path d=" M 1374.51,  361.03  L 1372.17,  364.07  L 1370.71,  361.53  L 1374.51,  361.03  L 1373.23,  361.77  L 1372.24,  363.05  L 1371.62,  361.98  L 1373.23,  361.77  L 1372.59,  362.14  L 1372.27,  362.54  L 1372.08,  362.21  L 1372.59,  362.14 " style="stroke-width: 0.85 ;&st7; " /><path d=" M 1427.76,  367.22  L 1422.10,  358.73  L 1433.43,  358.73  L 1427.76,  367.22 " style="stroke-width: 0.28 ;&st9;" /><path d=" M 1440.49,  357.56  L 1438.16,  360.60  L 1436.69,  358.06  L 1440.49,  357.56  L 1439.21,  358.30  L 1438.23,  359.58  L 1437.61,  358.51  L 1439.21,  358.30  L 1438.57,  358.67  L 1438.26,  359.07  L 1438.06,  358.74  L 1438.57,  358.67 " style="stroke-width: 0.85 ;&st7; " /><path d=" M 1442.50,  361.03  L 1440.16,  364.07  L 1438.70,  361.53  L 1442.50,  361.03  L 1441.21,  361.77  L 1440.23,  363.05  L 1439.61,  361.98  L 1441.21,  361.77  L 1440.57,  362.14  L 1440.26,  362.54  L 1440.07,  362.21  L 1440.57,  362.14 " style="stroke-width: 0.85 ;&st7; " /><path d=" M 1426.57,  510.70  L 1426.30,  511.17  L 1426.20,  511.70  L 1426.30,  512.23  L 1426.57,  512.70  L 1426.98,  513.05  L 1427.49,  513.24  L 1428.03,  513.24  L 1428.54,  513.05  L 1428.95,  512.70  L 1429.23,  512.23  L 1429.32,  511.70  L 1429.23,  511.17  L 1428.95,  510.70  L 1428.54,  510.35  L 1428.03,  510.16  L 1427.49,  510.16  L 1426.98,  510.35  L 1426.57,  510.70  L 1426.96,  511.41  L 1426.96,  511.99  L 1427.34,  512.44  L 1427.91,  512.54  L 1428.41,  512.25  L 1428.61,  511.70  L 1428.41,  511.15  L 1427.91,  510.86  L 1427.34,  510.96  L 1427.76,  511.70 " style="stroke-width: 0.85 ;&st7; " /><path d=" M 1419.26,  503.20  L 2286.12,  503.20  L 2286.12,  520.20  L 1419.26,  520.20  L 1419.26,  503.20 " style="stroke-width: 1.42 ;&st7; " /><path d=" M 1154.61,  145.26  L 1154.34,  145.73  L 1154.25,  146.26  L 1154.34,  146.79  L 1154.61,  147.26  L 1155.03,  147.61  L 1155.53,  147.80  L 1156.08,  147.80  L 1156.59,  147.61  L 1157.00,  147.26  L 1157.27,  146.79  L 1157.36,  146.26  L 1157.27,  145.73  L 1157.00,  145.26  L 1156.59,  144.91  L 1156.08,  144.73  L 1155.53,  144.73  L 1155.03,  144.91  L 1154.61,  145.26  L 1155.01,  145.97  L 1155.01,  146.55  L 1155.38,  147.00  L 1155.95,  147.10  L 1156.46,  146.81  L 1156.66,  146.26  L 1156.46,  145.71  L 1155.95,  145.43  L 1155.38,  145.52  L 1155.81,  146.26 " style="stroke-width: 0.85 ;&st7; " /><path d=" M 1495.75,  154.76  L 1495.75,  146.26 " style="stroke-width: 0.85 ;&st7; " /><path d=" M 1494.56,  145.26  L 1494.28,  145.73  L 1494.19,  146.26  L 1494.28,  146.79  L 1494.56,  147.26  L 1494.97,  147.61  L 1495.48,  147.80  L 1496.02,  147.80  L 1496.53,  147.61  L 1496.94,  147.26  L 1497.21,  146.79  L 1497.31,  146.26  L 1497.21,  145.73  L 1496.94,  145.26  L 1496.53,  144.91  L 1496.02,  144.73  L 1495.48,  144.73  L 1494.97,  144.91  L 1494.56,  145.26  L 1494.95,  145.97  L 1494.95,  146.55  L 1495.32,  147.00  L 1495.90,  147.10  L 1496.40,  146.81  L 1496.60,  146.26  L 1496.40,  145.71  L 1495.90,  145.43  L 1495.32,  145.52  L 1495.75,  146.26 " style="stroke-width: 0.85 ;&st7; " /><path d=" M 1427.76,  154.76  L 1427.76,  146.26 " style="stroke-width: 0.85 ;&st7; " /><path d=" M 1426.57,  145.26  L 1426.30,  145.73  L 1426.20,  146.26  L 1426.30,  146.79  L 1426.57,  147.26  L 1426.98,  147.61  L 1427.49,  147.80  L 1428.03,  147.80  L 1428.54,  147.61  L 1428.95,  147.26  L 1429.23,  146.79  L 1429.32,  146.26  L 1429.23,  145.73  L 1428.95,  145.26  L 1428.54,  144.91  L 1428.03,  144.73  L 1427.49,  144.73  L 1426.98,  144.91  L 1426.57,  145.26  L 1426.96,  145.97  L 1426.96,  146.55  L 1427.34,  147.00  L 1427.91,  147.10  L 1428.41,  146.81  L 1428.61,  146.26  L 1428.41,  145.71  L 1427.91,  145.43  L 1427.34,  145.52  L 1427.76,  146.26 " style="stroke-width: 0.85 ;&st7; " /><path d=" M 1495.75,  503.20  L 1495.75,  511.70 " style="stroke-width: 0.85 ;&st7; " /><path d=" M 1494.56,  510.70  L 1494.28,  511.17  L 1494.19,  511.70  L 1494.28,  512.23  L 1494.56,  512.70  L 1494.97,  513.05  L 1495.48,  513.24  L 1496.02,  513.24  L 1496.53,  513.05  L 1496.94,  512.70  L 1497.21,  512.23  L 1497.31,  511.70  L 1497.21,  511.17  L 1496.94,  510.70  L 1496.53,  510.35  L 1496.02,  510.16  L 1495.48,  510.16  L 1494.97,  510.35  L 1494.56,  510.70  L 1494.95,  511.41  L 1494.95,  511.99  L 1495.32,  512.44  L 1495.90,  512.54  L 1496.40,  512.25  L 1496.60,  511.70  L 1496.40,  511.15  L 1495.90,  510.86  L 1495.32,  510.96  L 1495.75,  511.70 " style="stroke-width: 0.85 ;&st7; " /><path d=" M 1096.32,  452.21  L 1096.32,  435.21 " style="stroke-width: 0.85 ;&st7; " /><path d=" M 1087.82,  435.21  L 1087.82,  452.21  L 1104.81,  452.21  L 1104.81,  435.21  L 1087.82,  435.21 " style="stroke-width: 1.42 ;&st7; " /><path d=" M 1094.90,  710.00  L 1097.73,  710.00 " style="stroke-width: 0.85 ;&st7; " /><path d=" M 1093.48,  707.17  L 1099.15,  707.17 " style="stroke-width: 0.85 ;&st7; " /><path d=" M 1092.07,  704.33  L 1100.57,  704.33 " style="stroke-width: 0.85 ;&st7; " /><path d=" M 1087.82,  701.50  L 1104.81,  701.50 " style="stroke-width: 0.85 ;&st7; " /><path d=" M 1096.32,  697.25  L 1096.32,  701.50 " style="stroke-width: 0.85 ;&st7; " /><path d=" M 1079.32,  231.25  L 1079.32,  265.24  L 1172.80,  265.24  L 1172.80,  231.25  L 1079.32,  231.25 " style="stroke-width: 1.42 ;&st7; " /><path d=" M 1427.76,  511.70  L 1878.19,  511.70 " style="stroke-width: 0.85 ;&st7; " /><path d=" M 1427.76,  503.20  L 1427.76,  520.20 " style="stroke-width: 0.85 ;&st7; " /><path d=" M 1155.81,  146.26  L 1155.81,  154.76 " style="stroke-width: 0.85 ;&st7; " /><text ewd:textID="7" style="&st18;" transform="matrix(&st16;  1323.25  54.75 )">* 7 :w/o Climate Control Seat</text><text ewd:textID="6" style="&st18;" transform="matrix(&st16;  1323.25  46.25 )">* 6 :w/ Climate Control Seat</text><text style="&st18;" transform="matrix(&st17;  1220.1  314.31 )">P</text><text style="&st18;" transform="matrix(&st17;  1256.9  386.75 )">J1</text><text style="&st18;" transform="matrix(&st16;  1217.01  392.41 )">3</text><text style="&st18;" transform="matrix(&st16;  1285.0  392.41 )">6</text><text style="&st18;" transform="matrix(&st17;  1324.89  386.75 )">J2</text><text style="&st18;" transform="matrix(&st17;  1288.09  314.31 )">P</text><text ewd:textID="34" style="&st18;" transform="matrix(&st17;  1332.0  386.75 )">Drive Monitor Switch</text><text style="&st18;" transform="matrix(&st16;  1285.77  338.04 )">1</text><text style="&st18;" transform="matrix(&st16;  1352.98  338.04 )">3</text><text ewd:textID="39" style="&st18;" transform="matrix(&st17;  1399.99  386.75 )">Hazard Warning Signal <tspan dy="6" x="-0.01">Switch Assembly</tspan></text><text style="&st18;" transform="matrix(&st17;  1356.08  314.31 )">P</text><text style="&st18;" transform="matrix(&st17;  1392.88  386.75 )">J3</text><text style="&st18;" transform="matrix(&st17;  1460.87  386.75 )">J7</text><text style="&st18;" transform="matrix(&st17;  1424.07  314.31 )">P</text><text ewd:textID="48" style="&st18;" transform="matrix(&st17;  1467.97  386.75 )">Interior Dome Light Switch Assembly</text><text style="&st18;" transform="matrix(&st16;  1420.97  392.41 )">4</text><text style="&st18;" transform="matrix(&st16;  1421.75  338.04 )">1</text><text style="&st18;" transform="matrix(&st17;  1492.05  293.07 )">Y</text><text style="&st18;" transform="matrix(&st17;  1492.05  440.44 )">GR</text><text style="&st18;" transform="matrix(&st16;  1352.98  392.41 )">2</text><text ewd:textID="26" style="&st18;" transform="matrix(&st17;  1264.01  386.75 )">4 Wheel Drive <tspan dy="6" x="-0.01">Control Switch</tspan></text><text style="&st18;" transform="matrix(&st16;  1217.78  338.04 )">1</text><text style="&st18;" transform="matrix(&st16;  1488.96  338.04 )">3</text><text style="&st18;" transform="matrix(&st16;  1488.96  392.41 )">2</text><text style="&st18;" transform="matrix(&st17;  1424.07  259.07 )">P</text><text style="&st18;" transform="matrix(&st17;  1424.07  178.76 )">G</text><text style="&st18;" transform="matrix(&st17;  1220.1  413.07 )">W</text><text style="&st18;" transform="matrix(&st17;  1288.09  413.07 )">W</text><text style="&st18;" transform="matrix(&st17;  1356.08  413.07 )">W</text><text style="&st18;" transform="matrix(&st17;  1424.07  413.07 )">W</text><text style="&st18;" transform="matrix(&st17;  1424.07  447.07 )">W</text><text style="&st18;" transform="matrix(&st17;  1424.07  489.56 )">W</text><text style="&st18;" transform="matrix(&st16;  1398.91  423.02 )">W</text><text style="&st18;" transform="matrix(&st16;  1322.42  423.02 )">W</text><text style="&st18;" transform="matrix(&st16;  1409.77  466.93 )">12</text><text style="&st18;" transform="matrix(&st16;  1323.45  270.04 )">P</text><text style="&st18;" transform="matrix(&st16;  1391.44  270.04 )">P</text><text style="&st18;" transform="matrix(&st16;  1408.99  228.97 )">22</text><text style="&st18;" transform="matrix(&st16;  1226.63  380.53 )">ILL-</text><text style="&st18;" transform="matrix(&st16;  1294.62  380.53 )">ILL-</text><text style="&st18;" transform="matrix(&st16;  1362.61  380.53 )">ILL-</text><text style="&st18;" transform="matrix(&st16;  1430.59  380.53 )">ILL-</text><text style="&st18;" transform="matrix(&st16;  1226.63  349.92 )">ILL+</text><text style="&st18;" transform="matrix(&st16;  1294.62  349.92 )">ILL+</text><text style="&st18;" transform="matrix(&st16;  1362.61  349.92 )">ILL+</text><text style="&st18;" transform="matrix(&st16;  1430.59  349.92 )">ILL+</text><text style="&st18;" transform="matrix(&st16;  1498.58  380.53 )">ILL-</text><text style="&st18;" transform="matrix(&st16;  1498.58  349.92 )">ILL+</text><text style="&st18;" transform="matrix(&st16;  1489.74  162.95 )">1</text><text style="&st18;" transform="matrix(&st16;  1417.79  162.95 )">10</text><text style="&st18;" transform="matrix(&st16;  1420.97  499.51 )">7</text><text style="&st18;" transform="matrix(&st16;  1488.96  499.51 )">5</text><text ewd:textID="49" style="&st18;" transform="matrix(&st16;  1450.73  534.92 )">Junction Connector</text><text style="&st18;" transform="matrix(&st16;  1450.73  527.81 )">H124</text><text style="&st18;" transform="matrix(&st17;  1231.43  419.85 )">(4WD)</text><text style="&st18;" transform="matrix(&st17;  1231.43  322.12 )">(4WD)</text><text style="&st18;" transform="matrix(&st16;  1090.3  273.43 )">1</text><text style="&st18;" transform="matrix(&st17;  1092.62  570.39 )">W-B</text><text style="&st18;" transform="matrix(&st16;  1087.13  460.4 )">11</text><text style="&st18;" transform="matrix(&st16;  1086.35  431.52 )">10</text><text style="&st18;" transform="matrix(&st16;  1088.62  261.54 )">GND</text><text ewd:textID="49" style="&st18;" transform="matrix(&st17;  1119.53  454.73 )">Junction Connector</text><text style="&st18;" transform="matrix(&st17;  1112.43  454.73 )">H83</text><text style="&st18;" transform="matrix(&st17;  1103.95  575.72 )">(*39,*8)</text><text style="&st18;" transform="matrix(&st16;  1057.66  652.48 )">SB</text><text style="&st18;" transform="matrix(&st16;  1006.67  652.48 )">SB</text><text style="&st18;" transform="matrix(&st17;  1092.62  298.44 )">W-B</text><text style="&st18;" transform="matrix(&st17;  1103.95  303.77 )">(*39,*8)</text><text ewd:textID="49" style="&st18;" transform="matrix(&st16;  1212.77  134.07 )">Junction Connector</text><text style="&st18;" transform="matrix(&st16;  1212.77  126.96 )">H123</text><text style="&st18;" transform="matrix(&st16;  1149.02  227.56 )">7</text><text style="&st18;" transform="matrix(&st16;  1145.84  273.43 )">12</text><text style="&st18;" transform="matrix(&st17;  1152.11  178.76 )">G</text><text style="&st18;" transform="matrix(&st17;  1152.11  480.18 )">R</text><text style="&st18;" transform="matrix(&st16;  1148.85  238.88 )">ILL+</text><text style="&st18;" transform="matrix(&st16;  1148.85  261.54 )">ILL-</text><text style="&st18;" transform="matrix(&st16;  1149.02  162.95 )">4</text><text style="&st18;" transform="matrix(&st16;  1420.97  528.39 )">2</text><text ewd:textID="20" style="&st18;" transform="matrix(&st16;  1323.25  80.24 )">*35 :w/ Cool Box</text><text ewd:textID="47" style="&st18;" transform="matrix(&st17;  1187.52  267.77 )">Integration Control <tspan dy="6" x="-0.01">and Panel Assembly</tspan></text><text style="&st18;" transform="matrix(&st17;  1180.42  267.77 )">H45</text><text ewd:textID="19" style="&st18;" transform="matrix(&st16;  1323.25  71.74 )">*31 :w/ Curtain Airbag Cutoff Switch</text><text style="&st18;" transform="matrix(&st16;  1003.17  663.81 )">(*39)</text><text style="&st18;" transform="matrix(&st16;  1054.16  663.81 )">(*39)</text><text style="&st18;" transform="matrix(&st16;  1089.53  227.56 )">9</text><text style="&st18;" transform="matrix(&st16;  1089.32  238.88 )">OFF</text><text style="&st18;" transform="matrix(&st16;  1006.1  185.06 )">GR</text><text style="&st18;" transform="matrix(&st16;  1057.09  185.06 )">GR</text><text style="&st18;" transform="matrix(&st16;  1049.29  196.39 )">(*39,*8)</text><text ewd:textID="22" style="&st18;" transform="matrix(&st16;  1323.25  97.24 )">*39 :Before Aug. 2013 Production</text><text ewd:textID="8" style="&st18;" transform="matrix(&st16;  1323.25  63.24 )">* 8 :w/ Steering A/C Switch</text><text ewd:textID="21" style="&st18;" transform="matrix(&st16;  1323.25  88.74 )">*38 :w/ Blind Spot Monitor System</text></svg>