﻿<?xml version="1.0" encoding="utf-8"?>
<!DOCTYPE svg PUBLIC "-//W3C//DTD SVG 1.0//EN" "http://www.w3.org/TR/2001/REC-SVG-20010904/DTD/svg10.dtd"[
	<!ENTITY ns_flows "http://ns.adobe.com/Flows/1.0/">
	<!ENTITY ns_svg "http://www.w3.org/2000/svg">
	<!ENTITY ns_xlink "http://www.w3.org/1999/xlink">
	<!ENTITY st0 "font-size:7px;font-family:'MS-PGothic';adobe-font-script:japanese;">
	<!ENTITY st1 "font-size:6px;font-family:'ArialMT';">
	<!-- White fill  -->
	<!ENTITY st2 "fill:#FFFFFF;stroke:#000000; stroke-width:1.41;stroke-linecap:round;stroke-linejoin:round;">
	<!-- Yellow fill  -->
	<!ENTITY st3 "fill:#FFFFCC;stroke:#FFFFCC; stroke-width:0.1;stroke-linecap:round;stroke-linejoin:round;">
	<!-- Gray fill  -->
	<!ENTITY st4 "fill:#CCCCCC;stroke:#CCCCCC; stroke-width:0.1;stroke-linecap:round;stroke-linejoin:round;">
	<!-- Light-blue fill -->
	<!ENTITY st5 "fill:#CCECF4;stroke:#000000; stroke-width:1.133;stroke-linecap:round;stroke-linejoin:round;">
	<!ENTITY st6 "fill:none;stroke-linecap:butt; stroke-linejoin:round;">
	<!ENTITY st7 "fill:none;stroke:#000000;stroke-linecap:round;stroke-linejoin:round;">
	<!ENTITY st8 "enable-background:new    ;">
	<!-- Black fill -->
	<!ENTITY st9 "fill:#000000;stroke:#000000; stroke-linecap:round;stroke-linejoin:round;">
	<!-- SRS note   -->
	<!ENTITY st10 "font-size:9px;font-family:'ArialMT';">
	<!ENTITY st11 "font-size:9px;font-family:'Svg Symbol';">
	<!ENTITY st12 "font-size:6px;font-family:'Svg Symbol';">
	<!ENTITY st13 "fill:none;stroke:#ff0000;stroke-linecap:round;stroke-linejoin:round;">
	<!-- Yellow fill  -->
	<!ENTITY st14 "fill:#FFFF00;stroke:#FFFF00; stroke-width:0.1;stroke-linecap:round;stroke-linejoin:round;">
	<!ENTITY st15 "font-size:6px;font-family:'MS-PGothic';adobe-font-script:japanese;">
	<!ENTITY st16 "1.00 0.00 0.00 1.00">
	<!ENTITY st17 "0.00 -1.00 1.00 0.00">
	<!ENTITY st18 "font-size:6px;font-family:'Arial';">
	<!ENTITY st19 "font-size:9px;font-family:'Arial';">
	<!ENTITY st20 "font-size:6px;font-family:'MS-PGothic','MS PGothic';adobe-font-script:japanese;">
	<!ENTITY st21 "font-size:7px;font-family:'MS-PGothic','MS PGothic';adobe-font-script:japanese;">
	<!ATTLIST svg
		xmlns:ewd CDATA #FIXED "http://shcl.co.jp/ewd"
		xmlns:a CDATA #FIXED "http://ns.adobe.com/AdobeSVGViewerExtensions/3.0/"
		ewd:ver CDATA #IMPLIED
	>
	<!ATTLIST a
		ewd:lineID CDATA #IMPLIED
		ewd:groupID CDATA #IMPLIED
		ewd:figtype CDATA #IMPLIED
		ewd:code CDATA #IMPLIED
		ewd:figID CDATA #IMPLIED
		ewd:pinNo CDATA #IMPLIED
		ewd:comment CDATA #IMPLIED >
	<!ATTLIST g
		ewd:lineID CDATA #IMPLIED
		ewd:groupID CDATA #IMPLIED
		ewd:figtype CDATA #IMPLIED
		ewd:code CDATA #IMPLIED
		ewd:figID CDATA #IMPLIED
		ewd:pinNo CDATA #IMPLIED
		ewd:comment CDATA #IMPLIED >
	<!ATTLIST text
		ewd:textID CDATA #IMPLIED >
	<!ATTLIST title
		ewd:textID CDATA #IMPLIED >
]>
<!-- Generator: Shintec Hozumi YS   -->
<svg onload="call_execInitLoadProc_svg('system')" style="overflow:visible;  enable-background:new 0 0 3043.200 710.000" viewBox="0 0 3043.200 710.000" height="710.000" width="3043.200" xml:space="preserve" ewd:ver="L2.1.2.7" xmlns="&ns_svg;" xmlns:a="http://ns.adobe.com/AdobeSVGViewerExtensions/3.0/" xmlns:ewd="http://shcl.co.jp/ewd" xmlns:xlink="&ns_xlink;">
<path d=" M 2014.16,  163.26  L 2022.66,  163.26 " style="stroke-width: 1.42 ;&st7; " /><path d=" M 2371.10,  520.20  L 2379.60,  520.20 " style="stroke-width: 1.42 ;&st7; " /><path d=" M 2405.10,  520.20  L 2413.60,  520.20 " style="stroke-width: 1.42 ;&st7; " /><path d=" M 2269.12,  405.47  L 2269.12,  409.72 " style="stroke-width: 1.42 ;&st7; " /><path d=" M 2269.12,  430.96  L 2269.12,  435.21 " style="stroke-width: 1.42 ;&st7; " /><path d=" M 2345.61,  588.19  L 2337.11,  588.19 " style="stroke-width: 1.42 ;&st7; " /><path d=" M 2218.13,  596.69  L 2213.07,  585.32 " style="stroke-width: 1.42 ;&st7; " /><path d=" M 2218.13,  596.69  L 2223.19,  585.32 " style="stroke-width: 1.42 ;&st7; " /><path d=" M 2243.63,  579.69  L 2248.68,  591.05 " style="stroke-width: 1.42 ;&st7; " /><path d=" M 2243.63,  579.69  L 2238.57,  591.05 " style="stroke-width: 1.42 ;&st7; " /><path d=" M 2269.12,  596.69  L 2264.06,  585.32 " style="stroke-width: 1.42 ;&st7; " /><path d=" M 2269.12,  596.69  L 2274.18,  585.32 " style="stroke-width: 1.42 ;&st7; " /><path d=" M 2294.62,  579.69  L 2299.68,  591.05 " style="stroke-width: 1.42 ;&st7; " /><path d=" M 2294.62,  579.69  L 2289.56,  591.05 " style="stroke-width: 1.42 ;&st7; " /><path d=" M 2192.63,  579.69  L 2187.57,  591.05 " style="stroke-width: 1.42 ;&st7; " /><path d=" M 2192.63,  579.69  L 2197.69,  591.05 " style="stroke-width: 1.42 ;&st7; " /><path d=" M 2167.14,  596.69  L 2172.20,  585.32 " style="stroke-width: 1.42 ;&st7; " /><path d=" M 2167.14,  596.69  L 2162.08,  585.32 " style="stroke-width: 1.42 ;&st7; " /><path d=" M 2141.64,  579.69  L 2136.58,  591.05 " style="stroke-width: 1.42 ;&st7; " /><path d=" M 2141.64,  579.69  L 2146.70,  591.05 " style="stroke-width: 1.42 ;&st7; " /><path d=" M 2116.15,  596.69  L 2121.21,  585.32 " style="stroke-width: 1.42 ;&st7; " /><path d=" M 2116.15,  596.69  L 2111.09,  585.32 " style="stroke-width: 1.42 ;&st7; " /><path d=" M 2014.16,  426.71  L 2005.66,  426.71 " style="stroke-width: 1.42 ;&st7; " /><path d=" M 2009.91,  432.38  L 2005.66,  428.13  L 2001.41,  432.38 " style="stroke-width: 1.42 ;&st7; " /><path d=" M 2009.91,  435.78  L 2005.66,  431.53  L 2001.41,  435.78 " style="stroke-width: 1.42 ;&st7; " /><path d=" M 2379.60,  367.22  L 2116.15,  367.22 " style="stroke-width: 0.85 ;&st7; " /><path d=" M 2413.60,  358.73  L 2150.14,  358.73 " style="stroke-width: 0.85 ;&st7; " /><path d=" M 2005.66,  537.20  L 2005.66,  554.19 " style="stroke-width: 0.85 ;&st7; " /><path d=" M 2150.14,  350.23  L 2150.14,  375.72 " style="stroke-width: 0.85 ;&st7; " /><path d=" M 2107.65,  239.75  L 2158.64,  239.75  L 2158.64,  214.25  L 2107.65,  214.25  L 2107.65,  239.75 " style="stroke-width: 1.42 ;&st7; " /><path d=" M 2099.15,  537.20  L 2099.15,  494.70  L 2354.11,  494.70  L 2354.11,  537.20  L 2099.15,  537.20 " style="stroke-width: 1.42 ;&st7; " /><path d=" M 2116.15,  350.23  L 2116.15,  375.72 " style="stroke-width: 0.85 ;&st7; " /><path d=" M 2413.60,  350.23  L 2413.60,  375.72 " style="stroke-width: 0.85 ;&st7; " /><path d=" M 2107.65,  350.23  L 2107.65,  375.72  L 2422.09,  375.72  L 2422.09,  350.23  L 2107.65,  350.23 " style="stroke-width: 1.42 ;&st7; " /><path d=" M 2379.60,  350.23  L 2379.60,  375.72 " style="stroke-width: 0.85 ;&st7; " /><path d=" M 2150.14,  214.25  L 2150.14,  239.75 " style="stroke-width: 0.85 ;&st7; " /><path d=" M 2116.15,  214.25  L 2116.15,  239.75 " style="stroke-width: 0.85 ;&st7; " /><path d=" M 2114.95,  366.22  L 2114.68,  366.69  L 2114.59,  367.22  L 2114.68,  367.76  L 2114.95,  368.23  L 2115.37,  368.57  L 2115.87,  368.76  L 2116.42,  368.76  L 2116.92,  368.57  L 2117.34,  368.23  L 2117.61,  367.76  L 2117.70,  367.22  L 2117.61,  366.69  L 2117.34,  366.22  L 2116.92,  365.88  L 2116.42,  365.69  L 2115.87,  365.69  L 2115.37,  365.88  L 2114.95,  366.22  L 2115.35,  366.93  L 2115.35,  367.52  L 2115.72,  367.96  L 2116.29,  368.06  L 2116.80,  367.77  L 2117.00,  367.22  L 2116.80,  366.68  L 2116.29,  366.39  L 2115.72,  366.49  L 2116.15,  367.22 " style="stroke-width: 0.85 ;&st7; " /><path d=" M 2378.41,  366.22  L 2378.14,  366.69  L 2378.04,  367.22  L 2378.14,  367.76  L 2378.41,  368.23  L 2378.82,  368.57  L 2379.33,  368.76  L 2379.87,  368.76  L 2380.38,  368.57  L 2380.79,  368.23  L 2381.07,  367.76  L 2381.16,  367.22  L 2381.07,  366.69  L 2380.79,  366.22  L 2380.38,  365.88  L 2379.87,  365.69  L 2379.33,  365.69  L 2378.82,  365.88  L 2378.41,  366.22  L 2378.80,  366.93  L 2378.80,  367.52  L 2379.18,  367.96  L 2379.75,  368.06  L 2380.25,  367.77  L 2380.45,  367.22  L 2380.25,  366.68  L 2379.75,  366.39  L 2379.18,  366.49  L 2379.60,  367.22 " style="stroke-width: 0.85 ;&st7; " /><path d=" M 2412.40,  357.72  L 2412.13,  358.19  L 2412.04,  358.73  L 2412.13,  359.26  L 2412.40,  359.73  L 2412.82,  360.07  L 2413.32,  360.26  L 2413.87,  360.26  L 2414.37,  360.07  L 2414.79,  359.73  L 2415.06,  359.26  L 2415.15,  358.73  L 2415.06,  358.19  L 2414.79,  357.72  L 2414.37,  357.38  L 2413.87,  357.19  L 2413.32,  357.19  L 2412.82,  357.38  L 2412.40,  357.72  L 2412.80,  358.43  L 2412.80,  359.02  L 2413.17,  359.46  L 2413.74,  359.56  L 2414.25,  359.27  L 2414.45,  358.73  L 2414.25,  358.18  L 2413.74,  357.89  L 2413.17,  357.99  L 2413.60,  358.73 " style="stroke-width: 0.85 ;&st7; " /><path d=" M 2148.95,  357.72  L 2148.68,  358.19  L 2148.58,  358.73  L 2148.68,  359.26  L 2148.95,  359.73  L 2149.36,  360.07  L 2149.87,  360.26  L 2150.41,  360.26  L 2150.92,  360.07  L 2151.33,  359.73  L 2151.60,  359.26  L 2151.70,  358.73  L 2151.60,  358.19  L 2151.33,  357.72  L 2150.92,  357.38  L 2150.41,  357.19  L 2149.87,  357.19  L 2149.36,  357.38  L 2148.95,  357.72  L 2149.34,  358.43  L 2149.34,  359.02  L 2149.71,  359.46  L 2150.29,  359.56  L 2150.79,  359.27  L 2150.99,  358.73  L 2150.79,  358.18  L 2150.29,  357.89  L 2149.71,  357.99  L 2150.14,  358.73 " style="stroke-width: 0.85 ;&st7; " /><path d=" M 2298.86,  600.93  L 2294.62,  605.18  L 2207.51,  605.18  L 2205.38,  609.43  L 2203.26,  605.18  L 2116.15,  605.18  L 2111.90,  600.93 " style="stroke-width: 0.85 ;&st7; " /><path d=" M 2294.62,  137.76  L 2294.62,  154.76  L 2311.61,  154.76  L 2311.61,  137.76  L 2294.62,  137.76 " style="stroke-width: 1.42 ;&st7; " /><path d=" M 2303.11,  137.76  L 2303.11,  154.76 " style="stroke-width: 0.85 ;&st7; " /><path d=" M 2286.12,  214.25  L 2286.12,  248.24  L 2320.11,  248.24  L 2320.11,  214.25  L 2286.12,  214.25 " style="stroke-width: 1.42 ;&st7; " /><path d=" M 2192.63,  239.75  L 2243.62,  239.75  L 2243.62,  214.25  L 2192.63,  214.25  L 2192.63,  239.75 " style="stroke-width: 1.42 ;&st7; " /><path d=" M 2201.13,  214.25  L 2201.13,  239.75 " style="stroke-width: 0.85 ;&st7; " /><path d=" M 2235.13,  214.25  L 2235.13,  239.75 " style="stroke-width: 0.85 ;&st7; " /><path d=" M 2454.90,  366.22  L 2454.62,  366.69  L 2454.53,  367.22  L 2454.62,  367.76  L 2454.90,  368.23  L 2455.31,  368.57  L 2455.82,  368.76  L 2456.36,  368.76  L 2456.87,  368.57  L 2457.28,  368.23  L 2457.55,  367.76  L 2457.65,  367.22  L 2457.55,  366.69  L 2457.28,  366.22  L 2456.87,  365.88  L 2456.36,  365.69  L 2455.82,  365.69  L 2455.31,  365.88  L 2454.90,  366.22  L 2455.29,  366.93  L 2455.29,  367.52  L 2455.66,  367.96  L 2456.24,  368.06  L 2456.74,  367.77  L 2456.94,  367.22  L 2456.74,  366.68  L 2456.24,  366.39  L 2455.66,  366.49  L 2456.09,  367.22 " style="stroke-width: 0.85 ;&st7; " /><path d=" M 2447.59,  350.23  L 2566.57,  350.23  L 2566.57,  375.72  L 2447.59,  375.72  L 2447.59,  350.23 " style="stroke-width: 1.42 ;&st7; " /><path d=" M 2456.09,  350.23  L 2456.09,  375.72 " style="stroke-width: 0.85 ;&st7; " /><path d=" M 2490.08,  350.23  L 2490.08,  375.72 " style="stroke-width: 0.85 ;&st7; " /><path d=" M 2456.09,  367.22  L 2524.08,  367.22 " style="stroke-width: 0.85 ;&st7; " /><path d=" M 2488.89,  357.72  L 2488.62,  358.19  L 2488.52,  358.73  L 2488.62,  359.26  L 2488.89,  359.73  L 2489.30,  360.07  L 2489.81,  360.26  L 2490.35,  360.26  L 2490.86,  360.07  L 2491.28,  359.73  L 2491.55,  359.26  L 2491.64,  358.73  L 2491.55,  358.19  L 2491.28,  357.72  L 2490.86,  357.38  L 2490.35,  357.19  L 2489.81,  357.19  L 2489.30,  357.38  L 2488.89,  357.72  L 2489.28,  358.43  L 2489.28,  359.02  L 2489.66,  359.46  L 2490.23,  359.56  L 2490.73,  359.27  L 2490.93,  358.73  L 2490.73,  358.18  L 2490.23,  357.89  L 2489.66,  357.99  L 2490.08,  358.73 " style="stroke-width: 0.85 ;&st7; " /><path d=" M 2558.07,  358.73  L 2490.08,  358.73 " style="stroke-width: 0.85 ;&st7; " /><path d=" M 2498.58,  336.63  L 2511.33,  336.63 " style="stroke-width: 0.85 ;&st7;stroke-dasharray:3, 1.5;" /><path d=" M 2464.59,  336.63  L 2473.09,  336.63 " style="stroke-width: 0.85 ;&st7;stroke-dasharray:3, 1.5;" /><path d=" M 2498.58,  345.69  L 2511.33,  345.69 " style="stroke-width: 0.85 ;&st7;stroke-dasharray:3, 1.5;" /><path d=" M 2018.41,  154.19  L 2022.66,  158.44  L 2026.91,  154.19 " style="stroke-width: 1.42 ;&st7; " /><path d=" M 2026.91,  157.59  L 2022.66,  161.84  L 2018.41,  157.59 " style="stroke-width: 1.42 ;&st7; " /><path d=" M 2375.35,  511.13  L 2379.60,  515.38  L 2383.85,  511.13 " style="stroke-width: 1.42 ;&st7; " /><path d=" M 2383.85,  514.53  L 2379.60,  518.78  L 2375.35,  514.53 " style="stroke-width: 1.42 ;&st7; " /><path d=" M 2409.35,  511.13  L 2413.60,  515.38  L 2417.84,  511.13 " style="stroke-width: 1.42 ;&st7; " /><path d=" M 2417.84,  514.53  L 2413.60,  518.78  L 2409.35,  514.53 " style="stroke-width: 1.42 ;&st7; " /><path d=" M 2278.19,  413.97  L 2273.94,  409.72  L 2278.19,  405.47 " style="stroke-width: 1.42 ;&st7; " /><path d=" M 2274.79,  413.97  L 2270.54,  409.72  L 2274.79,  405.47 " style="stroke-width: 1.42 ;&st7; " /><path d=" M 2278.19,  439.46  L 2273.94,  435.21  L 2278.19,  430.96 " style="stroke-width: 1.42 ;&st7; " /><path d=" M 2274.79,  439.46  L 2270.54,  435.21  L 2274.79,  430.96 " style="stroke-width: 1.42 ;&st7; " /><path d=" M 2341.36,  597.25  L 2337.11,  593.00  L 2332.86,  597.25 " style="stroke-width: 1.42 ;&st7; " /><path d=" M 2341.36,  593.85  L 2337.11,  589.60  L 2332.86,  593.85 " style="stroke-width: 1.42 ;&st7; " /><path d=" M 2464.59,  345.69  L 2473.09,  345.69 " style="stroke-width: 0.85 ;&st7;stroke-dasharray:3, 1.5;" /><path d=" M 2464.59,  380.26  L 2473.09,  380.26 " style="stroke-width: 0.85 ;&st7;stroke-dasharray:3, 1.5;" /><path d=" M 2464.59,  389.32  L 2473.09,  389.32 " style="stroke-width: 0.85 ;&st7;stroke-dasharray:3, 1.5;" /><path d=" M 2498.58,  380.26  L 2511.33,  380.26 " style="stroke-width: 0.85 ;&st7;stroke-dasharray:3, 1.5;" /><path d=" M 2498.58,  389.32  L 2511.33,  389.32 " style="stroke-width: 0.85 ;&st7;stroke-dasharray:3, 1.5;" /><path d=" M 2027.19,  209.72  C 2027.19   207.21  2025.17   205.18  2022.66   205.18 " style="stroke-width: 1.42 ;&st7; " /><path d=" M 2022.66,  205.18  C 2020.16   205.18  2018.13   207.21  2018.13   209.72 " style="stroke-width: 1.42 ;&st7; " /><path d=" M 2018.13,  209.72  C 2018.13   212.22  2020.16   214.25  2022.66   214.25 " style="stroke-width: 1.42 ;&st7; " /><path d=" M 2022.66,  214.25  C 2025.17   214.25  2027.19   212.22  2027.19   209.72 " style="stroke-width: 1.42 ;&st7; " /><path d=" M 2494.62,  345.69  C 2494.62   343.19  2492.59   341.16  2490.08   341.16 " style="stroke-width: 1.42 ;&st7; " /><path d=" M 2490.08,  341.16  C 2487.58   341.16  2485.55   343.19  2485.55   345.69 " style="stroke-width: 1.42 ;&st7; " /><path d=" M 2485.55,  345.69  C 2485.55   348.20  2487.58   350.23  2490.08   350.23 " style="stroke-width: 1.42 ;&st7; " /><path d=" M 2490.08,  350.23  C 2492.59   350.23  2494.62   348.20  2494.62   345.69 " style="stroke-width: 1.42 ;&st7; " /><path d=" M 2494.62,  336.63  C 2494.62   334.13  2492.59   332.10  2490.08   332.10 " style="stroke-width: 1.42 ;&st7; " /><path d=" M 2490.08,  332.10  C 2487.58   332.10  2485.55   334.13  2485.55   336.63 " style="stroke-width: 1.42 ;&st7; " /><path d=" M 2485.55,  336.63  C 2485.55   339.13  2487.58   341.16  2490.08   341.16 " style="stroke-width: 1.42 ;&st7; " /><path d=" M 2490.08,  341.16  C 2492.59   341.16  2494.62   339.13  2494.62   336.63 " style="stroke-width: 1.42 ;&st7; " /><path d=" M 2460.62,  345.69  C 2460.62   343.19  2458.59   341.16  2456.09   341.16 " style="stroke-width: 1.42 ;&st7; " /><path d=" M 2456.09,  341.16  C 2453.59   341.16  2451.56   343.19  2451.56   345.69 " style="stroke-width: 1.42 ;&st7; " /><path d=" M 2451.56,  345.69  C 2451.56   348.20  2453.59   350.23  2456.09   350.23 " style="stroke-width: 1.42 ;&st7; " /><path d=" M 2456.09,  350.23  C 2458.59   350.23  2460.62   348.20  2460.62   345.69 " style="stroke-width: 1.42 ;&st7; " /><path d=" M 2460.62,  336.63  C 2460.62   334.13  2458.59   332.10  2456.09   332.10 " style="stroke-width: 1.42 ;&st7; " /><path d=" M 2456.09,  332.10  C 2453.59   332.10  2451.56   334.13  2451.56   336.63 " style="stroke-width: 1.42 ;&st7; " /><path d=" M 2451.56,  336.63  C 2451.56   339.13  2453.59   341.16  2456.09   341.16 " style="stroke-width: 1.42 ;&st7; " /><path d=" M 2456.09,  341.16  C 2458.59   341.16  2460.62   339.13  2460.62   336.63 " style="stroke-width: 1.42 ;&st7; " /><path d=" M 2460.62,  380.26  C 2460.62   377.75  2458.59   375.72  2456.09   375.72 " style="stroke-width: 1.42 ;&st7; " /><path d=" M 2456.09,  375.72  C 2453.59   375.72  2451.56   377.75  2451.56   380.26 " style="stroke-width: 1.42 ;&st7; " /><path d=" M 2451.56,  380.26  C 2451.56   382.76  2453.59   384.79  2456.09   384.79 " style="stroke-width: 1.42 ;&st7; " /><path d=" M 2456.09,  384.79  C 2458.59   384.79  2460.62   382.76  2460.62   380.26 " style="stroke-width: 1.42 ;&st7; " /><path d=" M 2460.62,  389.32  C 2460.62   386.82  2458.59   384.79  2456.09   384.79 " style="stroke-width: 1.42 ;&st7; " /><path d=" M 2456.09,  384.79  C 2453.59   384.79  2451.56   386.82  2451.56   389.32 " style="stroke-width: 1.42 ;&st7; " /><path d=" M 2451.56,  389.32  C 2451.56   391.82  2453.59   393.85  2456.09   393.85 " style="stroke-width: 1.42 ;&st7; " /><path d=" M 2456.09,  393.85  C 2458.59   393.85  2460.62   391.82  2460.62   389.32 " style="stroke-width: 1.42 ;&st7; " /><path d=" M 2494.62,  380.26  C 2494.62   377.75  2492.59   375.72  2490.08   375.72 " style="stroke-width: 1.42 ;&st7; " /><path d=" M 2490.08,  375.72  C 2487.58   375.72  2485.55   377.75  2485.55   380.26 " style="stroke-width: 1.42 ;&st7; " /><path d=" M 2485.55,  380.26  C 2485.55   382.76  2487.58   384.79  2490.08   384.79 " style="stroke-width: 1.42 ;&st7; " /><path d=" M 2490.08,  384.79  C 2492.59   384.79  2494.62   382.76  2494.62   380.26 " style="stroke-width: 1.42 ;&st7; " /><path d=" M 2494.62,  389.32  C 2494.62   386.82  2492.59   384.79  2490.08   384.79 " style="stroke-width: 1.42 ;&st7; " /><path d=" M 2490.08,  384.79  C 2487.58   384.79  2485.55   386.82  2485.55   389.32 " style="stroke-width: 1.42 ;&st7; " /><path d=" M 2485.55,  389.32  C 2485.55   391.82  2487.58   393.85  2490.08   393.85 " style="stroke-width: 1.42 ;&st7; " /><path d=" M 2490.08,  393.85  C 2492.59   393.85  2494.62   391.82  2494.62   389.32 " style="stroke-width: 1.42 ;&st7; " /><path d=" M 2154.67,  244.28  C 2154.67   241.77  2152.64   239.75  2150.14   239.75 " style="stroke-width: 1.42 ;&st7; " /><path d=" M 2150.14,  239.75  C 2147.64   239.75  2145.61   241.77  2145.61   244.28 " style="stroke-width: 1.42 ;&st7; " /><path d=" M 2145.61,  244.28  C 2145.61   246.78  2147.64   248.81  2150.14   248.81 " style="stroke-width: 1.42 ;&st7; " /><path d=" M 2150.14,  248.81  C 2152.64   248.81  2154.67   246.78  2154.67   244.28 " style="stroke-width: 1.42 ;&st7; " /><path d=" M 2120.68,  244.28  C 2120.68   241.77  2118.65   239.75  2116.15   239.75 " style="stroke-width: 1.42 ;&st7; " /><path d=" M 2116.15,  239.75  C 2113.64   239.75  2111.61   241.77  2111.61   244.28 " style="stroke-width: 1.42 ;&st7; " /><path d=" M 2111.61,  244.28  C 2111.61   246.78  2113.64   248.81  2116.15   248.81 " style="stroke-width: 1.42 ;&st7; " /><path d=" M 2116.15,  248.81  C 2118.65   248.81  2120.68   246.78  2120.68   244.28 " style="stroke-width: 1.42 ;&st7; " /><path d=" M 2120.68,  345.69  C 2120.68   343.19  2118.65   341.16  2116.15   341.16 " style="stroke-width: 1.42 ;&st7; " /><path d=" M 2116.15,  341.16  C 2113.64   341.16  2111.61   343.19  2111.61   345.69 " style="stroke-width: 1.42 ;&st7; " /><path d=" M 2111.61,  345.69  C 2111.61   348.20  2113.64   350.23  2116.15   350.23 " style="stroke-width: 1.42 ;&st7; " /><path d=" M 2116.15,  350.23  C 2118.65   350.23  2120.68   348.20  2120.68   345.69 " style="stroke-width: 1.42 ;&st7; " /><path d=" M 2154.67,  345.69  C 2154.67   343.19  2152.64   341.16  2150.14   341.16 " style="stroke-width: 1.42 ;&st7; " /><path d=" M 2150.14,  341.16  C 2147.64   341.16  2145.61   343.19  2145.61   345.69 " style="stroke-width: 1.42 ;&st7; " /><path d=" M 2145.61,  345.69  C 2145.61   348.20  2147.64   350.23  2150.14   350.23 " style="stroke-width: 1.42 ;&st7; " /><path d=" M 2150.14,  350.23  C 2152.64   350.23  2154.67   348.20  2154.67   345.69 " style="stroke-width: 1.42 ;&st7; " /><path d=" M 2384.13,   82.80  C 2384.13    80.30  2382.11    78.27  2379.60    78.27 " style="stroke-width: 1.42 ;&st7; " /><path d=" M 2379.60,   78.27  C 2377.10    78.27  2375.07    80.30  2375.07    82.80 " style="stroke-width: 1.42 ;&st7; " /><path d=" M 2375.07,   82.80  C 2375.07    85.31  2377.10    87.34  2379.60    87.34 " style="stroke-width: 1.42 ;&st7; " /><path d=" M 2379.60,   87.34  C 2382.11    87.34  2384.13    85.31  2384.13    82.80 " style="stroke-width: 1.42 ;&st7; " /><path d=" M 2384.13,  380.26  C 2384.13   377.75  2382.11   375.72  2379.60   375.72 " style="stroke-width: 1.42 ;&st7; " /><path d=" M 2379.60,  375.72  C 2377.10   375.72  2375.07   377.75  2375.07   380.26 " style="stroke-width: 1.42 ;&st7; " /><path d=" M 2375.07,  380.26  C 2375.07   382.76  2377.10   384.79  2379.60   384.79 " style="stroke-width: 1.42 ;&st7; " /><path d=" M 2379.60,  384.79  C 2382.11   384.79  2384.13   382.76  2384.13   380.26 " style="stroke-width: 1.42 ;&st7; " /><path d=" M 2418.13,  380.26  C 2418.13   377.75  2416.10   375.72  2413.60   375.72 " style="stroke-width: 1.42 ;&st7; " /><path d=" M 2413.60,  375.72  C 2411.09   375.72  2409.06   377.75  2409.06   380.26 " style="stroke-width: 1.42 ;&st7; " /><path d=" M 2409.06,  380.26  C 2409.06   382.76  2411.09   384.79  2413.60   384.79 " style="stroke-width: 1.42 ;&st7; " /><path d=" M 2413.60,  384.79  C 2416.10   384.79  2418.13   382.76  2418.13   380.26 " style="stroke-width: 1.42 ;&st7; " /><path d=" M 2120.68,  380.26  C 2120.68   377.75  2118.65   375.72  2116.15   375.72 " style="stroke-width: 1.42 ;&st7; " /><path d=" M 2116.15,  375.72  C 2113.64   375.72  2111.61   377.75  2111.61   380.26 " style="stroke-width: 1.42 ;&st7; " /><path d=" M 2111.61,  380.26  C 2111.61   382.76  2113.64   384.79  2116.15   384.79 " style="stroke-width: 1.42 ;&st7; " /><path d=" M 2116.15,  384.79  C 2118.65   384.79  2120.68   382.76  2120.68   380.26 " style="stroke-width: 1.42 ;&st7; " /><path d=" M 2154.67,  380.26  C 2154.67   377.75  2152.64   375.72  2150.14   375.72 " style="stroke-width: 1.42 ;&st7; " /><path d=" M 2150.14,  375.72  C 2147.64   375.72  2145.61   377.75  2145.61   380.26 " style="stroke-width: 1.42 ;&st7; " /><path d=" M 2145.61,  380.26  C 2145.61   382.76  2147.64   384.79  2150.14   384.79 " style="stroke-width: 1.42 ;&st7; " /><path d=" M 2150.14,  384.79  C 2152.64   384.79  2154.67   382.76  2154.67   380.26 " style="stroke-width: 1.42 ;&st7; " /><path d=" M 2120.68,  209.72  C 2120.68   207.21  2118.65   205.18  2116.15   205.18 " style="stroke-width: 1.42 ;&st7; " /><path d=" M 2116.15,  205.18  C 2113.64   205.18  2111.61   207.21  2111.61   209.72 " style="stroke-width: 1.42 ;&st7; " /><path d=" M 2111.61,  209.72  C 2111.61   212.22  2113.64   214.25  2116.15   214.25 " style="stroke-width: 1.42 ;&st7; " /><path d=" M 2116.15,  214.25  C 2118.65   214.25  2120.68   212.22  2120.68   209.72 " style="stroke-width: 1.42 ;&st7; " /><path d=" M 2154.67,  209.72  C 2154.67   207.21  2152.64   205.18  2150.14   205.18 " style="stroke-width: 1.42 ;&st7; " /><path d=" M 2150.14,  205.18  C 2147.64   205.18  2145.61   207.21  2145.61   209.72 " style="stroke-width: 1.42 ;&st7; " /><path d=" M 2145.61,  209.72  C 2145.61   212.22  2147.64   214.25  2150.14   214.25 " style="stroke-width: 1.42 ;&st7; " /><path d=" M 2150.14,  214.25  C 2152.64   214.25  2154.67   212.22  2154.67   209.72 " style="stroke-width: 1.42 ;&st7; " /><path d=" M 2418.13,   82.80  C 2418.13    80.30  2416.10    78.27  2413.60    78.27 " style="stroke-width: 1.42 ;&st7; " /><path d=" M 2413.60,   78.27  C 2411.09    78.27  2409.06    80.30  2409.06    82.80 " style="stroke-width: 1.42 ;&st7; " /><path d=" M 2409.06,   82.80  C 2409.06    85.31  2411.09    87.34  2413.60    87.34 " style="stroke-width: 1.42 ;&st7; " /><path d=" M 2413.60,   87.34  C 2416.10    87.34  2418.13    85.31  2418.13    82.80 " style="stroke-width: 1.42 ;&st7; " /><path d=" M 2307.65,   82.80  C 2307.65    80.30  2305.62    78.27  2303.12    78.27 " style="stroke-width: 1.42 ;&st7; " /><path d=" M 2303.12,   78.27  C 2300.61    78.27  2298.58    80.30  2298.58    82.80 " style="stroke-width: 1.42 ;&st7; " /><path d=" M 2298.58,   82.80  C 2298.58    85.31  2300.61    87.34  2303.12    87.34 " style="stroke-width: 1.42 ;&st7; " /><path d=" M 2303.12,   87.34  C 2305.62    87.34  2307.65    85.31  2307.65    82.80 " style="stroke-width: 1.42 ;&st7; " /><path d=" M 2418.13,  345.69  C 2418.13   343.19  2416.10   341.16  2413.60   341.16 " style="stroke-width: 1.42 ;&st7; " /><path d=" M 2413.60,  341.16  C 2411.09   341.16  2409.06   343.19  2409.06   345.69 " style="stroke-width: 1.42 ;&st7; " /><path d=" M 2409.06,  345.69  C 2409.06   348.20  2411.09   350.23  2413.60   350.23 " style="stroke-width: 1.42 ;&st7; " /><path d=" M 2413.60,  350.23  C 2416.10   350.23  2418.13   348.20  2418.13   345.69 " style="stroke-width: 1.42 ;&st7; " /><path d=" M 2384.13,  345.69  C 2384.13   343.19  2382.11   341.16  2379.60   341.16 " style="stroke-width: 1.42 ;&st7; " /><path d=" M 2379.60,  341.16  C 2377.10   341.16  2375.07   343.19  2375.07   345.69 " style="stroke-width: 1.42 ;&st7; " /><path d=" M 2375.07,  345.69  C 2375.07   348.20  2377.10   350.23  2379.60   350.23 " style="stroke-width: 1.42 ;&st7; " /><path d=" M 2379.60,  350.23  C 2382.11   350.23  2384.13   348.20  2384.13   345.69 " style="stroke-width: 1.42 ;&st7; " /><path d=" M 2010.20,  558.73  C 2010.20   556.22  2008.17   554.19  2005.66   554.19 " style="stroke-width: 1.42 ;&st7; " /><path d=" M 2005.66,  554.19  C 2003.16   554.19  2001.13   556.22  2001.13   558.73 " style="stroke-width: 1.42 ;&st7; " /><path d=" M 2001.13,  558.73  C 2001.13   561.23  2003.16   563.26  2005.66   563.26 " style="stroke-width: 1.42 ;&st7; " /><path d=" M 2005.66,  563.26  C 2008.17   563.26  2010.20   561.23  2010.20   558.73 " style="stroke-width: 1.42 ;&st7; " /><path d=" M 2010.20,  532.66  C 2010.20   530.16  2008.17   528.13  2005.66   528.13 " style="stroke-width: 1.42 ;&st7; " /><path d=" M 2005.66,  528.13  C 2003.16   528.13  2001.13   530.16  2001.13   532.66 " style="stroke-width: 1.42 ;&st7; " /><path d=" M 2001.13,  532.66  C 2001.13   535.17  2003.16   537.20  2005.66   537.20 " style="stroke-width: 1.42 ;&st7; " /><path d=" M 2005.66,  537.20  C 2008.17   537.20  2010.20   535.17  2010.20   532.66 " style="stroke-width: 1.42 ;&st7; " /><path d=" M 2307.65,  133.23  C 2307.65   130.73  2305.62   128.70  2303.12   128.70 " style="stroke-width: 1.42 ;&st7; " /><path d=" M 2303.12,  128.70  C 2300.61   128.70  2298.58   130.73  2298.58   133.23 " style="stroke-width: 1.42 ;&st7; " /><path d=" M 2298.58,  133.23  C 2298.58   135.73  2300.61   137.76  2303.12   137.76 " style="stroke-width: 1.42 ;&st7; " /><path d=" M 2303.12,  137.76  C 2305.62   137.76  2307.65   135.73  2307.65   133.23 " style="stroke-width: 1.42 ;&st7; " /><path d=" M 2307.65,  159.29  C 2307.65   156.79  2305.62   154.76  2303.12   154.76 " style="stroke-width: 1.42 ;&st7; " /><path d=" M 2303.12,  154.76  C 2300.61   154.76  2298.58   156.79  2298.58   159.29 " style="stroke-width: 1.42 ;&st7; " /><path d=" M 2298.58,  159.29  C 2298.58   161.80  2300.61   163.82  2303.12   163.82 " style="stroke-width: 1.42 ;&st7; " /><path d=" M 2303.12,  163.82  C 2305.62   163.82  2307.65   161.80  2307.65   159.29 " style="stroke-width: 1.42 ;&st7; " /><text style="&st18;" transform="matrix(&st16;  2147.67  246.25 )">D</text><text style="&st18;" transform="matrix(&st16;  2139.26  246.25 )">2</text><text style="&st18;" transform="matrix(&st16;  2113.67  246.25 )">D</text><text style="&st18;" transform="matrix(&st16;  2106.05  246.25 )">1</text><text style="&st18;" transform="matrix(&st16;  2113.82  347.66 )">E</text><text style="&st18;" transform="matrix(&st16;  2106.05  347.66 )">1</text><text style="&st18;" transform="matrix(&st16;  2147.81  347.66 )">E</text><text style="&st18;" transform="matrix(&st16;  2139.26  347.66 )">2</text><text style="&st18;" transform="matrix(&st17;  2375.91  469.62 )">SB</text><text style="&st18;" transform="matrix(&st17;  2409.9  468.31 )">W</text><text style="&st18;" transform="matrix(&st16;  2411.27  382.22 )">B</text><text style="&st18;" transform="matrix(&st16;  2402.72  382.22 )">2</text><text style="&st18;" transform="matrix(&st16;  2369.5  382.22 )">1</text><text style="&st18;" transform="matrix(&st16;  2377.27  382.22 )">B</text><text style="&st18;" transform="matrix(&st16;  2113.67  382.22 )">H</text><text style="&st18;" transform="matrix(&st16;  2106.05  382.22 )">1</text><text style="&st18;" transform="matrix(&st16;  2139.26  382.22 )">2</text><text style="&st18;" transform="matrix(&st16;  2147.67  382.22 )">H</text><text style="&st18;" transform="matrix(&st16;  2140.17  491.01 )">13</text><text ewd:textID="26" style="&st18;" transform="matrix(&st16;  2275.09  61.83 )">Main Body ECU</text><text style="&st18;" transform="matrix(&st16;  2140.89  502.34 )">CANL</text><text style="&st18;" transform="matrix(&st16;  2106.4  502.34 )">CANH</text><text style="&st18;" transform="matrix(&st17;  2112.45  463.04 )">B</text><text style="&st18;" transform="matrix(&st17;  2146.44  464.06 )">W</text><text style="&st18;" transform="matrix(&st16;  2106.05  211.69 )">1</text><text style="&st18;" transform="matrix(&st16;  2113.67  211.69 )">C</text><text style="&st18;" transform="matrix(&st16;  2139.26  211.69 )">2</text><text style="&st18;" transform="matrix(&st16;  2147.67  211.69 )">C</text><text style="&st18;" transform="matrix(&st17;  2112.45  193.98 )">GR</text><text style="&st18;" transform="matrix(&st17;  2146.44  192.11 )">W</text><text style="&st18;" transform="matrix(&st17;  2018.97  193.98 )">GR</text><text style="&st18;" transform="matrix(&st16;  2275.09  54.72 )">H1(A),H2(B),H3(C),H4(D)</text><text style="&st18;" transform="matrix(&st16;  2106.18  491.01 )">12</text><text style="&st18;" transform="matrix(&st16;  2377.27  84.77 )">B</text><text style="&st18;" transform="matrix(&st16;  2402.72  84.77 )">6</text><text style="&st18;" transform="matrix(&st16;  2411.27  84.77 )">B</text><text style="&st18;" transform="matrix(&st16;  2404.34  74.58 )">CANL</text><text style="&st18;" transform="matrix(&st17;  2375.91  190.73 )">L</text><text style="&st18;" transform="matrix(&st17;  2409.9  192.11 )">W</text><text style="&st18;" transform="matrix(&st17;  2001.97  599.02 )">Y</text><text style="&st18;" transform="matrix(&st16;  2003.19  560.69 )">D</text><text style="&st18;" transform="matrix(&st16;  2003.33  534.63 )">B</text><text style="&st18;" transform="matrix(&st16;  2300.78  135.2 )">A</text><text style="&st18;" transform="matrix(&st16;  2292.24  135.2 )">3</text><text style="&st18;" transform="matrix(&st16;  2300.78  161.26 )">A</text><text style="&st18;" transform="matrix(&st16;  2292.24  161.26 )">4</text><text ewd:textID="24" style="&st18;" transform="matrix(&st17;  2326.33  157.28 )">Junction <tspan dy="6" x="0">Connector</tspan></text><text style="&st18;" transform="matrix(&st16;  2292.24  84.77 )">4</text><text style="&st18;" transform="matrix(&st16;  2300.78  84.77 )">B</text><text style="&st18;" transform="matrix(&st16;  2296.19  74.58 )">HAZ</text><text style="&st18;" transform="matrix(&st17;  2299.42  116.93 )">BE</text><text style="&st18;" transform="matrix(&st16;  2368.73  84.77 )">5</text><text style="&st18;" transform="matrix(&st16;  2369.85  74.58 )">CANH</text><text style="&st18;" transform="matrix(&st16;  2377.48  347.66 )">F</text><text style="&st18;" transform="matrix(&st16;  2369.5  347.66 )">1</text><text style="&st18;" transform="matrix(&st16;  2402.72  347.66 )">2</text><text style="&st18;" transform="matrix(&st16;  2411.48  347.66 )">F</text><text ewd:textID="18" style="&st18;" transform="matrix(&st16;  2190.11  491.01 )">ABS and Traction Actuator Assembly</text><text style="&st18;" transform="matrix(&st16;  2190.11  483.9 )">A19</text><text style="&st18;" transform="matrix(&st16;  2186.03  533.5 )">FR-</text><text style="&st18;" transform="matrix(&st16;  2181.89  545.39 )">33</text><text style="&st18;" transform="matrix(&st16;  2156.39  545.39 )">34</text><text style="&st18;" transform="matrix(&st16;  2130.9  545.39 )">46</text><text style="&st18;" transform="matrix(&st16;  2105.4  545.39 )">45</text><text style="&st18;" transform="matrix(&st16;  2160.53  533.5 )">FR+</text><text style="&st18;" transform="matrix(&st17;  2188.94  565.45 )">G</text><text style="&st18;" transform="matrix(&st17;  2137.95  567.42 )">LG</text><text style="&st18;" transform="matrix(&st16;  2211.67  533.5 )">RL+</text><text style="&st18;" transform="matrix(&st16;  2237.16  533.5 )">RL-</text><text style="&st18;" transform="matrix(&st17;  2239.93  565.02 )">P</text><text style="&st18;" transform="matrix(&st17;  2112.45  565.02 )">V</text><text style="&st18;" transform="matrix(&st16;  2135.53  533.5 )">FL-</text><text style="&st18;" transform="matrix(&st17;  2163.44  567.35 )">BE</text><text style="&st18;" transform="matrix(&st17;  2265.42  565.02 )">B</text><text style="&st18;" transform="matrix(&st17;  2290.92  566.05 )">W</text><text style="&st18;" transform="matrix(&st17;  2214.43  564.67 )">L</text><text style="&st18;" transform="matrix(&st16;  2262.16  533.5 )">RR+</text><text style="&st18;" transform="matrix(&st16;  2287.66  533.5 )">RR-</text><text style="&st18;" transform="matrix(&st16;  2207.38  545.39 )">36</text><text style="&st18;" transform="matrix(&st16;  2110.04  533.5 )">FL+</text><text style="&st18;" transform="matrix(&st16;  2232.88  545.39 )">37</text><text style="&st18;" transform="matrix(&st16;  2258.38  545.39 )">43</text><text style="&st18;" transform="matrix(&st16;  2283.87  545.39 )">42</text><text ewd:textID="37" style="&st18;" transform="matrix(&st16;  2180.97  617.07 )">Speed Sensors</text><text style="&st18;" transform="matrix(&st17;  2333.41  565.02 )">Y</text><text style="&st18;" transform="matrix(&st16;  2330.86  533.5 )">SP1</text><text style="&st18;" transform="matrix(&st16;  2330.32  545.39 )">3</text><text style="&st18;" transform="matrix(&st17;  2251.24  242.27 )">H110</text><text ewd:textID="24" style="&st18;" transform="matrix(&st17;  2258.34  242.27 )">Junction Connector</text><text style="&st18;" transform="matrix(&st16;  2194.34  247.94 )">4</text><text style="&st18;" transform="matrix(&st16;  2225.16  247.94 )">15</text><text style="&st18;" transform="matrix(&st16;  2194.34  210.56 )">3</text><text style="&st18;" transform="matrix(&st16;  2225.16  210.56 )">14</text><text style="&st18;" transform="matrix(&st17;  2123.78  194.93 )">(*3)</text><text style="&st18;" transform="matrix(&st17;  2157.78  194.93 )">(*3)</text><text style="&st18;" transform="matrix(&st17;  2197.44  193.98 )">GR</text><text style="&st18;" transform="matrix(&st17;  2208.77  194.93 )">(*4)</text><text style="&st18;" transform="matrix(&st17;  2231.43  192.11 )">W</text><text style="&st18;" transform="matrix(&st17;  2242.76  194.93 )">(*4)</text><text style="&st18;" transform="matrix(&st17;  2112.45  297.46 )">R</text><text style="&st18;" transform="matrix(&st17;  2123.78  301.17 )">(*3)</text><text style="&st18;" transform="matrix(&st17;  2146.44  298.34 )">W</text><text style="&st18;" transform="matrix(&st17;  2157.78  301.17 )">(*3)</text><text style="&st18;" transform="matrix(&st17;  2197.44  297.46 )">R</text><text style="&st18;" transform="matrix(&st17;  2208.77  301.17 )">(*9)</text><text style="&st18;" transform="matrix(&st17;  2231.43  298.34 )">W</text><text style="&st18;" transform="matrix(&st17;  2242.76  301.17 )">(*9)</text><text style="&st18;" transform="matrix(&st17;  2001.97  497.03 )">B</text><text style="&st18;" transform="matrix(&st17;  2013.3  500.88 )">(*3)</text><text style="&st18;" transform="matrix(&st17;  2013.3  602.87 )">(*3)</text><text style="&st18;" transform="matrix(&st16;  2090.64  660.98 )">Y(*4)</text><text style="&st18;" transform="matrix(&st16;  2089.61  677.97 )">W(*4)</text><text style="&st18;" transform="matrix(&st16;  2038.62  677.97 )">W(*4)</text><text style="&st18;" transform="matrix(&st16;  2039.65  660.98 )">Y(*4)</text><text style="&st18;" transform="matrix(&st16;  2038.62  643.98 )">W(*3)</text><text style="&st18;" transform="matrix(&st16;  2039.65  626.98 )">Y(*3)</text><text style="&st18;" transform="matrix(&st17;  2319.22  157.28 )">H86(A)</text><text style="&st18;" transform="matrix(&st17;  2299.42  193.42 )">BE</text><text style="&st18;" transform="matrix(&st16;  2293.15  210.56 )">12</text><text style="&st18;" transform="matrix(&st16;  2296.19  221.88 )">HAZ</text><text style="&st18;" transform="matrix(&st16;  2090.64  626.98 )">Y(*3)</text><text style="&st18;" transform="matrix(&st16;  2089.61  643.98 )">W(*3)</text><text ewd:textID="24" style="&st18;" transform="matrix(&st16;  2224.1  346.53 )">Junction Connector</text><text style="&st18;" transform="matrix(&st16;  2224.1  339.42 )">A59(H),H91(B),H101(E),H103(F)</text><text style="&st18;" transform="matrix(&st17;  2123.78  466.89 )">(*7)</text><text style="&st18;" transform="matrix(&st17;  2387.24  194.93 )">(*7)</text><text style="&st18;" transform="matrix(&st17;  2421.23  194.93 )">(*7)</text><text style="&st18;" transform="matrix(&st16;  2215.8  406.02 )">B</text><text style="&st18;" transform="matrix(&st16;  2211.95  417.35 )">(*8)</text><text style="&st18;" transform="matrix(&st16;  2214.77  431.52 )">W</text><text style="&st18;" transform="matrix(&st16;  2211.95  442.85 )">(*8)</text><text style="&st18;" transform="matrix(&st16;  2299.76  431.52 )">W</text><text style="&st18;" transform="matrix(&st16;  2296.93  442.85 )">(*8)</text><text style="&st18;" transform="matrix(&st16;  2300.78  406.02 )">B</text><text style="&st18;" transform="matrix(&st16;  2296.93  417.35 )">(*8)</text><text style="&st18;" transform="matrix(&st16;  2319.12  585.91 )">19</text><text style="&st18;" transform="matrix(&st16;  2293.58  261.54 )">W(*8)</text><text style="&st18;" transform="matrix(&st16;  2294.46  278.54 )">R(*8)</text><text style="&st18;" transform="matrix(&st16;  2487.75  347.66 )">B</text><text style="&st18;" transform="matrix(&st16;  2476.03  347.66 )">16</text><text style="&st18;" transform="matrix(&st16;  2487.75  338.6 )">A</text><text style="&st18;" transform="matrix(&st16;  2476.03  338.6 )">16</text><text style="&st18;" transform="matrix(&st16;  2445.21  347.66 )">5</text><text style="&st18;" transform="matrix(&st16;  2453.76  347.66 )">B</text><text style="&st18;" transform="matrix(&st16;  2445.21  338.6 )">5</text><text style="&st18;" transform="matrix(&st16;  2453.76  338.6 )">A</text><text style="&st18;" transform="matrix(&st16;  2445.21  382.22 )">9</text><text style="&st18;" transform="matrix(&st16;  2453.76  382.22 )">A</text><text style="&st18;" transform="matrix(&st16;  2445.21  391.29 )">9</text><text style="&st18;" transform="matrix(&st16;  2453.76  391.29 )">B</text><text style="&st18;" transform="matrix(&st16;  2487.75  382.22 )">A</text><text style="&st18;" transform="matrix(&st16;  2475.25  382.22 )">20</text><text style="&st18;" transform="matrix(&st16;  2487.75  391.29 )">B</text><text style="&st18;" transform="matrix(&st16;  2475.25  391.29 )">20</text><text ewd:textID="24" style="&st18;" transform="matrix(&st17;  2443.9  378.25 )">Junction Connector</text><text style="&st18;" transform="matrix(&st17;  2436.79  378.25 )">H115(A),H128(B)</text><text style="&st18;" transform="matrix(&st17;  2001.97  403.55 )">P</text><text style="&st18;" transform="matrix(&st17;  2452.39  297.46 )">R</text><text style="&st18;" transform="matrix(&st17;  2463.73  301.17 )">(*8)</text><text style="&st18;" transform="matrix(&st17;  2486.39  298.34 )">W</text><text style="&st18;" transform="matrix(&st17;  2497.72  301.17 )">(*8)</text><text style="&st18;" transform="matrix(&st16;  2008.61  211.69 )">10</text><text style="&st18;" transform="matrix(&st16;  2020.33  211.69 )">A</text><text style="&st18;" transform="matrix(&st16;  2012.91  221.88 )">CANH</text><text style="&st18;" transform="matrix(&st16;  2004.67  169.48 )">21</text><text style="&st18;" transform="matrix(&st17;  2096.85  242.27 )">H99(C),H100(D)</text><text ewd:textID="24" style="&st18;" transform="matrix(&st17;  2103.95  242.27 )">Junction Connector</text><text style="&st18;" transform="matrix(&st16;  2038.62  91.57 )">W(*4)</text><text style="&st18;" transform="matrix(&st16;  2038.62  108.57 )">W(*3)</text><text style="&st18;" transform="matrix(&st16;  2036.75  125.57 )">GR(*4)</text><text style="&st18;" transform="matrix(&st16;  2036.75  142.56 )">GR(*3)</text><text style="&st18;" transform="matrix(&st16;  2087.74  142.56 )">GR(*3)</text><text style="&st18;" transform="matrix(&st16;  2087.74  125.57 )">GR(*4)</text><text style="&st18;" transform="matrix(&st16;  2089.61  108.57 )">W(*3)</text><text style="&st18;" transform="matrix(&st16;  2089.61  91.57 )">W(*4)</text><text style="&st18;" transform="matrix(&st17;  2327.72  250.77 )">H39</text><text ewd:textID="38" style="&st18;" transform="matrix(&st17;  2334.83  250.77 )">Turn Signal <tspan dy="6" x="0">Flasher Assembly</tspan></text><text style="&st18;" transform="matrix(&st16;  2364.79  526.42 )">7</text><text style="&st18;" transform="matrix(&st16;  2398.78  526.42 )">6</text><text style="&st18;" transform="matrix(&st16;  2258.64  402.48 )">3</text><text style="&st18;" transform="matrix(&st16;  2257.05  427.98 )">14</text><text style="&st18;" transform="matrix(&st17;  2421.23  471.14 )">(*7)</text><text style="&st18;" transform="matrix(&st17;  2387.24  471.14 )">(*7)</text><text style="&st18;" transform="matrix(&st17;  2157.78  466.89 )">(*7)</text></svg>