﻿<?xml version="1.0" encoding="utf-8"?>
<!DOCTYPE svg PUBLIC "-//W3C//DTD SVG 1.0//EN" "http://www.w3.org/TR/2001/REC-SVG-20010904/DTD/svg10.dtd"[
	<!ENTITY ns_flows "http://ns.adobe.com/Flows/1.0/">
	<!ENTITY ns_svg "http://www.w3.org/2000/svg">
	<!ENTITY ns_xlink "http://www.w3.org/1999/xlink">
	<!ENTITY st0 "font-size:7px;font-family:'MS-PGothic';adobe-font-script:japanese;">
	<!ENTITY st1 "font-size:6px;font-family:'ArialMT';">
	<!-- White fill  -->
	<!ENTITY st2 "fill:#FFFFFF;stroke:#000000; stroke-width:1.41;stroke-linecap:round;stroke-linejoin:round;">
	<!-- Yellow fill  -->
	<!ENTITY st3 "fill:#FFFFCC;stroke:#FFFFCC; stroke-width:0.1;stroke-linecap:round;stroke-linejoin:round;">
	<!-- Gray fill  -->
	<!ENTITY st4 "fill:#CCCCCC;stroke:#CCCCCC; stroke-width:0.1;stroke-linecap:round;stroke-linejoin:round;">
	<!-- Light-blue fill -->
	<!ENTITY st5 "fill:#CCECF4;stroke:#000000; stroke-width:1.133;stroke-linecap:round;stroke-linejoin:round;">
	<!ENTITY st6 "fill:none;stroke-linecap:butt; stroke-linejoin:round;">
	<!ENTITY st7 "fill:none;stroke:#000000;stroke-linecap:round;stroke-linejoin:round;">
	<!ENTITY st8 "enable-background:new    ;">
	<!-- Black fill -->
	<!ENTITY st9 "fill:#000000;stroke:#000000; stroke-linecap:round;stroke-linejoin:round;">
	<!-- SRS note   -->
	<!ENTITY st10 "font-size:9px;font-family:'ArialMT';">
	<!ENTITY st11 "font-size:9px;font-family:'Svg Symbol';">
	<!ENTITY st12 "font-size:6px;font-family:'Svg Symbol';">
	<!ENTITY st13 "fill:none;stroke:#ff0000;stroke-linecap:round;stroke-linejoin:round;">
	<!-- Yellow fill  -->
	<!ENTITY st14 "fill:#FFFF00;stroke:#FFFF00; stroke-width:0.1;stroke-linecap:round;stroke-linejoin:round;">
	<!ENTITY st15 "font-size:6px;font-family:'MS-PGothic';adobe-font-script:japanese;">
	<!ENTITY st16 "1.00 0.00 0.00 1.00">
	<!ENTITY st17 "0.00 -1.00 1.00 0.00">
	<!ENTITY st18 "font-size:6px;font-family:'Arial';">
	<!ENTITY st19 "font-size:9px;font-family:'Arial';">
	<!ENTITY st20 "font-size:6px;font-family:'MS-PGothic','MS PGothic';adobe-font-script:japanese;">
	<!ENTITY st21 "font-size:7px;font-family:'MS-PGothic','MS PGothic';adobe-font-script:japanese;">
	<!ATTLIST svg
		xmlns:ewd CDATA #FIXED "http://shcl.co.jp/ewd"
		xmlns:a CDATA #FIXED "http://ns.adobe.com/AdobeSVGViewerExtensions/3.0/"
		ewd:ver CDATA #IMPLIED
	>
	<!ATTLIST a
		ewd:lineID CDATA #IMPLIED
		ewd:groupID CDATA #IMPLIED
		ewd:figtype CDATA #IMPLIED
		ewd:code CDATA #IMPLIED
		ewd:figID CDATA #IMPLIED
		ewd:pinNo CDATA #IMPLIED
		ewd:comment CDATA #IMPLIED >
	<!ATTLIST g
		ewd:lineID CDATA #IMPLIED
		ewd:groupID CDATA #IMPLIED
		ewd:figtype CDATA #IMPLIED
		ewd:code CDATA #IMPLIED
		ewd:figID CDATA #IMPLIED
		ewd:pinNo CDATA #IMPLIED
		ewd:comment CDATA #IMPLIED >
	<!ATTLIST text
		ewd:textID CDATA #IMPLIED >
	<!ATTLIST title
		ewd:textID CDATA #IMPLIED >
]>
<!-- Generator: Shintec Hozumi YS   -->
<svg onload="call_execInitLoadProc_svg('system')" style="overflow:visible;  enable-background:new 0 0 2026.034 710.000" viewBox="0 0 2026.034 710.000" height="710.000" width="2026.034" xml:space="preserve" ewd:ver="L2.1.2.7" xmlns="&ns_svg;" xmlns:a="http://ns.adobe.com/AdobeSVGViewerExtensions/3.0/" xmlns:ewd="http://shcl.co.jp/ewd" xmlns:xlink="&ns_xlink;">
<path d=" M  928.47,  112.27  L  924.22,  112.27 " style="stroke-width: 1.42 ;&st7; " /><path d=" M  928.47,  103.77  L  924.22,  103.77 " style="stroke-width: 1.42 ;&st7; " /><path d=" M  926.35,   69.77  L  926.35,   78.27 " style="stroke-width: 0.85 ;&st7; " /><path d=" M  841.36,   69.77  L  841.36,   78.27 " style="stroke-width: 0.85 ;&st7; " /><path d=" M  843.48,  103.77  L  839.23,  103.77 " style="stroke-width: 1.42 ;&st7; " /><path d=" M  843.48,  112.27  L  839.23,  112.27 " style="stroke-width: 1.42 ;&st7; " /><path d=" M  843.48,  146.26  L  839.23,  146.26 " style="stroke-width: 1.42 ;&st7; " /><path d=" M  843.48,  154.76  L  839.23,  154.76 " style="stroke-width: 1.42 ;&st7; " /><path d=" M  843.48,  188.75  L  839.23,  188.75 " style="stroke-width: 1.42 ;&st7; " /><path d=" M  843.48,  197.25  L  839.23,  197.25 " style="stroke-width: 1.42 ;&st7; " /><path d=" M  577.90,  112.27  L  586.40,  112.27 " style="stroke-width: 1.42 ;&st7; " /><path d=" M  628.89,  112.27  L  637.39,  112.27 " style="stroke-width: 1.42 ;&st7; " /><path d=" M  637.39,  469.21  L  645.89,  469.21 " style="stroke-width: 1.42 ;&st7; " /><path d=" M  671.39,  469.21  L  679.89,  469.21 " style="stroke-width: 1.42 ;&st7; " /><path d=" M  917.85,  477.71  L  917.85,  494.70  L  977.34,  494.70  L  977.34,  477.71  L  917.85,  477.71 " style="stroke-width: 1.42 ;&st7; " /><path d=" M  926.34,  239.75  L  926.34,  265.24 " style="stroke-width: 0.85 ;&st7; " /><path d=" M  917.85,  256.74  L  934.84,  256.74 " style="stroke-width: 1.13 ;&st7;stroke-dasharray:3, 1.5;" /><path d=" M  917.85,  248.24  L  934.84,  248.24 " style="stroke-width: 1.13 ;&st7;stroke-dasharray:3, 1.5;" /><path d=" M  917.85,  239.75  L  917.85,  265.24  L  934.84,  265.24  L  934.84,  239.75  L  917.85,  239.75 " style="stroke-width: 1.42 ;&st7; " /><path d=" M  968.84,  494.70  L  968.84,  486.20  L  926.34,  486.20 " style="stroke-width: 0.85 ;&st7; " /><path d=" M  967.42,  710.00  L  970.25,  710.00 " style="stroke-width: 0.85 ;&st7; " /><path d=" M  966.00,  707.17  L  971.67,  707.17 " style="stroke-width: 0.85 ;&st7; " /><path d=" M  964.59,  704.33  L  973.09,  704.33 " style="stroke-width: 0.85 ;&st7; " /><path d=" M  960.34,  701.50  L  977.34,  701.50 " style="stroke-width: 0.85 ;&st7; " /><path d=" M  968.84,  697.25  L  968.84,  701.50 " style="stroke-width: 0.85 ;&st7; " /><path d=" M  841.36,   78.27  L  841.36,  103.77 " style="stroke-width: 0.85 ;&st7; " /><path d=" M  824.36,  324.73  L  824.36,  367.22  L  943.34,  367.22  L  943.34,  324.73  L  824.36,  324.73 " style="stroke-width: 1.42 ;&st7; " /><path d=" M  841.36,  239.75  L  841.36,  265.24 " style="stroke-width: 0.85 ;&st7; " /><path d=" M  832.86,  256.74  L  849.86,  256.74 " style="stroke-width: 1.13 ;&st7;stroke-dasharray:3, 1.5;" /><path d=" M  832.86,  248.24  L  849.86,  248.24 " style="stroke-width: 1.13 ;&st7;stroke-dasharray:3, 1.5;" /><path d=" M  832.86,  239.75  L  832.86,  265.24  L  849.86,  265.24  L  849.86,  239.75  L  832.86,  239.75 " style="stroke-width: 1.42 ;&st7; " /><path d=" M  841.36,  188.75  L  841.36,  154.76 " style="stroke-width: 0.85 ;&st7; " /><path d=" M  841.36,  183.86  L  838.53,  181.03  L  838.53,  185.28  L  841.36,  188.11  L  844.19,  185.28  L  844.19,  181.03  L  841.36,  183.86 " style="stroke-width: 0.28 ;&st9;" /><path d=" M  841.36,  159.65  L  844.19,  162.49  L  844.19,  158.24  L  841.36,  155.41  L  838.53,  158.24  L  838.53,  162.49  L  841.36,  159.65 " style="stroke-width: 0.28 ;&st9;" /><path d=" M  841.36,   98.87  L  838.53,   96.04  L  838.53,  100.29  L  841.36,  103.12  L  844.19,  100.29  L  844.19,   96.04  L  841.36,   98.87 " style="stroke-width: 0.28 ;&st9;" /><path d=" M  828.61,   35.78  L  828.61,   78.27  L  854.11,   78.27  L  854.11,   35.78  L  828.61,   35.78 " style="stroke-width: 1.42 ;&st7; " /><path d=" M  925.15,  485.20  L  924.88,  485.67  L  924.79,  486.20  L  924.88,  486.74  L  925.15,  487.21  L  925.57,  487.55  L  926.07,  487.74  L  926.62,  487.74  L  927.12,  487.55  L  927.54,  487.21  L  927.81,  486.74  L  927.90,  486.20  L  927.81,  485.67  L  927.54,  485.20  L  927.12,  484.86  L  926.62,  484.67  L  926.07,  484.67  L  925.57,  484.86  L  925.15,  485.20  L  925.55,  485.91  L  925.55,  486.50  L  925.92,  486.94  L  926.49,  487.04  L  927.00,  486.75  L  927.19,  486.20  L  927.00,  485.66  L  926.49,  485.37  L  925.92,  485.47  L  926.34,  486.20 " style="stroke-width: 0.85 ;&st7; " /><path d=" M  926.34,  477.71  L  926.34,  494.70 " style="stroke-width: 0.85 ;&st7; " /><path d=" M  924.93,  710.00  L  927.76,  710.00 " style="stroke-width: 0.85 ;&st7; " /><path d=" M  923.51,  707.17  L  929.18,  707.17 " style="stroke-width: 0.85 ;&st7; " /><path d=" M  922.10,  704.33  L  930.59,  704.33 " style="stroke-width: 0.85 ;&st7; " /><path d=" M  917.85,  701.50  L  934.84,  701.50 " style="stroke-width: 0.85 ;&st7; " /><path d=" M  926.34,  697.25  L  926.34,  701.50 " style="stroke-width: 0.85 ;&st7; " /><path d=" M  926.34,  163.26  L  926.34,  188.75 " style="stroke-width: 0.85 ;&st7; " /><path d=" M  917.85,  180.26  L  934.84,  180.26 " style="stroke-width: 1.13 ;&st7;stroke-dasharray:3, 1.5;" /><path d=" M  917.85,  171.76  L  934.84,  171.76 " style="stroke-width: 1.13 ;&st7;stroke-dasharray:3, 1.5;" /><path d=" M  917.85,  163.26  L  917.85,  188.75  L  934.84,  188.75  L  934.84,  163.26  L  917.85,  163.26 " style="stroke-width: 1.42 ;&st7; " /><path d=" M  913.60,   35.78  L  913.60,   78.27  L  939.09,   78.27  L  939.09,   35.78  L  913.60,   35.78 " style="stroke-width: 1.42 ;&st7; " /><path d=" M  926.34,   98.87  L  923.51,   96.04  L  923.51,  100.29  L  926.34,  103.12  L  929.18,  100.29  L  929.18,   96.04  L  926.34,   98.87 " style="stroke-width: 0.28 ;&st9;" /><path d=" M  926.34,  103.77  L  926.34,   78.27 " style="stroke-width: 0.85 ;&st7; " /><path d=" M  590.65,  106.60  L  586.40,  110.85  L  582.15,  106.60 " style="stroke-width: 1.42 ;&st7; " /><path d=" M  582.15,  103.20  L  586.40,  107.45  L  590.65,  103.20 " style="stroke-width: 1.42 ;&st7; " /><path d=" M  641.64,  106.60  L  637.39,  110.85  L  633.14,  106.60 " style="stroke-width: 1.42 ;&st7; " /><path d=" M  633.14,  103.20  L  637.39,  107.45  L  641.64,  103.20 " style="stroke-width: 1.42 ;&st7; " /><path d=" M  569.40,  163.26  L  569.40,  197.25  L  798.87,  197.25  L  798.87,  163.26  L  569.40,  163.26 " style="stroke-width: 1.42 ;&st7; " /><path d=" M  679.89,   52.78  L  679.89,   86.77  L  747.87,   86.77  L  747.87,   52.78  L  679.89,   52.78 " style="stroke-width: 1.42 ;&st7; " /><path d=" M  576.71,  400.22  L  576.44,  400.69  L  576.35,  401.22  L  576.44,  401.75  L  576.71,  402.22  L  577.12,  402.57  L  577.63,  402.75  L  578.18,  402.75  L  578.68,  402.57  L  579.10,  402.22  L  579.37,  401.75  L  579.46,  401.22  L  579.37,  400.69  L  579.10,  400.22  L  578.68,  399.87  L  578.18,  399.68  L  577.63,  399.68  L  577.12,  399.87  L  576.71,  400.22  L  577.10,  400.93  L  577.10,  401.51  L  577.48,  401.95  L  578.05,  402.05  L  578.55,  401.77  L  578.75,  401.22  L  578.55,  400.67  L  578.05,  400.38  L  577.48,  400.48  L  577.90,  401.22 " style="stroke-width: 0.85 ;&st7; " /><path d=" M  569.40,  384.22  L  756.37,  384.22  L  756.37,  409.72  L  569.40,  409.72  L  569.40,  384.22 " style="stroke-width: 1.42 ;&st7; " /><path d=" M  577.90,  384.22  L  577.90,  409.72 " style="stroke-width: 0.85 ;&st7; " /><path d=" M  611.90,  384.22  L  611.90,  409.72 " style="stroke-width: 0.85 ;&st7; " /><path d=" M  645.89,  384.22  L  645.89,  409.72 " style="stroke-width: 0.85 ;&st7; " /><path d=" M  679.89,  384.22  L  679.89,  409.72 " style="stroke-width: 0.85 ;&st7; " /><path d=" M  577.90,  401.22  L  645.89,  401.22 " style="stroke-width: 0.85 ;&st7; " /><path d=" M  610.70,  391.72  L  610.43,  392.19  L  610.34,  392.72  L  610.43,  393.25  L  610.70,  393.72  L  611.12,  394.07  L  611.63,  394.26  L  612.17,  394.26  L  612.68,  394.07  L  613.09,  393.72  L  613.36,  393.25  L  613.46,  392.72  L  613.36,  392.19  L  613.09,  391.72  L  612.68,  391.37  L  612.17,  391.18  L  611.63,  391.18  L  611.12,  391.37  L  610.70,  391.72  L  611.10,  392.43  L  611.10,  393.01  L  611.47,  393.46  L  612.04,  393.56  L  612.55,  393.27  L  612.75,  392.72  L  612.55,  392.17  L  612.04,  391.88  L  611.47,  391.98  L  611.90,  392.72 " style="stroke-width: 0.85 ;&st7; " /><path d=" M  678.69,  391.72  L  678.42,  392.19  L  678.33,  392.72  L  678.42,  393.25  L  678.69,  393.72  L  679.11,  394.07  L  679.61,  394.26  L  680.16,  394.26  L  680.67,  394.07  L  681.08,  393.72  L  681.35,  393.25  L  681.44,  392.72  L  681.35,  392.19  L  681.08,  391.72  L  680.67,  391.37  L  680.16,  391.18  L  679.61,  391.18  L  679.11,  391.37  L  678.69,  391.72  L  679.09,  392.43  L  679.09,  393.01  L  679.46,  393.46  L  680.03,  393.56  L  680.54,  393.27  L  680.74,  392.72  L  680.54,  392.17  L  680.03,  391.88  L  679.46,  391.98  L  679.89,  392.72 " style="stroke-width: 0.85 ;&st7; " /><path d=" M  644.70,  400.22  L  644.43,  400.69  L  644.33,  401.22  L  644.43,  401.75  L  644.70,  402.22  L  645.11,  402.57  L  645.62,  402.75  L  646.16,  402.75  L  646.67,  402.57  L  647.08,  402.22  L  647.36,  401.75  L  647.45,  401.22  L  647.36,  400.69  L  647.08,  400.22  L  646.67,  399.87  L  646.16,  399.68  L  645.62,  399.68  L  645.11,  399.87  L  644.70,  400.22  L  645.09,  400.93  L  645.09,  401.51  L  645.47,  401.95  L  646.04,  402.05  L  646.54,  401.77  L  646.74,  401.22  L  646.54,  400.67  L  646.04,  400.38  L  645.47,  400.48  L  645.89,  401.22 " style="stroke-width: 0.85 ;&st7; " /><path d=" M  679.89,  392.72  L  611.90,  392.72 " style="stroke-width: 0.85 ;&st7; " /><path d=" M  747.87,  409.72  L  747.87,  392.72  L  679.89,  392.72 " style="stroke-width: 0.85 ;&st7; " /><path d=" M  713.88,  409.72  L  713.88,  401.22  L  645.89,  401.22 " style="stroke-width: 0.85 ;&st7; " /><path d=" M  641.64,  460.14  L  645.89,  464.39  L  650.14,  460.14 " style="stroke-width: 1.42 ;&st7; " /><path d=" M  650.14,  463.54  L  645.89,  467.79  L  641.64,  463.54 " style="stroke-width: 1.42 ;&st7; " /><path d=" M  675.64,  460.14  L  679.89,  464.39  L  684.14,  460.14 " style="stroke-width: 1.42 ;&st7; " /><path d=" M  684.14,  463.54  L  679.89,  467.79  L  675.64,  463.54 " style="stroke-width: 1.42 ;&st7; " /><path d=" M  586.40,  370.62  L  594.90,  370.62 " style="stroke-width: 0.85 ;&st7;stroke-dasharray:3, 1.5;" /><path d=" M  586.40,  379.69  L  594.90,  379.69 " style="stroke-width: 0.85 ;&st7;stroke-dasharray:3, 1.5;" /><path d=" M  620.40,  370.62  L  633.14,  370.62 " style="stroke-width: 0.85 ;&st7;stroke-dasharray:3, 1.5;" /><path d=" M  620.40,  379.69  L  633.14,  379.69 " style="stroke-width: 0.85 ;&st7;stroke-dasharray:3, 1.5;" /><path d=" M  654.39,  370.62  L  662.89,  370.62 " style="stroke-width: 0.85 ;&st7;stroke-dasharray:3, 1.5;" /><path d=" M  654.39,  379.69  L  662.89,  379.69 " style="stroke-width: 0.85 ;&st7;stroke-dasharray:3, 1.5;" /><path d=" M  586.40,  414.25  L  594.90,  414.25 " style="stroke-width: 0.85 ;&st7;stroke-dasharray:3, 1.5;" /><path d=" M  586.40,  423.31  L  594.90,  423.31 " style="stroke-width: 0.85 ;&st7;stroke-dasharray:3, 1.5;" /><path d=" M  620.40,  414.25  L  633.14,  414.25 " style="stroke-width: 0.85 ;&st7;stroke-dasharray:3, 1.5;" /><path d=" M  620.40,  423.31  L  633.14,  423.31 " style="stroke-width: 0.85 ;&st7;stroke-dasharray:3, 1.5;" /><path d=" M  654.39,  414.25  L  662.89,  414.25 " style="stroke-width: 0.85 ;&st7;stroke-dasharray:3, 1.5;" /><path d=" M  654.39,  423.31  L  662.89,  423.31 " style="stroke-width: 0.85 ;&st7;stroke-dasharray:3, 1.5;" /><path d=" M  688.38,  414.25  L  701.13,  414.25 " style="stroke-width: 0.85 ;&st7;stroke-dasharray:3, 1.5;" /><path d=" M  688.38,  423.31  L  701.13,  423.31 " style="stroke-width: 0.85 ;&st7;stroke-dasharray:3, 1.5;" /><path d=" M  722.38,  414.25  L  730.88,  414.25 " style="stroke-width: 0.85 ;&st7;stroke-dasharray:3, 1.5;" /><path d=" M  722.38,  423.31  L  730.88,  423.31 " style="stroke-width: 0.85 ;&st7;stroke-dasharray:3, 1.5;" /><path d=" M  701.42,  158.73  C  701.42   156.22   699.39   154.19   696.88   154.19 " style="stroke-width: 1.42 ;&st7; " /><path d=" M  696.88,  154.19  C  694.38   154.19   692.35   156.22   692.35   158.73 " style="stroke-width: 1.42 ;&st7; " /><path d=" M  692.35,  158.73  C  692.35   161.23   694.38   163.26   696.88   163.26 " style="stroke-width: 1.42 ;&st7; " /><path d=" M  696.88,  163.26  C  699.39   163.26   701.42   161.23   701.42   158.73 " style="stroke-width: 1.42 ;&st7; " /><path d=" M  735.41,  158.73  C  735.41   156.22   733.38   154.19   730.88   154.19 " style="stroke-width: 1.42 ;&st7; " /><path d=" M  730.88,  154.19  C  728.37   154.19   726.35   156.22   726.35   158.73 " style="stroke-width: 1.42 ;&st7; " /><path d=" M  726.35,  158.73  C  726.35   161.23   728.37   163.26   730.88   163.26 " style="stroke-width: 1.42 ;&st7; " /><path d=" M  730.88,  163.26  C  733.38   163.26   735.41   161.23   735.41   158.73 " style="stroke-width: 1.42 ;&st7; " /><path d=" M  786.40,  158.73  C  786.40   156.22   784.37   154.19   781.87   154.19 " style="stroke-width: 1.42 ;&st7; " /><path d=" M  781.87,  154.19  C  779.37   154.19   777.34   156.22   777.34   158.73 " style="stroke-width: 1.42 ;&st7; " /><path d=" M  777.34,  158.73  C  777.34   161.23   779.37   163.26   781.87   163.26 " style="stroke-width: 1.42 ;&st7; " /><path d=" M  781.87,  163.26  C  784.37   163.26   786.40   161.23   786.40   158.73 " style="stroke-width: 1.42 ;&st7; " /><path d=" M  684.42,  379.69  C  684.42   377.19   682.39   375.16   679.89   375.16 " style="stroke-width: 1.42 ;&st7; " /><path d=" M  679.89,  375.16  C  677.38   375.16   675.35   377.19   675.35   379.69 " style="stroke-width: 1.42 ;&st7; " /><path d=" M  675.35,  379.69  C  675.35   382.19   677.38   384.22   679.89   384.22 " style="stroke-width: 1.42 ;&st7; " /><path d=" M  679.89,  384.22  C  682.39   384.22   684.42   382.19   684.42   379.69 " style="stroke-width: 1.42 ;&st7; " /><path d=" M  684.42,  370.62  C  684.42   368.12   682.39   366.09   679.89   366.09 " style="stroke-width: 1.42 ;&st7; " /><path d=" M  679.89,  366.09  C  677.38   366.09   675.35   368.12   675.35   370.62 " style="stroke-width: 1.42 ;&st7; " /><path d=" M  675.35,  370.62  C  675.35   373.13   677.38   375.16   679.89   375.16 " style="stroke-width: 1.42 ;&st7; " /><path d=" M  679.89,  375.16  C  682.39   375.16   684.42   373.13   684.42   370.62 " style="stroke-width: 1.42 ;&st7; " /><path d=" M  616.43,  379.69  C  616.43   377.19   614.40   375.16   611.90   375.16 " style="stroke-width: 1.42 ;&st7; " /><path d=" M  611.90,  375.16  C  609.39   375.16   607.37   377.19   607.37   379.69 " style="stroke-width: 1.42 ;&st7; " /><path d=" M  607.37,  379.69  C  607.37   382.19   609.39   384.22   611.90   384.22 " style="stroke-width: 1.42 ;&st7; " /><path d=" M  611.90,  384.22  C  614.40   384.22   616.43   382.19   616.43   379.69 " style="stroke-width: 1.42 ;&st7; " /><path d=" M  616.43,  370.62  C  616.43   368.12   614.40   366.09   611.90   366.09 " style="stroke-width: 1.42 ;&st7; " /><path d=" M  611.90,  366.09  C  609.39   366.09   607.37   368.12   607.37   370.62 " style="stroke-width: 1.42 ;&st7; " /><path d=" M  607.37,  370.62  C  607.37   373.13   609.39   375.16   611.90   375.16 " style="stroke-width: 1.42 ;&st7; " /><path d=" M  611.90,  375.16  C  614.40   375.16   616.43   373.13   616.43   370.62 " style="stroke-width: 1.42 ;&st7; " /><path d=" M  752.41,  414.25  C  752.41   411.75   750.38   409.72   747.88   409.72 " style="stroke-width: 1.42 ;&st7; " /><path d=" M  747.88,  409.72  C  745.37   409.72   743.34   411.75   743.34   414.25 " style="stroke-width: 1.42 ;&st7; " /><path d=" M  743.34,  414.25  C  743.34   416.75   745.37   418.78   747.88   418.78 " style="stroke-width: 1.42 ;&st7; " /><path d=" M  747.88,  418.78  C  750.38   418.78   752.41   416.75   752.41   414.25 " style="stroke-width: 1.42 ;&st7; " /><path d=" M  752.41,  423.31  C  752.41   420.81   750.38   418.78   747.88   418.78 " style="stroke-width: 1.42 ;&st7; " /><path d=" M  747.88,  418.78  C  745.37   418.78   743.34   420.81   743.34   423.31 " style="stroke-width: 1.42 ;&st7; " /><path d=" M  743.34,  423.31  C  743.34   425.82   745.37   427.85   747.88   427.85 " style="stroke-width: 1.42 ;&st7; " /><path d=" M  747.88,  427.85  C  750.38   427.85   752.41   425.82   752.41   423.31 " style="stroke-width: 1.42 ;&st7; " /><path d=" M  684.42,  414.25  C  684.42   411.75   682.39   409.72   679.89   409.72 " style="stroke-width: 1.42 ;&st7; " /><path d=" M  679.89,  409.72  C  677.38   409.72   675.35   411.75   675.35   414.25 " style="stroke-width: 1.42 ;&st7; " /><path d=" M  675.35,  414.25  C  675.35   416.75   677.38   418.78   679.89   418.78 " style="stroke-width: 1.42 ;&st7; " /><path d=" M  679.89,  418.78  C  682.39   418.78   684.42   416.75   684.42   414.25 " style="stroke-width: 1.42 ;&st7; " /><path d=" M  684.42,  423.31  C  684.42   420.81   682.39   418.78   679.89   418.78 " style="stroke-width: 1.42 ;&st7; " /><path d=" M  679.89,  418.78  C  677.38   418.78   675.35   420.81   675.35   423.31 " style="stroke-width: 1.42 ;&st7; " /><path d=" M  675.35,  423.31  C  675.35   425.82   677.38   427.85   679.89   427.85 " style="stroke-width: 1.42 ;&st7; " /><path d=" M  679.89,  427.85  C  682.39   427.85   684.42   425.82   684.42   423.31 " style="stroke-width: 1.42 ;&st7; " /><path d=" M  616.43,  414.25  C  616.43   411.75   614.40   409.72   611.90   409.72 " style="stroke-width: 1.42 ;&st7; " /><path d=" M  611.90,  409.72  C  609.39   409.72   607.37   411.75   607.37   414.25 " style="stroke-width: 1.42 ;&st7; " /><path d=" M  607.37,  414.25  C  607.37   416.75   609.39   418.78   611.90   418.78 " style="stroke-width: 1.42 ;&st7; " /><path d=" M  611.90,  418.78  C  614.40   418.78   616.43   416.75   616.43   414.25 " style="stroke-width: 1.42 ;&st7; " /><path d=" M  616.43,  423.31  C  616.43   420.81   614.40   418.78   611.90   418.78 " style="stroke-width: 1.42 ;&st7; " /><path d=" M  611.90,  418.78  C  609.39   418.78   607.37   420.81   607.37   423.31 " style="stroke-width: 1.42 ;&st7; " /><path d=" M  607.37,  423.31  C  607.37   425.82   609.39   427.85   611.90   427.85 " style="stroke-width: 1.42 ;&st7; " /><path d=" M  611.90,  427.85  C  614.40   427.85   616.43   425.82   616.43   423.31 " style="stroke-width: 1.42 ;&st7; " /><path d=" M  650.42,  379.69  C  650.42   377.19   648.40   375.16   645.89   375.16 " style="stroke-width: 1.42 ;&st7; " /><path d=" M  645.89,  375.16  C  643.39   375.16   641.36   377.19   641.36   379.69 " style="stroke-width: 1.42 ;&st7; " /><path d=" M  641.36,  379.69  C  641.36   382.19   643.39   384.22   645.89   384.22 " style="stroke-width: 1.42 ;&st7; " /><path d=" M  645.89,  384.22  C  648.40   384.22   650.42   382.19   650.42   379.69 " style="stroke-width: 1.42 ;&st7; " /><path d=" M  650.42,  370.62  C  650.42   368.12   648.40   366.09   645.89   366.09 " style="stroke-width: 1.42 ;&st7; " /><path d=" M  645.89,  366.09  C  643.39   366.09   641.36   368.12   641.36   370.62 " style="stroke-width: 1.42 ;&st7; " /><path d=" M  641.36,  370.62  C  641.36   373.13   643.39   375.16   645.89   375.16 " style="stroke-width: 1.42 ;&st7; " /><path d=" M  645.89,  375.16  C  648.40   375.16   650.42   373.13   650.42   370.62 " style="stroke-width: 1.42 ;&st7; " /><path d=" M  582.44,  379.69  C  582.44   377.19   580.41   375.16   577.90   375.16 " style="stroke-width: 1.42 ;&st7; " /><path d=" M  577.90,  375.16  C  575.40   375.16   573.37   377.19   573.37   379.69 " style="stroke-width: 1.42 ;&st7; " /><path d=" M  573.37,  379.69  C  573.37   382.19   575.40   384.22   577.90   384.22 " style="stroke-width: 1.42 ;&st7; " /><path d=" M  577.90,  384.22  C  580.41   384.22   582.44   382.19   582.44   379.69 " style="stroke-width: 1.42 ;&st7; " /><path d=" M  582.44,  370.62  C  582.44   368.12   580.41   366.09   577.90   366.09 " style="stroke-width: 1.42 ;&st7; " /><path d=" M  577.90,  366.09  C  575.40   366.09   573.37   368.12   573.37   370.62 " style="stroke-width: 1.42 ;&st7; " /><path d=" M  573.37,  370.62  C  573.37   373.13   575.40   375.16   577.90   375.16 " style="stroke-width: 1.42 ;&st7; " /><path d=" M  577.90,  375.16  C  580.41   375.16   582.44   373.13   582.44   370.62 " style="stroke-width: 1.42 ;&st7; " /><path d=" M  718.41,  414.25  C  718.41   411.75   716.38   409.72   713.88   409.72 " style="stroke-width: 1.42 ;&st7; " /><path d=" M  713.88,  409.72  C  711.38   409.72   709.35   411.75   709.35   414.25 " style="stroke-width: 1.42 ;&st7; " /><path d=" M  709.35,  414.25  C  709.35   416.75   711.38   418.78   713.88   418.78 " style="stroke-width: 1.42 ;&st7; " /><path d=" M  713.88,  418.78  C  716.38   418.78   718.41   416.75   718.41   414.25 " style="stroke-width: 1.42 ;&st7; " /><path d=" M  718.41,  423.31  C  718.41   420.81   716.38   418.78   713.88   418.78 " style="stroke-width: 1.42 ;&st7; " /><path d=" M  713.88,  418.78  C  711.38   418.78   709.35   420.81   709.35   423.31 " style="stroke-width: 1.42 ;&st7; " /><path d=" M  709.35,  423.31  C  709.35   425.82   711.38   427.85   713.88   427.85 " style="stroke-width: 1.42 ;&st7; " /><path d=" M  713.88,  427.85  C  716.38   427.85   718.41   425.82   718.41   423.31 " style="stroke-width: 1.42 ;&st7; " /><path d=" M  650.42,  414.25  C  650.42   411.75   648.40   409.72   645.89   409.72 " style="stroke-width: 1.42 ;&st7; " /><path d=" M  645.89,  409.72  C  643.39   409.72   641.36   411.75   641.36   414.25 " style="stroke-width: 1.42 ;&st7; " /><path d=" M  641.36,  414.25  C  641.36   416.75   643.39   418.78   645.89   418.78 " style="stroke-width: 1.42 ;&st7; " /><path d=" M  645.89,  418.78  C  648.40   418.78   650.42   416.75   650.42   414.25 " style="stroke-width: 1.42 ;&st7; " /><path d=" M  650.42,  423.31  C  650.42   420.81   648.40   418.78   645.89   418.78 " style="stroke-width: 1.42 ;&st7; " /><path d=" M  645.89,  418.78  C  643.39   418.78   641.36   420.81   641.36   423.31 " style="stroke-width: 1.42 ;&st7; " /><path d=" M  641.36,  423.31  C  641.36   425.82   643.39   427.85   645.89   427.85 " style="stroke-width: 1.42 ;&st7; " /><path d=" M  645.89,  427.85  C  648.40   427.85   650.42   425.82   650.42   423.31 " style="stroke-width: 1.42 ;&st7; " /><path d=" M  582.44,  414.25  C  582.44   411.75   580.41   409.72   577.90   409.72 " style="stroke-width: 1.42 ;&st7; " /><path d=" M  577.90,  409.72  C  575.40   409.72   573.37   411.75   573.37   414.25 " style="stroke-width: 1.42 ;&st7; " /><path d=" M  573.37,  414.25  C  573.37   416.75   575.40   418.78   577.90   418.78 " style="stroke-width: 1.42 ;&st7; " /><path d=" M  577.90,  418.78  C  580.41   418.78   582.44   416.75   582.44   414.25 " style="stroke-width: 1.42 ;&st7; " /><path d=" M  582.44,  423.31  C  582.44   420.81   580.41   418.78   577.90   418.78 " style="stroke-width: 1.42 ;&st7; " /><path d=" M  577.90,  418.78  C  575.40   418.78   573.37   420.81   573.37   423.31 " style="stroke-width: 1.42 ;&st7; " /><path d=" M  573.37,  423.31  C  573.37   425.82   575.40   427.85   577.90   427.85 " style="stroke-width: 1.42 ;&st7; " /><path d=" M  577.90,  427.85  C  580.41   427.85   582.44   425.82   582.44   423.31 " style="stroke-width: 1.42 ;&st7; " /><path d=" M  930.88,  235.21  C  930.88   232.71   928.85   230.68   926.35   230.68 " style="stroke-width: 1.42 ;&st7; " /><path d=" M  926.35,  230.68  C  923.84   230.68   921.81   232.71   921.81   235.21 " style="stroke-width: 1.42 ;&st7; " /><path d=" M  921.81,  235.21  C  921.81   237.72   923.84   239.75   926.35   239.75 " style="stroke-width: 1.42 ;&st7; " /><path d=" M  926.35,  239.75  C  928.85   239.75   930.88   237.72   930.88   235.21 " style="stroke-width: 1.42 ;&st7; " /><path d=" M  932.72,  108.02  C  932.72   105.67   930.82   103.77   928.47   103.77 " style="stroke-width: 1.42 ;&st7; " /><path d=" M  928.47,  112.27  C  930.82   112.27   932.72   110.36   932.72   108.02 " style="stroke-width: 1.42 ;&st7; " /><path d=" M  919.97,  108.02  C  919.97   110.36   921.87   112.27   924.22   112.27 " style="stroke-width: 1.42 ;&st7; " /><path d=" M  924.22,  103.77  C  921.87   103.77   919.97   105.67   919.97   108.02 " style="stroke-width: 1.42 ;&st7; " /><path d=" M  930.88,  269.77  C  930.88   267.27   928.85   265.24   926.35   265.24 " style="stroke-width: 1.42 ;&st7; " /><path d=" M  926.35,  265.24  C  923.84   265.24   921.81   267.27   921.81   269.77 " style="stroke-width: 1.42 ;&st7; " /><path d=" M  921.81,  269.77  C  921.81   272.28   923.84   274.31   926.35   274.31 " style="stroke-width: 1.42 ;&st7; " /><path d=" M  926.35,  274.31  C  928.85   274.31   930.88   272.28   930.88   269.77 " style="stroke-width: 1.42 ;&st7; " /><path d=" M  927.76,   45.69  C  927.76    44.91   927.13    44.28   926.35    44.28 " style="stroke-width: 0.85 ;&st7; " /><path d=" M  926.35,   44.28  C  925.56    44.28   924.93    44.91   924.93    45.69 " style="stroke-width: 0.85 ;&st7; " /><path d=" M  924.93,   45.69  C  924.93    46.48   925.56    47.11   926.35    47.11 " style="stroke-width: 0.85 ;&st7; " /><path d=" M  926.35,   47.11  C  927.13    47.11   927.76    46.48   927.76    45.69 " style="stroke-width: 0.85 ;&st7; " /><path d=" M  927.76,   68.36  C  927.76    67.57   927.13    66.94   926.35    66.94 " style="stroke-width: 0.85 ;&st7; " /><path d=" M  926.35,   66.94  C  925.56    66.94   924.93    67.57   924.93    68.36 " style="stroke-width: 0.85 ;&st7; " /><path d=" M  924.93,   68.36  C  924.93    69.14   925.56    69.77   926.35    69.77 " style="stroke-width: 0.85 ;&st7; " /><path d=" M  926.35,   69.77  C  927.13    69.77   927.76    69.14   927.76    68.36 " style="stroke-width: 0.85 ;&st7; " /><path d=" M  926.35,   66.94  C  929.08    65.33   930.00    61.80   928.38    59.06 " style="stroke-width: 1.42 ;&st7; " /><path d=" M  928.38,   59.06  C  927.86    58.18   927.23    57.55   926.35    57.03 " style="stroke-width: 1.42 ;&st7; " /><path d=" M  926.35,   47.11  C  923.61    48.72   922.70    52.25   924.31    54.99 " style="stroke-width: 1.42 ;&st7; " /><path d=" M  924.31,   54.99  C  924.83    55.87   925.46    56.51   926.35    57.03 " style="stroke-width: 1.42 ;&st7; " /><path d=" M  930.88,  158.73  C  930.88   156.22   928.85   154.19   926.35   154.19 " style="stroke-width: 1.42 ;&st7; " /><path d=" M  926.35,  154.19  C  923.84   154.19   921.81   156.22   921.81   158.73 " style="stroke-width: 1.42 ;&st7; " /><path d=" M  921.81,  158.73  C  921.81   161.23   923.84   163.26   926.35   163.26 " style="stroke-width: 1.42 ;&st7; " /><path d=" M  926.35,  163.26  C  928.85   163.26   930.88   161.23   930.88   158.73 " style="stroke-width: 1.42 ;&st7; " /><path d=" M  930.88,  193.29  C  930.88   190.78   928.85   188.75   926.35   188.75 " style="stroke-width: 1.42 ;&st7; " /><path d=" M  926.35,  188.75  C  923.84   188.75   921.81   190.78   921.81   193.29 " style="stroke-width: 1.42 ;&st7; " /><path d=" M  921.81,  193.29  C  921.81   195.79   923.84   197.82   926.35   197.82 " style="stroke-width: 1.42 ;&st7; " /><path d=" M  926.35,  197.82  C  928.85   197.82   930.88   195.79   930.88   193.29 " style="stroke-width: 1.42 ;&st7; " /><path d=" M  841.36,   47.11  C  838.62    48.72   837.71    52.25   839.32    54.99 " style="stroke-width: 1.42 ;&st7; " /><path d=" M  839.32,   54.99  C  839.84    55.87   840.48    56.51   841.36    57.03 " style="stroke-width: 1.42 ;&st7; " /><path d=" M  841.36,   66.94  C  844.10    65.33   845.01    61.80   843.40    59.06 " style="stroke-width: 1.42 ;&st7; " /><path d=" M  843.40,   59.06  C  842.88    58.18   842.24    57.55   841.36    57.03 " style="stroke-width: 1.42 ;&st7; " /><path d=" M  842.78,   45.69  C  842.78    44.91   842.14    44.28   841.36    44.28 " style="stroke-width: 0.85 ;&st7; " /><path d=" M  841.36,   44.28  C  840.58    44.28   839.94    44.91   839.94    45.69 " style="stroke-width: 0.85 ;&st7; " /><path d=" M  839.94,   45.69  C  839.94    46.48   840.58    47.11   841.36    47.11 " style="stroke-width: 0.85 ;&st7; " /><path d=" M  841.36,   47.11  C  842.14    47.11   842.78    46.48   842.78    45.69 " style="stroke-width: 0.85 ;&st7; " /><path d=" M  842.78,   68.36  C  842.78    67.57   842.14    66.94   841.36    66.94 " style="stroke-width: 0.85 ;&st7; " /><path d=" M  841.36,   66.94  C  840.58    66.94   839.94    67.57   839.94    68.36 " style="stroke-width: 0.85 ;&st7; " /><path d=" M  839.94,   68.36  C  839.94    69.14   840.58    69.77   841.36    69.77 " style="stroke-width: 0.85 ;&st7; " /><path d=" M  841.36,   69.77  C  842.14    69.77   842.78    69.14   842.78    68.36 " style="stroke-width: 0.85 ;&st7; " /><path d=" M  839.23,  103.77  C  836.89   103.77   834.99   105.67   834.99   108.02 " style="stroke-width: 1.42 ;&st7; " /><path d=" M  834.99,  108.02  C  834.99   110.36   836.89   112.27   839.23   112.27 " style="stroke-width: 1.42 ;&st7; " /><path d=" M  843.48,  112.27  C  845.83   112.27   847.73   110.36   847.73   108.02 " style="stroke-width: 1.42 ;&st7; " /><path d=" M  847.73,  108.02  C  847.73   105.67   845.83   103.77   843.48   103.77 " style="stroke-width: 1.42 ;&st7; " /><path d=" M  839.23,  146.26  C  836.89   146.26   834.99   148.16   834.99   150.51 " style="stroke-width: 1.42 ;&st7; " /><path d=" M  834.99,  150.51  C  834.99   152.86   836.89   154.76   839.23   154.76 " style="stroke-width: 1.42 ;&st7; " /><path d=" M  843.48,  154.76  C  845.83   154.76   847.73   152.86   847.73   150.51 " style="stroke-width: 1.42 ;&st7; " /><path d=" M  847.73,  150.51  C  847.73   148.16   845.83   146.26   843.48   146.26 " style="stroke-width: 1.42 ;&st7; " /><path d=" M  839.23,  188.75  C  836.89   188.75   834.99   190.66   834.99   193.00 " style="stroke-width: 1.42 ;&st7; " /><path d=" M  834.99,  193.00  C  834.99   195.35   836.89   197.25   839.23   197.25 " style="stroke-width: 1.42 ;&st7; " /><path d=" M  843.48,  197.25  C  845.83   197.25   847.73   195.35   847.73   193.00 " style="stroke-width: 1.42 ;&st7; " /><path d=" M  847.73,  193.00  C  847.73   190.66   845.83   188.75   843.48   188.75 " style="stroke-width: 1.42 ;&st7; " /><path d=" M  845.89,  235.21  C  845.89   232.71   843.86   230.68   841.36   230.68 " style="stroke-width: 1.42 ;&st7; " /><path d=" M  841.36,  230.68  C  838.86   230.68   836.83   232.71   836.83   235.21 " style="stroke-width: 1.42 ;&st7; " /><path d=" M  836.83,  235.21  C  836.83   237.72   838.86   239.75   841.36   239.75 " style="stroke-width: 1.42 ;&st7; " /><path d=" M  841.36,  239.75  C  843.86   239.75   845.89   237.72   845.89   235.21 " style="stroke-width: 1.42 ;&st7; " /><path d=" M  845.89,  269.77  C  845.89   267.27   843.86   265.24   841.36   265.24 " style="stroke-width: 1.42 ;&st7; " /><path d=" M  841.36,  265.24  C  838.86   265.24   836.83   267.27   836.83   269.77 " style="stroke-width: 1.42 ;&st7; " /><path d=" M  836.83,  269.77  C  836.83   272.28   838.86   274.31   841.36   274.31 " style="stroke-width: 1.42 ;&st7; " /><path d=" M  841.36,  274.31  C  843.86   274.31   845.89   272.28   845.89   269.77 " style="stroke-width: 1.42 ;&st7; " /><path d=" M  641.93,  158.73  C  641.93   156.22   639.90   154.19   637.39   154.19 " style="stroke-width: 1.42 ;&st7; " /><path d=" M  637.39,  154.19  C  634.89   154.19   632.86   156.22   632.86   158.73 " style="stroke-width: 1.42 ;&st7; " /><path d=" M  632.86,  158.73  C  632.86   161.23   634.89   163.26   637.39   163.26 " style="stroke-width: 1.42 ;&st7; " /><path d=" M  637.39,  163.26  C  639.90   163.26   641.93   161.23   641.93   158.73 " style="stroke-width: 1.42 ;&st7; " /><path d=" M  590.93,  158.73  C  590.93   156.22   588.91   154.19   586.40   154.19 " style="stroke-width: 1.42 ;&st7; " /><path d=" M  586.40,  154.19  C  583.90   154.19   581.87   156.22   581.87   158.73 " style="stroke-width: 1.42 ;&st7; " /><path d=" M  581.87,  158.73  C  581.87   161.23   583.90   163.26   586.40   163.26 " style="stroke-width: 1.42 ;&st7; " /><path d=" M  586.40,  163.26  C  588.91   163.26   590.93   161.23   590.93   158.73 " style="stroke-width: 1.42 ;&st7; " /><text style="&st18;" transform="matrix(&st16;  924.01  160.69 )">A</text><text style="&st18;" transform="matrix(&st16;  912.29  160.69 )">21</text><text style="&st18;" transform="matrix(&st16;  924.01  195.26 )">B</text><text style="&st18;" transform="matrix(&st16;  912.29  195.26 )">13</text><text ewd:textID="17" style="&st18;" transform="matrix(&st17;  949.56  191.28 )">Junction <tspan dy="6" x="0">Connector</tspan></text><text style="&st18;" transform="matrix(&st17;  942.45  191.28 )">H77(A),H78(B)</text><text style="&st18;" transform="matrix(&st17;  922.65  127.35 )">P</text><text style="&st18;" transform="matrix(&st17;  922.65  218.91 )">SB</text><text ewd:textID="17" style="&st18;" transform="matrix(&st17;  949.56  267.77 )">Junction <tspan dy="6" x="-0.01">Connector</tspan></text><text style="&st18;" transform="matrix(&st17;  942.45  267.77 )">H79(A),H80(B)</text><text style="&st18;" transform="matrix(&st16;  919.56  502.9 )">5</text><text style="&st18;" transform="matrix(&st16;  919.56  474.02 )">4</text><text style="&st18;" transform="matrix(&st17;  922.65  527.9 )">W-B</text><text style="&st18;" transform="matrix(&st16;  858.66  56.17 )">7.5A <tspan dy="6" x="0">ECU-B1</tspan></text><text style="&st18;" transform="matrix(&st16;  834.57  86.47 )">2</text><text style="&st18;" transform="matrix(&st16;  832.25  32.08 )">(BAT)</text><text style="&st18;" transform="matrix(&st16;  839.77  109.99 )">1</text><text style="&st18;" transform="matrix(&st16;  836.56  152.48 )">DB</text><text style="&st18;" transform="matrix(&st16;  825.49  152.48 )">13</text><text style="&st18;" transform="matrix(&st16;  836.41  194.97 )">DD</text><text style="&st18;" transform="matrix(&st16;  825.49  194.97 )">14</text><text style="&st18;" transform="matrix(&st16;  839.03  237.18 )">A</text><text style="&st18;" transform="matrix(&st16;  830.48  237.18 )">5</text><text style="&st18;" transform="matrix(&st16;  839.03  271.74 )">B</text><text style="&st18;" transform="matrix(&st16;  830.48  271.74 )">6</text><text style="&st18;" transform="matrix(&st17;  837.66  301.71 )">R</text><text style="&st18;" transform="matrix(&st17;  922.65  303.97 )">LG</text><text style="&st18;" transform="matrix(&st17;  922.65  451.41 )">W-B</text><text style="&st18;" transform="matrix(&st16;  919.56  375.42 )">2</text><text style="&st18;" transform="matrix(&st16;  834.57  375.42 )">9</text><text style="&st18;" transform="matrix(&st16;  873.88  375.42 )">10</text><text style="&st18;" transform="matrix(&st16;  919.35  363.53 )">ESS</text><text style="&st18;" transform="matrix(&st16;  832.1  363.53 )">CANL</text><text style="&st18;" transform="matrix(&st16;  874.1  363.53 )">CANH</text><text style="&st18;" transform="matrix(&st16;  834.57  321.04 )">3</text><text style="&st18;" transform="matrix(&st16;  920.33  321.04 )">1</text><text style="&st18;" transform="matrix(&st16;  834.58  332.37 )">BAT</text><text style="&st18;" transform="matrix(&st16;  922.6  332.37 )">IG</text><text style="&st18;" transform="matrix(&st17;  837.66  218.91 )">BE</text><text style="&st18;" transform="matrix(&st17;  837.66  130.24 )">GR</text><text style="&st18;" transform="matrix(&st17;  857.47  267.77 )">H79(A),H80(B)</text><text ewd:textID="17" style="&st18;" transform="matrix(&st17;  864.58  267.77 )">Junction <tspan dy="6" x="-0.01">Connector</tspan></text><text ewd:textID="22" style="&st18;" transform="matrix(&st17;  958.06  369.75 )">Steering Sensor</text><text style="&st18;" transform="matrix(&st17;  950.95  369.75 )">H6</text><text style="&st18;" transform="matrix(&st16;  958.87  502.9 )">10</text><text style="&st18;" transform="matrix(&st17;  965.14  527.9 )">W-B</text><text style="&st18;" transform="matrix(&st16;  924.01  237.18 )">A</text><text style="&st18;" transform="matrix(&st16;  912.29  237.18 )">18</text><text style="&st18;" transform="matrix(&st17;  633.7  142.99 )">GR</text><text style="&st18;" transform="matrix(&st17;  582.71  141.12 )">W</text><text style="&st18;" transform="matrix(&st16;  627.64  170.89 )">CANH</text><text style="&st18;" transform="matrix(&st16;  577.15  170.89 )">CANL</text><text style="&st18;" transform="matrix(&st16;  635.06  160.69 )">A</text><text style="&st18;" transform="matrix(&st16;  623.34  160.69 )">10</text><text style="&st18;" transform="matrix(&st16;  584.07  160.69 )">A</text><text style="&st18;" transform="matrix(&st16;  573.12  160.69 )">11</text><text style="&st18;" transform="matrix(&st16;  567.63  118.49 )">22</text><text style="&st18;" transform="matrix(&st16;  619.4  118.49 )">21</text><text style="&st18;" transform="matrix(&st16;  690.87  94.96 )">1</text><text style="&st18;" transform="matrix(&st16;  724.09  94.96 )">3</text><text style="&st18;" transform="matrix(&st16;  707.09  49.09 )">2</text><text ewd:textID="16" style="&st18;" transform="matrix(&st17;  762.59  89.3 )">Crank Position <tspan dy="6" x="-0.01">Sensor</tspan></text><text style="&st18;" transform="matrix(&st17;  755.49  89.3 )">D1</text><text style="&st18;" transform="matrix(&st17;  778.17  140.09 )">Y</text><text style="&st18;" transform="matrix(&st17;  727.18  139.74 )">L</text><text style="&st18;" transform="matrix(&st17;  693.19  141.12 )">W</text><text style="&st18;" transform="matrix(&st16;  707.06  60.41 )">NE-</text><text style="&st18;" transform="matrix(&st16;  690.07  83.07 )">NE+</text><text style="&st18;" transform="matrix(&st16;  726.07  83.07 )">VC</text><text style="&st18;" transform="matrix(&st16;  643.37  211.97 )">ECM</text><text style="&st18;" transform="matrix(&st16;  643.37  204.86 )">A27(A),D56(B)</text><text style="&st18;" transform="matrix(&st16;  534.37  40.58 )">W(*3)</text><text style="&st18;" transform="matrix(&st16;  532.5  23.58 )">GR(*3)</text><text style="&st18;" transform="matrix(&st16;  534.37  508.0 )">W(*5)</text><text style="&st18;" transform="matrix(&st16;  534.97  525.0 )">G(*5)</text><text style="&st18;" transform="matrix(&st16;  534.37  643.98 )">W(*5)</text><text style="&st18;" transform="matrix(&st16;  535.4  660.98 )">B(*5)</text><text ewd:textID="17" style="&st18;" transform="matrix(&st16;  940.82  468.06 )">Junction <tspan dy="6" x="0">Connector</tspan></text><text style="&st18;" transform="matrix(&st16;  940.82  460.95 )">H85</text><text style="&st18;" transform="matrix(&st16;  924.01  271.74 )">B</text><text style="&st18;" transform="matrix(&st16;  912.29  271.74 )">17</text><text style="&st18;" transform="matrix(&st17;  837.66  453.25 )">W(*5)</text><text style="&st18;" transform="matrix(&st17;  880.16  452.65 )">G(*5)</text><text style="&st18;" transform="matrix(&st16;  921.4  109.99 )">DD</text><text style="&st18;" transform="matrix(&st16;  909.7  109.99 )">56</text><text style="&st18;" transform="matrix(&st16;  920.27  32.08 )">(IG)</text><text ewd:textID="12" style="&st18;" transform="matrix(&st16;  943.65  53.34 )">7.5A <tspan dy="6" x="0">ECU-IG </tspan><tspan dy="6" x="0">No.1</tspan></text><text style="&st18;" transform="matrix(&st16;  534.37  575.99 )">W(*2)</text><text style="&st18;" transform="matrix(&st16;  535.75  592.99 )">L(*2)</text><text style="&st18;" transform="matrix(&st16;  534.76  609.99 )">W(*1)</text><text style="&st18;" transform="matrix(&st16;  533.45  626.98 )">SB(*1)</text><text style="&st18;" transform="matrix(&st16;  534.37  74.58 )">W(*4)</text><text style="&st18;" transform="matrix(&st16;  532.5  57.58 )">GR(*4)</text><text style="&st18;" transform="matrix(&st17;  653.53  449.89 )">(*6)</text><text style="&st18;" transform="matrix(&st17;  687.52  449.89 )">(*6)</text><text style="&st18;" transform="matrix(&st17;  574.21  355.45 )">GR</text><text style="&st18;" transform="matrix(&st17;  585.54  356.41 )">(*6)</text><text style="&st18;" transform="matrix(&st17;  608.2  353.58 )">W</text><text style="&st18;" transform="matrix(&st17;  619.53  356.41 )">(*6)</text><text style="&st18;" transform="matrix(&st17;  642.2  352.7 )">R</text><text style="&st18;" transform="matrix(&st17;  653.53  356.41 )">(*6)</text><text style="&st18;" transform="matrix(&st17;  676.19  353.58 )">W</text><text style="&st18;" transform="matrix(&st17;  687.52  356.41 )">(*6)</text><text style="&st18;" transform="matrix(&st17;  642.2  446.04 )">B</text><text style="&st18;" transform="matrix(&st17;  676.19  447.07 )">W</text><text style="&st18;" transform="matrix(&st16;  690.07  170.89 )">NE+</text><text style="&st18;" transform="matrix(&st16;  694.55  160.69 )">B</text><text style="&st18;" transform="matrix(&st16;  679.65  160.69 )">110</text><text style="&st18;" transform="matrix(&st16;  721.76  170.89 )">VCV2</text><text style="&st18;" transform="matrix(&st16;  728.55  160.69 )">B</text><text style="&st18;" transform="matrix(&st16;  716.05  160.69 )">66</text><text style="&st18;" transform="matrix(&st16;  775.05  170.89 )">NE-</text><text style="&st18;" transform="matrix(&st16;  779.54  160.69 )">B</text><text style="&st18;" transform="matrix(&st16;  765.41  160.69 )">111</text><text style="&st18;" transform="matrix(&st16;  631.08  475.43 )">3</text><text style="&st18;" transform="matrix(&st16;  661.89  475.43 )">14</text><text style="&st18;" transform="matrix(&st17;  721.52  449.89 )">(*6)</text><text style="&st18;" transform="matrix(&st17;  755.51  449.89 )">(*6)</text><text style="&st18;" transform="matrix(&st17;  710.18  446.47 )">G</text><text style="&st18;" transform="matrix(&st17;  744.18  447.07 )">W</text><text style="&st18;" transform="matrix(&st16;  533.07  474.01 )">SB(*6)</text><text style="&st18;" transform="matrix(&st16;  534.37  491.01 )">W(*6)</text><text style="&st18;" transform="matrix(&st16;  534.37  261.54 )">W(*6)</text><text style="&st18;" transform="matrix(&st16;  535.26  278.54 )">R(*6)</text><text style="&st18;" transform="matrix(&st16;  534.37  295.54 )">W(*6)</text><text style="&st18;" transform="matrix(&st16;  532.5  312.54 )">GR(*6)</text><text style="&st18;" transform="matrix(&st17;  653.53  500.88 )">(*6)</text><text style="&st18;" transform="matrix(&st17;  687.52  500.88 )">(*6)</text><text style="&st18;" transform="matrix(&st17;  642.2  497.03 )">B</text><text style="&st18;" transform="matrix(&st17;  676.19  498.06 )">W</text><text style="&st18;" transform="matrix(&st17;  863.16  452.65 )">G(*6)</text><text style="&st18;" transform="matrix(&st17;  820.67  453.25 )">W(*6)</text><text style="&st18;" transform="matrix(&st16;  685.86  381.66 )">(*9)</text><text style="&st18;" transform="matrix(&st16;  677.56  381.66 )">B</text><text style="&st18;" transform="matrix(&st16;  665.83  381.66 )">16</text><text style="&st18;" transform="matrix(&st16;  685.86  372.59 )">(*8)</text><text style="&st18;" transform="matrix(&st16;  677.56  372.59 )">A</text><text style="&st18;" transform="matrix(&st16;  665.83  372.59 )">16</text><text style="&st18;" transform="matrix(&st16;  609.57  381.66 )">B</text><text style="&st18;" transform="matrix(&st16;  597.84  381.66 )">18</text><text style="&st18;" transform="matrix(&st16;  609.57  372.59 )">A</text><text style="&st18;" transform="matrix(&st16;  597.84  372.59 )">18</text><text style="&st18;" transform="matrix(&st16;  753.85  416.22 )">(*8)</text><text style="&st18;" transform="matrix(&st16;  745.54  416.22 )">A</text><text style="&st18;" transform="matrix(&st16;  733.82  416.22 )">15</text><text style="&st18;" transform="matrix(&st16;  753.85  425.28 )">(*9)</text><text style="&st18;" transform="matrix(&st16;  745.54  425.28 )">B</text><text style="&st18;" transform="matrix(&st16;  733.82  425.28 )">15</text><text style="&st18;" transform="matrix(&st16;  677.56  416.22 )">A</text><text style="&st18;" transform="matrix(&st16;  665.05  416.22 )">20</text><text style="&st18;" transform="matrix(&st16;  677.56  425.28 )">B</text><text style="&st18;" transform="matrix(&st16;  665.05  425.28 )">20</text><text style="&st18;" transform="matrix(&st16;  609.57  416.22 )">A</text><text style="&st18;" transform="matrix(&st16;  597.84  416.22 )">13</text><text style="&st18;" transform="matrix(&st16;  609.57  425.28 )">B</text><text style="&st18;" transform="matrix(&st16;  597.84  425.28 )">13</text><text style="&st18;" transform="matrix(&st16;  635.02  381.66 )">5</text><text style="&st18;" transform="matrix(&st16;  643.56  381.66 )">B</text><text style="&st18;" transform="matrix(&st16;  635.02  372.59 )">5</text><text style="&st18;" transform="matrix(&st16;  643.56  372.59 )">A</text><text style="&st18;" transform="matrix(&st16;  567.03  381.66 )">7</text><text style="&st18;" transform="matrix(&st16;  575.57  381.66 )">B</text><text style="&st18;" transform="matrix(&st16;  567.03  372.59 )">7</text><text style="&st18;" transform="matrix(&st16;  575.57  372.59 )">A</text><text style="&st18;" transform="matrix(&st16;  703.0  416.22 )">4</text><text style="&st18;" transform="matrix(&st16;  711.55  416.22 )">A</text><text style="&st18;" transform="matrix(&st16;  703.0  425.28 )">4</text><text style="&st18;" transform="matrix(&st16;  711.55  425.28 )">B</text><text style="&st18;" transform="matrix(&st16;  635.02  416.22 )">9</text><text style="&st18;" transform="matrix(&st16;  643.56  416.22 )">A</text><text style="&st18;" transform="matrix(&st16;  635.02  425.28 )">9</text><text style="&st18;" transform="matrix(&st16;  643.56  425.28 )">B</text><text style="&st18;" transform="matrix(&st16;  567.03  416.22 )">2</text><text style="&st18;" transform="matrix(&st16;  575.57  416.22 )">A</text><text style="&st18;" transform="matrix(&st16;  567.03  425.28 )">2</text><text style="&st18;" transform="matrix(&st16;  575.57  425.28 )">B</text><text ewd:textID="17" style="&st18;" transform="matrix(&st17;  565.71  412.24 )">Junction Connector</text><text style="&st18;" transform="matrix(&st17;  558.6  412.24 )">H115(A),H128(B)</text></svg>