﻿<?xml version="1.0" encoding="utf-8"?>
<!DOCTYPE svg PUBLIC "-//W3C//DTD SVG 1.0//EN" "http://www.w3.org/TR/2001/REC-SVG-20010904/DTD/svg10.dtd"[
	<!ENTITY ns_flows "http://ns.adobe.com/Flows/1.0/">
	<!ENTITY ns_svg "http://www.w3.org/2000/svg">
	<!ENTITY ns_xlink "http://www.w3.org/1999/xlink">
	<!ENTITY st0 "font-size:7px;font-family:'MS-PGothic';adobe-font-script:japanese;">
	<!ENTITY st1 "font-size:6px;font-family:'ArialMT';">
	<!-- White fill  -->
	<!ENTITY st2 "fill:#FFFFFF;stroke:#000000; stroke-width:1.41;stroke-linecap:round;stroke-linejoin:round;">
	<!-- Yellow fill  -->
	<!ENTITY st3 "fill:#FFFFCC;stroke:#FFFFCC; stroke-width:0.1;stroke-linecap:round;stroke-linejoin:round;">
	<!-- Gray fill  -->
	<!ENTITY st4 "fill:#CCCCCC;stroke:#CCCCCC; stroke-width:0.1;stroke-linecap:round;stroke-linejoin:round;">
	<!-- Light-blue fill -->
	<!ENTITY st5 "fill:#CCECF4;stroke:#000000; stroke-width:1.133;stroke-linecap:round;stroke-linejoin:round;">
	<!ENTITY st6 "fill:none;stroke-linecap:butt; stroke-linejoin:round;">
	<!ENTITY st7 "fill:none;stroke:#000000;stroke-linecap:round;stroke-linejoin:round;">
	<!ENTITY st8 "enable-background:new    ;">
	<!-- Black fill -->
	<!ENTITY st9 "fill:#000000;stroke:#000000; stroke-linecap:round;stroke-linejoin:round;">
	<!-- SRS note   -->
	<!ENTITY st10 "font-size:9px;font-family:'ArialMT';">
	<!ENTITY st11 "font-size:9px;font-family:'Svg Symbol';">
	<!ENTITY st12 "font-size:6px;font-family:'Svg Symbol';">
	<!ENTITY st13 "fill:none;stroke:#ff0000;stroke-linecap:round;stroke-linejoin:round;">
	<!-- Yellow fill  -->
	<!ENTITY st14 "fill:#FFFF00;stroke:#FFFF00; stroke-width:0.1;stroke-linecap:round;stroke-linejoin:round;">
	<!ENTITY st15 "font-size:6px;font-family:'MS-PGothic';adobe-font-script:japanese;">
	<!ENTITY st16 "1.00 0.00 0.00 1.00">
	<!ENTITY st17 "0.00 -1.00 1.00 0.00">
	<!ENTITY st18 "font-size:6px;font-family:'Arial';">
	<!ENTITY st19 "font-size:9px;font-family:'Arial';">
	<!ENTITY st20 "font-size:6px;font-family:'MS-PGothic','MS PGothic';adobe-font-script:japanese;">
	<!ENTITY st21 "font-size:7px;font-family:'MS-PGothic','MS PGothic';adobe-font-script:japanese;">
	<!ATTLIST svg
		xmlns:ewd CDATA #FIXED "http://shcl.co.jp/ewd"
		xmlns:a CDATA #FIXED "http://ns.adobe.com/AdobeSVGViewerExtensions/3.0/"
		ewd:ver CDATA #IMPLIED
	>
	<!ATTLIST a
		ewd:lineID CDATA #IMPLIED
		ewd:groupID CDATA #IMPLIED
		ewd:figtype CDATA #IMPLIED
		ewd:code CDATA #IMPLIED
		ewd:figID CDATA #IMPLIED
		ewd:pinNo CDATA #IMPLIED
		ewd:comment CDATA #IMPLIED >
	<!ATTLIST g
		ewd:lineID CDATA #IMPLIED
		ewd:groupID CDATA #IMPLIED
		ewd:figtype CDATA #IMPLIED
		ewd:code CDATA #IMPLIED
		ewd:figID CDATA #IMPLIED
		ewd:pinNo CDATA #IMPLIED
		ewd:comment CDATA #IMPLIED >
	<!ATTLIST text
		ewd:textID CDATA #IMPLIED >
	<!ATTLIST title
		ewd:textID CDATA #IMPLIED >
]>
<!-- Generator: Shintec Hozumi YS   -->
<svg onload="call_execInitLoadProc_svg('system')" style="overflow:visible;  enable-background:new 0 0 3058.072 710.000" viewBox="0 0 3058.072 710.000" height="710.000" width="3058.072" xml:space="preserve" ewd:ver="L2.1.2.7" xmlns="&ns_svg;" xmlns:a="http://ns.adobe.com/AdobeSVGViewerExtensions/3.0/" xmlns:ewd="http://shcl.co.jp/ewd" xmlns:xlink="&ns_xlink;">
<path d=" M 2201.13,  120.77  L 2201.13,  129.26 " style="stroke-width: 0.85 ;&st7; " /><path d=" M 2203.26,  146.26  L 2199.01,  146.26 " style="stroke-width: 1.42 ;&st7; " /><path d=" M 2203.26,  154.76  L 2199.01,  154.76 " style="stroke-width: 1.42 ;&st7; " /><path d=" M 2152.27,  103.77  L 2148.02,  103.77 " style="stroke-width: 1.42 ;&st7; " /><path d=" M 2152.27,   95.27  L 2148.02,   95.27 " style="stroke-width: 1.42 ;&st7; " /><path d=" M 2128.89,  565.52  L 2137.39,  565.52 " style="stroke-width: 1.42 ;&st7; " /><path d=" M 2128.89,  561.56  L 2128.89,  565.52 " style="stroke-width: 1.42 ;&st7; " /><path d=" M 2137.39,  565.52  L 2137.39,  561.56 " style="stroke-width: 1.42 ;&st7; " /><path d=" M 2128.89,  542.86  L 2137.39,  542.86 " style="stroke-width: 1.42 ;&st7; " /><path d=" M 2128.89,  546.83  L 2128.89,  542.86 " style="stroke-width: 1.42 ;&st7; " /><path d=" M 2137.39,  542.86  L 2137.39,  546.83 " style="stroke-width: 1.42 ;&st7; " /><path d=" M 2490.08,  477.71  L 2498.58,  477.71 " style="stroke-width: 1.42 ;&st7; " /><path d=" M 2498.58,  564.11  L 2504.25,  541.44 " style="stroke-width: 1.42 ;&st7; " /><path d=" M 2498.58,  571.19  L 2498.58,  566.94 " style="stroke-width: 0.85 ;&st7; " /><path d=" M 2498.58,  541.44  L 2498.58,  537.20 " style="stroke-width: 0.85 ;&st7; " /><path d=" M 2345.61,  215.67  L 2339.94,  193.00 " style="stroke-width: 1.42 ;&st7; " /><path d=" M 2345.61,  222.75  L 2345.61,  218.50 " style="stroke-width: 0.85 ;&st7; " /><path d=" M 2345.61,  193.00  L 2345.61,  188.75 " style="stroke-width: 0.85 ;&st7; " /><path d=" M 2371.10,  188.75  L 2371.10,  197.25 " style="stroke-width: 0.85 ;&st7; " /><path d=" M 2371.10,  214.25  L 2371.10,  222.75 " style="stroke-width: 0.85 ;&st7; " /><path d=" M 2373.23,  282.24  L 2368.98,  282.24 " style="stroke-width: 1.42 ;&st7; " /><path d=" M 2373.23,  273.74  L 2368.98,  273.74 " style="stroke-width: 1.42 ;&st7; " /><path d=" M 2311.61,  120.77  L 2311.61,  129.26 " style="stroke-width: 0.85 ;&st7; " /><path d=" M 2262.75,  273.74  L 2258.50,  273.74 " style="stroke-width: 1.42 ;&st7; " /><path d=" M 2262.75,  282.24  L 2258.50,  282.24 " style="stroke-width: 1.42 ;&st7; " /><path d=" M 2303.12,  401.22  L 2294.62,  401.22 " style="stroke-width: 1.42 ;&st7; " /><path d=" M 2286.12,  452.21  L 2294.62,  452.21 " style="stroke-width: 1.42 ;&st7; " /><path d=" M 2320.11,  452.21  L 2328.61,  452.21 " style="stroke-width: 1.42 ;&st7; " /><path d=" M 2296.74,  282.24  L 2292.49,  282.24 " style="stroke-width: 1.42 ;&st7; " /><path d=" M 2296.74,  273.74  L 2292.49,  273.74 " style="stroke-width: 1.42 ;&st7; " /><path d=" M 2330.74,  282.24  L 2326.49,  282.24 " style="stroke-width: 1.42 ;&st7; " /><path d=" M 2330.74,  273.74  L 2326.49,  273.74 " style="stroke-width: 1.42 ;&st7; " /><path d=" M 2184.14,  350.23  L 2175.64,  350.23 " style="stroke-width: 1.42 ;&st7; " /><path d=" M 2150.14,  350.23  L 2141.64,  350.23 " style="stroke-width: 1.42 ;&st7; " /><path d=" M 2133.14,  392.72  L 2141.64,  392.72 " style="stroke-width: 1.42 ;&st7; " /><path d=" M 2167.14,  392.72  L 2175.64,  392.72 " style="stroke-width: 1.42 ;&st7; " /><path d=" M 2150.14,  307.73  L 2141.64,  307.73 " style="stroke-width: 1.42 ;&st7; " /><path d=" M 2184.14,  307.73  L 2175.64,  307.73 " style="stroke-width: 1.42 ;&st7; " /><path d=" M 2218.13,  307.73  L 2209.63,  307.73 " style="stroke-width: 1.42 ;&st7; " /><path d=" M 2413.60,  256.74  L 2413.60,   69.77 " style="stroke-width: 0.85 ;&st7; " /><path d=" M 2369.91,  255.74  L 2369.64,  256.21  L 2369.54,  256.74  L 2369.64,  257.28  L 2369.91,  257.75  L 2370.32,  258.09  L 2370.83,  258.28  L 2371.37,  258.28  L 2371.88,  258.09  L 2372.30,  257.75  L 2372.57,  257.28  L 2372.66,  256.74  L 2372.57,  256.21  L 2372.30,  255.74  L 2371.88,  255.39  L 2371.37,  255.21  L 2370.83,  255.21  L 2370.32,  255.39  L 2369.91,  255.74  L 2370.30,  256.45  L 2370.30,  257.03  L 2370.68,  257.48  L 2371.25,  257.58  L 2371.75,  257.29  L 2371.95,  256.74  L 2371.75,  256.20  L 2371.25,  255.91  L 2370.68,  256.01  L 2371.10,  256.74 " style="stroke-width: 0.85 ;&st7; " /><path d=" M 2188.38,   86.77  L 2188.38,  129.26  L 2213.88,  129.26  L 2213.88,   86.77  L 2188.38,   86.77 " style="stroke-width: 1.42 ;&st7; " /><path d=" M 2490.08,  282.24  L 2490.08,  307.73  L 2507.08,  307.73  L 2507.08,  282.24  L 2490.08,  282.24 " style="stroke-width: 1.42 ;&st7; " /><path d=" M 2490.08,  290.74  L 2507.08,  290.74 " style="stroke-width: 1.13 ;&st7;stroke-dasharray:3, 1.5;" /><path d=" M 2490.08,  299.24  L 2507.08,  299.24 " style="stroke-width: 1.13 ;&st7;stroke-dasharray:3, 1.5;" /><path d=" M 2498.58,  282.24  L 2498.58,  307.73 " style="stroke-width: 0.85 ;&st7; " /><path d=" M 2494.33,  468.64  L 2498.58,  472.89  L 2502.83,  468.64 " style="stroke-width: 1.42 ;&st7; " /><path d=" M 2502.83,  472.04  L 2498.58,  476.29  L 2494.33,  472.04 " style="stroke-width: 1.42 ;&st7; " /><path d=" M 2507.08,  571.19  L 2507.08,  537.20  L 2490.08,  537.20  L 2490.08,  571.19  L 2507.08,  571.19 " style="stroke-width: 1.42 ;&st7; " /><path d=" M 2498.58,  571.19  L 2498.58,  579.69 " style="stroke-width: 0.85 ;&st7; " /><path d=" M 2490.08,  579.69  L 2507.08,  579.69 " style="stroke-width: 0.85 ;&st7; " /><path d=" M 2494.33,  582.52  L 2502.83,  582.52 " style="stroke-width: 0.85 ;&st7; " /><path d=" M 2495.75,  585.35  L 2501.41,  585.35 " style="stroke-width: 0.85 ;&st7; " /><path d=" M 2497.17,  588.19  L 2500.00,  588.19 " style="stroke-width: 0.85 ;&st7; " /><path d=" M 2439.09,   69.77  L 2439.09,  256.74  L 2371.10,  256.74 " style="stroke-width: 0.85 ;&st7; " /><path d=" M 2412.40,  255.74  L 2412.13,  256.21  L 2412.04,  256.74  L 2412.13,  257.28  L 2412.40,  257.75  L 2412.82,  258.09  L 2413.32,  258.28  L 2413.87,  258.28  L 2414.37,  258.09  L 2414.79,  257.75  L 2415.06,  257.28  L 2415.15,  256.74  L 2415.06,  256.21  L 2414.79,  255.74  L 2414.37,  255.39  L 2413.87,  255.21  L 2413.32,  255.21  L 2412.82,  255.39  L 2412.40,  255.74  L 2412.80,  256.45  L 2412.80,  257.03  L 2413.17,  257.48  L 2413.74,  257.58  L 2414.25,  257.29  L 2414.45,  256.74  L 2414.25,  256.20  L 2413.74,  255.91  L 2413.17,  256.01  L 2413.60,  256.74 " style="stroke-width: 0.85 ;&st7; " /><path d=" M 2362.60,  562.69  L 2413.60,  562.69  L 2413.60,  579.69  L 2362.60,  579.69  L 2362.60,  562.69 " style="stroke-width: 1.42 ;&st7; " /><path d=" M 2369.69,  710.00  L 2372.52,  710.00 " style="stroke-width: 0.85 ;&st7; " /><path d=" M 2368.27,  707.17  L 2373.94,  707.17 " style="stroke-width: 0.85 ;&st7; " /><path d=" M 2366.85,  704.33  L 2375.35,  704.33 " style="stroke-width: 0.85 ;&st7; " /><path d=" M 2371.10,  697.25  L 2371.10,  701.50 " style="stroke-width: 0.85 ;&st7; " /><path d=" M 2362.60,  701.50  L 2379.60,  701.50 " style="stroke-width: 0.85 ;&st7; " /><path d=" M 2371.10,  268.84  L 2368.27,  266.01  L 2368.27,  270.26  L 2371.10,  273.09  L 2373.94,  270.26  L 2373.94,  266.01  L 2371.10,  268.84 " style="stroke-width: 0.28 ;&st9;" /><path d=" M 2345.61,  188.75  L 2345.61,  163.26  L 2311.61,  163.26  L 2311.61,  129.26 " style="stroke-width: 0.85 ;&st7; " /><path d=" M 2379.60,  188.75  L 2337.11,  188.75  L 2337.11,  222.75  L 2379.60,  222.75  L 2379.60,  188.75 " style="stroke-width: 1.42 ;&st7; " /><path d=" M 2371.10,   69.77  L 2371.10,  188.75 " style="stroke-width: 0.85 ;&st7; " /><path d=" M 2371.10,  273.74  L 2371.10,  222.75 " style="stroke-width: 0.85 ;&st7; " /><path d=" M 2345.61,  222.75  L 2345.61,  256.74  L 2328.61,  256.74 " style="stroke-width: 0.85 ;&st7; " /><path d=" M 2298.86,   86.77  L 2298.86,  129.26  L 2324.36,  129.26  L 2324.36,   86.77  L 2298.86,   86.77 " style="stroke-width: 1.42 ;&st7; " /><path d=" M 2371.10,  562.69  L 2371.10,  579.69 " style="stroke-width: 0.85 ;&st7; " /><path d=" M 2369.91,  570.19  L 2369.64,  570.66  L 2369.54,  571.19  L 2369.64,  571.72  L 2369.91,  572.19  L 2370.32,  572.54  L 2370.83,  572.73  L 2371.37,  572.73  L 2371.88,  572.54  L 2372.30,  572.19  L 2372.57,  571.72  L 2372.66,  571.19  L 2372.57,  570.66  L 2372.30,  570.19  L 2371.88,  569.84  L 2371.37,  569.65  L 2370.83,  569.65  L 2370.32,  569.84  L 2369.91,  570.19  L 2370.30,  570.90  L 2370.30,  571.48  L 2370.68,  571.93  L 2371.25,  572.03  L 2371.75,  571.74  L 2371.95,  571.19  L 2371.75,  570.64  L 2371.25,  570.35  L 2370.68,  570.45  L 2371.10,  571.19 " style="stroke-width: 0.85 ;&st7; " /><path d=" M 2402.26,  707.17  L 2407.93,  707.17 " style="stroke-width: 0.85 ;&st7; " /><path d=" M 2400.85,  704.33  L 2409.35,  704.33 " style="stroke-width: 0.85 ;&st7; " /><path d=" M 2405.10,  697.25  L 2405.10,  701.50 " style="stroke-width: 0.85 ;&st7; " /><path d=" M 2405.10,  579.69  L 2405.10,  571.19  L 2371.10,  571.19 " style="stroke-width: 0.85 ;&st7; " /><path d=" M 2396.60,  701.50  L 2413.60,  701.50 " style="stroke-width: 0.85 ;&st7; " /><path d=" M 2403.68,  710.00  L 2406.51,  710.00 " style="stroke-width: 0.85 ;&st7; " /><path d=" M 2490.08,  384.22  L 2490.08,  409.72  L 2507.08,  409.72  L 2507.08,  384.22  L 2490.08,  384.22 " style="stroke-width: 1.42 ;&st7; " /><path d=" M 2490.08,  392.72  L 2507.08,  392.72 " style="stroke-width: 1.13 ;&st7;stroke-dasharray:3, 1.5;" /><path d=" M 2490.08,  401.22  L 2507.08,  401.22 " style="stroke-width: 1.13 ;&st7;stroke-dasharray:3, 1.5;" /><path d=" M 2498.58,  384.22  L 2498.58,  409.72 " style="stroke-width: 0.85 ;&st7; " /><path d=" M 2327.42,  255.74  L 2327.15,  256.21  L 2327.05,  256.74  L 2327.15,  257.28  L 2327.42,  257.75  L 2327.83,  258.09  L 2328.34,  258.28  L 2328.88,  258.28  L 2329.39,  258.09  L 2329.80,  257.75  L 2330.07,  257.28  L 2330.17,  256.74  L 2330.07,  256.21  L 2329.80,  255.74  L 2329.39,  255.39  L 2328.88,  255.21  L 2328.34,  255.21  L 2327.83,  255.39  L 2327.42,  255.74  L 2327.81,  256.45  L 2327.81,  257.03  L 2328.19,  257.48  L 2328.76,  257.58  L 2329.26,  257.29  L 2329.46,  256.74  L 2329.26,  256.20  L 2328.76,  255.91  L 2328.19,  256.01  L 2328.61,  256.74 " style="stroke-width: 0.85 ;&st7; " /><path d=" M 2201.13,  141.37  L 2198.30,  138.53  L 2198.30,  142.78  L 2201.13,  145.62  L 2203.96,  142.78  L 2203.96,  138.53  L 2201.13,  141.37 " style="stroke-width: 0.28 ;&st9;" /><path d=" M 2150.14,   90.37  L 2147.31,   87.54  L 2147.31,   91.79  L 2150.14,   94.62  L 2152.97,   91.79  L 2152.97,   87.54  L 2150.14,   90.37 " style="stroke-width: 0.28 ;&st9;" /><path d=" M 2150.14,   69.77  L 2150.14,   95.27 " style="stroke-width: 0.85 ;&st7; " /><path d=" M 2201.13,  129.26  L 2201.13,  146.26 " style="stroke-width: 0.85 ;&st7; " /><path d=" M 2260.62,  268.84  L 2257.79,  266.01  L 2257.79,  270.26  L 2260.62,  273.09  L 2263.45,  270.26  L 2263.45,  266.01  L 2260.62,  268.84 " style="stroke-width: 0.28 ;&st9;" /><path d=" M 2298.86,  406.88  L 2294.62,  402.63  L 2290.37,  406.88 " style="stroke-width: 1.42 ;&st7; " /><path d=" M 2298.86,  410.28  L 2294.62,  406.03  L 2290.37,  410.28 " style="stroke-width: 1.42 ;&st7; " /><path d=" M 2298.86,  446.54  L 2294.62,  450.79  L 2290.37,  446.54 " style="stroke-width: 1.42 ;&st7; " /><path d=" M 2290.37,  443.14  L 2294.62,  447.39  L 2298.86,  443.14 " style="stroke-width: 1.42 ;&st7; " /><path d=" M 2332.86,  446.54  L 2328.61,  450.79  L 2324.36,  446.54 " style="stroke-width: 1.42 ;&st7; " /><path d=" M 2324.36,  443.14  L 2328.61,  447.39  L 2332.86,  443.14 " style="stroke-width: 1.42 ;&st7; " /><path d=" M 2293.42,  255.74  L 2293.15,  256.21  L 2293.06,  256.74  L 2293.15,  257.28  L 2293.42,  257.75  L 2293.84,  258.09  L 2294.34,  258.28  L 2294.89,  258.28  L 2295.39,  258.09  L 2295.81,  257.75  L 2296.08,  257.28  L 2296.17,  256.74  L 2296.08,  256.21  L 2295.81,  255.74  L 2295.39,  255.39  L 2294.89,  255.21  L 2294.34,  255.21  L 2293.84,  255.39  L 2293.42,  255.74  L 2293.82,  256.45  L 2293.82,  257.03  L 2294.19,  257.48  L 2294.76,  257.58  L 2295.27,  257.29  L 2295.47,  256.74  L 2295.27,  256.20  L 2294.76,  255.91  L 2294.19,  256.01  L 2294.62,  256.74 " style="stroke-width: 0.85 ;&st7; " /><path d=" M 2294.62,  256.74  L 2294.62,  273.74 " style="stroke-width: 0.85 ;&st7; " /><path d=" M 2294.62,  268.84  L 2291.78,  266.01  L 2291.78,  270.26  L 2294.62,  273.09  L 2297.45,  270.26  L 2297.45,  266.01  L 2294.62,  268.84 " style="stroke-width: 0.28 ;&st9;" /><path d=" M 2328.61,  273.74  L 2328.61,  256.74  L 2260.62,  256.74  L 2260.62,  273.74 " style="stroke-width: 0.85 ;&st7; " /><path d=" M 2328.61,  268.84  L 2325.78,  266.01  L 2325.78,  270.26  L 2328.61,  273.09  L 2331.44,  270.26  L 2331.44,  266.01  L 2328.61,  268.84 " style="stroke-width: 0.28 ;&st9;" /><path d=" M 2179.88,  355.89  L 2175.64,  351.64  L 2171.39,  355.89 " style="stroke-width: 1.42 ;&st7; " /><path d=" M 2179.88,  359.29  L 2175.64,  355.04  L 2171.39,  359.29 " style="stroke-width: 1.42 ;&st7; " /><path d=" M 2145.89,  355.89  L 2141.64,  351.64  L 2137.39,  355.89 " style="stroke-width: 1.42 ;&st7; " /><path d=" M 2145.89,  359.29  L 2141.64,  355.04  L 2137.39,  359.29 " style="stroke-width: 1.42 ;&st7; " /><path d=" M 2137.39,  383.65  L 2141.64,  387.90  L 2145.89,  383.65 " style="stroke-width: 1.42 ;&st7; " /><path d=" M 2145.89,  387.05  L 2141.64,  391.30  L 2137.39,  387.05 " style="stroke-width: 1.42 ;&st7; " /><path d=" M 2124.64,  459.29  L 2124.64,  452.21  L 2218.13,  452.21  L 2218.13,  494.70 " style="stroke-width: 0.85 ;&st7; " /><path d=" M 2004.47,  451.21  L 2004.20,  451.68  L 2004.11,  452.21  L 2004.20,  452.74  L 2004.47,  453.21  L 2004.89,  453.56  L 2005.39,  453.75  L 2005.94,  453.75  L 2006.44,  453.56  L 2006.86,  453.21  L 2007.13,  452.74  L 2007.22,  452.21  L 2007.13,  451.68  L 2006.86,  451.21  L 2006.44,  450.86  L 2005.94,  450.67  L 2005.39,  450.67  L 2004.89,  450.86  L 2004.47,  451.21  L 2004.87,  451.92  L 2004.87,  452.50  L 2005.24,  452.95  L 2005.81,  453.05  L 2006.32,  452.76  L 2006.51,  452.21  L 2006.32,  451.66  L 2005.81,  451.37  L 2005.24,  451.47  L 2005.66,  452.21 " style="stroke-width: 0.85 ;&st7; " /><path d=" M 2005.66,  452.21  L 2005.66,  459.29 " style="stroke-width: 0.85 ;&st7; " /><path d=" M 2116.15,  435.21  L 2226.63,  435.21  L 2226.63,  494.70  L 2116.15,  494.70  L 2116.15,  435.21 " style="stroke-width: 1.42 ;&st7; " /><path d=" M 2192.63,  452.21  L 2192.63,  459.29 " style="stroke-width: 0.85 ;&st7; " /><path d=" M 2133.14,  494.70  L 2133.14,  479.12 " style="stroke-width: 0.85 ;&st7; " /><path d=" M 2141.64,  459.29  L 2141.64,  435.21 " style="stroke-width: 0.85 ;&st7; " /><path d=" M 2175.64,  459.29  L 2175.64,  435.21 " style="stroke-width: 0.85 ;&st7; " /><path d=" M 2184.13,  479.12  L 2184.13,  494.70 " style="stroke-width: 0.85 ;&st7; " /><path d=" M 2184.13,  476.29  L 2176.54,  458.58 " style="stroke-width: 1.42 ;&st7; " /><path d=" M 2133.14,  476.29  L 2140.73,  458.58 " style="stroke-width: 1.42 ;&st7; " /><path d=" M 2191.44,  451.21  L 2191.17,  451.68  L 2191.07,  452.21  L 2191.17,  452.74  L 2191.44,  453.21  L 2191.85,  453.56  L 2192.36,  453.75  L 2192.90,  453.75  L 2193.41,  453.56  L 2193.83,  453.21  L 2194.10,  452.74  L 2194.19,  452.21  L 2194.10,  451.68  L 2193.83,  451.21  L 2193.41,  450.86  L 2192.90,  450.67  L 2192.36,  450.67  L 2191.85,  450.86  L 2191.44,  451.21  L 2191.83,  451.92  L 2191.83,  452.50  L 2192.21,  452.95  L 2192.78,  453.05  L 2193.28,  452.76  L 2193.48,  452.21  L 2193.28,  451.66  L 2192.78,  451.37  L 2192.21,  451.47  L 2192.63,  452.21 " style="stroke-width: 0.85 ;&st7; " /><path d=" M 2179.88,  387.05  L 2175.64,  391.30  L 2171.39,  387.05 " style="stroke-width: 1.42 ;&st7; " /><path d=" M 2171.39,  383.65  L 2175.64,  387.90  L 2179.88,  383.65 " style="stroke-width: 1.42 ;&st7; " /><path d=" M 2145.89,  316.80  L 2141.64,  312.55  L 2137.39,  316.80 " style="stroke-width: 1.42 ;&st7; " /><path d=" M 2145.89,  313.40  L 2141.64,  309.15  L 2137.39,  313.40 " style="stroke-width: 1.42 ;&st7; " /><path d=" M 2179.88,  316.80  L 2175.64,  312.55  L 2171.39,  316.80 " style="stroke-width: 1.42 ;&st7; " /><path d=" M 2179.88,  313.40  L 2175.64,  309.15  L 2171.39,  313.40 " style="stroke-width: 1.42 ;&st7; " /><path d=" M 2213.88,  316.80  L 2209.63,  312.55  L 2205.38,  316.80 " style="stroke-width: 1.42 ;&st7; " /><path d=" M 2213.88,  313.40  L 2209.63,  309.15  L 2205.38,  313.40 " style="stroke-width: 1.42 ;&st7; " /><path d=" M 2369.91,  170.75  L 2369.64,  171.22  L 2369.54,  171.76  L 2369.64,  172.29  L 2369.91,  172.76  L 2370.32,  173.11  L 2370.83,  173.29  L 2371.37,  173.29  L 2371.88,  173.11  L 2372.30,  172.76  L 2372.57,  172.29  L 2372.66,  171.76  L 2372.57,  171.22  L 2372.30,  170.75  L 2371.88,  170.41  L 2371.37,  170.22  L 2370.83,  170.22  L 2370.32,  170.41  L 2369.91,  170.75  L 2370.30,  171.47  L 2370.30,  172.05  L 2370.68,  172.49  L 2371.25,  172.59  L 2371.75,  172.30  L 2371.95,  171.76  L 2371.75,  171.21  L 2371.25,  170.92  L 2370.68,  171.02  L 2371.10,  171.76 " style="stroke-width: 0.85 ;&st7; " /><path d=" M 2369.91,  238.74  L 2369.64,  239.21  L 2369.54,  239.75  L 2369.64,  240.28  L 2369.91,  240.75  L 2370.32,  241.09  L 2370.83,  241.28  L 2371.37,  241.28  L 2371.88,  241.09  L 2372.30,  240.75  L 2372.57,  240.28  L 2372.66,  239.75  L 2372.57,  239.21  L 2372.30,  238.74  L 2371.88,  238.40  L 2371.37,  238.21  L 2370.83,  238.21  L 2370.32,  238.40  L 2369.91,  238.74  L 2370.30,  239.45  L 2370.30,  240.04  L 2370.68,  240.48  L 2371.25,  240.58  L 2371.75,  240.29  L 2371.95,  239.75  L 2371.75,  239.20  L 2371.25,  238.91  L 2370.68,  239.01  L 2371.10,  239.75 " style="stroke-width: 0.85 ;&st7; " /><path d=" M 2371.10,  171.76  L 2396.60,  171.76  L 2396.60,  197.25  L 2399.43,  198.67  L 2393.77,  201.50  L 2399.43,  204.33  L 2393.77,  207.17  L 2399.43,  210.00  L 2393.77,  212.83  L 2396.60,  214.25  L 2396.60,  239.75  L 2371.10,  239.75 " style="stroke-width: 0.85 ;&st7; " /><path d=" M 2258.50,  273.74  C 2256.15   273.74  2254.25   275.64  2254.25   277.99 " style="stroke-width: 1.42 ;&st7; " /><path d=" M 2254.25,  277.99  C 2254.25   280.34  2256.15   282.24  2258.50   282.24 " style="stroke-width: 1.42 ;&st7; " /><path d=" M 2262.75,  282.24  C 2265.09   282.24  2267.00   280.34  2267.00   277.99 " style="stroke-width: 1.42 ;&st7; " /><path d=" M 2267.00,  277.99  C 2267.00   275.64  2265.09   273.74  2262.75   273.74 " style="stroke-width: 1.42 ;&st7; " /><path d=" M 2300.99,  277.99  C 2300.99   275.64  2299.09   273.74  2296.74   273.74 " style="stroke-width: 1.42 ;&st7; " /><path d=" M 2296.74,  282.24  C 2299.09   282.24  2300.99   280.34  2300.99   277.99 " style="stroke-width: 1.42 ;&st7; " /><path d=" M 2288.24,  277.99  C 2288.24   280.34  2290.15   282.24  2292.49   282.24 " style="stroke-width: 1.42 ;&st7; " /><path d=" M 2292.49,  273.74  C 2290.15   273.74  2288.24   275.64  2288.24   277.99 " style="stroke-width: 1.42 ;&st7; " /><path d=" M 2334.98,  277.99  C 2334.98   275.64  2333.08   273.74  2330.74   273.74 " style="stroke-width: 1.42 ;&st7; " /><path d=" M 2330.74,  282.24  C 2333.08   282.24  2334.98   280.34  2334.98   277.99 " style="stroke-width: 1.42 ;&st7; " /><path d=" M 2322.24,  277.99  C 2322.24   280.34  2324.14   282.24  2326.49   282.24 " style="stroke-width: 1.42 ;&st7; " /><path d=" M 2326.49,  273.74  C 2324.14   273.74  2322.24   275.64  2322.24   277.99 " style="stroke-width: 1.42 ;&st7; " /><path d=" M 2007.08,  460.71  C 2007.08   459.93  2006.45   459.29  2005.66   459.29 " style="stroke-width: 0.85 ;&st7; " /><path d=" M 2005.66,  459.29  C 2004.88   459.29  2004.25   459.93  2004.25   460.71 " style="stroke-width: 0.85 ;&st7; " /><path d=" M 2004.25,  460.71  C 2004.25   461.49  2004.88   462.12  2005.66   462.12 " style="stroke-width: 0.85 ;&st7; " /><path d=" M 2005.66,  462.12  C 2006.45   462.12  2007.08   461.49  2007.08   460.71 " style="stroke-width: 0.85 ;&st7; " /><path d=" M 2143.06,  460.71  C 2143.06   459.93  2142.42   459.29  2141.64   459.29 " style="stroke-width: 0.85 ;&st7; " /><path d=" M 2141.64,  459.29  C 2140.86   459.29  2140.23   459.93  2140.23   460.71 " style="stroke-width: 0.85 ;&st7; " /><path d=" M 2140.23,  460.71  C 2140.23   461.49  2140.86   462.12  2141.64   462.12 " style="stroke-width: 0.85 ;&st7; " /><path d=" M 2141.64,  462.12  C 2142.42   462.12  2143.06   461.49  2143.06   460.71 " style="stroke-width: 0.85 ;&st7; " /><path d=" M 2126.06,  460.71  C 2126.06   459.93  2125.43   459.29  2124.65   459.29 " style="stroke-width: 0.85 ;&st7; " /><path d=" M 2124.65,  459.29  C 2123.86   459.29  2123.23   459.93  2123.23   460.71 " style="stroke-width: 0.85 ;&st7; " /><path d=" M 2123.23,  460.71  C 2123.23   461.49  2123.86   462.12  2124.65   462.12 " style="stroke-width: 0.85 ;&st7; " /><path d=" M 2124.65,  462.12  C 2125.43   462.12  2126.06   461.49  2126.06   460.71 " style="stroke-width: 0.85 ;&st7; " /><path d=" M 2177.05,  460.71  C 2177.05   459.93  2176.42   459.29  2175.64   459.29 " style="stroke-width: 0.85 ;&st7; " /><path d=" M 2175.64,  459.29  C 2174.85   459.29  2174.22   459.93  2174.22   460.71 " style="stroke-width: 0.85 ;&st7; " /><path d=" M 2174.22,  460.71  C 2174.22   461.49  2174.85   462.12  2175.64   462.12 " style="stroke-width: 0.85 ;&st7; " /><path d=" M 2175.64,  462.12  C 2176.42   462.12  2177.05   461.49  2177.05   460.71 " style="stroke-width: 0.85 ;&st7; " /><path d=" M 2194.05,  460.71  C 2194.05   459.93  2193.42   459.29  2192.63   459.29 " style="stroke-width: 0.85 ;&st7; " /><path d=" M 2192.63,  459.29  C 2191.85   459.29  2191.22   459.93  2191.22   460.71 " style="stroke-width: 0.85 ;&st7; " /><path d=" M 2191.22,  460.71  C 2191.22   461.49  2191.85   462.12  2192.63   462.12 " style="stroke-width: 0.85 ;&st7; " /><path d=" M 2192.63,  462.12  C 2193.42   462.12  2194.05   461.49  2194.05   460.71 " style="stroke-width: 0.85 ;&st7; " /><path d=" M 2185.55,  477.71  C 2185.55   476.92  2184.92   476.29  2184.14   476.29 " style="stroke-width: 0.85 ;&st7; " /><path d=" M 2184.14,  476.29  C 2183.35   476.29  2182.72   476.92  2182.72   477.71 " style="stroke-width: 0.85 ;&st7; " /><path d=" M 2182.72,  477.71  C 2182.72   478.49  2183.35   479.12  2184.14   479.12 " style="stroke-width: 0.85 ;&st7; " /><path d=" M 2184.14,  479.12  C 2184.92   479.12  2185.55   478.49  2185.55   477.71 " style="stroke-width: 0.85 ;&st7; " /><path d=" M 2134.56,  477.71  C 2134.56   476.92  2133.93   476.29  2133.14   476.29 " style="stroke-width: 0.85 ;&st7; " /><path d=" M 2133.14,  476.29  C 2132.36   476.29  2131.73   476.92  2131.73   477.71 " style="stroke-width: 0.85 ;&st7; " /><path d=" M 2131.73,  477.71  C 2131.73   478.49  2132.36   479.12  2133.14   479.12 " style="stroke-width: 0.85 ;&st7; " /><path d=" M 2133.14,  479.12  C 2133.93   479.12  2134.56   478.49  2134.56   477.71 " style="stroke-width: 0.85 ;&st7; " /><path d=" M 2201.13,   98.10  C 2198.39    99.72  2197.48   103.24  2199.10   105.98 " style="stroke-width: 1.42 ;&st7; " /><path d=" M 2199.10,  105.98  C 2199.61   106.86  2200.25   107.50  2201.13   108.02 " style="stroke-width: 1.42 ;&st7; " /><path d=" M 2201.13,  117.93  C 2203.87   116.32  2204.78   112.79  2203.17   110.05 " style="stroke-width: 1.42 ;&st7; " /><path d=" M 2203.17,  110.05  C 2202.65   109.17  2202.01   108.54  2201.13   108.02 " style="stroke-width: 1.42 ;&st7; " /><path d=" M 2202.55,   96.69  C 2202.55    95.90  2201.91    95.27  2201.13    95.27 " style="stroke-width: 0.85 ;&st7; " /><path d=" M 2201.13,   95.27  C 2200.35    95.27  2199.72    95.90  2199.72    96.69 " style="stroke-width: 0.85 ;&st7; " /><path d=" M 2199.72,   96.69  C 2199.72    97.47  2200.35    98.10  2201.13    98.10 " style="stroke-width: 0.85 ;&st7; " /><path d=" M 2201.13,   98.10  C 2201.91    98.10  2202.55    97.47  2202.55    96.69 " style="stroke-width: 0.85 ;&st7; " /><path d=" M 2202.55,  119.35  C 2202.55   118.57  2201.91   117.93  2201.13   117.93 " style="stroke-width: 0.85 ;&st7; " /><path d=" M 2201.13,  117.93  C 2200.35   117.93  2199.72   118.57  2199.72   119.35 " style="stroke-width: 0.85 ;&st7; " /><path d=" M 2199.72,  119.35  C 2199.72   120.13  2200.35   120.77  2201.13   120.77 " style="stroke-width: 0.85 ;&st7; " /><path d=" M 2201.13,  120.77  C 2201.91   120.77  2202.55   120.13  2202.55   119.35 " style="stroke-width: 0.85 ;&st7; " /><path d=" M 2199.01,  146.26  C 2196.66   146.26  2194.76   148.16  2194.76   150.51 " style="stroke-width: 1.42 ;&st7; " /><path d=" M 2194.76,  150.51  C 2194.76   152.86  2196.66   154.76  2199.01   154.76 " style="stroke-width: 1.42 ;&st7; " /><path d=" M 2203.26,  154.76  C 2205.60   154.76  2207.51   152.86  2207.51   150.51 " style="stroke-width: 1.42 ;&st7; " /><path d=" M 2207.51,  150.51  C 2207.51   148.16  2205.60   146.26  2203.26   146.26 " style="stroke-width: 1.42 ;&st7; " /><path d=" M 2156.51,   99.52  C 2156.51    97.17  2154.61    95.27  2152.27    95.27 " style="stroke-width: 1.42 ;&st7; " /><path d=" M 2152.27,  103.77  C 2154.61   103.77  2156.51   101.87  2156.51    99.52 " style="stroke-width: 1.42 ;&st7; " /><path d=" M 2143.77,   99.52  C 2143.77   101.87  2145.67   103.77  2148.02   103.77 " style="stroke-width: 1.42 ;&st7; " /><path d=" M 2148.02,   95.27  C 2145.67    95.27  2143.77    97.17  2143.77    99.52 " style="stroke-width: 1.42 ;&st7; " /><path d=" M 2124.65,  554.19  C 2124.65   558.89  2128.45   562.69  2133.14   562.69 " style="stroke-width: 1.42 ;&st7; " /><path d=" M 2133.14,  562.69  C 2137.84   562.69  2141.64   558.89  2141.64   554.19 " style="stroke-width: 1.42 ;&st7; " /><path d=" M 2141.64,  554.19  C 2141.64   549.50  2137.84   545.69  2133.14   545.69 " style="stroke-width: 1.42 ;&st7; " /><path d=" M 2133.14,  545.69  C 2128.45   545.69  2124.64   549.50  2124.64   554.19 " style="stroke-width: 1.42 ;&st7; " /><path d=" M 2498.58,   69.77  C 2496.08    69.77  2494.05    71.80  2494.05    74.31 " style="stroke-width: 1.42 ;&st7; " /><path d=" M 2494.05,   74.31  C 2494.05    76.81  2496.08    78.84  2498.58    78.84 " style="stroke-width: 1.42 ;&st7; " /><path d=" M 2498.58,   78.84  C 2501.09    78.84  2503.12    76.81  2503.12    74.31 " style="stroke-width: 1.42 ;&st7; " /><path d=" M 2498.58,  307.73  C 2496.08   307.73  2494.05   309.76  2494.05   312.27 " style="stroke-width: 1.42 ;&st7; " /><path d=" M 2494.05,  312.27  C 2494.05   314.77  2496.08   316.80  2498.58   316.80 " style="stroke-width: 1.42 ;&st7; " /><path d=" M 2498.58,  316.80  C 2501.09   316.80  2503.12   314.77  2503.12   312.27 " style="stroke-width: 1.42 ;&st7; " /><path d=" M 2498.58,  273.17  C 2496.08   273.17  2494.05   275.20  2494.05   277.71 " style="stroke-width: 1.42 ;&st7; " /><path d=" M 2494.05,  277.71  C 2494.05   280.21  2496.08   282.24  2498.58   282.24 " style="stroke-width: 1.42 ;&st7; " /><path d=" M 2498.58,  282.24  C 2501.09   282.24  2503.12   280.21  2503.12   277.71 " style="stroke-width: 1.42 ;&st7; " /><path d=" M 2498.58,  564.11  C 2497.80   564.11  2497.17   564.74  2497.17   565.52 " style="stroke-width: 0.85 ;&st7; " /><path d=" M 2497.17,  565.52  C 2497.17   566.31  2497.80   566.94  2498.58   566.94 " style="stroke-width: 0.85 ;&st7; " /><path d=" M 2498.58,  566.94  C 2499.36   566.94  2500.00   566.31  2500.00   565.52 " style="stroke-width: 0.85 ;&st7; " /><path d=" M 2498.58,  541.44  C 2497.80   541.44  2497.17   542.08  2497.17   542.86 " style="stroke-width: 0.85 ;&st7; " /><path d=" M 2497.17,  542.86  C 2497.17   543.64  2497.80   544.28  2498.58   544.28 " style="stroke-width: 0.85 ;&st7; " /><path d=" M 2498.58,  544.28  C 2499.36   544.28  2500.00   543.64  2500.00   542.86 " style="stroke-width: 0.85 ;&st7; " /><path d=" M 2347.02,  217.08  C 2347.02   216.30  2346.39   215.67  2345.61   215.67 " style="stroke-width: 0.85 ;&st7; " /><path d=" M 2345.61,  215.67  C 2344.83   215.67  2344.19   216.30  2344.19   217.08 " style="stroke-width: 0.85 ;&st7; " /><path d=" M 2344.19,  217.08  C 2344.19   217.86  2344.83   218.50  2345.61   218.50 " style="stroke-width: 0.85 ;&st7; " /><path d=" M 2345.61,  218.50  C 2346.39   218.50  2347.02   217.86  2347.02   217.08 " style="stroke-width: 0.85 ;&st7; " /><path d=" M 2347.02,  194.42  C 2347.02   193.64  2346.39   193.00  2345.61   193.00 " style="stroke-width: 0.85 ;&st7; " /><path d=" M 2345.61,  193.00  C 2344.83   193.00  2344.19   193.64  2344.19   194.42 " style="stroke-width: 0.85 ;&st7; " /><path d=" M 2344.19,  194.42  C 2344.19   195.20  2344.83   195.84  2345.61   195.84 " style="stroke-width: 0.85 ;&st7; " /><path d=" M 2345.61,  195.84  C 2346.39   195.84  2347.02   195.20  2347.02   194.42 " style="stroke-width: 0.85 ;&st7; " /><path d=" M 2368.57,  203.27  C 2369.94   204.67  2372.19   204.69  2373.58   203.32 " style="stroke-width: 0.85 ;&st7; " /><path d=" M 2373.58,  203.32  C 2374.98   201.95  2375.00   199.71  2373.63   198.31 " style="stroke-width: 0.85 ;&st7; " /><path d=" M 2373.63,  198.31  C 2372.94   197.61  2372.09   197.25  2371.10   197.25 " style="stroke-width: 0.85 ;&st7; " /><path d=" M 2368.57,  208.23  C 2369.94   209.63  2372.19   209.65  2373.58   208.28 " style="stroke-width: 0.85 ;&st7; " /><path d=" M 2373.58,  208.28  C 2374.98   206.91  2375.00   204.67  2373.63   203.27 " style="stroke-width: 0.85 ;&st7; " /><path d=" M 2373.63,  203.27  C 2372.26   201.88  2370.02   201.85  2368.63   203.22 " style="stroke-width: 0.85 ;&st7; " /><path d=" M 2368.63,  203.22  C 2368.61   203.24  2368.59   203.25  2368.57   203.27 " style="stroke-width: 0.85 ;&st7; " /><path d=" M 2371.10,  214.25  C 2373.06   214.25  2374.64   212.66  2374.64   210.71 " style="stroke-width: 0.85 ;&st7; " /><path d=" M 2374.64,  210.71  C 2374.64   208.75  2373.06   207.17  2371.10   207.17 " style="stroke-width: 0.85 ;&st7; " /><path d=" M 2371.10,  207.17  C 2370.11   207.17  2369.27   207.52  2368.57   208.23 " style="stroke-width: 0.85 ;&st7; " /><path d=" M 2377.48,  277.99  C 2377.48   275.64  2375.58   273.74  2373.23   273.74 " style="stroke-width: 1.42 ;&st7; " /><path d=" M 2373.23,  282.24  C 2375.58   282.24  2377.48   280.34  2377.48   277.99 " style="stroke-width: 1.42 ;&st7; " /><path d=" M 2364.73,  277.99  C 2364.73   280.34  2366.63   282.24  2368.98   282.24 " style="stroke-width: 1.42 ;&st7; " /><path d=" M 2368.98,  273.74  C 2366.63   273.74  2364.73   275.64  2364.73   277.99 " style="stroke-width: 1.42 ;&st7; " /><path d=" M 2313.03,   96.69  C 2313.03    95.90  2312.40    95.27  2311.61    95.27 " style="stroke-width: 0.85 ;&st7; " /><path d=" M 2311.61,   95.27  C 2310.83    95.27  2310.20    95.90  2310.20    96.69 " style="stroke-width: 0.85 ;&st7; " /><path d=" M 2310.20,   96.69  C 2310.20    97.47  2310.83    98.10  2311.61    98.10 " style="stroke-width: 0.85 ;&st7; " /><path d=" M 2311.61,   98.10  C 2312.40    98.10  2313.03    97.47  2313.03    96.69 " style="stroke-width: 0.85 ;&st7; " /><path d=" M 2313.03,  119.35  C 2313.03   118.57  2312.40   117.93  2311.61   117.93 " style="stroke-width: 0.85 ;&st7; " /><path d=" M 2311.61,  117.93  C 2310.83   117.93  2310.20   118.57  2310.20   119.35 " style="stroke-width: 0.85 ;&st7; " /><path d=" M 2310.20,  119.35  C 2310.20   120.13  2310.83   120.77  2311.61   120.77 " style="stroke-width: 0.85 ;&st7; " /><path d=" M 2311.61,  120.77  C 2312.40   120.77  2313.03   120.13  2313.03   119.35 " style="stroke-width: 0.85 ;&st7; " /><path d=" M 2311.61,   98.10  C 2310.76   101.02  2311.42   103.92  2313.46   106.17 " style="stroke-width: 1.42 ;&st7; " /><path d=" M 2311.61,   98.10  C 2309.44   101.13  2309.44   104.99  2311.61   108.02 " style="stroke-width: 1.42 ;&st7; " /><path d=" M 2311.61,   98.10  C 2307.90   100.87  2307.08   106.09  2309.77   109.86 " style="stroke-width: 1.42 ;&st7; " /><path d=" M 2311.61,  117.93  C 2315.33   115.17  2316.15   109.95  2313.45   106.18 " style="stroke-width: 1.42 ;&st7; " /><path d=" M 2311.61,  117.93  C 2313.78   114.91  2313.78   111.04  2311.61   108.02 " style="stroke-width: 1.42 ;&st7; " /><path d=" M 2311.61,  117.93  C 2312.47   115.01  2311.81   112.12  2309.77   109.86 " style="stroke-width: 1.42 ;&st7; " /><path d=" M 2498.58,  375.16  C 2496.08   375.16  2494.05   377.19  2494.05   379.69 " style="stroke-width: 1.42 ;&st7; " /><path d=" M 2494.05,  379.69  C 2494.05   382.19  2496.08   384.22  2498.58   384.22 " style="stroke-width: 1.42 ;&st7; " /><path d=" M 2498.58,  384.22  C 2501.09   384.22  2503.12   382.19  2503.12   379.69 " style="stroke-width: 1.42 ;&st7; " /><path d=" M 2498.58,  409.72  C 2496.08   409.72  2494.05   411.75  2494.05   414.25 " style="stroke-width: 1.42 ;&st7; " /><path d=" M 2494.05,  414.25  C 2494.05   416.75  2496.08   418.78  2498.58   418.78 " style="stroke-width: 1.42 ;&st7; " /><path d=" M 2498.58,  418.78  C 2501.09   418.78  2503.12   416.75  2503.12   414.25 " style="stroke-width: 1.42 ;&st7; " /><text style="&st18;" transform="matrix(&st17;  2101.94  573.71 )">N4</text><text ewd:textID="26" style="&st18;" transform="matrix(&st17;  2109.05  573.71 )">Rear Power Window <tspan dy="6" x="0">Regulator Motor </tspan><tspan dy="6" x="0">Assembly RH</tspan></text><text style="&st18;" transform="matrix(&st17;  2494.89  253.05 )">BR</text><text style="&st18;" transform="matrix(&st16;  2496.11  76.28 )">D</text><text style="&st18;" transform="matrix(&st16;  2489.19  66.08 )">DCTY</text><text style="&st18;" transform="matrix(&st16;  2483.75  76.28 )">24</text><text style="&st18;" transform="matrix(&st16;  2496.25  314.24 )">B</text><text style="&st18;" transform="matrix(&st16;  2484.53  314.24 )">10</text><text style="&st18;" transform="matrix(&st16;  2496.25  279.67 )">A</text><text style="&st18;" transform="matrix(&st16;  2488.48  279.67 )">1</text><text style="&st18;" transform="matrix(&st16;  2480.59  483.92 )">15</text><text style="&st18;" transform="matrix(&st16;  2492.57  533.51 )">1</text><text style="&st18;" transform="matrix(&st17;  2494.89  362.08 )">W</text><text style="&st18;" transform="matrix(&st17;  2494.89  448.51 )">BR</text><text style="&st18;" transform="matrix(&st17;  2494.89  516.36 )">SB</text><text style="&st18;" transform="matrix(&st16;  2429.8  66.08 )">GND1</text><text style="&st18;" transform="matrix(&st16;  2403.92  66.08 )">GND2</text><text style="&st18;" transform="matrix(&st16;  2432.3  77.97 )">5</text><text style="&st18;" transform="matrix(&st16;  2406.81  77.97 )">4</text><text style="&st18;" transform="matrix(&st16;  2354.46  279.96 )">62</text><text style="&st18;" transform="matrix(&st16;  2366.16  279.96 )">DD</text><text ewd:textID="22" style="&st18;" transform="matrix(&st17;  2333.7  222.53 )">P/W Relay</text><text style="&st18;" transform="matrix(&st16;  2363.09  66.08 )">PWS</text><text style="&st18;" transform="matrix(&st16;  2361.14  77.97 )">18</text><text style="&st18;" transform="matrix(&st16;  2302.5  83.07 )">(BAT)</text><text style="&st18;" transform="matrix(&st16;  2304.82  137.46 )">2</text><text ewd:textID="6" style="&st18;" transform="matrix(&st16;  2328.92  104.33 )">30A <tspan dy="6" x="0">POWER </tspan><tspan dy="6" x="0">No.1</tspan></text><text style="&st18;" transform="matrix(&st16;  2364.31  587.88 )">5</text><text style="&st18;" transform="matrix(&st16;  2364.31  559.0 )">4</text><text style="&st18;" transform="matrix(&st17;  2367.41  621.38 )">W-B</text><text style="&st18;" transform="matrix(&st17;  2367.41  519.4 )">W-B</text><text style="&st18;" transform="matrix(&st17;  2421.21  582.21 )">H85</text><text ewd:textID="18" style="&st18;" transform="matrix(&st17;  2428.31  582.21 )">Junction Connector</text><text style="&st18;" transform="matrix(&st17;  2367.41  315.43 )">W-B</text><text style="&st18;" transform="matrix(&st16;  2395.13  587.88 )">10</text><text style="&st18;" transform="matrix(&st17;  2401.4  621.38 )">W-B</text><text style="&st18;" transform="matrix(&st16;  2496.25  381.66 )">A</text><text style="&st18;" transform="matrix(&st16;  2488.48  381.66 )">1</text><text style="&st18;" transform="matrix(&st16;  2496.25  416.22 )">B</text><text style="&st18;" transform="matrix(&st16;  2485.3  416.22 )">11</text><text ewd:textID="28" style="&st18;" transform="matrix(&st17;  2106.5  497.23 )">Rear Power Window Regulator <tspan dy="6" x="0">Switch Assembly RH</tspan></text><text style="&st18;" transform="matrix(&st16;  2255.68  279.96 )">DD</text><text style="&st18;" transform="matrix(&st17;  2290.92  431.38 )">SB</text><text style="&st18;" transform="matrix(&st17;  2290.92  480.04 )">Y</text><text style="&st18;" transform="matrix(&st16;  2279.8  398.94 )">4</text><text style="&st18;" transform="matrix(&st16;  2276.62  458.43 )">19</text><text style="&st18;" transform="matrix(&st17;  2324.91  480.04 )">Y</text><text style="&st18;" transform="matrix(&st16;  2310.62  458.43 )">19</text><text style="&st18;" transform="matrix(&st17;  2256.93  312.54 )">BR</text><text style="&st18;" transform="matrix(&st17;  2290.92  310.06 )">B</text><text style="&st18;" transform="matrix(&st16;  2277.97  279.96 )">33</text><text style="&st18;" transform="matrix(&st16;  2289.67  279.96 )">DD</text><text style="&st18;" transform="matrix(&st17;  2324.91  310.06 )">P</text><text style="&st18;" transform="matrix(&st16;  2312.74  279.96 )">19</text><text style="&st18;" transform="matrix(&st16;  2323.67  279.96 )">DC</text><text style="&st18;" transform="matrix(&st17;  2027.46  518.28 )">Y</text><text style="&st18;" transform="matrix(&st17;  2214.43  518.28 )">Y</text><text style="&st18;" transform="matrix(&st17;  2129.45  518.42 )">R</text><text style="&st18;" transform="matrix(&st17;  2180.44  518.7 )">G</text><text style="&st18;" transform="matrix(&st17;  2171.94  333.71 )">LG</text><text style="&st18;" transform="matrix(&st17;  2137.95  333.64 )">BE</text><text style="&st18;" transform="matrix(&st16;  2160.82  347.95 )">2</text><text style="&st18;" transform="matrix(&st16;  2126.83  347.95 )">3</text><text style="&st18;" transform="matrix(&st17;  2099.39  497.23 )">N3</text><text style="&st18;" transform="matrix(&st17;  2171.94  418.77 )">BR</text><text style="&st18;" transform="matrix(&st17;  2137.95  418.63 )">BE</text><text style="&st18;" transform="matrix(&st17;  2171.94  376.21 )">LG</text><text style="&st18;" transform="matrix(&st17;  2137.95  376.14 )">BE</text><text style="&st18;" transform="matrix(&st16;  2123.65  398.94 )">12</text><text style="&st18;" transform="matrix(&st16;  2211.34  502.9 )">3</text><text style="&st18;" transform="matrix(&st16;  2210.63  491.01 )">B</text><text style="&st18;" transform="matrix(&st16;  2024.37  502.9 )">3</text><text style="&st18;" transform="matrix(&st16;  2023.67  491.01 )">B</text><text ewd:textID="12" style="&st18;" transform="matrix(&st17;  2007.64  482.74 )">Down</text><text style="&st18;" transform="matrix(&st16;  2134.85  431.52 )">5</text><text style="&st18;" transform="matrix(&st16;  2168.85  431.52 )">2</text><text style="&st18;" transform="matrix(&st16;  2126.35  502.9 )">4</text><text style="&st18;" transform="matrix(&st16;  2178.12  502.9 )">1</text><text ewd:textID="31" style="&st18;" transform="matrix(&st17;  2126.62  473.7 )">Up</text><text ewd:textID="12" style="&st18;" transform="matrix(&st17;  2194.61  482.74 )">Down</text><text style="&st18;" transform="matrix(&st16;  2125.37  491.01 )">U</text><text style="&st18;" transform="matrix(&st16;  2176.36  491.01 )">D</text><text style="&st18;" transform="matrix(&st16;  2129.2  443.41 )">SU</text><text style="&st18;" transform="matrix(&st16;  2163.2  443.41 )">SD</text><text style="&st18;" transform="matrix(&st16;  2157.64  398.94 )">13</text><text style="&st18;" transform="matrix(&st16;  2243.98  279.96 )">32</text><text style="&st18;" transform="matrix(&st17;  2137.95  278.4 )">BE</text><text style="&st18;" transform="matrix(&st16;  2139.17  244.55 )">U</text><text style="&st18;" transform="matrix(&st16;  2131.67  256.44 )">10</text><text style="&st18;" transform="matrix(&st17;  2171.94  278.47 )">LG</text><text style="&st18;" transform="matrix(&st16;  2173.16  244.55 )">D</text><text style="&st18;" transform="matrix(&st16;  2165.67  256.44 )">16</text><text style="&st18;" transform="matrix(&st16;  2126.83  305.45 )">5</text><text style="&st18;" transform="matrix(&st16;  2160.82  305.45 )">4</text><text style="&st18;" transform="matrix(&st17;  2205.93  276.07 )">P</text><text style="&st18;" transform="matrix(&st16;  2207.3  244.55 )">B</text><text style="&st18;" transform="matrix(&st16;  2199.66  256.44 )">13</text><text style="&st18;" transform="matrix(&st16;  2194.82  305.45 )">2</text><text style="&st18;" transform="matrix(&st17;  2205.94  338.03 )">BR</text><text style="&st18;" transform="matrix(&st16;  2218.44  107.16 )">7.5A <tspan dy="6" x="0">ECU-B1</tspan></text><text style="&st18;" transform="matrix(&st16;  2194.34  137.46 )">2</text><text style="&st18;" transform="matrix(&st16;  2199.54  152.48 )">1</text><text style="&st18;" transform="matrix(&st17;  2146.45  125.99 )">GR</text><text style="&st18;" transform="matrix(&st16;  2139.4  77.97 )">26</text><text style="&st18;" transform="matrix(&st16;  2192.02  83.07 )">(BAT)</text><text style="&st18;" transform="matrix(&st16;  2140.53  66.08 )">BECU</text><text style="&st18;" transform="matrix(&st16;  2134.27  101.49 )">13</text><text style="&st18;" transform="matrix(&st16;  2145.34  101.49 )">DB</text><text ewd:textID="21" style="&st18;" transform="matrix(&st16;  2351.58  32.08 )">Main Body ECU</text><text style="&st18;" transform="matrix(&st16;  2351.58  24.98 )">H2(B),H4(D)</text><text ewd:textID="23" style="&st18;" transform="matrix(&st16;  2102.84  233.22 )">Power Window Master Switch</text><text ewd:textID="24" style="&st18;" transform="matrix(&st16;  2088.13  210.55 )">Power Window Regulator Master Switch Assembly</text><text style="&st18;" transform="matrix(&st16;  2088.13  203.45 )">M2</text><text style="&st18;" transform="matrix(&st16;  2046.18  660.98 )">L</text><text style="&st18;" transform="matrix(&st16;  2097.17  660.98 )">L</text><text style="&st18;" transform="matrix(&st16;  2045.83  635.48 )">Y</text><text style="&st18;" transform="matrix(&st16;  2096.82  635.48 )">Y</text><text style="&st18;" transform="matrix(&st16;  2130.25  556.16 )">M</text><text style="&st18;" transform="matrix(&st16;  2126.35  539.17 )">2</text><text style="&st18;" transform="matrix(&st16;  2127.13  573.72 )">1</text></svg>