﻿<?xml version="1.0" encoding="utf-8"?>
<!DOCTYPE svg PUBLIC "-//W3C//DTD SVG 1.0//EN" "http://www.w3.org/TR/2001/REC-SVG-20010904/DTD/svg10.dtd"[
	<!ENTITY ns_flows "http://ns.adobe.com/Flows/1.0/">
	<!ENTITY ns_svg "http://www.w3.org/2000/svg">
	<!ENTITY ns_xlink "http://www.w3.org/1999/xlink">
	<!ENTITY st0 "font-size:7px;font-family:'MS-PGothic';adobe-font-script:japanese;">
	<!ENTITY st1 "font-size:6px;font-family:'ArialMT';">
	<!-- White fill  -->
	<!ENTITY st2 "fill:#FFFFFF;stroke:#000000; stroke-width:1.41;stroke-linecap:round;stroke-linejoin:round;">
	<!-- Yellow fill  -->
	<!ENTITY st3 "fill:#FFFFCC;stroke:#FFFFCC; stroke-width:0.1;stroke-linecap:round;stroke-linejoin:round;">
	<!-- Gray fill  -->
	<!ENTITY st4 "fill:#CCCCCC;stroke:#CCCCCC; stroke-width:0.1;stroke-linecap:round;stroke-linejoin:round;">
	<!-- Light-blue fill -->
	<!ENTITY st5 "fill:#CCECF4;stroke:#000000; stroke-width:1.133;stroke-linecap:round;stroke-linejoin:round;">
	<!ENTITY st6 "fill:none;stroke-linecap:butt; stroke-linejoin:round;">
	<!ENTITY st7 "fill:none;stroke:#000000;stroke-linecap:round;stroke-linejoin:round;">
	<!ENTITY st8 "enable-background:new    ;">
	<!-- Black fill -->
	<!ENTITY st9 "fill:#000000;stroke:#000000; stroke-linecap:round;stroke-linejoin:round;">
	<!-- SRS note   -->
	<!ENTITY st10 "font-size:9px;font-family:'ArialMT';">
	<!ENTITY st11 "font-size:9px;font-family:'Svg Symbol';">
	<!ENTITY st12 "font-size:6px;font-family:'Svg Symbol';">
	<!ENTITY st13 "fill:none;stroke:#ff0000;stroke-linecap:round;stroke-linejoin:round;">
	<!-- Yellow fill  -->
	<!ENTITY st14 "fill:#FFFF00;stroke:#FFFF00; stroke-width:0.1;stroke-linecap:round;stroke-linejoin:round;">
	<!ENTITY st15 "font-size:6px;font-family:'MS-PGothic';adobe-font-script:japanese;">
	<!ENTITY st16 "1.00 0.00 0.00 1.00">
	<!ENTITY st17 "0.00 -1.00 1.00 0.00">
	<!ENTITY st18 "font-size:6px;font-family:'Arial';">
	<!ENTITY st19 "font-size:9px;font-family:'Arial';">
	<!ENTITY st20 "font-size:6px;font-family:'MS-PGothic','MS PGothic';adobe-font-script:japanese;">
	<!ENTITY st21 "font-size:7px;font-family:'MS-PGothic','MS PGothic';adobe-font-script:japanese;">
	<!ATTLIST svg
		xmlns:ewd CDATA #FIXED "http://shcl.co.jp/ewd"
		xmlns:a CDATA #FIXED "http://ns.adobe.com/AdobeSVGViewerExtensions/3.0/"
		ewd:ver CDATA #IMPLIED
	>
	<!ATTLIST a
		ewd:lineID CDATA #IMPLIED
		ewd:groupID CDATA #IMPLIED
		ewd:figtype CDATA #IMPLIED
		ewd:code CDATA #IMPLIED
		ewd:figID CDATA #IMPLIED
		ewd:pinNo CDATA #IMPLIED
		ewd:comment CDATA #IMPLIED >
	<!ATTLIST g
		ewd:lineID CDATA #IMPLIED
		ewd:groupID CDATA #IMPLIED
		ewd:figtype CDATA #IMPLIED
		ewd:code CDATA #IMPLIED
		ewd:figID CDATA #IMPLIED
		ewd:pinNo CDATA #IMPLIED
		ewd:comment CDATA #IMPLIED >
	<!ATTLIST text
		ewd:textID CDATA #IMPLIED >
	<!ATTLIST title
		ewd:textID CDATA #IMPLIED >
]>
<!-- Generator: Shintec Hozumi YS   -->
<svg onload="call_execInitLoadProc_svg('system')" style="overflow:visible;  enable-background:new 0 0 1497.852 710.000" viewBox="0 0 1497.852 710.000" height="710.000" width="1497.852" xml:space="preserve" ewd:ver="L2.1.2.7" xmlns="&ns_svg;" xmlns:a="http://ns.adobe.com/AdobeSVGViewerExtensions/3.0/" xmlns:ewd="http://shcl.co.jp/ewd" xmlns:xlink="&ns_xlink;">
<path d=" M 1457.51,  512.83  L 1457.51,  508.87 " style="stroke-width: 1.42 ;&st7; " /><path d=" M 1457.51,  508.87  L 1466.01,  508.87 " style="stroke-width: 1.42 ;&st7; " /><path d=" M 1466.01,  531.53  L 1466.01,  527.56 " style="stroke-width: 1.42 ;&st7; " /><path d=" M 1457.51,  527.56  L 1457.51,  531.53 " style="stroke-width: 1.42 ;&st7; " /><path d=" M 1457.51,  531.53  L 1466.01,  531.53 " style="stroke-width: 1.42 ;&st7; " /><path d=" M 1438.38,  341.73  L 1434.14,  341.73 " style="stroke-width: 1.42 ;&st7; " /><path d=" M 1438.38,  333.23  L 1434.14,  333.23 " style="stroke-width: 1.42 ;&st7; " /><path d=" M 1463.88,  341.73  L 1459.63,  341.73 " style="stroke-width: 1.42 ;&st7; " /><path d=" M 1463.88,  333.23  L 1459.63,  333.23 " style="stroke-width: 1.42 ;&st7; " /><path d=" M 1438.38,  265.24  L 1434.14,  265.24 " style="stroke-width: 1.42 ;&st7; " /><path d=" M 1438.38,  256.74  L 1434.14,  256.74 " style="stroke-width: 1.42 ;&st7; " /><path d=" M 1463.88,  265.24  L 1459.63,  265.24 " style="stroke-width: 1.42 ;&st7; " /><path d=" M 1463.88,  256.74  L 1459.63,  256.74 " style="stroke-width: 1.42 ;&st7; " /><path d=" M 1436.26,  307.73  L 1436.26,  316.23 " style="stroke-width: 0.85 ;&st7; " /><path d=" M 1436.26,  282.24  L 1436.26,  290.74 " style="stroke-width: 0.85 ;&st7; " /><path d=" M 1461.76,  282.24  L 1461.76,  286.49 " style="stroke-width: 0.85 ;&st7; " /><path d=" M 1461.76,  316.23  L 1461.76,  311.98 " style="stroke-width: 0.85 ;&st7; " /><path d=" M 1461.76,  309.15  L 1467.42,  286.49 " style="stroke-width: 1.42 ;&st7; " /><path d=" M 1461.76,   69.77  L 1461.76,   78.27 " style="stroke-width: 0.85 ;&st7; " /><path d=" M 1463.88,  112.27  L 1459.63,  112.27 " style="stroke-width: 1.42 ;&st7; " /><path d=" M 1463.88,  103.77  L 1459.63,  103.77 " style="stroke-width: 1.42 ;&st7; " /><path d=" M 1466.01,  508.87  L 1466.01,  512.83 " style="stroke-width: 1.42 ;&st7; " /><path d=" M 1274.79,   69.77  L 1274.79,   78.27 " style="stroke-width: 0.85 ;&st7; " /><path d=" M 1325.78,   69.77  L 1325.78,   78.27 " style="stroke-width: 0.85 ;&st7; " /><path d=" M 1232.29,   69.77  L 1232.29,   78.27 " style="stroke-width: 0.85 ;&st7; " /><path d=" M 1376.77,   69.77  L 1376.77,   78.27 " style="stroke-width: 0.85 ;&st7; " /><path d=" M 1378.89,  103.77  L 1374.65,  103.77 " style="stroke-width: 1.42 ;&st7; " /><path d=" M 1378.89,  112.27  L 1374.65,  112.27 " style="stroke-width: 1.42 ;&st7; " /><path d=" M 1081.44,  129.26  L 1077.20,  129.26 " style="stroke-width: 1.42 ;&st7; " /><path d=" M 1081.44,  137.76  L 1077.20,  137.76 " style="stroke-width: 1.42 ;&st7; " /><path d=" M 1461.76,  103.77  L 1461.76,   78.27 " style="stroke-width: 0.85 ;&st7; " /><path d=" M 1460.34,  710.00  L 1463.17,  710.00 " style="stroke-width: 0.85 ;&st7; " /><path d=" M 1458.92,  707.17  L 1464.59,  707.17 " style="stroke-width: 0.85 ;&st7; " /><path d=" M 1457.51,  704.33  L 1466.00,  704.33 " style="stroke-width: 0.85 ;&st7; " /><path d=" M 1453.26,  701.50  L 1470.25,  701.50 " style="stroke-width: 0.85 ;&st7; " /><path d=" M 1461.76,   98.87  L 1458.92,   96.04  L 1458.92,  100.29  L 1461.76,  103.12  L 1464.59,  100.29  L 1464.59,   96.04  L 1461.76,   98.87 " style="stroke-width: 0.28 ;&st9;" /><path d=" M 1461.76,  697.25  L 1461.76,  701.50 " style="stroke-width: 0.85 ;&st7; " /><path d=" M 1474.50,   78.27  L 1474.50,   35.78  L 1449.01,   35.78  L 1449.01,   78.27  L 1474.50,   78.27 " style="stroke-width: 1.42 ;&st7; " /><path d=" M 1427.76,  171.76  L 1427.76,  205.75  L 1470.25,  205.75  L 1470.25,  171.76  L 1427.76,  171.76 " style="stroke-width: 1.42 ;&st7; " /><path d=" M 1461.76,  171.76  L 1461.76,  205.75 " style="stroke-width: 0.85 ;&st7; " /><path d=" M 1427.76,  180.26  L 1470.25,  180.26 " style="stroke-width: 1.13 ;&st7;stroke-dasharray:3, 1.5;" /><path d=" M 1427.76,  197.25  L 1470.25,  197.25 " style="stroke-width: 1.13 ;&st7;stroke-dasharray:3, 1.5;" /><path d=" M 1461.76,  188.75  L 1436.26,  188.75  L 1436.26,  205.75 " style="stroke-width: 0.85 ;&st7; " /><path d=" M 1470.25,  282.24  L 1427.76,  282.24  L 1427.76,  316.23  L 1470.25,  316.23  L 1470.25,  282.24 " style="stroke-width: 1.42 ;&st7; " /><path d=" M 1461.76,  270.14  L 1464.59,  272.97  L 1464.59,  268.72  L 1461.76,  265.89  L 1458.92,  268.72  L 1458.92,  272.97  L 1461.76,  270.14 " style="stroke-width: 0.28 ;&st9;" /><path d=" M 1436.26,  270.14  L 1439.09,  272.97  L 1439.09,  268.72  L 1436.26,  265.89  L 1433.43,  268.72  L 1433.43,  272.97  L 1436.26,  270.14 " style="stroke-width: 0.28 ;&st9;" /><path d=" M 1461.76,  328.33  L 1458.92,  325.50  L 1458.92,  329.75  L 1461.76,  332.58  L 1464.59,  329.75  L 1464.59,  325.50  L 1461.76,  328.33 " style="stroke-width: 0.28 ;&st9;" /><path d=" M 1436.26,  328.33  L 1433.43,  325.50  L 1433.43,  329.75  L 1436.26,  332.58  L 1439.09,  329.75  L 1439.09,  325.50  L 1436.26,  328.33 " style="stroke-width: 0.28 ;&st9;" /><path d=" M 1436.26,  316.23  L 1436.26,  333.23 " style="stroke-width: 0.85 ;&st7; " /><path d=" M 1461.76,  333.23  L 1461.76,  316.23 " style="stroke-width: 0.85 ;&st7; " /><path d=" M 1461.76,  282.24  L 1461.76,  265.24 " style="stroke-width: 0.85 ;&st7; " /><path d=" M 1436.26,  265.24  L 1436.26,  282.24 " style="stroke-width: 0.85 ;&st7; " /><path d=" M 1460.56,  187.75  L 1460.29,  188.22  L 1460.20,  188.75  L 1460.29,  189.29  L 1460.56,  189.76  L 1460.98,  190.10  L 1461.48,  190.29  L 1462.03,  190.29  L 1462.53,  190.10  L 1462.95,  189.76  L 1463.22,  189.29  L 1463.31,  188.75  L 1463.22,  188.22  L 1462.95,  187.75  L 1462.53,  187.41  L 1462.03,  187.22  L 1461.48,  187.22  L 1460.98,  187.41  L 1460.56,  187.75  L 1460.96,  188.46  L 1460.96,  189.05  L 1461.33,  189.49  L 1461.90,  189.59  L 1462.41,  189.30  L 1462.61,  188.75  L 1462.41,  188.21  L 1461.90,  187.92  L 1461.33,  188.02  L 1461.76,  188.75 " style="stroke-width: 0.85 ;&st7; " /><path d=" M 1172.80,   69.77  L 1172.80,   95.27  L 1232.29,   95.27  L 1232.29,   78.27 " style="stroke-width: 0.85 ;&st7; " /><path d=" M 1104.81,   69.77  L 1104.81,  129.26  L 1325.78,  129.26  L 1325.78,   78.27 " style="stroke-width: 0.85 ;&st7; " /><path d=" M 1262.04,   35.78  L 1262.04,   78.27  L 1287.53,   78.27  L 1287.53,   35.78  L 1262.04,   35.78 " style="stroke-width: 1.42 ;&st7; " /><path d=" M 1313.03,   35.78  L 1313.03,   78.27  L 1338.53,   78.27  L 1338.53,   35.78  L 1313.03,   35.78 " style="stroke-width: 1.42 ;&st7; " /><path d=" M 1219.55,   35.78  L 1219.55,   78.27  L 1245.04,   78.27  L 1245.04,   35.78  L 1219.55,   35.78 " style="stroke-width: 1.42 ;&st7; " /><path d=" M 1364.02,   35.78  L 1364.02,   78.27  L 1389.52,   78.27  L 1389.52,   35.78  L 1364.02,   35.78 " style="stroke-width: 1.42 ;&st7; " /><path d=" M 1376.77,   98.87  L 1373.94,   96.04  L 1373.94,  100.29  L 1376.77,  103.12  L 1379.60,  100.29  L 1379.60,   96.04  L 1376.77,   98.87 " style="stroke-width: 0.28 ;&st9;" /><path d=" M 1376.77,   78.27  L 1376.77,  103.77 " style="stroke-width: 0.85 ;&st7; " /><path d=" M 1079.32,  124.37  L 1076.49,  121.54  L 1076.49,  125.79  L 1079.32,  128.62  L 1082.15,  125.79  L 1082.15,  121.54  L 1079.32,  124.37 " style="stroke-width: 0.28 ;&st9;" /><path d=" M 1079.32,   69.77  L 1079.32,  129.26 " style="stroke-width: 0.85 ;&st7; " /><path d=" M 1274.79,   78.27  L 1274.79,  112.27  L 1138.81,  112.27  L 1138.81,   69.77 " style="stroke-width: 0.85 ;&st7; " /><path d=" M 1470.25,  520.20  C 1470.25   515.50  1466.45   511.70  1461.76   511.70 " style="stroke-width: 1.42 ;&st7; " /><path d=" M 1461.76,  511.70  C 1457.06   511.70  1453.26   515.50  1453.26   520.20 " style="stroke-width: 1.42 ;&st7; " /><path d=" M 1453.26,  520.20  C 1453.26   524.89  1457.06   528.70  1461.76   528.70 " style="stroke-width: 1.42 ;&st7; " /><path d=" M 1461.76,  528.70  C 1466.45   528.70  1470.25   524.89  1470.25   520.20 " style="stroke-width: 1.42 ;&st7; " /><path d=" M 1442.63,  337.48  C 1442.63   335.13  1440.73   333.23  1438.38   333.23 " style="stroke-width: 1.42 ;&st7; " /><path d=" M 1438.38,  341.73  C 1440.73   341.73  1442.63   339.83  1442.63   337.48 " style="stroke-width: 1.42 ;&st7; " /><path d=" M 1429.89,  337.48  C 1429.89   339.83  1431.79   341.73  1434.14   341.73 " style="stroke-width: 1.42 ;&st7; " /><path d=" M 1434.14,  333.23  C 1431.79   333.23  1429.89   335.13  1429.89   337.48 " style="stroke-width: 1.42 ;&st7; " /><path d=" M 1468.13,  337.48  C 1468.13   335.13  1466.23   333.23  1463.88   333.23 " style="stroke-width: 1.42 ;&st7; " /><path d=" M 1463.88,  341.73  C 1466.23   341.73  1468.13   339.83  1468.13   337.48 " style="stroke-width: 1.42 ;&st7; " /><path d=" M 1455.38,  337.48  C 1455.38   339.83  1457.28   341.73  1459.63   341.73 " style="stroke-width: 1.42 ;&st7; " /><path d=" M 1459.63,  333.23  C 1457.28   333.23  1455.38   335.13  1455.38   337.48 " style="stroke-width: 1.42 ;&st7; " /><path d=" M 1442.63,  260.99  C 1442.63   258.64  1440.73   256.74  1438.38   256.74 " style="stroke-width: 1.42 ;&st7; " /><path d=" M 1438.38,  265.24  C 1440.73   265.24  1442.63   263.34  1442.63   260.99 " style="stroke-width: 1.42 ;&st7; " /><path d=" M 1429.89,  260.99  C 1429.89   263.34  1431.79   265.24  1434.14   265.24 " style="stroke-width: 1.42 ;&st7; " /><path d=" M 1434.14,  256.74  C 1431.79   256.74  1429.89   258.64  1429.89   260.99 " style="stroke-width: 1.42 ;&st7; " /><path d=" M 1468.13,  260.99  C 1468.13   258.64  1466.23   256.74  1463.88   256.74 " style="stroke-width: 1.42 ;&st7; " /><path d=" M 1463.88,  265.24  C 1466.23   265.24  1468.13   263.34  1468.13   260.99 " style="stroke-width: 1.42 ;&st7; " /><path d=" M 1455.38,  260.99  C 1455.38   263.34  1457.28   265.24  1459.63   265.24 " style="stroke-width: 1.42 ;&st7; " /><path d=" M 1459.63,  256.74  C 1457.28   256.74  1455.38   258.64  1455.38   260.99 " style="stroke-width: 1.42 ;&st7; " /><path d=" M 1436.26,  307.73  C 1438.22   307.73  1439.80   306.15  1439.80   304.19 " style="stroke-width: 0.85 ;&st7; " /><path d=" M 1439.80,  304.19  C 1439.80   302.24  1438.22   300.65  1436.26   300.65 " style="stroke-width: 0.85 ;&st7; " /><path d=" M 1436.26,  300.65  C 1435.27   300.65  1434.42   301.01  1433.73   301.71 " style="stroke-width: 0.85 ;&st7; " /><path d=" M 1433.73,  301.71  C 1435.10   303.11  1437.34   303.13  1438.74   301.77 " style="stroke-width: 0.85 ;&st7; " /><path d=" M 1438.74,  301.77  C 1440.14   300.40  1440.16   298.15  1438.79   296.76 " style="stroke-width: 0.85 ;&st7; " /><path d=" M 1438.79,  296.76  C 1437.42   295.36  1435.18   295.34  1433.78   296.71 " style="stroke-width: 0.85 ;&st7; " /><path d=" M 1433.78,  296.71  C 1433.76   296.72  1433.75   296.74  1433.73   296.76 " style="stroke-width: 0.85 ;&st7; " /><path d=" M 1433.73,  296.76  C 1435.10   298.15  1437.34   298.18  1438.74   296.81 " style="stroke-width: 0.85 ;&st7; " /><path d=" M 1438.74,  296.81  C 1440.14   295.44  1440.16   293.20  1438.79   291.80 " style="stroke-width: 0.85 ;&st7; " /><path d=" M 1438.79,  291.80  C 1438.10   291.09  1437.25   290.74  1436.26   290.74 " style="stroke-width: 0.85 ;&st7; " /><path d=" M 1463.17,  287.90  C 1463.17   287.12  1462.54   286.49  1461.76   286.49 " style="stroke-width: 0.85 ;&st7; " /><path d=" M 1461.76,  286.49  C 1460.97   286.49  1460.34   287.12  1460.34   287.90 " style="stroke-width: 0.85 ;&st7; " /><path d=" M 1460.34,  287.90  C 1460.34   288.69  1460.97   289.32  1461.76   289.32 " style="stroke-width: 0.85 ;&st7; " /><path d=" M 1461.76,  289.32  C 1462.54   289.32  1463.17   288.69  1463.17   287.90 " style="stroke-width: 0.85 ;&st7; " /><path d=" M 1463.17,  310.57  C 1463.17   309.78  1462.54   309.15  1461.76   309.15 " style="stroke-width: 0.85 ;&st7; " /><path d=" M 1461.76,  309.15  C 1460.97   309.15  1460.34   309.78  1460.34   310.57 " style="stroke-width: 0.85 ;&st7; " /><path d=" M 1460.34,  310.57  C 1460.34   311.35  1460.97   311.98  1461.76   311.98 " style="stroke-width: 0.85 ;&st7; " /><path d=" M 1461.76,  311.98  C 1462.54   311.98  1463.17   311.35  1463.17   310.57 " style="stroke-width: 0.85 ;&st7; " /><path d=" M 1455.38,  108.02  C 1455.38   110.36  1457.28   112.27  1459.63   112.27 " style="stroke-width: 1.42 ;&st7; " /><path d=" M 1461.76,   47.11  C 1459.02    48.72  1458.11    52.25  1459.72    54.99 " style="stroke-width: 1.42 ;&st7; " /><path d=" M 1459.72,   54.99  C 1460.24    55.87  1460.87    56.51  1461.76    57.03 " style="stroke-width: 1.42 ;&st7; " /><path d=" M 1459.63,  103.77  C 1457.28   103.77  1455.38   105.67  1455.38   108.02 " style="stroke-width: 1.42 ;&st7; " /><path d=" M 1461.76,   66.94  C 1464.49    65.33  1465.41    61.80  1463.79    59.06 " style="stroke-width: 1.42 ;&st7; " /><path d=" M 1463.79,   59.06  C 1463.27    58.18  1462.64    57.55  1461.76    57.03 " style="stroke-width: 1.42 ;&st7; " /><path d=" M 1463.17,   45.69  C 1463.17    44.91  1462.54    44.28  1461.76    44.28 " style="stroke-width: 0.85 ;&st7; " /><path d=" M 1461.76,   44.28  C 1460.97    44.28  1460.34    44.91  1460.34    45.69 " style="stroke-width: 0.85 ;&st7; " /><path d=" M 1460.34,   45.69  C 1460.34    46.48  1460.97    47.11  1461.76    47.11 " style="stroke-width: 0.85 ;&st7; " /><path d=" M 1461.76,   47.11  C 1462.54    47.11  1463.17    46.48  1463.17    45.69 " style="stroke-width: 0.85 ;&st7; " /><path d=" M 1463.17,   68.36  C 1463.17    67.57  1462.54    66.94  1461.76    66.94 " style="stroke-width: 0.85 ;&st7; " /><path d=" M 1461.76,   66.94  C 1460.97    66.94  1460.34    67.57  1460.34    68.36 " style="stroke-width: 0.85 ;&st7; " /><path d=" M 1460.34,   68.36  C 1460.34    69.14  1460.97    69.77  1461.76    69.77 " style="stroke-width: 0.85 ;&st7; " /><path d=" M 1461.76,   69.77  C 1462.54    69.77  1463.17    69.14  1463.17    68.36 " style="stroke-width: 0.85 ;&st7; " /><path d=" M 1463.88,  112.27  C 1466.23   112.27  1468.13   110.36  1468.13   108.02 " style="stroke-width: 1.42 ;&st7; " /><path d=" M 1468.13,  108.02  C 1468.13   105.67  1466.23   103.77  1463.88   103.77 " style="stroke-width: 1.42 ;&st7; " /><path d=" M 1274.79,   47.11  C 1272.05    48.72  1271.14    52.25  1272.75    54.99 " style="stroke-width: 1.42 ;&st7; " /><path d=" M 1272.75,   54.99  C 1273.27    55.87  1273.91    56.51  1274.79    57.03 " style="stroke-width: 1.42 ;&st7; " /><path d=" M 1274.79,   66.94  C 1277.52    65.33  1278.44    61.80  1276.82    59.06 " style="stroke-width: 1.42 ;&st7; " /><path d=" M 1276.82,   59.06  C 1276.30    58.18  1275.67    57.55  1274.79    57.03 " style="stroke-width: 1.42 ;&st7; " /><path d=" M 1276.20,   45.69  C 1276.20    44.91  1275.57    44.28  1274.79    44.28 " style="stroke-width: 0.85 ;&st7; " /><path d=" M 1274.79,   44.28  C 1274.00    44.28  1273.37    44.91  1273.37    45.69 " style="stroke-width: 0.85 ;&st7; " /><path d=" M 1273.37,   45.69  C 1273.37    46.48  1274.00    47.11  1274.79    47.11 " style="stroke-width: 0.85 ;&st7; " /><path d=" M 1274.79,   47.11  C 1275.57    47.11  1276.20    46.48  1276.20    45.69 " style="stroke-width: 0.85 ;&st7; " /><path d=" M 1276.20,   68.36  C 1276.20    67.57  1275.57    66.94  1274.79    66.94 " style="stroke-width: 0.85 ;&st7; " /><path d=" M 1274.79,   66.94  C 1274.00    66.94  1273.37    67.57  1273.37    68.36 " style="stroke-width: 0.85 ;&st7; " /><path d=" M 1273.37,   68.36  C 1273.37    69.14  1274.00    69.77  1274.79    69.77 " style="stroke-width: 0.85 ;&st7; " /><path d=" M 1274.79,   69.77  C 1275.57    69.77  1276.20    69.14  1276.20    68.36 " style="stroke-width: 0.85 ;&st7; " /><path d=" M 1327.19,   68.36  C 1327.19    67.57  1326.56    66.94  1325.78    66.94 " style="stroke-width: 0.85 ;&st7; " /><path d=" M 1325.78,   66.94  C 1325.00    66.94  1324.36    67.57  1324.36    68.36 " style="stroke-width: 0.85 ;&st7; " /><path d=" M 1324.36,   68.36  C 1324.36    69.14  1325.00    69.77  1325.78    69.77 " style="stroke-width: 0.85 ;&st7; " /><path d=" M 1325.78,   69.77  C 1326.56    69.77  1327.19    69.14  1327.19    68.36 " style="stroke-width: 0.85 ;&st7; " /><path d=" M 1327.19,   45.69  C 1327.19    44.91  1326.56    44.28  1325.78    44.28 " style="stroke-width: 0.85 ;&st7; " /><path d=" M 1325.78,   44.28  C 1325.00    44.28  1324.36    44.91  1324.36    45.69 " style="stroke-width: 0.85 ;&st7; " /><path d=" M 1324.36,   45.69  C 1324.36    46.48  1325.00    47.11  1325.78    47.11 " style="stroke-width: 0.85 ;&st7; " /><path d=" M 1325.78,   47.11  C 1326.56    47.11  1327.19    46.48  1327.19    45.69 " style="stroke-width: 0.85 ;&st7; " /><path d=" M 1325.78,   66.94  C 1328.52    65.33  1329.43    61.80  1327.82    59.06 " style="stroke-width: 1.42 ;&st7; " /><path d=" M 1327.82,   59.06  C 1327.30    58.18  1326.66    57.55  1325.78    57.03 " style="stroke-width: 1.42 ;&st7; " /><path d=" M 1325.78,   47.11  C 1323.04    48.72  1322.13    52.25  1323.74    54.99 " style="stroke-width: 1.42 ;&st7; " /><path d=" M 1323.74,   54.99  C 1324.26    55.87  1324.90    56.51  1325.78    57.03 " style="stroke-width: 1.42 ;&st7; " /><path d=" M 1232.29,   47.11  C 1229.56    48.72  1228.64    52.25  1230.26    54.99 " style="stroke-width: 1.42 ;&st7; " /><path d=" M 1230.26,   54.99  C 1230.78    55.87  1231.41    56.51  1232.29    57.03 " style="stroke-width: 1.42 ;&st7; " /><path d=" M 1232.29,   66.94  C 1235.03    65.33  1235.94    61.80  1234.33    59.06 " style="stroke-width: 1.42 ;&st7; " /><path d=" M 1234.33,   59.06  C 1233.81    58.18  1233.18    57.55  1232.29    57.03 " style="stroke-width: 1.42 ;&st7; " /><path d=" M 1233.71,   45.69  C 1233.71    44.91  1233.08    44.28  1232.29    44.28 " style="stroke-width: 0.85 ;&st7; " /><path d=" M 1232.29,   44.28  C 1231.51    44.28  1230.88    44.91  1230.88    45.69 " style="stroke-width: 0.85 ;&st7; " /><path d=" M 1230.88,   45.69  C 1230.88    46.48  1231.51    47.11  1232.29    47.11 " style="stroke-width: 0.85 ;&st7; " /><path d=" M 1232.29,   47.11  C 1233.08    47.11  1233.71    46.48  1233.71    45.69 " style="stroke-width: 0.85 ;&st7; " /><path d=" M 1233.71,   68.36  C 1233.71    67.57  1233.08    66.94  1232.29    66.94 " style="stroke-width: 0.85 ;&st7; " /><path d=" M 1232.29,   66.94  C 1231.51    66.94  1230.88    67.57  1230.88    68.36 " style="stroke-width: 0.85 ;&st7; " /><path d=" M 1230.88,   68.36  C 1230.88    69.14  1231.51    69.77  1232.29    69.77 " style="stroke-width: 0.85 ;&st7; " /><path d=" M 1232.29,   69.77  C 1233.08    69.77  1233.71    69.14  1233.71    68.36 " style="stroke-width: 0.85 ;&st7; " /><path d=" M 1376.77,   47.11  C 1374.03    48.72  1373.12    52.25  1374.73    54.99 " style="stroke-width: 1.42 ;&st7; " /><path d=" M 1374.73,   54.99  C 1375.25    55.87  1375.89    56.51  1376.77    57.03 " style="stroke-width: 1.42 ;&st7; " /><path d=" M 1376.77,   66.94  C 1379.51    65.33  1380.42    61.80  1378.81    59.06 " style="stroke-width: 1.42 ;&st7; " /><path d=" M 1378.81,   59.06  C 1378.29    58.18  1377.65    57.55  1376.77    57.03 " style="stroke-width: 1.42 ;&st7; " /><path d=" M 1378.19,   45.69  C 1378.19    44.91  1377.55    44.28  1376.77    44.28 " style="stroke-width: 0.85 ;&st7; " /><path d=" M 1376.77,   44.28  C 1375.99    44.28  1375.35    44.91  1375.35    45.69 " style="stroke-width: 0.85 ;&st7; " /><path d=" M 1375.35,   45.69  C 1375.35    46.48  1375.99    47.11  1376.77    47.11 " style="stroke-width: 0.85 ;&st7; " /><path d=" M 1376.77,   47.11  C 1377.55    47.11  1378.19    46.48  1378.19    45.69 " style="stroke-width: 0.85 ;&st7; " /><path d=" M 1378.19,   68.36  C 1378.19    67.57  1377.55    66.94  1376.77    66.94 " style="stroke-width: 0.85 ;&st7; " /><path d=" M 1376.77,   66.94  C 1375.99    66.94  1375.35    67.57  1375.35    68.36 " style="stroke-width: 0.85 ;&st7; " /><path d=" M 1375.35,   68.36  C 1375.35    69.14  1375.99    69.77  1376.77    69.77 " style="stroke-width: 0.85 ;&st7; " /><path d=" M 1376.77,   69.77  C 1377.55    69.77  1378.19    69.14  1378.19    68.36 " style="stroke-width: 0.85 ;&st7; " /><path d=" M 1374.65,  103.77  C 1372.30   103.77  1370.40   105.67  1370.40   108.02 " style="stroke-width: 1.42 ;&st7; " /><path d=" M 1370.40,  108.02  C 1370.40   110.36  1372.30   112.27  1374.65   112.27 " style="stroke-width: 1.42 ;&st7; " /><path d=" M 1378.89,  112.27  C 1381.24   112.27  1383.14   110.36  1383.14   108.02 " style="stroke-width: 1.42 ;&st7; " /><path d=" M 1383.14,  108.02  C 1383.14   105.67  1381.24   103.77  1378.89   103.77 " style="stroke-width: 1.42 ;&st7; " /><path d=" M 1077.20,  129.26  C 1074.85   129.26  1072.95   131.17  1072.95   133.51 " style="stroke-width: 1.42 ;&st7; " /><path d=" M 1072.95,  133.51  C 1072.95   135.86  1074.85   137.76  1077.20   137.76 " style="stroke-width: 1.42 ;&st7; " /><path d=" M 1081.44,  137.76  C 1083.79   137.76  1085.69   135.86  1085.69   133.51 " style="stroke-width: 1.42 ;&st7; " /><path d=" M 1085.69,  133.51  C 1085.69   131.17  1083.79   129.26  1081.44   129.26 " style="stroke-width: 1.42 ;&st7; " /><path d=" M 1466.29,  167.22  C 1466.29   164.72  1464.26   162.69  1461.76   162.69 " style="stroke-width: 1.42 ;&st7; " /><path d=" M 1461.76,  162.69  C 1459.25   162.69  1457.22   164.72  1457.22   167.22 " style="stroke-width: 1.42 ;&st7; " /><path d=" M 1457.22,  167.22  C 1457.22   169.73  1459.25   171.76  1461.76   171.76 " style="stroke-width: 1.42 ;&st7; " /><path d=" M 1461.76,  171.76  C 1464.26   171.76  1466.29   169.73  1466.29   167.22 " style="stroke-width: 1.42 ;&st7; " /><path d=" M 1466.29,  158.16  C 1466.29   155.66  1464.26   153.63  1461.76   153.63 " style="stroke-width: 1.42 ;&st7; " /><path d=" M 1461.76,  153.63  C 1459.25   153.63  1457.22   155.66  1457.22   158.16 " style="stroke-width: 1.42 ;&st7; " /><path d=" M 1457.22,  158.16  C 1457.22   160.66  1459.25   162.69  1461.76   162.69 " style="stroke-width: 1.42 ;&st7; " /><path d=" M 1461.76,  162.69  C 1464.26   162.69  1466.29   160.66  1466.29   158.16 " style="stroke-width: 1.42 ;&st7; " /><path d=" M 1466.29,  210.28  C 1466.29   207.78  1464.26   205.75  1461.76   205.75 " style="stroke-width: 1.42 ;&st7; " /><path d=" M 1461.76,  205.75  C 1459.25   205.75  1457.22   207.78  1457.22   210.28 " style="stroke-width: 1.42 ;&st7; " /><path d=" M 1457.22,  210.28  C 1457.22   212.79  1459.25   214.82  1461.76   214.82 " style="stroke-width: 1.42 ;&st7; " /><path d=" M 1461.76,  214.82  C 1464.26   214.82  1466.29   212.79  1466.29   210.28 " style="stroke-width: 1.42 ;&st7; " /><path d=" M 1466.29,  219.35  C 1466.29   216.85  1464.26   214.82  1461.76   214.82 " style="stroke-width: 1.42 ;&st7; " /><path d=" M 1461.76,  214.82  C 1459.25   214.82  1457.22   216.85  1457.22   219.35 " style="stroke-width: 1.42 ;&st7; " /><path d=" M 1457.22,  219.35  C 1457.22   221.85  1459.25   223.88  1461.76   223.88 " style="stroke-width: 1.42 ;&st7; " /><path d=" M 1461.76,  223.88  C 1464.26   223.88  1466.29   221.85  1466.29   219.35 " style="stroke-width: 1.42 ;&st7; " /><path d=" M 1440.79,  210.28  C 1440.79   207.78  1438.76   205.75  1436.26   205.75 " style="stroke-width: 1.42 ;&st7; " /><path d=" M 1436.26,  205.75  C 1433.76   205.75  1431.73   207.78  1431.73   210.28 " style="stroke-width: 1.42 ;&st7; " /><path d=" M 1431.73,  210.28  C 1431.73   212.79  1433.76   214.82  1436.26   214.82 " style="stroke-width: 1.42 ;&st7; " /><path d=" M 1436.26,  214.82  C 1438.76   214.82  1440.79   212.79  1440.79   210.28 " style="stroke-width: 1.42 ;&st7; " /><path d=" M 1440.79,  219.35  C 1440.79   216.85  1438.76   214.82  1436.26   214.82 " style="stroke-width: 1.42 ;&st7; " /><path d=" M 1436.26,  214.82  C 1433.76   214.82  1431.73   216.85  1431.73   219.35 " style="stroke-width: 1.42 ;&st7; " /><path d=" M 1431.73,  219.35  C 1431.73   221.85  1433.76   223.88  1436.26   223.88 " style="stroke-width: 1.42 ;&st7; " /><path d=" M 1436.26,  223.88  C 1438.76   223.88  1440.79   221.85  1440.79   219.35 " style="stroke-width: 1.42 ;&st7; " /><text style="&st18;" transform="matrix(&st17;  1458.06  463.04 )">B</text><text ewd:textID="14" style="&st18;" transform="matrix(&st17;  1477.89  313.51 )">RR WSH <tspan dy="6" x="-0.01">Relay</tspan></text><text style="&st18;" transform="matrix(&st16;  1455.74  505.18 )">1</text><text style="&st18;" transform="matrix(&st16;  1454.97  539.72 )">2</text><text style="&st18;" transform="matrix(&st16;  1458.86  522.17 )">M</text><text style="&st18;" transform="matrix(&st17;  1458.06  233.22 )">L</text><text style="&st18;" transform="matrix(&st16;  1434.67  339.45 )">1</text><text style="&st18;" transform="matrix(&st17;  1432.56  234.6 )">W</text><text style="&st18;" transform="matrix(&st16;  1460.17  339.45 )">1</text><text style="&st18;" transform="matrix(&st16;  1434.67  262.96 )">1</text><text style="&st18;" transform="matrix(&st16;  1460.17  262.96 )">1</text><text style="&st18;" transform="matrix(&st16;  1454.96  278.55 )">5</text><text style="&st18;" transform="matrix(&st16;  1430.24  278.55 )">1</text><text style="&st18;" transform="matrix(&st16;  1454.97  324.43 )">3</text><text style="&st18;" transform="matrix(&st16;  1429.47  324.43 )">2</text><text style="&st18;" transform="matrix(&st17;  1458.06  140.09 )">Y</text><text style="&st18;" transform="matrix(&st16;  1449.07  109.99 )">6</text><text style="&st18;" transform="matrix(&st17;  1458.06  587.39 )">W-B</text><text style="&st18;" transform="matrix(&st16;  1456.95  109.99 )">DB</text><text style="&st18;" transform="matrix(&st16;  1455.68  32.08 )">(IG)</text><text style="&st18;" transform="matrix(&st16;  1479.06  56.17 )">20A <tspan dy="6" x="0">WSH</tspan></text><text ewd:textID="12" style="&st18;" transform="matrix(&st16;  1102.29  32.08 )">Main Body ECU</text><text style="&st18;" transform="matrix(&st16;  1102.29  24.98 )">H2(B),H3(C),H4(D)</text><text ewd:textID="8" style="&st18;" transform="matrix(&st17;  1296.59  78.68 )">7.5A <tspan dy="6" x="0">ECU-IG No.2</tspan></text><text style="&st18;" transform="matrix(&st16;  1268.71  32.08 )">(IG)</text><text style="&st18;" transform="matrix(&st16;  1316.67  32.08 )">(BAT)</text><text style="&st18;" transform="matrix(&st17;  1347.58  77.23 )">25A DR/LCK</text><text style="&st18;" transform="matrix(&st17;  1254.1  72.78 )">7.5A ACC</text><text style="&st18;" transform="matrix(&st16;  1222.69  32.08 )">(ACC)</text><text style="&st18;" transform="matrix(&st17;  1398.57  78.71 )">7.5A ECU-B1</text><text style="&st18;" transform="matrix(&st16;  1369.98  86.47 )">2</text><text style="&st18;" transform="matrix(&st16;  1375.18  109.99 )">1</text><text style="&st18;" transform="matrix(&st16;  1367.66  32.08 )">(BAT)</text><text style="&st18;" transform="matrix(&st17;  1373.07  134.49 )">GR</text><text style="&st18;" transform="matrix(&st16;  1074.52  135.48 )">DB</text><text style="&st18;" transform="matrix(&st16;  1063.45  135.48 )">13</text><text style="&st18;" transform="matrix(&st16;  1068.57  77.97 )">26</text><text style="&st18;" transform="matrix(&st16;  1069.71  66.08 )">BECU</text><text style="&st18;" transform="matrix(&st17;  1075.62  185.48 )">GR</text><text style="&st18;" transform="matrix(&st16;  1096.06  66.08 )">ALTB</text><text style="&st18;" transform="matrix(&st16;  1135.07  66.08 )">IG</text><text style="&st18;" transform="matrix(&st16;  1165.53  66.08 )">ACC</text><text style="&st18;" transform="matrix(&st16;  1162.06  77.97 )">22</text><text style="&st18;" transform="matrix(&st16;  1128.84  77.97 )">15</text><text style="&st18;" transform="matrix(&st16;  1098.03  77.97 )">6</text><text style="&st18;" transform="matrix(&st16;  1057.52  363.53 )">BR</text><text style="&st18;" transform="matrix(&st16;  1006.53  363.53 )">BR</text><text ewd:textID="3" style="&st18;" transform="matrix(&st16;  1085.29  479.67 )">* 3 :Before Apr. 2009 Production</text><text ewd:textID="4" style="&st18;" transform="matrix(&st16;  1085.29  488.17 )">* 4 :From Apr. 2009 Production</text><text ewd:textID="11" style="&st18;" transform="matrix(&st17;  1424.07  208.28 )">Junction Connector</text><text style="&st18;" transform="matrix(&st17;  1411.01  208.28 )">A48(A),A49(B), <tspan dy="6" x="-0.01">A64(C),A65(D)</tspan></text><text style="&st18;" transform="matrix(&st16;  1467.73  169.19 )">(*4)</text><text style="&st18;" transform="matrix(&st16;  1450.88  169.19 )">3</text><text style="&st18;" transform="matrix(&st16;  1459.28  169.19 )">C</text><text style="&st18;" transform="matrix(&st16;  1467.73  160.13 )">(*3)</text><text style="&st18;" transform="matrix(&st16;  1450.88  160.13 )">3</text><text style="&st18;" transform="matrix(&st16;  1459.42  160.13 )">A</text><text style="&st18;" transform="matrix(&st16;  1467.73  212.25 )">(*3)</text><text style="&st18;" transform="matrix(&st16;  1450.88  212.25 )">3</text><text style="&st18;" transform="matrix(&st16;  1459.42  212.25 )">B</text><text style="&st18;" transform="matrix(&st16;  1467.73  221.32 )">(*4)</text><text style="&st18;" transform="matrix(&st16;  1450.88  221.32 )">3</text><text style="&st18;" transform="matrix(&st16;  1459.28  221.32 )">D</text><text style="&st18;" transform="matrix(&st16;  1425.38  212.25 )">4</text><text style="&st18;" transform="matrix(&st16;  1433.93  212.25 )">B</text><text style="&st18;" transform="matrix(&st16;  1425.38  221.32 )">4</text><text style="&st18;" transform="matrix(&st16;  1433.79  221.32 )">D</text><text ewd:textID="15" style="&st18;" transform="matrix(&st17;  1484.97  531.22 )">Rear Washer Motor <tspan dy="6" x="0">and Pump Assembly</tspan></text><text style="&st18;" transform="matrix(&st17;  1477.87  531.22 )">A42</text></svg>