﻿<?xml version="1.0" encoding="utf-8"?>
<!DOCTYPE svg PUBLIC "-//W3C//DTD SVG 1.0//EN" "http://www.w3.org/TR/2001/REC-SVG-20010904/DTD/svg10.dtd"[
	<!ENTITY ns_flows "http://ns.adobe.com/Flows/1.0/">
	<!ENTITY ns_svg "http://www.w3.org/2000/svg">
	<!ENTITY ns_xlink "http://www.w3.org/1999/xlink">
	<!ENTITY st0 "font-size:7px;font-family:'MS-PGothic';adobe-font-script:japanese;">
	<!ENTITY st1 "font-size:6px;font-family:'ArialMT';">
	<!-- White fill  -->
	<!ENTITY st2 "fill:#FFFFFF;stroke:#000000; stroke-width:1.41;stroke-linecap:round;stroke-linejoin:round;">
	<!-- Yellow fill  -->
	<!ENTITY st3 "fill:#FFFFCC;stroke:#FFFFCC; stroke-width:0.1;stroke-linecap:round;stroke-linejoin:round;">
	<!-- Gray fill  -->
	<!ENTITY st4 "fill:#CCCCCC;stroke:#CCCCCC; stroke-width:0.1;stroke-linecap:round;stroke-linejoin:round;">
	<!-- Light-blue fill -->
	<!ENTITY st5 "fill:#CCECF4;stroke:#000000; stroke-width:1.133;stroke-linecap:round;stroke-linejoin:round;">
	<!ENTITY st6 "fill:none;stroke-linecap:butt; stroke-linejoin:round;">
	<!ENTITY st7 "fill:none;stroke:#000000;stroke-linecap:round;stroke-linejoin:round;">
	<!ENTITY st8 "enable-background:new    ;">
	<!-- Black fill -->
	<!ENTITY st9 "fill:#000000;stroke:#000000; stroke-linecap:round;stroke-linejoin:round;">
	<!-- SRS note   -->
	<!ENTITY st10 "font-size:9px;font-family:'ArialMT';">
	<!ENTITY st11 "font-size:9px;font-family:'Svg Symbol';">
	<!ENTITY st12 "font-size:6px;font-family:'Svg Symbol';">
	<!ENTITY st13 "fill:none;stroke:#ff0000;stroke-linecap:round;stroke-linejoin:round;">
	<!-- Yellow fill  -->
	<!ENTITY st14 "fill:#FFFF00;stroke:#FFFF00; stroke-width:0.1;stroke-linecap:round;stroke-linejoin:round;">
	<!ENTITY st15 "font-size:6px;font-family:'MS-PGothic';adobe-font-script:japanese;">
	<!ENTITY st16 "1.00 0.00 0.00 1.00">
	<!ENTITY st17 "0.00 -1.00 1.00 0.00">
	<!ENTITY st18 "font-size:6px;font-family:'Arial';">
	<!ENTITY st19 "font-size:9px;font-family:'Arial';">
	<!ENTITY st20 "font-size:6px;font-family:'MS-PGothic','MS PGothic';adobe-font-script:japanese;">
	<!ENTITY st21 "font-size:7px;font-family:'MS-PGothic','MS PGothic';adobe-font-script:japanese;">
	<!ATTLIST svg
		xmlns:ewd CDATA #FIXED "http://shcl.co.jp/ewd"
		xmlns:a CDATA #FIXED "http://ns.adobe.com/AdobeSVGViewerExtensions/3.0/"
		ewd:ver CDATA #IMPLIED
	>
	<!ATTLIST a
		ewd:lineID CDATA #IMPLIED
		ewd:groupID CDATA #IMPLIED
		ewd:figtype CDATA #IMPLIED
		ewd:code CDATA #IMPLIED
		ewd:figID CDATA #IMPLIED
		ewd:pinNo CDATA #IMPLIED
		ewd:comment CDATA #IMPLIED >
	<!ATTLIST g
		ewd:lineID CDATA #IMPLIED
		ewd:groupID CDATA #IMPLIED
		ewd:figtype CDATA #IMPLIED
		ewd:code CDATA #IMPLIED
		ewd:figID CDATA #IMPLIED
		ewd:pinNo CDATA #IMPLIED
		ewd:comment CDATA #IMPLIED >
	<!ATTLIST text
		ewd:textID CDATA #IMPLIED >
	<!ATTLIST title
		ewd:textID CDATA #IMPLIED >
]>
<!-- Generator: Shintec Hozumi YS   -->
<svg onload="call_execInitLoadProc_svg('system')" style="overflow:visible;  enable-background:new 0 0 3096.855 710.000" viewBox="0 0 3096.855 710.000" height="710.000" width="3096.855" xml:space="preserve" ewd:ver="L2.1.2.7" xmlns="&ns_svg;" xmlns:a="http://ns.adobe.com/AdobeSVGViewerExtensions/3.0/" xmlns:ewd="http://shcl.co.jp/ewd" xmlns:xlink="&ns_xlink;">
<path d=" M 2490.08,  256.74  L 2481.59,  256.74 " style="stroke-width: 1.42 ;&st7; " /><path d=" M 2473.09,  392.72  L 2481.59,  392.72 " style="stroke-width: 1.42 ;&st7; " /><path d=" M 2031.16,  303.48  L 2031.16,  307.73 " style="stroke-width: 0.85 ;&st7; " /><path d=" M 2031.16,  290.74  L 2031.16,  294.99 " style="stroke-width: 0.85 ;&st7; " /><path d=" M 2429.18,  333.23  L 2453.29,  331.54 " style="stroke-width: 1.42 ;&st7; " /><path d=" M 2456.09,  333.23  L 2451.84,  333.23 " style="stroke-width: 0.85 ;&st7; " /><path d=" M 2426.34,  333.23  L 2422.10,  333.23 " style="stroke-width: 0.85 ;&st7; " /><path d=" M 2405.10,  392.72  L 2413.60,  392.72 " style="stroke-width: 1.42 ;&st7; " /><path d=" M 2422.10,  443.71  L 2413.60,  443.71 " style="stroke-width: 1.42 ;&st7; " /><path d=" M 2014.16,  508.17  L 2009.19,  503.20 " style="stroke-width: 1.42 ;&st7; " /><path d=" M 2009.19,  520.20  L 2014.16,  515.23 " style="stroke-width: 1.42 ;&st7; " /><path d=" M 2277.62,  508.17  L 2272.65,  503.20 " style="stroke-width: 1.42 ;&st7; " /><path d=" M 2260.62,  515.23  L 2265.59,  520.20 " style="stroke-width: 1.42 ;&st7; " /><path d=" M 2272.65,  520.20  L 2277.62,  515.23 " style="stroke-width: 1.42 ;&st7; " /><path d=" M 2265.59,  503.20  L 2260.62,  508.17 " style="stroke-width: 1.42 ;&st7; " /><path d=" M 2022.66,  176.73  L 2017.69,  171.76 " style="stroke-width: 1.42 ;&st7; " /><path d=" M 2005.66,  183.78  L 2010.63,  188.75 " style="stroke-width: 1.42 ;&st7; " /><path d=" M 2017.69,  188.75  L 2022.66,  183.78 " style="stroke-width: 1.42 ;&st7; " /><path d=" M 2010.64,  171.76  L 2005.66,  176.73 " style="stroke-width: 1.42 ;&st7; " /><path d=" M 2320.11,  333.23  L 2320.11,  324.73 " style="stroke-width: 0.85 ;&st7; " /><path d=" M 2328.61,  273.74  L 2328.61,  286.49 " style="stroke-width: 0.85 ;&st7; " /><path d=" M 2328.61,  304.90  L 2328.61,  294.99 " style="stroke-width: 0.85 ;&st7; " /><path d=" M 2269.12,  358.73  L 2269.12,  324.73 " style="stroke-width: 0.85 ;&st7; " /><path d=" M 2277.62,  265.24  L 2277.62,  286.49 " style="stroke-width: 0.85 ;&st7; " /><path d=" M 2277.62,  304.90  L 2277.62,  294.99 " style="stroke-width: 0.85 ;&st7; " /><path d=" M 2138.12,  171.76  L 2133.14,  176.73 " style="stroke-width: 1.42 ;&st7; " /><path d=" M 2145.17,  188.75  L 2150.14,  183.78 " style="stroke-width: 1.42 ;&st7; " /><path d=" M 2133.14,  183.78  L 2138.11,  188.75 " style="stroke-width: 1.42 ;&st7; " /><path d=" M 2150.14,  176.73  L 2145.17,  171.76 " style="stroke-width: 1.42 ;&st7; " /><path d=" M 2184.14,  333.23  L 2184.14,  324.73 " style="stroke-width: 0.85 ;&st7; " /><path d=" M 2192.63,  273.74  L 2192.63,  286.49 " style="stroke-width: 0.85 ;&st7; " /><path d=" M 2192.63,  304.90  L 2192.63,  294.99 " style="stroke-width: 0.85 ;&st7; " /><path d=" M 2133.14,  358.73  L 2133.14,  324.73 " style="stroke-width: 0.85 ;&st7; " /><path d=" M 2141.64,  265.24  L 2141.64,  286.49 " style="stroke-width: 0.85 ;&st7; " /><path d=" M 2141.64,  304.90  L 2141.64,  294.99 " style="stroke-width: 0.85 ;&st7; " /><path d=" M 2141.64,  508.17  L 2136.67,  503.20 " style="stroke-width: 1.42 ;&st7; " /><path d=" M 2124.65,  515.23  L 2129.61,  520.20 " style="stroke-width: 1.42 ;&st7; " /><path d=" M 2136.67,  520.20  L 2141.64,  515.23 " style="stroke-width: 1.42 ;&st7; " /><path d=" M 2129.62,  503.20  L 2124.65,  508.17 " style="stroke-width: 1.42 ;&st7; " /><path d=" M 2252.12,  265.24  L 2252.12,  358.73  L 2354.11,  358.73  L 2354.11,  265.24  L 2252.12,  265.24 " style="stroke-width: 1.42 ;&st7; " /><path d=" M 2277.12,  307.64  L 2270.71,  324.73 " style="stroke-width: 1.42 ;&st7; " /><path d=" M 2277.62,  273.74  L 2328.61,  273.74 " style="stroke-width: 0.85 ;&st7; " /><path d=" M 2286.12,  324.73  L 2286.12,  341.73  L 2337.11,  341.73 " style="stroke-width: 0.85 ;&st7; " /><path d=" M 2335.92,  340.73  L 2335.64,  341.20  L 2335.55,  341.73  L 2335.64,  342.26  L 2335.92,  342.73  L 2336.33,  343.08  L 2336.84,  343.26  L 2337.38,  343.26  L 2337.89,  343.08  L 2338.30,  342.73  L 2338.57,  342.26  L 2338.67,  341.73  L 2338.57,  341.20  L 2338.30,  340.73  L 2337.89,  340.38  L 2337.38,  340.19  L 2336.84,  340.19  L 2336.33,  340.38  L 2335.92,  340.73  L 2336.31,  341.44  L 2336.31,  342.02  L 2336.68,  342.46  L 2337.26,  342.56  L 2337.76,  342.28  L 2337.96,  341.73  L 2337.76,  341.18  L 2337.26,  340.89  L 2336.68,  340.99  L 2337.11,  341.73 " style="stroke-width: 0.85 ;&st7; " /><path d=" M 2024.08,  340.31  L 2031.16,  340.31  L 2031.16,  358.73 " style="stroke-width: 0.85 ;&st7; " /><path d=" M 2532.58,  613.68  L 2481.58,  613.68 " style="stroke-width: 0.85 ;&st7; " /><path d=" M 2481.58,  697.25  L 2481.58,  701.50 " style="stroke-width: 0.85 ;&st7; " /><path d=" M 2473.09,  701.50  L 2490.08,  701.50 " style="stroke-width: 0.85 ;&st7; " /><path d=" M 2478.75,  707.17  L 2484.42,  707.17 " style="stroke-width: 0.85 ;&st7; " /><path d=" M 2480.17,  710.00  L 2483.00,  710.00 " style="stroke-width: 0.85 ;&st7; " /><path d=" M 2477.34,  704.33  L 2485.83,  704.33 " style="stroke-width: 0.85 ;&st7; " /><path d=" M 2473.09,  605.18  L 2541.07,  605.18  L 2541.07,  622.18  L 2473.09,  622.18  L 2473.09,  605.18 " style="stroke-width: 1.42 ;&st7; " /><path d=" M 2480.39,  612.68  L 2480.12,  613.15  L 2480.03,  613.68  L 2480.12,  614.22  L 2480.39,  614.69  L 2480.81,  615.03  L 2481.31,  615.22  L 2481.86,  615.22  L 2482.36,  615.03  L 2482.78,  614.69  L 2483.05,  614.22  L 2483.14,  613.68  L 2483.05,  613.15  L 2482.78,  612.68  L 2482.36,  612.33  L 2481.86,  612.15  L 2481.31,  612.15  L 2480.81,  612.33  L 2480.39,  612.68  L 2480.79,  613.39  L 2480.79,  613.97  L 2481.16,  614.42  L 2481.73,  614.52  L 2482.24,  614.23  L 2482.43,  613.68  L 2482.24,  613.14  L 2481.73,  612.85  L 2481.16,  612.95  L 2481.58,  613.68 " style="stroke-width: 0.85 ;&st7; " /><path d=" M 2417.84,  449.38  L 2413.60,  445.13  L 2409.35,  449.38 " style="stroke-width: 1.42 ;&st7; " /><path d=" M 2417.84,  452.78  L 2413.60,  448.53  L 2409.35,  452.78 " style="stroke-width: 1.42 ;&st7; " /><path d=" M 2417.84,  387.05  L 2413.60,  391.30  L 2409.35,  387.05 " style="stroke-width: 1.42 ;&st7; " /><path d=" M 2409.35,  383.65  L 2413.60,  387.90  L 2417.84,  383.65 " style="stroke-width: 1.42 ;&st7; " /><path d=" M 2012.97,  315.23  L 2012.70,  315.70  L 2012.60,  316.23  L 2012.70,  316.77  L 2012.97,  317.24  L 2013.38,  317.58  L 2013.89,  317.77  L 2014.43,  317.77  L 2014.94,  317.58  L 2015.36,  317.24  L 2015.63,  316.77  L 2015.72,  316.23  L 2015.63,  315.70  L 2015.36,  315.23  L 2014.94,  314.88  L 2014.43,  314.70  L 2013.89,  314.70  L 2013.38,  314.88  L 2012.97,  315.23  L 2013.36,  315.94  L 2013.36,  316.52  L 2013.74,  316.97  L 2014.31,  317.07  L 2014.81,  316.78  L 2015.01,  316.23  L 2014.81,  315.69  L 2014.31,  315.40  L 2013.74,  315.50  L 2014.16,  316.23 " style="stroke-width: 0.85 ;&st7; " /><path d=" M 2012.97,  281.24  L 2012.70,  281.71  L 2012.60,  282.24  L 2012.70,  282.77  L 2012.97,  283.24  L 2013.38,  283.59  L 2013.89,  283.77  L 2014.43,  283.77  L 2014.94,  283.59  L 2015.36,  283.24  L 2015.63,  282.77  L 2015.72,  282.24  L 2015.63,  281.71  L 2015.36,  281.24  L 2014.94,  280.89  L 2014.43,  280.70  L 2013.89,  280.70  L 2013.38,  280.89  L 2012.97,  281.24  L 2013.36,  281.95  L 2013.36,  282.53  L 2013.74,  282.97  L 2014.31,  283.07  L 2014.81,  282.79  L 2015.01,  282.24  L 2014.81,  281.69  L 2014.31,  281.40  L 2013.74,  281.50  L 2014.16,  282.24 " style="stroke-width: 0.85 ;&st7; " /><path d=" M 2014.16,  321.90  L 2014.16,  316.23 " style="stroke-width: 0.85 ;&st7; " /><path d=" M 2014.16,  265.24  L 2014.16,  282.24 " style="stroke-width: 0.85 ;&st7; " /><path d=" M 2485.83,  387.05  L 2481.58,  391.30  L 2477.34,  387.05 " style="stroke-width: 1.42 ;&st7; " /><path d=" M 2477.34,  383.65  L 2481.58,  387.90  L 2485.83,  383.65 " style="stroke-width: 1.42 ;&st7; " /><path d=" M 2013.66,  324.64  L 2007.26,  341.73 " style="stroke-width: 1.42 ;&st7; " /><path d=" M 2422.09,  333.23  L 2413.60,  333.23  L 2413.60,  350.23 " style="stroke-width: 0.85 ;&st7; " /><path d=" M 2481.58,  622.18  L 2481.58,  605.18 " style="stroke-width: 0.85 ;&st7; " /><path d=" M 2451.84,  341.73  L 2481.58,  341.73  L 2481.58,  350.23 " style="stroke-width: 0.85 ;&st7; " /><path d=" M 2481.58,  307.73  L 2481.58,  333.23  L 2456.09,  333.23 " style="stroke-width: 0.85 ;&st7; " /><path d=" M 2396.60,  307.73  L 2396.60,  350.23  L 2498.58,  350.23  L 2498.58,  307.73  L 2396.60,  307.73 " style="stroke-width: 1.42 ;&st7; " /><path d=" M 2485.83,  262.41  L 2481.58,  258.16  L 2477.34,  262.41 " style="stroke-width: 1.42 ;&st7; " /><path d=" M 2485.83,  265.81  L 2481.58,  261.56  L 2477.34,  265.81 " style="stroke-width: 1.42 ;&st7; " /><path d=" M 2005.66,  341.73  L 2005.66,  358.73 " style="stroke-width: 0.85 ;&st7; " /><path d=" M 2328.11,  307.64  L 2321.71,  324.73 " style="stroke-width: 1.42 ;&st7; " /><path d=" M 2337.11,  324.73  L 2337.11,  358.73 " style="stroke-width: 0.85 ;&st7; " /><path d=" M 2269.12,  333.23  L 2320.11,  333.23 " style="stroke-width: 0.85 ;&st7; " /><path d=" M 2267.93,  332.23  L 2267.66,  332.70  L 2267.56,  333.23  L 2267.66,  333.76  L 2267.93,  334.23  L 2268.34,  334.58  L 2268.85,  334.77  L 2269.39,  334.77  L 2269.90,  334.58  L 2270.31,  334.23  L 2270.58,  333.76  L 2270.68,  333.23  L 2270.58,  332.70  L 2270.31,  332.23  L 2269.90,  331.88  L 2269.39,  331.69  L 2268.85,  331.69  L 2268.34,  331.88  L 2267.93,  332.23  L 2268.32,  332.94  L 2268.32,  333.52  L 2268.69,  333.97  L 2269.27,  334.07  L 2269.77,  333.78  L 2269.97,  333.23  L 2269.77,  332.68  L 2269.27,  332.39  L 2268.69,  332.49  L 2269.12,  333.23 " style="stroke-width: 0.85 ;&st7; " /><path d=" M 2276.43,  272.74  L 2276.15,  273.21  L 2276.06,  273.74  L 2276.15,  274.27  L 2276.43,  274.74  L 2276.84,  275.09  L 2277.35,  275.28  L 2277.89,  275.28  L 2278.40,  275.09  L 2278.81,  274.74  L 2279.08,  274.27  L 2279.18,  273.74  L 2279.08,  273.21  L 2278.81,  272.74  L 2278.40,  272.39  L 2277.89,  272.20  L 2277.35,  272.20  L 2276.84,  272.39  L 2276.43,  272.74  L 2276.82,  273.45  L 2276.82,  274.03  L 2277.19,  274.48  L 2277.77,  274.58  L 2278.27,  274.29  L 2278.47,  273.74  L 2278.27,  273.19  L 2277.77,  272.90  L 2277.19,  273.00  L 2277.62,  273.74 " style="stroke-width: 0.85 ;&st7; " /><path d=" M 2116.15,  265.24  L 2116.15,  358.73  L 2218.13,  358.73  L 2218.13,  265.24  L 2116.15,  265.24 " style="stroke-width: 1.42 ;&st7; " /><path d=" M 2141.14,  307.64  L 2134.74,  324.73 " style="stroke-width: 1.42 ;&st7; " /><path d=" M 2141.64,  273.74  L 2192.63,  273.74 " style="stroke-width: 0.85 ;&st7; " /><path d=" M 2150.14,  324.73  L 2150.14,  341.73  L 2201.13,  341.73 " style="stroke-width: 0.85 ;&st7; " /><path d=" M 2199.94,  340.73  L 2199.67,  341.20  L 2199.57,  341.73  L 2199.67,  342.26  L 2199.94,  342.73  L 2200.35,  343.08  L 2200.86,  343.26  L 2201.40,  343.26  L 2201.91,  343.08  L 2202.32,  342.73  L 2202.60,  342.26  L 2202.69,  341.73  L 2202.60,  341.20  L 2202.32,  340.73  L 2201.91,  340.38  L 2201.40,  340.19  L 2200.86,  340.19  L 2200.35,  340.38  L 2199.94,  340.73  L 2200.33,  341.44  L 2200.33,  342.02  L 2200.71,  342.46  L 2201.28,  342.56  L 2201.78,  342.28  L 2201.98,  341.73  L 2201.78,  341.18  L 2201.28,  340.89  L 2200.71,  340.99  L 2201.13,  341.73 " style="stroke-width: 0.85 ;&st7; " /><path d=" M 2192.13,  307.64  L 2185.73,  324.73 " style="stroke-width: 1.42 ;&st7; " /><path d=" M 2201.13,  324.73  L 2201.13,  358.73 " style="stroke-width: 0.85 ;&st7; " /><path d=" M 2133.14,  333.23  L 2184.13,  333.23 " style="stroke-width: 0.85 ;&st7; " /><path d=" M 2131.95,  332.23  L 2131.68,  332.70  L 2131.58,  333.23  L 2131.68,  333.76  L 2131.95,  334.23  L 2132.36,  334.58  L 2132.87,  334.77  L 2133.41,  334.77  L 2133.92,  334.58  L 2134.34,  334.23  L 2134.61,  333.76  L 2134.70,  333.23  L 2134.61,  332.70  L 2134.34,  332.23  L 2133.92,  331.88  L 2133.41,  331.69  L 2132.87,  331.69  L 2132.36,  331.88  L 2131.95,  332.23  L 2132.34,  332.94  L 2132.34,  333.52  L 2132.72,  333.97  L 2133.29,  334.07  L 2133.79,  333.78  L 2133.99,  333.23  L 2133.79,  332.68  L 2133.29,  332.39  L 2132.72,  332.49  L 2133.14,  333.23 " style="stroke-width: 0.85 ;&st7; " /><path d=" M 2140.45,  272.74  L 2140.18,  273.21  L 2140.08,  273.74  L 2140.18,  274.27  L 2140.45,  274.74  L 2140.86,  275.09  L 2141.37,  275.28  L 2141.91,  275.28  L 2142.42,  275.09  L 2142.83,  274.74  L 2143.11,  274.27  L 2143.20,  273.74  L 2143.11,  273.21  L 2142.83,  272.74  L 2142.42,  272.39  L 2141.91,  272.20  L 2141.37,  272.20  L 2140.86,  272.39  L 2140.45,  272.74  L 2140.84,  273.45  L 2140.84,  274.03  L 2141.22,  274.48  L 2141.79,  274.58  L 2142.29,  274.29  L 2142.49,  273.74  L 2142.29,  273.19  L 2141.79,  272.90  L 2141.22,  273.00  L 2141.64,  273.74 " style="stroke-width: 0.85 ;&st7; " /><path d=" M 2007.08,  340.31  C 2007.08   339.53  2006.45   338.90  2005.66   338.90 " style="stroke-width: 0.85 ;&st7; " /><path d=" M 2005.66,  338.90  C 2004.88   338.90  2004.25   339.53  2004.25   340.31 " style="stroke-width: 0.85 ;&st7; " /><path d=" M 2004.25,  340.31  C 2004.25   341.09  2004.88   341.73  2005.66   341.73 " style="stroke-width: 0.85 ;&st7; " /><path d=" M 2005.66,  341.73  C 2006.45   341.73  2007.08   341.09  2007.08   340.31 " style="stroke-width: 0.85 ;&st7; " /><path d=" M 2000.00,  300.69  C 2000.01   299.13  1998.76   297.86  1997.20   297.85 " style="stroke-width: 0.85 ;&st7; " /><path d=" M 2024.08,  340.31  C 2024.08   339.53  2023.44   338.90  2022.66   338.90 " style="stroke-width: 0.85 ;&st7; " /><path d=" M 2022.66,  338.90  C 2021.88   338.90  2021.25   339.53  2021.25   340.31 " style="stroke-width: 0.85 ;&st7; " /><path d=" M 2021.25,  340.31  C 2021.25   341.09  2021.88   341.73  2022.66   341.73 " style="stroke-width: 0.85 ;&st7; " /><path d=" M 2022.66,  341.73  C 2023.44   341.73  2024.08   341.09  2024.08   340.31 " style="stroke-width: 0.85 ;&st7; " /><path d=" M 2015.58,  323.31  C 2015.58   322.53  2014.95   321.90  2014.16   321.90 " style="stroke-width: 0.85 ;&st7; " /><path d=" M 2014.16,  321.90  C 2013.38   321.90  2012.75   322.53  2012.75   323.31 " style="stroke-width: 0.85 ;&st7; " /><path d=" M 2012.75,  323.31  C 2012.75   324.10  2013.38   324.73  2014.16   324.73 " style="stroke-width: 0.85 ;&st7; " /><path d=" M 2014.16,  324.73  C 2014.95   324.73  2015.58   324.10  2015.58   323.31 " style="stroke-width: 0.85 ;&st7; " /><path d=" M 2005.66,  299.24  C 2005.66   294.54  2001.86   290.74  1997.17   290.74 " style="stroke-width: 1.42 ;&st7; " /><path d=" M 2039.66,  299.24  C 2039.66   294.54  2035.85   290.74  2031.16   290.74 " style="stroke-width: 1.42 ;&st7; " /><path d=" M 2031.16,  290.74  C 2026.47   290.74  2022.66   294.54  2022.66   299.24 " style="stroke-width: 1.42 ;&st7; " /><path d=" M 2022.66,  299.24  C 2022.66   303.93  2026.47   307.73  2031.16   307.73 " style="stroke-width: 1.42 ;&st7; " /><path d=" M 2031.16,  307.73  C 2035.85   307.73  2039.66   303.93  2039.66   299.24 " style="stroke-width: 1.42 ;&st7; " /><path d=" M 2028.75,  299.24  C 2029.54   300.57  2031.27   301.02  2032.61   300.23 " style="stroke-width: 0.85 ;&st7; " /><path d=" M 2032.61,  300.23  C 2033.95   299.44  2034.39   297.71  2033.60   296.37 " style="stroke-width: 0.85 ;&st7; " /><path d=" M 2033.60,  296.37  C 2033.08   295.48  2032.19   294.98  2031.16   294.99 " style="stroke-width: 0.85 ;&st7; " /><path d=" M 2031.16,  303.48  C 2032.72   303.49  2033.98   302.24  2033.99   300.69 " style="stroke-width: 0.85 ;&st7; " /><path d=" M 2033.99,  300.69  C 2034.00   299.13  2032.75   297.86  2031.19   297.85 " style="stroke-width: 0.85 ;&st7; " /><path d=" M 2031.19,  297.85  C 2030.16   297.85  2029.28   298.35  2028.75   299.24 " style="stroke-width: 0.85 ;&st7; " /><path d=" M 2451.84,  333.23  C 2451.84   332.45  2451.21   331.81  2450.42   331.81 " style="stroke-width: 0.85 ;&st7; " /><path d=" M 2450.42,  331.81  C 2449.64   331.81  2449.01   332.45  2449.01   333.23 " style="stroke-width: 0.85 ;&st7; " /><path d=" M 2449.01,  333.23  C 2449.01   334.01  2449.64   334.65  2450.42   334.65 " style="stroke-width: 0.85 ;&st7; " /><path d=" M 2450.42,  334.65  C 2451.21   334.65  2451.84   334.01  2451.84   333.23 " style="stroke-width: 0.85 ;&st7; " /><path d=" M 2429.18,  333.23  C 2429.18   332.45  2428.54   331.81  2427.76   331.81 " style="stroke-width: 0.85 ;&st7; " /><path d=" M 2427.76,  331.81  C 2426.98   331.81  2426.34   332.45  2426.34   333.23 " style="stroke-width: 0.85 ;&st7; " /><path d=" M 2426.34,  333.23  C 2426.34   334.01  2426.98   334.65  2427.76   334.65 " style="stroke-width: 0.85 ;&st7; " /><path d=" M 2427.76,  334.65  C 2428.54   334.65  2429.18   334.01  2429.18   333.23 " style="stroke-width: 0.85 ;&st7; " /><path d=" M 2451.84,  341.73  C 2451.84   340.95  2451.21   340.31  2450.42   340.31 " style="stroke-width: 0.85 ;&st7; " /><path d=" M 2450.42,  340.31  C 2449.64   340.31  2449.01   340.95  2449.01   341.73 " style="stroke-width: 0.85 ;&st7; " /><path d=" M 2449.01,  341.73  C 2449.01   342.51  2449.64   343.14  2450.42   343.14 " style="stroke-width: 0.85 ;&st7; " /><path d=" M 2450.42,  343.14  C 2451.21   343.14  2451.84   342.51  2451.84   341.73 " style="stroke-width: 0.85 ;&st7; " /><path d=" M 2451.84,  324.73  C 2451.84   323.95  2451.21   323.31  2450.42   323.31 " style="stroke-width: 0.85 ;&st7; " /><path d=" M 2450.42,  323.31  C 2449.64   323.31  2449.01   323.95  2449.01   324.73 " style="stroke-width: 0.85 ;&st7; " /><path d=" M 2449.01,  324.73  C 2449.01   325.51  2449.64   326.15  2450.42   326.15 " style="stroke-width: 0.85 ;&st7; " /><path d=" M 2450.42,  326.15  C 2451.21   326.15  2451.84   325.51  2451.84   324.73 " style="stroke-width: 0.85 ;&st7; " /><path d=" M 2031.16,  401.22  C 2033.37   403.04  2036.50   402.98  2038.65   401.08 " style="stroke-width: 1.42 ;&st7; " /><path d=" M 2031.16,  401.22  C 2028.95   399.40  2025.82   399.46  2023.68   401.36 " style="stroke-width: 1.42 ;&st7; " /><path d=" M 2337.11,  401.22  C 2334.90   399.40  2331.77   399.46  2329.62   401.36 " style="stroke-width: 1.42 ;&st7; " /><path d=" M 2337.11,  401.22  C 2339.32   403.04  2342.45   402.98  2344.59   401.08 " style="stroke-width: 1.42 ;&st7; " /><path d=" M 2321.53,  323.31  C 2321.53   322.53  2320.89   321.90  2320.11   321.90 " style="stroke-width: 0.85 ;&st7; " /><path d=" M 2320.11,  321.90  C 2319.33   321.90  2318.70   322.53  2318.70   323.31 " style="stroke-width: 0.85 ;&st7; " /><path d=" M 2318.70,  323.31  C 2318.70   324.10  2319.33   324.73  2320.11   324.73 " style="stroke-width: 0.85 ;&st7; " /><path d=" M 2320.11,  324.73  C 2320.89   324.73  2321.53   324.10  2321.53   323.31 " style="stroke-width: 0.85 ;&st7; " /><path d=" M 2328.61,  294.99  C 2330.17   295.00  2331.43   293.74  2331.44   292.19 " style="stroke-width: 0.85 ;&st7; " /><path d=" M 2331.44,  292.19  C 2331.45   290.63  2330.20   289.36  2328.64   289.35 " style="stroke-width: 0.85 ;&st7; " /><path d=" M 2328.64,  289.35  C 2327.61   289.35  2326.73   289.85  2326.20   290.74 " style="stroke-width: 0.85 ;&st7; " /><path d=" M 2326.20,  290.74  C 2326.99   292.08  2328.72   292.52  2330.06   291.73 " style="stroke-width: 0.85 ;&st7; " /><path d=" M 2330.06,  291.73  C 2331.40   290.94  2331.84   289.21  2331.05   287.87 " style="stroke-width: 0.85 ;&st7; " /><path d=" M 2331.05,  287.87  C 2330.53   286.98  2329.64   286.48  2328.61   286.49 " style="stroke-width: 0.85 ;&st7; " /><path d=" M 2338.53,  323.31  C 2338.53   322.53  2337.89   321.90  2337.11   321.90 " style="stroke-width: 0.85 ;&st7; " /><path d=" M 2337.11,  321.90  C 2336.33   321.90  2335.69   322.53  2335.69   323.31 " style="stroke-width: 0.85 ;&st7; " /><path d=" M 2335.69,  323.31  C 2335.69   324.10  2336.33   324.73  2337.11   324.73 " style="stroke-width: 0.85 ;&st7; " /><path d=" M 2337.11,  324.73  C 2337.89   324.73  2338.53   324.10  2338.53   323.31 " style="stroke-width: 0.85 ;&st7; " /><path d=" M 2330.03,  306.32  C 2330.03   305.54  2329.39   304.90  2328.61   304.90 " style="stroke-width: 0.85 ;&st7; " /><path d=" M 2328.61,  304.90  C 2327.83   304.90  2327.19   305.54  2327.19   306.32 " style="stroke-width: 0.85 ;&st7; " /><path d=" M 2327.19,  306.32  C 2327.19   307.10  2327.83   307.73  2328.61   307.73 " style="stroke-width: 0.85 ;&st7; " /><path d=" M 2328.61,  307.73  C 2329.39   307.73  2330.03   307.10  2330.03   306.32 " style="stroke-width: 0.85 ;&st7; " /><path d=" M 2337.11,  290.74  C 2337.11   286.04  2333.30   282.24  2328.61   282.24 " style="stroke-width: 1.42 ;&st7; " /><path d=" M 2328.61,  282.24  C 2323.92   282.24  2320.11   286.04  2320.11   290.74 " style="stroke-width: 1.42 ;&st7; " /><path d=" M 2320.11,  290.74  C 2320.11   295.43  2323.92   299.24  2328.61   299.24 " style="stroke-width: 1.42 ;&st7; " /><path d=" M 2328.61,  299.24  C 2333.30   299.24  2337.11   295.43  2337.11   290.74 " style="stroke-width: 1.42 ;&st7; " /><path d=" M 2270.54,  323.31  C 2270.54   322.53  2269.90   321.90  2269.12   321.90 " style="stroke-width: 0.85 ;&st7; " /><path d=" M 2269.12,  321.90  C 2268.34   321.90  2267.70   322.53  2267.70   323.31 " style="stroke-width: 0.85 ;&st7; " /><path d=" M 2267.70,  323.31  C 2267.70   324.10  2268.34   324.73  2269.12   324.73 " style="stroke-width: 0.85 ;&st7; " /><path d=" M 2269.12,  324.73  C 2269.90   324.73  2270.54   324.10  2270.54   323.31 " style="stroke-width: 0.85 ;&st7; " /><path d=" M 2277.62,  294.99  C 2279.17   295.00  2280.44   293.74  2280.45   292.19 " style="stroke-width: 0.85 ;&st7; " /><path d=" M 2280.45,  292.19  C 2280.46   290.63  2279.21   289.36  2277.65   289.35 " style="stroke-width: 0.85 ;&st7; " /><path d=" M 2277.65,  289.35  C 2276.62   289.35  2275.74   289.85  2275.21   290.74 " style="stroke-width: 0.85 ;&st7; " /><path d=" M 2275.21,  290.74  C 2276.00   292.08  2277.73   292.52  2279.07   291.73 " style="stroke-width: 0.85 ;&st7; " /><path d=" M 2279.07,  291.73  C 2280.41   290.94  2280.85   289.21  2280.06   287.87 " style="stroke-width: 0.85 ;&st7; " /><path d=" M 2280.06,  287.87  C 2279.54   286.98  2278.65   286.48  2277.62   286.49 " style="stroke-width: 0.85 ;&st7; " /><path d=" M 2287.53,  323.31  C 2287.53   322.53  2286.90   321.90  2286.12   321.90 " style="stroke-width: 0.85 ;&st7; " /><path d=" M 2286.12,  321.90  C 2285.34   321.90  2284.70   322.53  2284.70   323.31 " style="stroke-width: 0.85 ;&st7; " /><path d=" M 2284.70,  323.31  C 2284.70   324.10  2285.34   324.73  2286.12   324.73 " style="stroke-width: 0.85 ;&st7; " /><path d=" M 2286.12,  324.73  C 2286.90   324.73  2287.53   324.10  2287.53   323.31 " style="stroke-width: 0.85 ;&st7; " /><path d=" M 2279.04,  306.32  C 2279.04   305.54  2278.40   304.90  2277.62   304.90 " style="stroke-width: 0.85 ;&st7; " /><path d=" M 2277.62,  304.90  C 2276.84   304.90  2276.20   305.54  2276.20   306.32 " style="stroke-width: 0.85 ;&st7; " /><path d=" M 2276.20,  306.32  C 2276.20   307.10  2276.84   307.73  2277.62   307.73 " style="stroke-width: 0.85 ;&st7; " /><path d=" M 2277.62,  307.73  C 2278.40   307.73  2279.04   307.10  2279.04   306.32 " style="stroke-width: 0.85 ;&st7; " /><path d=" M 2286.12,  290.74  C 2286.12   286.04  2282.31   282.24  2277.62   282.24 " style="stroke-width: 1.42 ;&st7; " /><path d=" M 2277.62,  282.24  C 2272.93   282.24  2269.12   286.04  2269.12   290.74 " style="stroke-width: 1.42 ;&st7; " /><path d=" M 2269.12,  290.74  C 2269.12   295.43  2272.93   299.24  2277.62   299.24 " style="stroke-width: 1.42 ;&st7; " /><path d=" M 2277.62,  299.24  C 2282.31   299.24  2286.12   295.43  2286.12   290.74 " style="stroke-width: 1.42 ;&st7; " /><path d=" M 2201.13,  401.22  C 2198.92   399.40  2195.79   399.46  2193.65   401.36 " style="stroke-width: 1.42 ;&st7; " /><path d=" M 2201.13,  401.22  C 2203.34   403.04  2206.48   402.98  2208.62   401.08 " style="stroke-width: 1.42 ;&st7; " /><path d=" M 2185.55,  323.31  C 2185.55   322.53  2184.92   321.90  2184.14   321.90 " style="stroke-width: 0.85 ;&st7; " /><path d=" M 2184.14,  321.90  C 2183.35   321.90  2182.72   322.53  2182.72   323.31 " style="stroke-width: 0.85 ;&st7; " /><path d=" M 2182.72,  323.31  C 2182.72   324.10  2183.35   324.73  2184.14   324.73 " style="stroke-width: 0.85 ;&st7; " /><path d=" M 2184.14,  324.73  C 2184.92   324.73  2185.55   324.10  2185.55   323.31 " style="stroke-width: 0.85 ;&st7; " /><path d=" M 2192.63,  294.99  C 2194.19   295.00  2195.46   293.74  2195.47   292.19 " style="stroke-width: 0.85 ;&st7; " /><path d=" M 2195.47,  292.19  C 2195.48   290.63  2194.22   289.36  2192.67   289.35 " style="stroke-width: 0.85 ;&st7; " /><path d=" M 2192.67,  289.35  C 2191.64   289.35  2190.75   289.85  2190.23   290.74 " style="stroke-width: 0.85 ;&st7; " /><path d=" M 2190.23,  290.74  C 2191.02   292.08  2192.74   292.52  2194.08   291.73 " style="stroke-width: 0.85 ;&st7; " /><path d=" M 2194.08,  291.73  C 2195.42   290.94  2195.87   289.21  2195.08   287.87 " style="stroke-width: 0.85 ;&st7; " /><path d=" M 2195.08,  287.87  C 2194.55   286.98  2193.67   286.48  2192.63   286.49 " style="stroke-width: 0.85 ;&st7; " /><path d=" M 2202.55,  323.31  C 2202.55   322.53  2201.91   321.90  2201.13   321.90 " style="stroke-width: 0.85 ;&st7; " /><path d=" M 2201.13,  321.90  C 2200.35   321.90  2199.72   322.53  2199.72   323.31 " style="stroke-width: 0.85 ;&st7; " /><path d=" M 2199.72,  323.31  C 2199.72   324.10  2200.35   324.73  2201.13   324.73 " style="stroke-width: 0.85 ;&st7; " /><path d=" M 2201.13,  324.73  C 2201.91   324.73  2202.55   324.10  2202.55   323.31 " style="stroke-width: 0.85 ;&st7; " /><path d=" M 2194.05,  306.32  C 2194.05   305.54  2193.42   304.90  2192.63   304.90 " style="stroke-width: 0.85 ;&st7; " /><path d=" M 2192.63,  304.90  C 2191.85   304.90  2191.22   305.54  2191.22   306.32 " style="stroke-width: 0.85 ;&st7; " /><path d=" M 2191.22,  306.32  C 2191.22   307.10  2191.85   307.73  2192.63   307.73 " style="stroke-width: 0.85 ;&st7; " /><path d=" M 2192.63,  307.73  C 2193.42   307.73  2194.05   307.10  2194.05   306.32 " style="stroke-width: 0.85 ;&st7; " /><path d=" M 2201.13,  290.74  C 2201.13   286.04  2197.33   282.24  2192.63   282.24 " style="stroke-width: 1.42 ;&st7; " /><path d=" M 2192.63,  282.24  C 2187.94   282.24  2184.14   286.04  2184.14   290.74 " style="stroke-width: 1.42 ;&st7; " /><path d=" M 2184.14,  290.74  C 2184.14   295.43  2187.94   299.24  2192.63   299.24 " style="stroke-width: 1.42 ;&st7; " /><path d=" M 2192.63,  299.24  C 2197.33   299.24  2201.13   295.43  2201.13   290.74 " style="stroke-width: 1.42 ;&st7; " /><path d=" M 2134.56,  323.31  C 2134.56   322.53  2133.93   321.90  2133.14   321.90 " style="stroke-width: 0.85 ;&st7; " /><path d=" M 2133.14,  321.90  C 2132.36   321.90  2131.73   322.53  2131.73   323.31 " style="stroke-width: 0.85 ;&st7; " /><path d=" M 2131.73,  323.31  C 2131.73   324.10  2132.36   324.73  2133.14   324.73 " style="stroke-width: 0.85 ;&st7; " /><path d=" M 2133.14,  324.73  C 2133.93   324.73  2134.56   324.10  2134.56   323.31 " style="stroke-width: 0.85 ;&st7; " /><path d=" M 2141.64,  294.99  C 2143.20   295.00  2144.47   293.74  2144.48   292.19 " style="stroke-width: 0.85 ;&st7; " /><path d=" M 2144.48,  292.19  C 2144.48   290.63  2143.23   289.36  2141.68   289.35 " style="stroke-width: 0.85 ;&st7; " /><path d=" M 2141.68,  289.35  C 2140.64   289.35  2139.76   289.85  2139.24   290.74 " style="stroke-width: 0.85 ;&st7; " /><path d=" M 2139.23,  290.74  C 2140.03   292.08  2141.75   292.52  2143.09   291.73 " style="stroke-width: 0.85 ;&st7; " /><path d=" M 2143.09,  291.73  C 2144.43   290.94  2144.88   289.21  2144.08   287.87 " style="stroke-width: 0.85 ;&st7; " /><path d=" M 2144.08,  287.87  C 2143.56   286.98  2142.68   286.48  2141.64   286.49 " style="stroke-width: 0.85 ;&st7; " /><path d=" M 2151.56,  323.31  C 2151.56   322.53  2150.92   321.90  2150.14   321.90 " style="stroke-width: 0.85 ;&st7; " /><path d=" M 2150.14,  321.90  C 2149.36   321.90  2148.72   322.53  2148.72   323.31 " style="stroke-width: 0.85 ;&st7; " /><path d=" M 2148.72,  323.31  C 2148.72   324.10  2149.36   324.73  2150.14   324.73 " style="stroke-width: 0.85 ;&st7; " /><path d=" M 2150.14,  324.73  C 2150.92   324.73  2151.56   324.10  2151.56   323.31 " style="stroke-width: 0.85 ;&st7; " /><path d=" M 2143.06,  306.32  C 2143.06   305.54  2142.42   304.90  2141.64   304.90 " style="stroke-width: 0.85 ;&st7; " /><path d=" M 2141.64,  304.90  C 2140.86   304.90  2140.23   305.54  2140.23   306.32 " style="stroke-width: 0.85 ;&st7; " /><path d=" M 2140.23,  306.32  C 2140.23   307.10  2140.86   307.73  2141.64   307.73 " style="stroke-width: 0.85 ;&st7; " /><path d=" M 2141.64,  307.73  C 2142.42   307.73  2143.06   307.10  2143.06   306.32 " style="stroke-width: 0.85 ;&st7; " /><path d=" M 2150.14,  290.74  C 2150.14   286.04  2146.34   282.24  2141.64   282.24 " style="stroke-width: 1.42 ;&st7; " /><path d=" M 2141.64,  282.24  C 2136.95   282.24  2133.14   286.04  2133.14   290.74 " style="stroke-width: 1.42 ;&st7; " /><path d=" M 2133.14,  290.74  C 2133.14   295.43  2136.95   299.24  2141.64   299.24 " style="stroke-width: 1.42 ;&st7; " /><path d=" M 2141.64,  299.24  C 2146.34   299.24  2150.14   295.43  2150.14   290.74 " style="stroke-width: 1.42 ;&st7; " /><text style="&st18;" transform="matrix(&st16;  2042.93  151.06 )">GR</text><text style="&st18;" transform="matrix(&st16;  2045.83  508.0 )">P</text><text style="&st18;" transform="matrix(&st17;  2010.47  236.47 )">GR</text><text style="&st18;" transform="matrix(&st17;  2027.47  391.92 )">W-B</text><text style="&st18;" transform="matrix(&st17;  2001.97  386.55 )">P</text><text style="&st18;" transform="matrix(&st16;  2466.77  254.46 )">2</text><text style="&st18;" transform="matrix(&st16;  2474.8  304.04 )">5</text><text style="&st18;" transform="matrix(&st17;  2477.89  284.99 )">G</text><text style="&st18;" transform="matrix(&st17;  2409.9  373.45 )">L</text><text style="&st18;" transform="matrix(&st17;  2477.89  236.47 )">GR</text><text style="&st18;" transform="matrix(&st16;  2474.8  601.49 )">9</text><text style="&st18;" transform="matrix(&st17;  2477.89  379.17 )">W-B</text><text style="&st18;" transform="matrix(&st17;  2006.22  337.17 )">DOOR</text><text style="&st18;" transform="matrix(&st17;  2026.05  337.17 )">ON</text><text style="&st18;" transform="matrix(&st16;  2474.8  358.42 )">7</text><text style="&st18;" transform="matrix(&st16;  2463.59  398.94 )">13</text><text style="&st18;" transform="matrix(&st17;  2477.89  587.39 )">W-B</text><text style="&st18;" transform="matrix(&st16;  2403.63  358.42 )">10</text><text ewd:textID="19" style="&st18;" transform="matrix(&st16;  2394.07  298.09 )">Interior Dome Light <tspan dy="6" x="0">Switch Assembly</tspan></text><text style="&st18;" transform="matrix(&st16;  2394.07  290.98 )">J7</text><text style="&st18;" transform="matrix(&st16;  2457.59  326.7 )">OFF</text><text style="&st18;" transform="matrix(&st16;  2454.13  339.45 )">DOOR</text><text style="&st18;" transform="matrix(&st16;  2459.36  347.95 )">ON</text><text style="&st18;" transform="matrix(&st16;  2416.43  346.54 )">FLMP</text><text style="&st18;" transform="matrix(&st16;  2484.42  346.54 )">E</text><text style="&st18;" transform="matrix(&st16;  2017.0  273.43 )">B</text><text style="&st18;" transform="matrix(&st16;  2033.99  355.03 )">E</text><text style="&st18;" transform="matrix(&st16;  2395.6  398.94 )">14</text><text style="&st18;" transform="matrix(&st17;  2409.9  424.44 )">L</text><text style="&st18;" transform="matrix(&st16;  2398.78  441.43 )">5</text><text style="&st18;" transform="matrix(&st16;  2460.67  315.93 )">FCTY</text><text style="&st18;" transform="matrix(&st17;  2477.89  659.63 )">W-B</text><text style="&st18;" transform="matrix(&st16;  2474.8  630.37 )">5</text><text ewd:textID="24" style="&st18;" transform="matrix(&st17;  2062.88  361.25 )">No.1 Room Light Assembly</text><text style="&st18;" transform="matrix(&st17;  2055.77  361.25 )">U6</text><text style="&st18;" transform="matrix(&st17;  2273.92  236.47 )">GR</text><text style="&st18;" transform="matrix(&st16;  2042.93  176.56 )">GR</text><text style="&st18;" transform="matrix(&st16;  2334.78  508.0 )">P</text><text style="&st18;" transform="matrix(&st17;  2265.42  386.55 )">P</text><text style="&st18;" transform="matrix(&st17;  2333.41  391.92 )">W-B</text><text style="&st18;" transform="matrix(&st16;  2330.32  366.92 )">2</text><text style="&st18;" transform="matrix(&st16;  2271.61  261.55 )">1</text><text style="&st18;" transform="matrix(&st16;  2271.95  355.03 )">CTY</text><text style="&st18;" transform="matrix(&st16;  2262.33  366.92 )">3</text><text style="&st18;" transform="matrix(&st16;  2270.12  273.43 )">B</text><text style="&st18;" transform="matrix(&st17;  2320.67  320.17 )">DOOR</text><text style="&st18;" transform="matrix(&st17;  2340.5  320.17 )">ON</text><text style="&st18;" transform="matrix(&st17;  2269.67  320.17 )">DOOR</text><text style="&st18;" transform="matrix(&st17;  2289.5  320.17 )">ON</text><text style="&st18;" transform="matrix(&st16;  2339.94  355.03 )">E</text><text style="&st18;" transform="matrix(&st16;  2008.15  261.55 )">1</text><text style="&st18;" transform="matrix(&st16;  2024.37  366.92 )">2</text><text style="&st18;" transform="matrix(&st17;  2021.8  237.43 )">(*4)</text><text style="&st18;" transform="matrix(&st17;  2038.8  390.4 )">(*4)</text><text style="&st18;" transform="matrix(&st17;  2013.3  390.4 )">(*4)</text><text style="&st18;" transform="matrix(&st17;  2129.45  386.55 )">P</text><text style="&st18;" transform="matrix(&st17;  2197.44  391.92 )">W-B</text><text style="&st18;" transform="matrix(&st17;  2225.74  361.25 )">U8</text><text ewd:textID="24" style="&st18;" transform="matrix(&st17;  2232.85  361.25 )">No.1 Room Light Assembly</text><text style="&st18;" transform="matrix(&st16;  2194.34  366.92 )">2</text><text style="&st18;" transform="matrix(&st17;  2137.95  236.47 )">GR</text><text style="&st18;" transform="matrix(&st16;  2135.63  261.55 )">1</text><text style="&st18;" transform="matrix(&st16;  2135.98  355.03 )">CTY</text><text style="&st18;" transform="matrix(&st16;  2126.35  366.92 )">3</text><text style="&st18;" transform="matrix(&st16;  2134.15  273.43 )">B</text><text style="&st18;" transform="matrix(&st17;  2184.69  320.17 )">DOOR</text><text style="&st18;" transform="matrix(&st17;  2204.52  320.17 )">ON</text><text style="&st18;" transform="matrix(&st17;  2133.7  320.17 )">DOOR</text><text style="&st18;" transform="matrix(&st17;  2153.53  320.17 )">ON</text><text style="&st18;" transform="matrix(&st16;  2203.97  355.03 )">E</text><text style="&st18;" transform="matrix(&st16;  2187.41  176.56 )">GR</text><text style="&st18;" transform="matrix(&st17;  2140.78  390.4 )">(*3)</text><text style="&st18;" transform="matrix(&st17;  2208.77  390.4 )">(*3)</text><text style="&st18;" transform="matrix(&st17;  2149.28  237.43 )">(*3)</text><text style="&st18;" transform="matrix(&st16;  2093.92  151.06 )">GR</text><text style="&st18;" transform="matrix(&st16;  2093.92  176.56 )">GR</text><text style="&st18;" transform="matrix(&st16;  2096.82  508.0 )">P</text><text style="&st18;" transform="matrix(&st16;  2190.3  508.0 )">P</text><text ewd:textID="24" style="&st18;" transform="matrix(&st17;  2368.82  361.25 )">No.1 Room Light Assembly</text><text style="&st18;" transform="matrix(&st17;  2361.72  361.25 )">U9</text><text ewd:textID="3" style="&st18;" transform="matrix(&st16;  2105.12  573.16 )">* 3 :w/ Rear Seat Entertainment System</text><text ewd:textID="22" style="&st18;" transform="matrix(&st16;  2300.59  53.33 )">Main Body ECU</text><text style="&st18;" transform="matrix(&st16;  2300.59  46.22 )">H1(A),H2(B),H3(C),H4(D)</text></svg>