﻿<?xml version="1.0"?>
<!-- Generator: Adobe Illustrator 10.0, SVG Export Plug-In . SVG Version: 3.0.0 Build 77)  -->
<!DOCTYPE svg PUBLIC "-//W3C//DTD SVG 1.0//EN" "http://www.w3.org/TR/2001/REC-SVG-20010904/DTD/svg10.dtd"[
	<!ENTITY ns_flows "http://ns.adobe.com/Flows/1.0/">
	<!ENTITY ns_svg "http://www.w3.org/2000/svg">
	<!ENTITY ns_xlink "http://www.w3.org/1999/xlink">
	<!ENTITY st0 "fill:none;stroke:#000000;stroke-linecap:round;stroke-linejoin:round;">
	<!ENTITY st1 "fill:none;stroke:#000000;stroke-width:0.6;stroke-linecap:round;stroke-linejoin:round;">
	<!ENTITY st2 "font-size:6px;">
	<!ENTITY st3 "font-family:'Arial';">
	<!ATTLIST svg
		ewd:ver CDATA #IMPLIED
		xmlns:ewd CDATA #FIXED "http://shcl.co.jp/ewd"
		xmlns:a CDATA #FIXED "http://ns.adobe.com/AdobeSVGViewerExtensions/3.0/">
	<!ATTLIST g
		ewd:pinNo CDATA #IMPLIED>
]>
<svg width="106.666" height="48.326" viewBox="0 0 106.666 48.326" style="overflow:visible;enable-background:new 0 0 106.666 48.326" xml:space="preserve" onload="call_execInitLoadProc_svg('connector')" ewd:ver="L2.1.2.7" xmlns="&ns_svg;" xmlns:ewd="http://shcl.co.jp/ewd" xmlns:a="http://ns.adobe.com/AdobeSVGViewerExtensions/3.0/" xmlns:xlink="&ns_xlink;">
<script type="text/javascript" xlink:href="../../../../../system/js/ewd/fig/svgfig.js"/>
<g id="レイヤー_1">
	<path style="&st1;" d="M30.528,24.163c0-3.598-2.917-6.515-6.516-6.515"/>
	<path style="&st1;" d="M24.013,17.648c-3.599,0-6.516,2.917-6.516,6.515"/>
	<path style="&st1;" d="M17.497,24.163c0,3.599,2.917,6.516,6.516,6.516"/>
	<path style="&st1;" d="M24.013,30.679c3.598,0,6.516-2.917,6.516-6.516"/>
	<path style="&st1;" d="M50.075,24.163c0-3.598-2.917-6.515-6.516-6.515"/>
	<path style="&st1;" d="M43.56,17.648c-3.599,0-6.516,2.917-6.516,6.515"/>
	<path style="&st1;" d="M37.044,24.163c0,3.599,2.917,6.516,6.516,6.516"/>
	<path style="&st1;" d="M43.56,30.679c3.598,0,6.516-2.917,6.516-6.516"/>
	<path style="&st1;" d="M69.622,24.163c0-3.598-2.917-6.515-6.516-6.515"/>
	<path style="&st1;" d="M63.106,17.648c-3.598,0-6.516,2.917-6.516,6.515"/>
	<path style="&st1;" d="M56.59,24.163c0,3.599,2.917,6.516,6.516,6.516"/>
	<path style="&st1;" d="M63.106,30.679c3.599,0,6.516-2.917,6.516-6.516"/>
	<path style="&st1;" d="M89.168,24.163c0-3.598-2.917-6.515-6.516-6.515"/>
	<path style="&st1;" d="M82.653,17.648c-3.599,0-6.516,2.917-6.516,6.515"/>
	<path style="&st1;" d="M76.137,24.163c0,3.599,2.917,6.516,6.516,6.516"/>
	<path style="&st1;" d="M82.653,30.679c3.599,0,6.516-2.917,6.516-6.516"/>
	<path style="&st1;" d="M24.013,14.815c-5.163,0-9.349,4.186-9.349,9.348"/>
	<path style="&st1;" d="M14.664,24.163c0,5.163,4.186,9.349,9.349,9.349"/>
	<path style="&st0;" d="M106.166,16.231c0-7.041-5.708-12.748-12.748-12.748"/>
	<path style="&st0;" d="M93.417,44.843c7.041,0,12.748-5.708,12.748-12.748"/>
	<path style="&st1;" d="M82.653,33.512c5.163,0,9.349-4.186,9.349-9.349"/>
	<path style="&st1;" d="M92.001,24.163c0-5.163-4.186-9.348-9.349-9.348"/>
	<path style="&st0;" d="M13.248,44.843c28,3.978,52.17,3.978,80.169,0"/>
	<path style="&st0;" d="M0.5,32.095c0,7.041,5.708,12.748,12.748,12.748"/>
	<path style="&st0;" d="M13.248,3.483C6.208,3.483,0.5,9.191,0.5,16.231"/>
	<path style="&st1;" d="M92.001,39.178c4.693,0,8.499-3.805,8.499-8.499"/>
	<path style="&st1;" d="M14.664,9.149c-4.693,0-8.499,3.805-8.499,8.499"/>
	<path style="&st1;" d="M6.166,30.679c0,4.694,3.805,8.499,8.499,8.499"/>
	<path style="&st0;" d="M93.417,3.483c-28-3.978-52.17-3.978-80.169,0"/>
	<path style="&st1;" d="M100.5,17.648c0-4.694-3.805-8.499-8.499-8.499"/>
	<path style="&st1;" d="M24.013,14.815h58.64"/>
	<path style="&st1;" d="M24.013,33.512h58.64"/>
	<path style="&st1;" d="M6.166,17.648v13.031"/>
	<path style="&st1;" d="M14.664,9.149h77.337"/>
	<path style="&st1;" d="M100.5,17.648v13.031"/>
	<path style="&st1;" d="M14.664,39.178h77.337"/>
	<path style="&st0;" d="M0.5,16.231v15.864"/>
	<path style="&st1;" d="M13.248,3.483h80.169"/>
	<path style="&st0;" d="M106.166,16.231v15.864"/>
	<path style="&st1;" d="M13.248,44.843h80.169"/>
	<path style="&st1;" d="M72.673,15.064v18.119"/>
	<g ewd:pinNo="1">
		<text transform="matrix(1 0 0 1 22.3442 26.1807)"><tspan x="0" y="0" style="&st3; &st2;">1</tspan></text>
	</g>
	<g ewd:pinNo="2">
		<text transform="matrix(1 0 0 1 41.8906 26.1807)"><tspan x="0" y="0" style="&st3; &st2;">2</tspan></text>
	</g>
	<g ewd:pinNo="3">
		<text transform="matrix(1 0 0 1 61.4375 26.1807)"><tspan x="0" y="0" style="&st3; &st2;">3</tspan></text>
	</g>
	<g ewd:pinNo="4">
		<text transform="matrix(1 0 0 1 80.9844 26.1807)"><tspan x="0" y="0" style="&st3; &st2;">4</tspan></text>
	</g>
</g>
</svg>