﻿<?xml version="1.0"?>
<!-- Generator: Adobe Illustrator 10.0, SVG Export Plug-In . SVG Version: 3.0.0 Build 77)  -->
<!DOCTYPE svg PUBLIC "-//W3C//DTD SVG 1.0//EN" "http://www.w3.org/TR/2001/REC-SVG-20010904/DTD/svg10.dtd"[
	<!ENTITY ns_flows "http://ns.adobe.com/Flows/1.0/">
	<!ENTITY ns_svg "http://www.w3.org/2000/svg">
	<!ENTITY ns_xlink "http://www.w3.org/1999/xlink">
	<!ENTITY st0 "fill:none;stroke:#000000;stroke-linecap:round;stroke-linejoin:round;">
	<!ENTITY st1 "fill:none;stroke:#000000;stroke-width:0.6;stroke-linecap:round;stroke-linejoin:round;">
	<!ENTITY st2 "font-size:6px;">
	<!ENTITY st3 "font-family:'Arial';">
	<!ATTLIST svg
		ewd:ver CDATA #IMPLIED
		xmlns:ewd CDATA #FIXED "http://shcl.co.jp/ewd"
		xmlns:a CDATA #FIXED "http://ns.adobe.com/AdobeSVGViewerExtensions/3.0/">
	<!ATTLIST g
		ewd:pinNo CDATA #IMPLIED>
]>
<svg width="58.507" height="44.061" viewBox="0 0 58.507 44.061" style="overflow:visible;enable-background:new 0 0 58.507 44.061" xml:space="preserve" onload="call_execInitLoadProc_svg('connector')" ewd:ver="L2.1.2.7" xmlns="&ns_svg;" xmlns:ewd="http://shcl.co.jp/ewd" xmlns:a="http://ns.adobe.com/AdobeSVGViewerExtensions/3.0/" xmlns:xlink="&ns_xlink;">
<script type="text/javascript" xlink:href="../../../../../system/js/ewd/fig/svgfig.js"/>
<g id="レイヤー_1">
	<path style="&st0;" d="M11.046,43.56H47.46"/>
	<path style="&st1;" d="M4.324,37.894h49.858"/>
	<path style="&st0;" d="M4.324,18.064h7.366"/>
	<path style="&st0;" d="M52.483,12.398h2.55"/>
	<path style="&st0;" d="M5.458,41.435H7.16"/>
	<path style="&st1;" d="M29.253,22.738v12.323"/>
	<path style="&st0;" d="M40.019,7.158v8.64"/>
	<path style="&st0;" d="M18.489,7.158v8.64"/>
	<path style="&st0;" d="M44.551,7.158v8.64"/>
	<path style="&st0;" d="M13.956,7.158v8.64"/>
	<path style="&st0;" d="M4.324,37.894v2.408"/>
	<path style="&st0;" d="M54.183,37.894v2.408"/>
	<path style="&st1;" d="M40.585,22.738v10.906"/>
	<path style="&st1;" d="M17.922,22.738v10.906"/>
	<path style="&st1;" d="M25.004,4.183h8.499"/>
	<path style="&st0;" d="M38.602,2.908v1.274"/>
	<path style="&st0;" d="M19.905,2.908v1.274"/>
	<path style="&st0;" d="M34.494,0.783h1.983"/>
	<path style="&st0;" d="M22.03,0.783h1.983"/>
	<path style="&st1;" d="M25.004,5.6h8.499"/>
	<path style="&st0;" d="M50.466,42.316l0.878-0.881"/>
	<path style="&st0;" d="M7.16,41.435l0.881,0.881"/>
	<path style="&st1;" d="M7.16,41.435h44.187"/>
	<path style="&st0;" d="M51.347,41.435h1.702"/>
	<path style="&st1;" d="M38.46,35.061H20.046"/>
	<path style="&st1;" d="M11.69,18.064h9.065"/>
	<path style="&st1;" d="M51.633,18.064h2.55"/>
	<path style="&st1;" d="M37.752,18.064h9.065"/>
	<path style="&st1;" d="M55.882,24.863v7.791"/>
	<path style="&st1;" d="M2.625,24.863v7.791"/>
	<path style="&st0;" d="M4.324,18.064c-0.938,0-1.7,0.761-1.7,1.7"/>
	<path style="&st0;" d="M2.625,36.194c0,0.938,0.761,1.7,1.7,1.7"/>
	<path style="&st0;" d="M54.183,37.894c0.938,0,1.7-0.761,1.7-1.7"/>
	<path style="&st1;" d="M55.882,19.764c0-0.939-0.761-1.7-1.7-1.7"/>
	<path style="&st0;" d="M11.69,18.064c1.251,0,2.266-1.015,2.266-2.266"/>
	<path style="&st0;" d="M18.489,15.798c0,1.251,1.015,2.266,2.266,2.266"/>
	<path style="&st0;" d="M37.752,18.064c1.251,0,2.267-1.015,2.267-2.266"/>
	<path style="&st0;" d="M44.551,15.798c0,1.251,1.015,2.266,2.267,2.266"/>
	<path style="&st0;" d="M53.049,41.435c0.626,0,1.133-0.507,1.133-1.133"/>
	<path style="&st0;" d="M4.324,40.302c0,0.626,0.507,1.133,1.133,1.133"/>
	<path style="&st1;" d="M25.004,4.183c-0.782,0-1.416,0.635-1.416,1.417"/>
	<path style="&st1;" d="M34.919,5.6c0-0.782-0.634-1.417-1.416-1.417"/>
	<path style="&st0;" d="M19.905,4.183c0,0.783,0.634,1.417,1.417,1.417"/>
	<path style="&st0;" d="M37.186,5.6c0.782,0,1.417-0.634,1.417-1.417"/>
	<path style="&st0;" d="M38.602,2.908c0-1.173-0.952-2.125-2.125-2.125"/>
	<path style="&st0;" d="M22.03,0.783c-1.173,0-2.125,0.952-2.125,2.125"/>
	<path style="&st0;" d="M25.854,2.625c0-1.017-0.824-1.841-1.841-1.841"/>
	<path style="&st0;" d="M34.494,0.783c-1.017,0-1.841,0.825-1.841,1.841"/>
	<path style="&st1;" d="M25.004,5.6c-0.782,0-1.416,0.634-1.416,1.417"/>
	<path style="&st1;" d="M34.919,7.016c0-0.783-0.634-1.417-1.416-1.417"/>
	<path style="&st0;" d="M52.483,12.398c-0.469,0-0.85,0.38-0.85,0.85"/>
	<path style="&st0;" d="M55.882,13.248c0-0.469-0.38-0.85-0.85-0.85"/>
	<path style="&st0;" d="M47.46,43.56c1.173,0,2.175-0.415,3.004-1.245"/>
	<path style="&st0;" d="M8.041,42.316c0.83,0.83,1.832,1.245,3.005,1.245"/>
	<path style="&st0;" d="M44.551,7.158c0-1.252-1.015-2.267-2.266-2.267"/>
	<path style="&st0;" d="M42.285,4.891c-1.251,0-2.266,1.015-2.266,2.267"/>
	<path style="&st0;" d="M18.489,7.158c0-1.252-1.015-2.267-2.267-2.267"/>
	<path style="&st0;" d="M16.222,4.891c-1.251,0-2.266,1.015-2.266,2.267"/>
	<path style="&st1;" d="M42.709,35.061h9.207V22.738H6.591v12.323h9.207"/>
	<path style="&st1;" d="M20.046,33.645h-4.249v2.125h4.249V33.645"/>
	<path style="&st1;" d="M42.709,33.645H38.46v2.125h4.249V33.645"/>
	<path style="&st1;" d="M25.854,2.625v1.558"/>
	<path style="&st1;" d="M2.625,31.237h2.549v-7.083H2.625"/>
	<path style="&st1;" d="M55.882,31.237h-2.55v-7.083h2.55"/>
	<path style="&st1;" d="M54.466,24.154V19.48h-8.923"/>
	<path style="&st1;" d="M12.964,19.48H4.041v4.674"/>
	<path style="&st1;" d="M54.466,31.237v5.241H4.041v-5.241"/>
	<path style="&st0;" d="M32.653,2.625V0.5h-6.799v2.125"/>
	<path style="&st1;" d="M32.653,4.183V2.625"/>
	<path style="&st0;" d="M20.755,18.064h2.833V5.6h-2.267"/>
	<path style="&st0;" d="M37.752,18.064h-2.833V5.6h2.267"/>
	<path style="&st1;" d="M23.588,18.064v2.125H12.964v-2.125"/>
	<path style="&st1;" d="M45.542,18.064v2.125H34.919v-2.125"/>
	<path style="&st0;" d="M46.817,18.064h4.815v-4.816"/>
	<path style="&st0;" d="M2.625,19.764v5.099H0.5v7.791h2.125v3.541"/>
	<path style="&st0;" d="M55.882,36.194v-3.541h2.125v-7.791h-2.125V13.248"/>
	<g ewd:pinNo="1">
		<text transform="matrix(1 0 0 1 10.4834 30.8438)"><tspan x="0" y="0" style="&st3; &st2;">1</tspan></text>
	</g>
	<g ewd:pinNo="2">
		<text transform="matrix(1 0 0 1 21.8149 30.8438)"><tspan x="0" y="0" style="&st3; &st2;">2</tspan></text>
	</g>
	<g ewd:pinNo="3">
		<text transform="matrix(1 0 0 1 33.1465 30.8438)"><tspan x="0" y="0" style="&st3; &st2;">3</tspan></text>
	</g>
	<g ewd:pinNo="4">
		<text transform="matrix(1 0 0 1 44.478 30.8438)"><tspan x="0" y="0" style="&st3; &st2;">4</tspan></text>
	</g>
</g>
</svg>