﻿<?xml version="1.0"?>
<!-- Generator: Adobe Illustrator 10.0, SVG Export Plug-In . SVG Version: 3.0.0 Build 77)  -->
<!DOCTYPE svg PUBLIC "-//W3C//DTD SVG 1.0//EN" "http://www.w3.org/TR/2001/REC-SVG-20010904/DTD/svg10.dtd"[
	<!ENTITY ns_flows "http://ns.adobe.com/Flows/1.0/">
	<!ENTITY ns_svg "http://www.w3.org/2000/svg">
	<!ENTITY ns_xlink "http://www.w3.org/1999/xlink">
	<!ENTITY st0 "fill:none;stroke:#000000;stroke-linecap:round;stroke-linejoin:round;">
	<!ENTITY st1 "fill:none;stroke:#000000;stroke-width:0.6;stroke-linecap:round;stroke-linejoin:round;">
	<!ENTITY st2 "font-size:6px;">
	<!ENTITY st3 "font-family:'Arial';">
	<!ATTLIST svg
		ewd:ver CDATA #IMPLIED
		xmlns:ewd CDATA #FIXED "http://shcl.co.jp/ewd"
		xmlns:a CDATA #FIXED "http://ns.adobe.com/AdobeSVGViewerExtensions/3.0/">
	<!ATTLIST g
		ewd:pinNo CDATA #IMPLIED>
]>
<svg width="50.501" height="42.302" viewBox="0 0 50.501 42.302" style="overflow:visible;enable-background:new 0 0 50.501 42.302" xml:space="preserve" onload="call_execInitLoadProc_svg('connector')" ewd:ver="L2.1.2.7" xmlns="&ns_svg;" xmlns:ewd="http://shcl.co.jp/ewd" xmlns:a="http://ns.adobe.com/AdobeSVGViewerExtensions/3.0/" xmlns:xlink="&ns_xlink;">
<script type="text/javascript" xlink:href="../../../../../system/js/ewd/fig/svgfig.js"/>
<g id="レイヤー_1">
	<path style="&st1;" d="M4.973,21.524h40.555"/>
	<path style="&st1;" d="M25.25,21.524v12.821"/>
	<path style="&st1;" d="M4.973,36.584h40.555"/>
	<path style="&st0;" d="M33.911,7.21l0.963-5.476"/>
	<path style="&st0;" d="M4.973,4.23h4.175"/>
	<path style="&st1;" d="M34.435,4.23h6.918"/>
	<path style="&st0;" d="M12.565,0.501h1.592"/>
	<path style="&st0;" d="M18.69,0.501h13.122"/>
	<path style="&st0;" d="M36.344,0.501h1.592"/>
	<path style="&st0;" d="M32.704,1.397v1.192"/>
	<path style="&st0;" d="M17.794,1.397v1.192"/>
	<path style="&st0;" d="M18.69,3.484h0.745"/>
	<path style="&st0;" d="M31.063,3.484h0.748"/>
	<path style="&st1;" d="M28.231,0.501V4.23"/>
	<path style="&st1;" d="M22.268,0.501V4.23"/>
	<path style="&st0;" d="M14.024,41.802h22.451"/>
	<path style="&st0;" d="M8.752,39.618l-3.779-3.034"/>
	<path style="&st0;" d="M41.746,39.618l3.782-3.034"/>
	<path style="&st0;" d="M50.001,14.963v13.122"/>
	<path style="&st0;" d="M0.5,14.963v13.122"/>
	<path style="&st1;" d="M9.148,4.23h6.918"/>
	<path style="&st0;" d="M41.353,4.23h4.176"/>
	<path style="&st1;" d="M47.763,14.068V28.98"/>
	<path style="&st1;" d="M2.735,14.068V28.98"/>
	<path style="&st0;" d="M33.896,7.21v9.841"/>
	<path style="&st0;" d="M2.735,34.346c0,1.236,1.001,2.238,2.238,2.238"/>
	<path style="&st0;" d="M45.528,36.584c1.236,0,2.238-1.002,2.238-2.238"/>
	<path style="&st0;" d="M32.406,18.542c0.823,0,1.49-0.667,1.49-1.49"/>
	<path style="&st0;" d="M4.973,4.23c-1.235,0-2.235,1-2.235,2.235"/>
	<path style="&st0;" d="M47.763,6.465c0-1.234-1-2.235-2.235-2.235"/>
	<path style="&st0;" d="M36.344,0.501c-0.732,0-1.341,0.512-1.468,1.233"/>
	<path style="&st0;" d="M15.625,1.734c-0.126-0.721-0.735-1.232-1.467-1.232"/>
	<path style="&st0;" d="M39.126,1.799C39.02,3.029,39.93,4.112,41.16,4.218"/>
	<path style="&st0;" d="M41.16,4.218c0.067,0.006,0.125,0.008,0.192,0.008"/>
	<path style="&st0;" d="M9.148,4.23c1.236,0,2.238-1.002,2.238-2.238"/>
	<path style="&st0;" d="M11.387,1.992c0-0.068-0.002-0.125-0.008-0.193"/>
	<path style="&st0;" d="M18.69,0.501c-0.495,0-0.896,0.401-0.896,0.896"/>
	<path style="&st0;" d="M32.704,1.397c0-0.493-0.4-0.893-0.893-0.893"/>
	<path style="&st0;" d="M31.812,3.484c0.495,0,0.895-0.4,0.895-0.895"/>
	<path style="&st0;" d="M17.794,2.589c0,0.495,0.401,0.895,0.896,0.895"/>
	<path style="&st0;" d="M20.33,4.383c0.003-0.495-0.395-0.898-0.89-0.901"/>
	<path style="&st0;" d="M19.44,3.482c-0.002,0-0.004,0-0.006,0"/>
	<path style="&st0;" d="M31.063,3.484c-0.493,0-0.892,0.4-0.892,0.893"/>
	<path style="&st0;" d="M30.171,4.377c0,0.003,0,0.005,0,0.008"/>
	<path style="&st0;" d="M8.752,39.618c1.456,1.456,3.213,2.184,5.272,2.184"/>
	<path style="&st0;" d="M36.475,41.802c2.059,0,3.816-0.729,5.272-2.184"/>
	<path style="&st0;" d="M50.001,14.963c0-0.494-0.401-0.895-0.896-0.895"/>
	<path style="&st0;" d="M49.106,28.98c0.495,0,0.896-0.401,0.896-0.895"/>
	<path style="&st0;" d="M0.5,28.085c0,0.494,0.4,0.895,0.895,0.895"/>
	<path style="&st0;" d="M1.395,14.068c-0.495,0-0.895,0.401-0.895,0.895"/>
	<path style="&st0;" d="M12.565,0.501c-0.659,0-1.192,0.534-1.192,1.193"/>
	<path style="&st0;" d="M11.373,1.694c0,0.037,0.001,0.068,0.004,0.104"/>
	<path style="&st0;" d="M39.126,1.799c0.058-0.657-0.428-1.237-1.085-1.295"/>
	<path style="&st0;" d="M38.041,0.504C38.004,0.501,37.973,0.5,37.936,0.5"/>
	<path style="&st1;" d="M33.151,32.856h4.473v2.238h-4.473V32.856"/>
	<path style="&st1;" d="M26.741,16.306h-2.98v2.983h2.98V16.306"/>
	<path style="&st1;" d="M15.112,34.346V8.703H4.973v25.643h28.178"/>
	<path style="&st1;" d="M37.625,34.346h7.904V8.703H35.39v24.153"/>
	<path style="&st1;" d="M6.463,4.23v2.98H16.59"/>
	<path style="&st0;" d="M49.106,14.068h-1.343V6.465"/>
	<path style="&st0;" d="M49.106,28.98h-1.343v5.365"/>
	<path style="&st0;" d="M2.735,6.465v7.604h-1.34"/>
	<path style="&st0;" d="M1.395,28.98h1.34v5.365"/>
	<path style="&st1;" d="M33.896,7.21h10.139V4.23"/>
	<path style="&st0;" d="M15.625,1.734L16.59,7.21h3.74V4.23"/>
	<path style="&st0;" d="M32.406,18.542h-2.235V4.23"/>
	<path style="&st1;" d="M22.268,2.737H20.33V4.23h9.841V2.737h-1.94"/>
	<g ewd:pinNo="1">
		<text transform="matrix(1 0 0 1 8.228 17.2842)"><tspan x="0" y="0" style="&st3; &st2;">1</tspan></text>
	</g>
	<g ewd:pinNo="2">
		<text transform="matrix(1 0 0 1 38.6445 17.2842)"><tspan x="0" y="0" style="&st3; &st2;">2</tspan></text>
	</g>
	<g ewd:pinNo="3">
		<text transform="matrix(1 0 0 1 8.228 30.106)"><tspan x="0" y="0" style="&st3; &st2;">3</tspan></text>
	</g>
	<g ewd:pinNo="4">
		<text transform="matrix(1 0 0 1 18.3672 30.106)"><tspan x="0" y="0" style="&st3; &st2;">4</tspan></text>
	</g>
	<g ewd:pinNo="5">
		<text transform="matrix(1 0 0 1 28.5059 30.106)"><tspan x="0" y="0" style="&st3; &st2;">5</tspan></text>
	</g>
	<g ewd:pinNo="6">
		<text transform="matrix(1 0 0 1 38.6445 30.106)"><tspan x="0" y="0" style="&st3; &st2;">6</tspan></text>
	</g>
</g>
</svg>