﻿<?xml version="1.0"?>
<!-- Generator: Adobe Illustrator 10.0, SVG Export Plug-In . SVG Version: 3.0.0 Build 77)  -->
<!DOCTYPE svg PUBLIC "-//W3C//DTD SVG 1.0//EN" "http://www.w3.org/TR/2001/REC-SVG-20010904/DTD/svg10.dtd"[
	<!ENTITY ns_flows "http://ns.adobe.com/Flows/1.0/">
	<!ENTITY ns_svg "http://www.w3.org/2000/svg">
	<!ENTITY ns_xlink "http://www.w3.org/1999/xlink">
	<!ENTITY st0 "fill:none;">
	<!ENTITY st1 "stroke:#000000;">
	<!ENTITY st2 "stroke-linecap:round;">
	<!ENTITY st3 "stroke-linejoin:round;">
	<!ENTITY st4 "stroke-width:0.6;">
	<!ENTITY st5 "font-size:6px;">
	<!ENTITY st6 "font-family:'Arial';">
	<!ENTITY st7 "stroke-width:1.4;">
	<!ATTLIST svg
		ewd:ver CDATA #IMPLIED
		xmlns:ewd CDATA #FIXED "http://shcl.co.jp/ewd"
		xmlns:a CDATA #FIXED "http://ns.adobe.com/AdobeSVGViewerExtensions/3.0/">
	<!ATTLIST g
		ewd:pinNo CDATA #IMPLIED>
]>
<svg width="83.801" height="59.933" viewBox="0 0 83.801 59.933" style="overflow:visible;enable-background:new 0 0 36.127 42.927" xml:space="preserve" onload="call_execInitLoadProc_svg('connector')" ewd:ver="L2.1.2.7" xmlns="&ns_svg;" xmlns:ewd="http://shcl.co.jp/ewd" xmlns:a="http://ns.adobe.com/AdobeSVGViewerExtensions/3.0/" xmlns:xlink="&ns_xlink;">
<script type="text/javascript" xlink:href="../../../../../system/js/ewd/fig/svgfig.js"/>
<g id="レイヤー_1" transform="translate(0,17.008)">
	<path style="&st0;&st1;&st4;&st2;&st3;" d="M31.803,20.755v15.439"/>
	<path style="&st0;&st1;&st4;&st2;&st3;" d="M4.324,20.755v15.439"/>
	<path style="&st0;&st1;&st4;&st2;&st3;" d="M7.157,39.027H28.97"/>
	<path style="&st0;&st1;&st4;&st2;&st3;" d="M2.2,16.647h3.258"/>
	<path style="&st0;&st1;&st2;&st3;" d="M4.183,4.466h0.566"/>
	<path style="&st0;&st1;&st4;&st2;&st3;" d="M12.398,4.608v1.275"/>
	<path style="&st0;&st1;&st4;&st2;&st3;" d="M23.729,4.608v1.275"/>
	<path style="&st0;&st1;&st2;&st3;" d="M2.058,6.591v10.057"/>
	<path style="&st0;&st1;&st2;&st3;" d="M34.069,6.591v10.057"/>
	<path style="&st0;&st1;&st2;&st3;" d="M10.415,0.5h15.297"/>
	<path style="&st0;&st1;&st2;&st3;" d="M31.378,4.466h0.567"/>
	<path style="&st0;&st1;&st4;&st2;&st3;" d="M14.664,0.5v3.258"/>
	<path style="&st0;&st1;&st4;&st2;&st3;" d="M21.463,0.5v3.258"/>
	<path style="&st0;&st1;&st4;&st2;&st3;" d="M13.248,3.758h9.631"/>
	<path style="&st0;&st1;&st4;&st2;&st3;" d="M13.248,5.174h9.631"/>
	<path style="&st0;&st1;&st2;&st3;" d="M2.058,20.041v13.887"/>
	<path style="&st0;&st1;&st2;&st3;" d="M34.069,20.041v13.887"/>
	<path style="&st0;&st1;&st2;&st3;" d="M7.582,3.333v1.133"/>
	<path style="&st0;&st1;&st2;&st3;" d="M28.545,3.333v1.133"/>
	<path style="&st0;&st1;&st4;&st2;&st3;" d="M2.2,20.047h1.416"/>
	<path style="&st0;&st1;&st4;&st2;&st3;" d="M32.511,20.047h1.417"/>
	<path style="&st0;&st1;&st2;&st3;" d="M14.562,42.427h7.003"/>
	<path style="&st0;&st1;&st4;&st2;&st3;" d="M11.973,35.344h12.181"/>
	<path style="&st0;&st1;&st2;&st3;" d="M25.814,41.288l4.572-2.64"/>
	<path style="&st0;&st1;&st2;&st3;" d="M5.741,38.647l4.572,2.64"/>
	<path style="&st0;&st1;&st4;&st2;&st3;" d="M12.398,16.647h11.332"/>
	<path style="&st0;&st1;&st4;&st2;&st3;" d="M30.67,16.647h3.258"/>
	<path style="&st0;&st1;&st2;&st3;" d="M4.183,4.466c-1.173,0-2.125,0.951-2.125,2.125"/>
	<path style="&st0;&st1;&st2;&st3;" d="M34.069,6.591c0-1.173-0.951-2.125-2.125-2.125"/>
	<path style="&st0;&st1;&st2;&st3;" d="M5.458,5.174c0-0.391-0.317-0.708-0.708-0.708"/>
	<path style="&st0;&st1;&st2;&st3;" d="M31.378,4.466c-0.391,0-0.708,0.317-0.708,0.708"/>
	<path style="&st0;&st1;&st4;&st2;&st3;" d="M13.248,3.758c-0.47,0-0.85,0.381-0.85,0.85"/>
	<path style="&st0;&st1;&st4;&st2;&st3;" d="M23.729,4.608c0-0.469-0.38-0.85-0.85-0.85"/>
	<path style="&st0;&st1;&st4;&st2;&st3;" d="M23.729,6.024c0-0.47-0.38-0.85-0.85-0.85"/>
	<path style="&st0;&st1;&st4;&st2;&st3;" d="M13.248,5.174c-0.47,0-0.85,0.38-0.85,0.85"/>
	<path style="&st0;&st1;&st2;&st3;" d="M10.415,0.5c-1.564,0-2.833,1.269-2.833,2.833"/>
	<path style="&st0;&st1;&st2;&st3;" d="M28.545,3.333c0-1.564-1.269-2.833-2.833-2.833"/>
	<path style="&st0;&st1;&st2;&st3;" d="M7.582,4.466c0,0.782,0.634,1.417,1.417,1.417"/>
	<path style="&st0;&st1;&st2;&st3;" d="M27.129,5.883c0.782,0,1.417-0.634,1.417-1.417"/>
	<path style="&st0;&st1;&st2;&st3;" d="M2.2,16.647c-0.938,0-1.7,0.761-1.7,1.7"/>
	<path style="&st0;&st1;&st2;&st3;" d="M0.5,18.347c0,0.939,0.761,1.7,1.7,1.7"/>
	<path style="&st0;&st1;&st2;&st3;" d="M33.928,20.047c0.938,0,1.7-0.761,1.7-1.7"/>
	<path style="&st0;&st1;&st2;&st3;" d="M35.627,18.347c0-0.939-0.761-1.7-1.7-1.7"/>
	<path style="&st0;&st1;&st2;&st3;" d="M4.324,36.194c0,1.043,0.513,1.932,1.417,2.453"/>
	<path style="&st0;&st1;&st4;&st2;&st3;" d="M28.97,39.027c0.521,0,0.965-0.119,1.417-0.38"/>
	<path style="&st0;&st1;&st4;&st2;&st3;" d="M4.324,20.755c0-0.391-0.317-0.708-0.708-0.708"/>
	<path style="&st0;&st1;&st4;&st2;&st3;" d="M32.511,20.047c-0.391,0-0.708,0.317-0.708,0.708"/>
	<path style="&st0;&st1;&st4;&st2;&st3;" d="M31.095,22.03c0.391,0,0.708-0.317,0.708-0.708"/>
	<path style="&st0;&st1;&st4;&st2;&st3;" d="M4.324,21.322c0,0.391,0.317,0.708,0.708,0.708"/>
	<path style="&st0;&st1;&st4;&st2;&st3;" d="M5.032,31.945c-0.391,0-0.708,0.317-0.708,0.708"/>
	<path style="&st0;&st1;&st4;&st2;&st3;" d="M31.803,32.653c0-0.391-0.317-0.708-0.708-0.708"/>
	<path style="&st0;&st1;&st2;&st3;" d="M2.058,33.928c0,1.252,1.015,2.267,2.266,2.267"/>
	<path style="&st0;&st1;&st2;&st3;" d="M31.803,36.194c1.251,0,2.266-1.015,2.266-2.267"/>
	<path style="&st0;&st1;&st2;&st3;" d="M10.313,41.288c1.355,0.782,2.685,1.139,4.249,1.139"/>
	<path style="&st0;&st1;&st2;&st3;" d="M21.565,42.427c1.564,0,2.895-0.356,4.25-1.139"/>
	<path style="&st0;&st1;&st4;&st2;&st3;" d="M5.741,38.647c0.452,0.261,0.895,0.379,1.417,0.379"/>
	<path style="&st0;&st1;&st2;&st3;" d="M30.387,38.647c0.903-0.521,1.416-1.41,1.416-2.453"/>
	<path style="&st0;&st1;&st2;&st3;" d="M5.458,5.174v11.473h6.94V5.883H8.999"/>
	<path style="&st0;&st1;&st2;&st3;" d="M30.67,5.174v11.473h-6.94V5.883h3.399"/>
	<path style="&st0;&st1;&st4;&st2;&st3;" d="M26.987,33.645v-12.89H9.14v12.89"/>
	<path style="&st0;&st1;&st4;&st2;&st3;" d="M5.032,31.945h2.125V22.03H5.032"/>
	<path style="&st0;&st1;&st4;&st2;&st3;" d="M31.095,31.945H28.97V22.03h2.125"/>
	<path style="&st0;&st1;&st4;&st2;&st3;" d="M11.973,33.645H7.157v3.399h4.816V33.645"/>
	<path style="&st0;&st1;&st4;&st2;&st3;" d="M28.97,33.645h-4.816v3.399h4.816V33.645"/>
	<g ewd:pinNo="1">
		<text transform="matrix(1 0 0 1 15.9487 30.438)"><tspan x="0" y="0" style="&st6; &st5;">1</tspan></text>
	</g>
</g>
<g id="レイヤー_1" transform="translate(55.968,17.008)">
	<path style="&st0;&st1;&st4;&st2;&st3;" d="M18.449,10.2h1.632"/>
	<path style="&st0;&st1;&st4;&st2;&st3;" d="M7.752,10.2h1.632"/>
	<path style="&st0;&st1;&st4;&st2;&st3;" d="M18.449,12.375h6.165"/>
	<path style="&st0;&st1;&st2;&st3;" d="M20.081,10.2h6.165"/>
	<path style="&st0;&st1;&st4;&st2;&st3;" d="M9.928,11.288h7.977"/>
	<path style="&st0;&st1;&st4;&st2;&st3;" d="M9.928,9.112h7.977"/>
	<path style="&st0;&st1;&st2;&st3;" d="M9.203,0.5h9.428"/>
	<path style="&st0;&st1;&st4;&st2;&st3;" d="M9.928,3.22h7.977"/>
	<path style="&st0;&st1;&st4;&st2;&st3;" d="M9.928,4.126h7.977"/>
	<path style="&st0;&st1;&st2;&st3;" d="M7.752,1.951V10.2"/>
	<path style="&st0;&st1;&st2;&st3;" d="M20.081,1.951V10.2"/>
	<path style="&st0;&st1;&st4;&st2;&st3;" d="M9.928,0.5v11.332"/>
	<path style="&st0;&st1;&st4;&st2;&st3;" d="M17.905,0.5v11.332"/>
	<path style="&st0;&st1;&st2;&st3;" d="M25.157,18.358v3.808"/>
	<path style="&st0;&st1;&st2;&st3;" d="M2.675,18.358v3.808"/>
	<path style="&st0;&st1;&st2;&st3;" d="M1.587,10.2h6.165"/>
	<path style="&st0;&st1;&st2;&st3;" d="M27.333,11.288v4.895"/>
	<path style="&st0;&st1;&st2;&st3;" d="M0.5,11.288v4.895"/>
	<path style="&st0;&st1;&st4;&st2;&st3;" d="M22.981,16.001v6.89"/>
	<path style="&st0;&st1;&st2;&st3;" d="M8.115,27.605h11.604"/>
	<path style="&st0;&st1;&st4;&st2;&st3;" d="M23.888,15.095h1.269"/>
	<path style="&st0;&st1;&st4;&st2;&st3;" d="M2.675,15.095h1.27"/>
	<path style="&st0;&st1;&st4;&st2;&st3;" d="M25.157,12.919v2.176"/>
	<path style="&st0;&st1;&st4;&st2;&st3;" d="M2.675,12.919v2.176"/>
	<path style="&st0;&st1;&st4;&st2;&st3;" d="M7.752,25.792h12.329"/>
	<path style="&st0;&st1;&st4;&st2;&st3;" d="M3.22,12.375h6.164"/>
	<path style="&st0;&st1;&st4;&st2;&st3;" d="M4.852,16.001v6.89"/>
	<path style="&st0;&st1;&st2;&st3;" d="M20.081,1.951c0-0.801-0.649-1.451-1.45-1.451"/>
	<path style="&st0;&st1;&st2;&st3;" d="M9.203,0.5c-0.801,0-1.451,0.649-1.451,1.451"/>
	<path style="&st0;&st1;&st4;&st2;&st3;" d="M18.449,10.2c-0.3,0-0.544,0.244-0.544,0.544"/>
	<path style="&st0;&st1;&st4;&st2;&st3;" d="M9.928,10.744c0-0.301-0.244-0.544-0.544-0.544"/>
	<path style="&st0;&st1;&st4;&st2;&st3;" d="M9.384,12.375c0.3,0,0.544-0.243,0.544-0.544"/>
	<path style="&st0;&st1;&st4;&st2;&st3;" d="M17.905,11.832c0,0.301,0.244,0.544,0.544,0.544"/>
	<path style="&st0;&st1;&st2;&st3;" d="M27.333,11.288c0-0.601-0.487-1.088-1.087-1.088"/>
	<path style="&st0;&st1;&st2;&st3;" d="M1.587,10.2c-0.601,0-1.087,0.487-1.087,1.088"/>
	<path style="&st0;&st1;&st4;&st2;&st3;" d="M3.22,12.375c-0.3,0-0.544,0.244-0.544,0.544"/>
	<path style="&st0;&st1;&st4;&st2;&st3;" d="M25.157,12.919c0-0.3-0.244-0.544-0.544-0.544"/>
	<path style="&st0;&st1;&st4;&st2;&st3;" d="M23.888,15.095c-0.501,0-0.907,0.406-0.907,0.906"/>
	<path style="&st0;&st1;&st4;&st2;&st3;" d="M4.852,16.001c0-0.5-0.406-0.906-0.907-0.906"/>
	<path style="&st0;&st1;&st2;&st3;" d="M26.245,17.271c0.601,0,1.087-0.487,1.087-1.088"/>
	<path style="&st0;&st1;&st2;&st3;" d="M0.5,16.183c0,0.601,0.487,1.088,1.087,1.088"/>
	<path style="&st0;&st1;&st2;&st3;" d="M26.245,17.271c-0.601,0-1.088,0.487-1.088,1.088"/>
	<path style="&st0;&st1;&st2;&st3;" d="M2.675,18.358c0-0.601-0.487-1.088-1.088-1.088"/>
	<path style="&st0;&st1;&st2;&st3;" d="M19.718,27.605c3.004,0,5.439-2.435,5.439-5.439"/>
	<path style="&st0;&st1;&st2;&st3;" d="M2.675,22.166c0,3.004,2.436,5.439,5.439,5.439"/>
	<path style="&st0;&st1;&st4;&st2;&st3;" d="M20.081,25.792c1.602,0,2.901-1.299,2.901-2.901"/>
	<path style="&st0;&st1;&st4;&st2;&st3;" d="M4.852,22.891c0,1.602,1.298,2.901,2.9,2.901"/>
	<g ewd:pinNo="1">
		<text transform="matrix(1 0 0 1 11.7065 21.3501)"><tspan x="0" y="0" style="&st6; &st5;">1</tspan></text>
	</g>
</g>
<path d="M18.0635,9.069v-8.504h51.821v8.504" style="&st0;&st1;&st7;&st2;&st3;"/>
</svg>