﻿<?xml version="1.0"?>
<!-- Generator: Adobe Illustrator 10.0, SVG Export Plug-In . SVG Version: 3.0.0 Build 77)  -->
<!DOCTYPE svg PUBLIC "-//W3C//DTD SVG 1.0//EN" "http://www.w3.org/TR/2001/REC-SVG-20010904/DTD/svg10.dtd"[
	<!ENTITY ns_flows "http://ns.adobe.com/Flows/1.0/">
	<!ENTITY ns_svg "http://www.w3.org/2000/svg">
	<!ENTITY ns_xlink "http://www.w3.org/1999/xlink">
	<!ENTITY st0 "fill:none;stroke:#000000;stroke-linecap:round;stroke-linejoin:round;">
	<!ENTITY st1 "fill:none;stroke:#000000;stroke-width:0.6;stroke-linecap:round;stroke-linejoin:round;">
	<!ENTITY st2 "font-size:6px;">
	<!ENTITY st3 "font-family:'Arial';">
	<!ATTLIST svg
		ewd:ver CDATA #IMPLIED
		xmlns:ewd CDATA #FIXED "http://shcl.co.jp/ewd"
		xmlns:a CDATA #FIXED "http://ns.adobe.com/AdobeSVGViewerExtensions/3.0/">
	<!ATTLIST g
		ewd:pinNo CDATA #IMPLIED>
]>
<svg width="101.567" height="69.932" viewBox="0 0 101.567 69.932" style="overflow:visible;enable-background:new 0 0 101.567 69.932" xml:space="preserve" onload="call_execInitLoadProc_svg('connector')" ewd:ver="L2.1.2.7" xmlns="&ns_svg;" xmlns:ewd="http://shcl.co.jp/ewd" xmlns:a="http://ns.adobe.com/AdobeSVGViewerExtensions/3.0/" xmlns:xlink="&ns_xlink;">
<script type="text/javascript" xlink:href="../../../../../system/js/ewd/fig/svgfig.js"/>
<g id="レイヤー_1">
	<path style="&st0;" d="M77.956,69.432c1.757,0,3.252-0.453,4.714-1.427"/>
	<path style="&st0;" d="M18.896,68.004c1.462,0.975,2.957,1.427,4.714,1.427"/>
	<path style="&st1;" d="M84.542,3.333c0-1.564-1.269-2.833-2.833-2.833"/>
	<path style="&st1;" d="M19.857,0.5c-1.564,0-2.833,1.269-2.833,2.833"/>
	<path style="&st1;" d="M78.404,8.999c0-1.564-1.269-2.833-2.833-2.833"/>
	<path style="&st0;" d="M0.5,60.834c0,0.979,0.446,1.813,1.261,2.356"/>
	<path style="&st1;" d="M25.996,6.166c-1.564,0-2.833,1.269-2.833,2.833"/>
	<path style="&st0;" d="M99.806,63.191c0.814-0.543,1.261-1.378,1.261-2.357"/>
	<path style="&st0;" d="M96.231,1.33C95.678,0.777,95.01,0.5,94.228,0.5"/>
	<path style="&st0;" d="M101.066,7.339c0-0.782-0.276-1.45-0.83-2.003"/>
	<path style="&st0;" d="M7.338,0.5c-0.782,0-1.45,0.277-2.003,0.83"/>
	<path style="&st0;" d="M1.33,5.336C0.777,5.889,0.5,6.557,0.5,7.339"/>
	<path style="&st0;" d="M23.61,69.432h54.346"/>
	<path style="&st1;" d="M0.5,59.517h100.566"/>
	<path style="&st1;" d="M6.166,31.188v25.496h89.235V31.188H6.166"/>
	<path style="&st1;" d="M35.911,56.685V31.188"/>
	<path style="&st1;" d="M45.826,56.685V31.188"/>
	<path style="&st1;" d="M55.741,56.685V31.188"/>
	<path style="&st1;" d="M65.656,56.685V31.188"/>
	<path style="&st0;" d="M82.67,68.004l17.136-4.813"/>
	<path style="&st0;" d="M18.896,68.004L1.761,63.191"/>
	<path style="&st1;" d="M6.166,25.523h22.663v-9.915h43.909v9.915h22.663"/>
	<path style="&st1;" d="M0.5,17.498l1.89-1.89h1.886l1.89,1.89v8.025"/>
	<path style="&st1;" d="M101.066,17.498l-1.89-1.89H97.29l-1.889,1.89v8.025"/>
	<path style="&st0;" d="M0.5,60.834V7.339"/>
	<path style="&st0;" d="M101.066,60.834V7.339"/>
	<path style="&st0;" d="M7.338,0.5h86.89"/>
	<path style="&st1;" d="M17.024,3.333v22.19"/>
	<path style="&st1;" d="M84.542,25.523V3.333"/>
	<path style="&st1;" d="M23.163,25.523V8.999"/>
	<path style="&st1;" d="M78.404,25.523V8.999"/>
	<path style="&st1;" d="M25.996,6.166h49.575"/>
	<path style="&st1;" d="M44.763,15.608V9.942h12.04v5.666"/>
	<path style="&st1;" d="M6.166,43.937h89.235"/>
	<path style="&st1;" d="M25.996,56.685V31.188"/>
	<path style="&st1;" d="M75.571,56.685V31.188"/>
	<path style="&st1;" d="M28.829,15.608v-4.25h7.082l1.983,1.983v2.267"/>
	<path style="&st1;" d="M37.894,13.341h6.87"/>
	<path style="&st1;" d="M72.738,15.608v-4.25h-7.082l-1.983,1.983v2.267"/>
	<path style="&st1;" d="M63.673,13.341h-6.87"/>
	<path style="&st0;" d="M100.236,5.336L96.231,1.33"/>
	<path style="&st0;" d="M1.33,5.336L5.336,1.33"/>
	<path style="&st1;" d="M85.486,56.685V31.188"/>
	<path style="&st1;" d="M16.081,56.685V31.188"/>
	<g ewd:pinNo="2">
		<text transform="matrix(1 0 0 1 19.1016 39.8994)"><tspan x="0" y="0" style="&st3; &st2;">2</tspan></text>
	</g>
	<g ewd:pinNo="4">
		<text transform="matrix(1 0 0 1 38.9316 39.8994)"><tspan x="0" y="0" style="&st3; &st2;">4</tspan></text>
	</g>
	<g ewd:pinNo="5">
		<text transform="matrix(1 0 0 1 48.8462 39.8994)"><tspan x="0" y="0" style="&st3; &st2;">5</tspan></text>
	</g>
	<g ewd:pinNo="6">
		<text transform="matrix(1 0 0 1 58.7617 39.8994)"><tspan x="0" y="0" style="&st3; &st2;">6</tspan></text>
	</g>
	<g ewd:pinNo="8">
		<text transform="matrix(1 0 0 1 78.5913 39.8994)"><tspan x="0" y="0" style="&st3; &st2;">8</tspan></text>
	</g>
	<g ewd:pinNo="15">
		<text transform="matrix(1 0 0 1 57.1191 52.6475)"><tspan x="0" y="0" style="&st3; &st2;">15</tspan></text>
	</g>
	<g ewd:pinNo="17">
		<text transform="matrix(1 0 0 1 76.9492 52.6475)"><tspan x="0" y="0" style="&st3; &st2;">17</tspan></text>
	</g>
	<g ewd:pinNo="14">
		<text transform="matrix(1 0 0 1 47.2041 52.6475)"><tspan x="0" y="0" style="&st3; &st2;">14</tspan></text>
	</g>
	<g ewd:pinNo="13">
		<text transform="matrix(1 0 0 1 37.2891 52.6475)"><tspan x="0" y="0" style="&st3; &st2;">13</tspan></text>
	</g>
	<g ewd:pinNo="11">
		<text transform="matrix(1 0 0 1 17.6816 52.6475)"><tspan x="0" y="0" style="&st3; &st2;">11</tspan></text>
	</g>
	<g ewd:pinNo="3">
		<text transform="matrix(1 0 0 1 29.0166 39.8994)"><tspan x="0" y="0" style="&st3; &st2;">3</tspan></text>
	</g>
	<g ewd:pinNo="12">
		<text transform="matrix(1 0 0 1 27.374 52.6475)"><tspan x="0" y="0" style="&st3; &st2;">12</tspan></text>
	</g>
	<g ewd:pinNo="7">
		<text transform="matrix(1 0 0 1 68.6768 39.8994)"><tspan x="0" y="0" style="&st3; &st2;">7</tspan></text>
	</g>
	<g ewd:pinNo="16">
		<text transform="matrix(1 0 0 1 67.0342 52.6475)"><tspan x="0" y="0" style="&st3; &st2;">16</tspan></text>
	</g>
	<g ewd:pinNo="9">
		<text transform="matrix(1 0 0 1 88.5063 39.8994)"><tspan x="0" y="0" style="&st3; &st2;">9</tspan></text>
	</g>
	<g ewd:pinNo="18">
		<text transform="matrix(1 0 0 1 86.8643 52.6475)"><tspan x="0" y="0" style="&st3; &st2;">18</tspan></text>
	</g>
	<g ewd:pinNo="1">
		<text transform="matrix(1 0 0 1 9.1865 39.8994)"><tspan x="0" y="0" style="&st3; &st2;">1</tspan></text>
	</g>
	<g ewd:pinNo="10">
		<text transform="matrix(1 0 0 1 7.5439 52.6475)"><tspan x="0" y="0" style="&st3; &st2;">10</tspan></text>
	</g>
</g>
</svg>