﻿<?xml version="1.0"?>
<!-- Generator: Adobe Illustrator 10.0, SVG Export Plug-In . SVG Version: 3.0.0 Build 77)  -->
<!DOCTYPE svg PUBLIC "-//W3C//DTD SVG 1.0//EN" "http://www.w3.org/TR/2001/REC-SVG-20010904/DTD/svg10.dtd"[
	<!ENTITY ns_flows "http://ns.adobe.com/Flows/1.0/">
	<!ENTITY ns_svg "http://www.w3.org/2000/svg">
	<!ENTITY ns_xlink "http://www.w3.org/1999/xlink">
	<!ENTITY st0 "fill:none;stroke:#000000;stroke-linecap:round;stroke-linejoin:round;">
	<!ENTITY st1 "fill:none;stroke:#000000;stroke-width:0.6;stroke-linecap:round;stroke-linejoin:round;">
	<!ENTITY st2 "font-family:'Arial';font-weight:bold;">
	<!ENTITY st3 "font-size:8px;">
	<!ENTITY st4 "fill:none;stroke:#000000;stroke-width:0.5;stroke-linecap:round;stroke-linejoin:round;">
	<!ENTITY st5 "font-family:'Arial';">
	<!ENTITY st6 "font-size:10px;">
	<!ENTITY st7 "fill:none;stroke:#FFFFFF;stroke-width:0.2;">
	<!ENTITY st8 "fill:none;stroke:#FFFFFF;stroke-width:2;stroke-linecap:round;stroke-linejoin:round;">
	<!ATTLIST svg
		xmlns:ewd CDATA #FIXED "http://shcl.co.jp/ewd"
		xmlns:a CDATA #FIXED "http://ns.adobe.com/AdobeSVGViewerExtensions/3.0/"
		ewd:ver CDATA #IMPLIED>
	<!ATTLIST a
		ewd:innerGroupID CDATA #IMPLIED
		ewd:figtype CDATA #IMPLIED
		ewd:code CDATA #IMPLIED
		ewd:pinNo CDATA #IMPLIED>
]>
<svg width="510.436" height="680.514" viewBox="0 0 510.436 680.514" style="overflow:visible;enable-background:new 0 0 510.436 680.514" xml:space="preserve" onload="call_execInitLoadProc_svg('location')" ewd:ver="L2.1.2.7" xmlns="&ns_svg;" xmlns:ewd="http://shcl.co.jp/ewd" xmlns:a="http://ns.adobe.com/AdobeSVGViewerExtensions/3.0/" xmlns:xlink="&ns_xlink;">
<script type="text/javascript" xlink:href="../../../../../system/js/ewd/fig/svgfig.js"/>
<g id="WAKU">
	<path style="&st7;" d="M510.336,680.415V0.1H0.1v680.314H510.336z"/>
</g>
<g id="レイヤ_xFF0D__1">
	<path style="&st0;" d="M302.121,264.087c1.486,0,2.691-1.205,2.691-2.691"/>
	<path style="&st0;" d="M240.223,261.396c0,1.486,1.205,2.691,2.691,2.691"/>
	<path style="&st1;" d="M253.679,257.36c-1.486,0-2.691,1.205-2.691,2.691"/>
	<path style="&st1;" d="M294.046,260.051c0-1.486-1.205-2.691-2.691-2.691"/>
	<path style="&st0;" d="M324.189,188.734c-1.041,0-1.885,0.843-1.885,1.884"/>
	<path style="&st0;" d="M353.253,190.618c0-1.041-0.844-1.884-1.884-1.884"/>
	<path style="&st0;" d="M318.267,190.618c0-1.041-0.843-1.884-1.884-1.884"/>
	<path style="&st0;" d="M301.313,188.734c-1.04,0-1.884,0.843-1.884,1.884"/>
	<path style="&st0;" d="M195.01,196.808c-1.041,0-1.884,0.843-1.884,1.884"/>
	<path style="&st0;" d="M193.126,246.057c0,1.041,0.843,1.884,1.884,1.884"/>
	<path style="&st1;" d="M300.237,226.411c-1.041,0-1.884,0.844-1.884,1.884"/>
	<path style="&st1;" d="M321.228,228.294c0-1.04-0.844-1.884-1.884-1.884"/>
	<path style="&st1;" d="M298.353,242.02c0,1.041,0.843,1.884,1.884,1.884"/>
	<path style="&st1;" d="M319.344,243.903c1.04,0,1.884-0.843,1.884-1.884"/>
	<path style="&st1;" d="M252.333,308.493c0,1.486,1.205,2.691,2.691,2.691"/>
	<path style="&st1;" d="M292.701,311.184c1.486,0,2.691-1.205,2.691-2.691"/>
	<path style="&st1;" d="M244.259,296.382c-1.486,0-2.691,1.205-2.691,2.691"/>
	<path style="&st1;" d="M306.158,299.073c0-1.486-1.205-2.691-2.691-2.691"/>
	<path style="&st1;" d="M257.715,330.022c-1.486,0-2.691,1.205-2.691,2.691"/>
	<path style="&st1;" d="M267.134,332.713c0-1.486-1.205-2.691-2.691-2.691"/>
	<path style="&st1;" d="M283.282,330.022c-1.486,0-2.69,1.205-2.69,2.691"/>
	<path style="&st1;" d="M292.701,332.713c0-1.486-1.205-2.691-2.691-2.691"/>
	<path style="&st0;" d="M195.01,425.56c-1.041,0-1.884,0.844-1.884,1.884"/>
	<path style="&st0;" d="M242.914,409.414c-1.486,0-2.691,1.204-2.691,2.69"/>
	<path style="&st0;" d="M304.812,412.104c0-1.486-1.205-2.69-2.691-2.69"/>
	<path style="&st0;" d="M299.429,482.882c0,1.041,0.844,1.885,1.884,1.885"/>
	<path style="&st0;" d="M316.383,484.767c1.041,0,1.884-0.844,1.884-1.885"/>
	<path style="&st0;" d="M322.304,482.882c0,1.041,0.844,1.885,1.885,1.885"/>
	<path style="&st0;" d="M193.126,474.809c0,1.04,0.843,1.884,1.884,1.884"/>
	<path style="&st0;" d="M351.37,484.767c1.04,0,1.884-0.844,1.884-1.885"/>
	<path style="&st1;" d="M322.304,476.693c1.486,0,2.691-1.204,2.691-2.691"/>
	<path style="&st0;" d="M95.134,56.595c-1.006,0-1.863,0.504-2.352,1.383"/>
	<path style="&st0;" d="M102.395,57.979c-0.489-0.879-1.346-1.383-2.352-1.383"/>
	<path style="&st0;" d="M111.717,116.34c1.115,0,2.019-0.904,2.019-2.019"/>
	<path style="&st0;" d="M109.699,114.322c0,1.115,0.904,2.019,2.019,2.019"/>
	<path style="&st0;" d="M108.354,100.193c-0.743,0-1.346,0.603-1.346,1.346"/>
	<path style="&st0;" d="M105.124,114.322c1.04,0,1.884-0.843,1.884-1.884"/>
	<path style="&st0;" d="M108.354,81.624c0,1.041,0.843,1.884,1.884,1.884"/>
	<path style="&st0;" d="M81.441,114.322c0,1.115,0.903,2.019,2.019,2.019"/>
	<path style="&st0;" d="M113.736,85.391c0-1.04-0.843-1.884-1.884-1.884"/>
	<path style="&st0;" d="M84.94,83.507c1.041,0,1.884-0.843,1.884-1.884"/>
	<path style="&st0;" d="M83.46,116.34c1.114,0,2.018-0.904,2.018-2.019"/>
	<path style="&st0;" d="M88.169,101.539c0-0.743-0.603-1.346-1.346-1.346"/>
	<path style="&st0;" d="M88.169,112.438c0,1.041,0.843,1.884,1.884,1.884"/>
	<path style="&st1;" d="M87.362,97.502c-1.041,0-1.884,0.843-1.884,1.884"/>
	<path style="&st0;" d="M83.325,83.507c-1.041,0-1.884,0.844-1.884,1.884"/>
	<path style="&st1;" d="M109.699,99.386c0-1.041-0.843-1.884-1.884-1.884"/>
	<path style="&st0;" d="M175.871,56.595c-1.006,0-1.863,0.504-2.352,1.383"/>
	<path style="&st0;" d="M183.131,57.979c-0.489-0.879-1.346-1.383-2.352-1.383"/>
	<path style="&st0;" d="M192.454,116.34c1.115,0,2.019-0.904,2.019-2.019"/>
	<path style="&st0;" d="M190.435,114.322c0,1.115,0.904,2.019,2.019,2.019"/>
	<path style="&st0;" d="M189.089,100.193c-0.743,0-1.345,0.603-1.345,1.346"/>
	<path style="&st0;" d="M185.86,114.322c1.04,0,1.884-0.843,1.884-1.884"/>
	<path style="&st0;" d="M189.089,81.624c0,1.041,0.844,1.884,1.884,1.884"/>
	<path style="&st0;" d="M162.178,114.322c0,1.115,0.903,2.019,2.018,2.019"/>
	<path style="&st0;" d="M194.472,85.391c0-1.04-0.844-1.884-1.884-1.884"/>
	<path style="&st0;" d="M165.676,83.507c1.04,0,1.884-0.843,1.884-1.884"/>
	<path style="&st0;" d="M164.196,116.34c1.115,0,2.019-0.904,2.019-2.019"/>
	<path style="&st0;" d="M168.906,101.539c0-0.743-0.603-1.346-1.346-1.346"/>
	<path style="&st0;" d="M168.906,112.438c0,1.041,0.843,1.884,1.884,1.884"/>
	<path style="&st1;" d="M168.098,97.502c-1.041,0-1.884,0.843-1.884,1.884"/>
	<path style="&st0;" d="M164.062,83.507c-1.041,0-1.884,0.844-1.884,1.884"/>
	<path style="&st1;" d="M190.435,99.386c0-1.041-0.843-1.884-1.884-1.884"/>
	<path style="&st0;" d="M256.606,56.595c-1.006,0-1.863,0.504-2.352,1.383"/>
	<path style="&st0;" d="M263.868,57.979c-0.489-0.879-1.347-1.383-2.353-1.383"/>
	<path style="&st0;" d="M273.19,116.34c1.114,0,2.019-0.904,2.019-2.019"/>
	<path style="&st0;" d="M271.171,114.322c0,1.115,0.903,2.019,2.019,2.019"/>
	<path style="&st0;" d="M269.826,100.193c-0.743,0-1.346,0.603-1.346,1.346"/>
	<path style="&st0;" d="M266.596,114.322c1.041,0,1.884-0.843,1.884-1.884"/>
	<path style="&st0;" d="M269.826,81.624c0,1.041,0.844,1.884,1.884,1.884"/>
	<path style="&st0;" d="M242.914,114.322c0,1.115,0.904,2.019,2.019,2.019"/>
	<path style="&st0;" d="M275.208,85.391c0-1.04-0.844-1.884-1.884-1.884"/>
	<path style="&st0;" d="M246.413,83.507c1.04,0,1.884-0.843,1.884-1.884"/>
	<path style="&st0;" d="M244.932,116.34c1.115,0,2.019-0.904,2.019-2.019"/>
	<path style="&st0;" d="M249.642,101.539c0-0.743-0.603-1.346-1.346-1.346"/>
	<path style="&st0;" d="M249.642,112.438c0,1.041,0.843,1.884,1.884,1.884"/>
	<path style="&st1;" d="M248.834,97.502c-1.041,0-1.884,0.843-1.884,1.884"/>
	<path style="&st0;" d="M244.797,83.507c-1.04,0-1.884,0.844-1.884,1.884"/>
	<path style="&st1;" d="M271.171,99.386c0-1.041-0.843-1.884-1.884-1.884"/>
	<path style="&st0;" d="M337.343,56.595c-1.006,0-1.863,0.504-2.353,1.383"/>
	<path style="&st0;" d="M344.604,57.979c-0.489-0.879-1.346-1.383-2.353-1.383"/>
	<path style="&st0;" d="M353.926,116.34c1.115,0,2.019-0.904,2.019-2.019"/>
	<path style="&st0;" d="M351.908,114.322c0,1.115,0.904,2.019,2.019,2.019"/>
	<path style="&st0;" d="M350.562,100.193c-0.743,0-1.346,0.603-1.346,1.346"/>
	<path style="&st0;" d="M347.333,114.322c1.04,0,1.884-0.843,1.884-1.884"/>
	<path style="&st0;" d="M350.562,81.624c0,1.041,0.844,1.884,1.884,1.884"/>
	<path style="&st0;" d="M323.65,114.322c0,1.115,0.903,2.019,2.019,2.019"/>
	<path style="&st0;" d="M355.945,85.391c0-1.04-0.844-1.884-1.885-1.884"/>
	<path style="&st0;" d="M327.149,83.507c1.04,0,1.884-0.843,1.884-1.884"/>
	<path style="&st0;" d="M325.668,116.34c1.114,0,2.019-0.904,2.019-2.019"/>
	<path style="&st0;" d="M330.378,101.539c0-0.743-0.604-1.346-1.346-1.346"/>
	<path style="&st0;" d="M330.378,112.438c0,1.041,0.843,1.884,1.884,1.884"/>
	<path style="&st1;" d="M329.571,97.502c-1.04,0-1.884,0.843-1.884,1.884"/>
	<path style="&st0;" d="M325.534,83.507c-1.04,0-1.884,0.844-1.884,1.884"/>
	<path style="&st1;" d="M351.908,99.386c0-1.041-0.844-1.884-1.884-1.884"/>
	<path style="&st1;" d="M242.914,247.94v5.382h59.207v-5.382"/>
	<path style="&st0;" d="M240.223,247.94v13.456"/>
	<path style="&st0;" d="M304.812,261.396V247.94"/>
	<path style="&st0;" d="M242.914,264.087h59.207"/>
	<path style="&st1;" d="M267.134,253.323v4.037H277.9v-4.037"/>
	<path style="&st1;" d="M268.48,257.36v2.691h8.073v-2.691"/>
	<path style="&st1;" d="M250.987,264.087v-4.037"/>
	<path style="&st1;" d="M253.679,257.36h10.764l1.346-4.037"/>
	<path style="&st1;" d="M279.246,253.323l1.346,4.037h10.764"/>
	<path style="&st1;" d="M294.046,260.051v4.037"/>
	<path style="&st0;" d="M304.812,247.94h48.441"/>
	<path style="&st0;" d="M240.223,247.94H195.01"/>
	<path style="&st1;" d="M240.223,247.94h64.589"/>
	<path style="&st0;" d="M353.253,247.94v-57.323"/>
	<path style="&st0;" d="M324.189,188.734h27.181"/>
	<path style="&st0;" d="M322.304,190.618v4.844h-4.037v-4.844"/>
	<path style="&st0;" d="M295.392,196.808H195.01"/>
	<path style="&st0;" d="M193.126,198.691v47.365"/>
	<path style="&st0;" d="M301.313,188.734h15.07"/>
	<path style="&st0;" d="M295.392,196.808l1.346-1.346h2.691v-4.844"/>
	<path style="&st1;" d="M198.509,243.903h5.382l1.346,1.346h5.382l1.346-1.346h5.382"/>
	<path style="&st1;" d="M198.509,243.903V214.3h-2.691v-5.382h2.691v-6.728"/>
	<path style="&st1;" d="M217.347,202.19v18.838h2.691v5.382h-2.691v17.493"/>
	<path style="&st1;" d="M198.509,227.756h18.838"/>
	<path style="&st1;" d="M198.509,214.3l1.884-1.884h15.071l1.884,1.884"/>
	<path style="&st1;" d="M198.509,207.034l1.884,1.884h15.071l1.884-1.884"/>
	<path style="&st1;" d="M198.509,202.19h18.838"/>
	<path style="&st1;" d="M203.891,202.19v2.691h8.074v-2.691"/>
	<path style="&st1;" d="M224.075,243.903h5.382l1.346,1.346h5.382l1.346-1.346h5.382"/>
	<path style="&st1;" d="M224.075,243.903V214.3h-2.691v-5.382h2.691v-6.728"/>
	<path style="&st1;" d="M242.914,202.19v18.838h2.691v5.382h-2.691v17.493"/>
	<path style="&st1;" d="M224.075,227.756h18.838"/>
	<path style="&st1;" d="M224.075,214.3l1.884-1.884h15.071l1.884,1.884"/>
	<path style="&st1;" d="M224.075,207.034l1.884,1.884h15.071l1.884-1.884"/>
	<path style="&st1;" d="M224.075,202.19h18.838"/>
	<path style="&st1;" d="M229.458,202.19v2.691h8.074v-2.691"/>
	<path style="&st1;" d="M255.024,202.19v2.691h8.073v-2.691"/>
	<path style="&st1;" d="M249.642,202.19h18.838"/>
	<path style="&st1;" d="M249.642,207.034l1.884,1.884h15.07l1.884-1.884"/>
	<path style="&st1;" d="M249.642,214.3l1.884-1.884h15.07l1.884,1.884"/>
	<path style="&st1;" d="M249.642,227.756h18.838"/>
	<path style="&st1;" d="M268.48,202.19v18.838h2.691v5.382h-2.691v17.493"/>
	<path style="&st1;" d="M249.642,243.903V214.3h-2.691v-5.382h2.691v-6.728"/>
	<path style="&st1;" d="M249.642,243.903h5.382l1.346,1.346h5.382l1.346-1.346h5.383"/>
	<path style="&st1;" d="M275.208,243.903h5.383l1.345,1.346h5.383l1.345-1.346h5.383"/>
	<path style="&st1;" d="M275.208,243.903V214.3h-2.691v-5.382h2.691v-6.728"/>
	<path style="&st1;" d="M294.046,202.19v18.838h2.691v5.382h-2.691v17.493"/>
	<path style="&st1;" d="M275.208,227.756h18.838"/>
	<path style="&st1;" d="M275.208,214.3l1.884-1.884h15.07l1.884,1.884"/>
	<path style="&st1;" d="M275.208,207.034l1.884,1.884h15.07l1.884-1.884"/>
	<path style="&st1;" d="M275.208,202.19h18.838"/>
	<path style="&st1;" d="M280.591,202.19v2.691h8.072v-2.691"/>
	<path style="&st1;" d="M306.426,194.116h4.844"/>
	<path style="&st1;" d="M306.426,191.425v2.691h-2.691v5.382h-5.382v24.221h20.991v-24.221h-5.383v-5.382h-2.691v-2.691H306.426"/>
	<path style="&st1;" d="M301.044,202.19v18.838h15.608V202.19H301.044"/>
	<path style="&st1;" d="M306.426,202.19v-8.074"/>
	<path style="&st1;" d="M311.27,202.19v-8.074"/>
	<path style="&st1;" d="M306.426,196.808h4.844"/>
	<path style="&st1;" d="M300.237,226.411h19.107"/>
	<path style="&st1;" d="M300.237,243.903h19.107"/>
	<path style="&st1;" d="M298.353,228.294v13.725"/>
	<path style="&st1;" d="M321.228,242.02v-13.725"/>
	<path style="&st1;" d="M323.919,245.249h21.26"/>
	<path style="&st1;" d="M345.179,245.249v-4.037h5.383v-8.074h-5.383v-5.382"/>
	<path style="&st1;" d="M345.179,214.3v5.382h5.383v8.074h-5.383"/>
	<path style="&st1;" d="M323.919,229.102h21.26"/>
	<path style="&st1;" d="M323.919,215.646h21.26"/>
	<path style="&st1;" d="M323.919,245.249v-52.479h26.643v8.074h-5.383v5.382h5.383v8.074h-5.383"/>
	<path style="&st1;" d="M323.919,200.844h21.26"/>
	<path style="&st0;" d="M193.126,280.235v113.03"/>
	<path style="&st0;" d="M353.253,280.235v88.81h-26.912v24.221"/>
	<path style="&st0;" d="M193.126,280.235h160.127"/>
	<path style="&st0;" d="M193.126,393.265h133.215"/>
	<path style="&st1;" d="M218.693,280.235v48.442h4.037v-48.442"/>
	<path style="&st1;" d="M218.693,393.265v-45.75h4.037v45.75"/>
	<path style="&st1;" d="M244.259,280.235v16.147"/>
	<path style="&st1;" d="M248.296,296.382v-16.147"/>
	<path style="&st1;" d="M269.826,296.382v-16.147"/>
	<path style="&st1;" d="M273.863,296.382v-16.147"/>
	<path style="&st1;" d="M241.568,299.073v88.81"/>
	<path style="&st1;" d="M244.259,296.382h59.207"/>
	<path style="&st1;" d="M306.158,387.883v-88.81"/>
	<path style="&st1;" d="M252.333,296.382v12.111"/>
	<path style="&st1;" d="M295.392,296.382v12.111"/>
	<path style="&st1;" d="M255.024,311.184h37.677"/>
	<path style="&st1;" d="M252.333,303.783h16.147"/>
	<path style="&st1;" d="M256.37,311.184v-7.401"/>
	<path style="&st1;" d="M268.48,298.266V309.3"/>
	<path style="&st1;" d="M295.392,303.783h-16.146"/>
	<path style="&st1;" d="M291.355,311.184v-7.401"/>
	<path style="&st1;" d="M279.246,298.266V309.3"/>
	<path style="&st1;" d="M255.024,393.265v-60.552"/>
	<path style="&st1;" d="M292.701,393.265v-60.552"/>
	<path style="&st1;" d="M267.134,332.713v14.802h13.457v-14.802"/>
	<path style="&st1;" d="M257.715,330.022h6.728"/>
	<path style="&st1;" d="M283.282,330.022h6.728"/>
	<path style="&st1;" d="M257.715,331.368v56.516l-2.691,5.382"/>
	<path style="&st1;" d="M264.443,332.713v47.903l2.691,10.766h1.346v-41.177"/>
	<path style="&st1;" d="M271.171,393.265v-18.838h5.382v18.838"/>
	<path style="&st1;" d="M241.568,387.883l2.691,5.382"/>
	<path style="&st1;" d="M245.605,391.382v-15.609"/>
	<path style="&st1;" d="M249.642,391.382v-15.609"/>
	<path style="&st1;" d="M243.452,374.427h9.688"/>
	<path style="&st1;" d="M246.143,370.39h4.306"/>
	<path style="&st1;" d="M244.259,300.083v70.308l-1.346,2.691"/>
	<path style="&st1;" d="M283.282,332.713v47.903l-2.69,10.766h-1.346v-41.177"/>
	<path style="&st1;" d="M306.158,387.883l-2.691,5.382"/>
	<path style="&st1;" d="M301.583,370.39h-4.306"/>
	<path style="&st1;" d="M298.083,391.382v-15.609"/>
	<path style="&st1;" d="M302.121,391.382v-15.609"/>
	<path style="&st1;" d="M303.466,300.083v70.308l1.346,2.691"/>
	<path style="&st1;" d="M290.009,331.368v56.516l2.691,5.382"/>
	<path style="&st1;" d="M304.274,374.427h-9.688"/>
	<path style="&st1;" d="M275.208,459.201l1.884,1.884h15.07l1.884-1.884"/>
	<path style="&st1;" d="M198.509,429.597h5.382l1.346-1.346h5.382l1.346,1.346h5.382"/>
	<path style="&st1;" d="M217.347,471.31v-6.728h2.691v-5.382h-2.691v-29.604"/>
	<path style="&st1;" d="M242.914,471.31v-6.728h2.691v-5.382h-2.691v-29.604"/>
	<path style="&st1;" d="M268.48,471.31v-6.728h2.691v-5.382h-2.691v-29.604"/>
	<path style="&st1;" d="M319.613,471.31v-6.728h2.691v-5.382h-2.691v-29.604"/>
	<path style="&st1;" d="M294.046,471.31v-6.728h2.691v-5.382h-2.691v-29.604"/>
	<path style="&st1;" d="M275.208,445.744h18.838"/>
	<path style="&st0;" d="M240.223,425.56v-13.456"/>
	<path style="&st0;" d="M304.812,412.104v13.456"/>
	<path style="&st0;" d="M242.914,409.414h59.207"/>
	<path style="&st0;" d="M322.304,482.882v-6.189h-4.037v6.189"/>
	<path style="&st0;" d="M301.313,484.767h15.07"/>
	<path style="&st0;" d="M324.189,484.767h27.181"/>
	<path style="&st0;" d="M353.253,425.56v57.322"/>
	<path style="&st1;" d="M275.208,429.597h5.383l1.345-1.346h5.383l1.345,1.346h5.383"/>
	<path style="&st1;" d="M249.642,429.597h5.382l1.346-1.346h5.382l1.346,1.346h5.383"/>
	<path style="&st0;" d="M193.126,474.809v-47.365"/>
	<path style="&st1;" d="M249.642,445.744h18.838"/>
	<path style="&st0;" d="M295.392,476.693H195.01"/>
	<path style="&st1;" d="M249.642,459.201l1.884,1.884h15.07l1.884-1.884"/>
	<path style="&st0;" d="M240.223,425.56H195.01"/>
	<path style="&st0;" d="M304.812,425.56h48.441"/>
	<path style="&st0;" d="M295.392,476.693l1.346,1.346h2.691v4.844"/>
	<path style="&st1;" d="M198.509,429.597v17.492h-2.691v5.383h2.691v18.838"/>
	<path style="&st1;" d="M224.075,429.597v17.492h-2.691v5.383h2.691v18.838"/>
	<path style="&st1;" d="M249.642,429.597v17.492h-2.691v5.383h2.691v18.838"/>
	<path style="&st1;" d="M275.208,429.597v17.492h-2.691v5.383h2.691v18.838"/>
	<path style="&st1;" d="M300.775,429.597v17.492h-2.691v5.383h2.691v18.838"/>
	<path style="&st1;" d="M198.509,445.744h18.838"/>
	<path style="&st1;" d="M198.509,459.201l1.884,1.884h15.071l1.884-1.884"/>
	<path style="&st1;" d="M198.509,466.466l1.884-1.884h15.071l1.884,1.884"/>
	<path style="&st1;" d="M198.509,471.31h18.838"/>
	<path style="&st1;" d="M203.891,471.31v-2.69h8.074v2.69"/>
	<path style="&st1;" d="M249.642,466.466l1.884-1.884h15.07l1.884,1.884"/>
	<path style="&st1;" d="M249.642,471.31h18.838"/>
	<path style="&st1;" d="M255.024,471.31v-2.69h8.073v2.69"/>
	<path style="&st1;" d="M229.458,471.31v-2.69h8.074v2.69"/>
	<path style="&st1;" d="M224.075,471.31h18.838"/>
	<path style="&st1;" d="M224.075,466.466l1.884-1.884h15.071l1.884,1.884"/>
	<path style="&st1;" d="M224.075,459.201l1.884,1.884h15.071l1.884-1.884"/>
	<path style="&st1;" d="M224.075,445.744h18.838"/>
	<path style="&st1;" d="M224.075,429.597h5.382l1.346-1.346h5.382l1.346,1.346h5.382"/>
	<path style="&st1;" d="M275.208,466.466l1.884-1.884h15.07l1.884,1.884"/>
	<path style="&st1;" d="M275.208,471.31h18.838"/>
	<path style="&st1;" d="M280.591,471.31v-2.69h8.072v2.69"/>
	<path style="&st1;" d="M295.392,476.693h22.875"/>
	<path style="&st1;" d="M300.775,445.744h18.838"/>
	<path style="&st1;" d="M300.775,459.201l1.884,1.884h15.07l1.884-1.884"/>
	<path style="&st1;" d="M300.775,429.597h5.383l1.346-1.346h5.382l1.346,1.346h5.382"/>
	<path style="&st1;" d="M300.775,466.466l1.884-1.884h15.07l1.884,1.884"/>
	<path style="&st1;" d="M300.775,471.31h18.838"/>
	<path style="&st1;" d="M306.158,471.31v-2.69h8.073v2.69"/>
	<path style="&st1;" d="M324.996,425.56v48.441"/>
	<path style="&st1;" d="M305.484,484.767v-8.074"/>
	<path style="&st1;" d="M312.212,484.767v-8.074"/>
	<path style="&st1;" d="M305.484,479.384h6.729"/>
	<path style="&st1;" d="M353.253,439.016h-4.037v8.073h4.037"/>
	<path style="&st1;" d="M250.987,413.45v-4.036"/>
	<path style="&st1;" d="M264.443,413.45v-4.036"/>
	<path style="&st1;" d="M280.591,413.45v-4.036"/>
	<path style="&st1;" d="M294.046,413.45v-4.036"/>
	<path style="&st1;" d="M267.134,413.45v4.036H277.9v-4.036"/>
	<path style="&st1;" d="M267.134,413.45h-21.529v5.382h9.419v6.729"/>
	<path style="&st1;" d="M277.9,413.45h21.529v5.382h-9.42v6.729"/>
	<path style="&st1;" d="M263.097,425.56v-6.189h18.839v6.189"/>
	<path style="&st1;" d="M240.223,425.56h22.875"/>
	<path style="&st1;" d="M281.936,425.56h22.876"/>
	<path style="&st1;" d="M267.134,411.566H277.9"/>
	<path style="&st1;" d="M102.971,95.618V66.015H92.206v29.603H102.971"/>
	<path style="&st1;" d="M102.971,80.816H92.206"/>
	<path style="&st1;" d="M101.625,64.669v-4.037h-8.074v4.037H101.625"/>
	<path style="&st0;" d="M108.354,68.706l-5.958-10.728"/>
	<path style="&st0;" d="M86.824,68.706l5.958-10.728"/>
	<path style="&st0;" d="M100.043,56.595h-4.909"/>
	<path style="&st0;" d="M86.824,68.706v12.917"/>
	<path style="&st0;" d="M108.354,81.624V68.706"/>
	<path style="&st1;" d="M102.298,100.193v2.691"/>
	<path style="&st0;" d="M111.852,83.507h-1.615"/>
	<path style="&st0;" d="M84.94,83.507h-1.615"/>
	<path style="&st0;" d="M107.008,112.438v-10.899"/>
	<path style="&st0;" d="M113.736,85.391v28.931"/>
	<path style="&st0;" d="M109.699,100.193h-1.345"/>
	<path style="&st0;" d="M109.699,100.193v14.129"/>
	<path style="&st0;" d="M105.124,114.322H90.053"/>
	<path style="&st1;" d="M107.008,104.23H88.169"/>
	<path style="&st1;" d="M108.354,100.193h-21.53"/>
	<path style="&st0;" d="M85.478,100.193h1.346"/>
	<path style="&st0;" d="M81.441,85.391v28.931"/>
	<path style="&st0;" d="M88.169,112.438v-10.899"/>
	<path style="&st0;" d="M85.478,100.193v14.129"/>
	<path style="&st1;" d="M92.879,100.193v2.691"/>
	<path style="&st1;" d="M97.588,106.114h-4.709v5.517h9.419v-5.517H97.588"/>
	<path style="&st1;" d="M85.478,99.386v0.807"/>
	<path style="&st1;" d="M107.815,97.502H87.362"/>
	<path style="&st1;" d="M109.699,99.386v0.807"/>
	<path style="&st1;" d="M183.707,95.618V66.015h-10.765v29.603H183.707"/>
	<path style="&st1;" d="M183.707,80.816h-10.765"/>
	<path style="&st1;" d="M182.362,64.669v-4.037h-8.074v4.037H182.362"/>
	<path style="&st0;" d="M189.089,68.706l-5.958-10.728"/>
	<path style="&st0;" d="M167.56,68.706l5.958-10.728"/>
	<path style="&st0;" d="M180.779,56.595h-4.909"/>
	<path style="&st0;" d="M167.56,68.706v12.917"/>
	<path style="&st0;" d="M189.089,81.624V68.706"/>
	<path style="&st1;" d="M183.034,100.193v2.691"/>
	<path style="&st0;" d="M192.588,83.507h-1.615"/>
	<path style="&st0;" d="M165.676,83.507h-1.615"/>
	<path style="&st0;" d="M187.744,112.438v-10.899"/>
	<path style="&st0;" d="M194.472,85.391v28.931"/>
	<path style="&st0;" d="M190.435,100.193h-1.346"/>
	<path style="&st0;" d="M190.435,100.193v14.129"/>
	<path style="&st0;" d="M185.86,114.322H170.79"/>
	<path style="&st1;" d="M187.744,104.23h-18.838"/>
	<path style="&st1;" d="M189.089,100.193H167.56"/>
	<path style="&st0;" d="M166.214,100.193h1.346"/>
	<path style="&st0;" d="M162.178,85.391v28.931"/>
	<path style="&st0;" d="M168.906,112.438v-10.899"/>
	<path style="&st0;" d="M166.214,100.193v14.129"/>
	<path style="&st1;" d="M173.615,100.193v2.691"/>
	<path style="&st1;" d="M178.325,106.114h-4.709v5.517h9.419v-5.517H178.325"/>
	<path style="&st1;" d="M166.214,99.386v0.807"/>
	<path style="&st1;" d="M188.551,97.502h-20.453"/>
	<path style="&st1;" d="M190.435,99.386v0.807"/>
	<path style="&st1;" d="M264.443,95.618V66.015h-10.764v29.603H264.443"/>
	<path style="&st1;" d="M264.443,80.816h-10.764"/>
	<path style="&st1;" d="M263.097,64.669v-4.037h-8.073v4.037H263.097"/>
	<path style="&st0;" d="M269.826,68.706l-5.958-10.728"/>
	<path style="&st0;" d="M248.296,68.706l5.958-10.728"/>
	<path style="&st0;" d="M261.515,56.595h-4.909"/>
	<path style="&st0;" d="M248.296,68.706v12.917"/>
	<path style="&st0;" d="M269.826,81.624V68.706"/>
	<path style="&st1;" d="M263.77,100.193v2.691"/>
	<path style="&st0;" d="M273.325,83.507h-1.615"/>
	<path style="&st0;" d="M246.413,83.507h-1.615"/>
	<path style="&st0;" d="M268.48,112.438v-10.899"/>
	<path style="&st0;" d="M275.208,85.391v28.931"/>
	<path style="&st0;" d="M271.171,100.193h-1.346"/>
	<path style="&st0;" d="M271.171,100.193v14.129"/>
	<path style="&st0;" d="M266.596,114.322h-15.07"/>
	<path style="&st1;" d="M268.48,104.23h-18.838"/>
	<path style="&st1;" d="M269.826,100.193h-21.529"/>
	<path style="&st0;" d="M246.951,100.193h1.346"/>
	<path style="&st0;" d="M242.914,85.391v28.931"/>
	<path style="&st0;" d="M249.642,112.438v-10.899"/>
	<path style="&st0;" d="M246.951,100.193v14.129"/>
	<path style="&st1;" d="M254.352,100.193v2.691"/>
	<path style="&st1;" d="M259.061,106.114h-4.709v5.517h9.418v-5.517H259.061"/>
	<path style="&st1;" d="M246.951,99.386v0.807"/>
	<path style="&st1;" d="M269.288,97.502h-20.453"/>
	<path style="&st1;" d="M271.171,99.386v0.807"/>
	<path style="&st1;" d="M345.179,95.618V66.015h-10.765v29.603H345.179"/>
	<path style="&st1;" d="M345.179,80.816h-10.765"/>
	<path style="&st1;" d="M343.833,64.669v-4.037h-8.073v4.037H343.833"/>
	<path style="&st0;" d="M350.562,68.706l-5.958-10.728"/>
	<path style="&st0;" d="M329.033,68.706l5.958-10.728"/>
	<path style="&st0;" d="M342.251,56.595h-4.908"/>
	<path style="&st0;" d="M329.033,68.706v12.917"/>
	<path style="&st0;" d="M350.562,81.624V68.706"/>
	<path style="&st1;" d="M344.507,100.193v2.691"/>
	<path style="&st0;" d="M354.06,83.507h-1.614"/>
	<path style="&st0;" d="M327.149,83.507h-1.615"/>
	<path style="&st0;" d="M349.216,112.438v-10.899"/>
	<path style="&st0;" d="M355.945,85.391v28.931"/>
	<path style="&st0;" d="M351.908,100.193h-1.346"/>
	<path style="&st0;" d="M351.908,100.193v14.129"/>
	<path style="&st0;" d="M347.333,114.322h-15.07"/>
	<path style="&st1;" d="M349.216,104.23h-18.838"/>
	<path style="&st1;" d="M350.562,100.193h-21.529"/>
	<path style="&st0;" d="M327.687,100.193h1.346"/>
	<path style="&st0;" d="M323.65,85.391v28.931"/>
	<path style="&st0;" d="M330.378,112.438v-10.899"/>
	<path style="&st0;" d="M327.687,100.193v14.129"/>
	<path style="&st1;" d="M335.087,100.193v2.691"/>
	<path style="&st1;" d="M339.797,106.114h-4.71v5.517h9.42v-5.517H339.797"/>
	<path style="&st1;" d="M327.687,99.386v0.807"/>
	<path style="&st1;" d="M350.024,97.502h-20.453"/>
	<path style="&st1;" d="M351.908,99.386v0.807"/>
	<path style="&st0;" d="M312.339,641.126c1.006,0,1.863-0.505,2.352-1.384"/>
	<path style="&st0;" d="M305.079,639.743c0.488,0.879,1.346,1.384,2.353,1.384"/>
	<path style="&st0;" d="M295.756,581.38c-1.115,0-2.019,0.904-2.019,2.02"/>
	<path style="&st0;" d="M297.775,583.4c0-1.115-0.904-2.02-2.019-2.02"/>
	<path style="&st0;" d="M299.121,597.529c0.742,0,1.346-0.603,1.346-1.346"/>
	<path style="&st0;" d="M302.349,583.4c-1.04,0-1.883,0.843-1.883,1.884"/>
	<path style="&st0;" d="M299.121,616.097c0-1.04-0.844-1.884-1.884-1.884"/>
	<path style="&st0;" d="M326.033,583.4c0-1.115-0.904-2.02-2.02-2.02"/>
	<path style="&st0;" d="M293.738,612.331c0,1.04,0.844,1.883,1.884,1.883"/>
	<path style="&st0;" d="M322.534,614.213c-1.04,0-1.884,0.844-1.884,1.884"/>
	<path style="&st0;" d="M324.013,581.38c-1.114,0-2.018,0.904-2.018,2.02"/>
	<path style="&st0;" d="M319.304,596.183c0,0.743,0.603,1.346,1.346,1.346"/>
	<path style="&st0;" d="M319.304,585.284c0-1.041-0.844-1.884-1.884-1.884"/>
	<path style="&st1;" d="M320.112,600.22c1.04,0,1.884-0.844,1.884-1.885"/>
	<path style="&st0;" d="M324.149,614.213c1.04,0,1.884-0.843,1.884-1.883"/>
	<path style="&st1;" d="M297.775,598.335c0,1.041,0.844,1.885,1.883,1.885"/>
	<path style="&st1;" d="M304.502,602.104v29.603h10.765v-29.603H304.502"/>
	<path style="&st1;" d="M304.502,616.905h10.765"/>
	<path style="&st1;" d="M305.848,633.052v4.036h8.073v-4.036H305.848"/>
	<path style="&st0;" d="M299.121,629.015l5.958,10.728"/>
	<path style="&st0;" d="M320.65,629.015l-5.959,10.728"/>
	<path style="&st0;" d="M307.431,641.126h4.908"/>
	<path style="&st0;" d="M320.65,629.015v-12.918"/>
	<path style="&st0;" d="M299.121,616.097v12.918"/>
	<path style="&st1;" d="M305.175,597.529v-2.691"/>
	<path style="&st0;" d="M295.622,614.213h1.615"/>
	<path style="&st0;" d="M322.534,614.213h1.615"/>
	<path style="&st0;" d="M300.466,585.284v10.899"/>
	<path style="&st0;" d="M293.738,612.331V583.4"/>
	<path style="&st0;" d="M297.775,597.529h1.346"/>
	<path style="&st0;" d="M297.775,597.529V583.4"/>
	<path style="&st0;" d="M302.349,583.4h15.071"/>
	<path style="&st1;" d="M300.466,593.492h18.838"/>
	<path style="&st1;" d="M299.121,597.529h21.529"/>
	<path style="&st0;" d="M321.996,597.529h-1.346"/>
	<path style="&st0;" d="M326.033,612.331V583.4"/>
	<path style="&st0;" d="M319.304,585.284v10.899"/>
	<path style="&st0;" d="M321.996,597.529V583.4"/>
	<path style="&st1;" d="M314.595,597.529v-2.691"/>
	<path style="&st1;" d="M309.884,591.607h4.711v-5.516h-9.42v5.516H309.884"/>
	<path style="&st1;" d="M321.996,598.335v-0.807"/>
	<path style="&st1;" d="M299.658,600.22h20.454"/>
	<path style="&st1;" d="M297.775,598.335v-0.807"/>
</g>
<g id="キャプション">
	<g>
		<text transform="matrix(0.88 0 0 1 331.6821 48.0913)"><tspan x="0" y="0" style="&st2; &st6;">H97</tspan></text>
	</g>
	<g>
		<text transform="matrix(0.88 0 0 1 250.9453 48.0913)"><tspan x="0" y="0" style="&st2; &st6;">H96</tspan></text>
	</g>
	<g>
		<text transform="matrix(0.88 0 0 1 165.4282 48.0913)"><tspan x="0" y="0" style="&st2; &st6;">H104</tspan></text>
	</g>
	<g>
		<text transform="matrix(0.88 0 0 1 87.0063 49.4751)"><tspan x="0" y="0" style="&st2; &st6;">H102</tspan></text>
	</g>
	<g>
		<text transform="matrix(0.88 0 0 1 282.2974 222.4238)"><tspan x="0" y="0" style="&st5; &st3;">1</tspan></text>
	</g>
	<g>
		<text transform="matrix(0.88 0 0 1 282.2974 238.7573)"><tspan x="0" y="0" style="&st5; &st3;">2</tspan></text>
	</g>
	<g>
		<text transform="matrix(0.88 0 0 1 256.6313 222.4238)"><tspan x="0" y="0" style="&st5; &st3;">1</tspan></text>
	</g>
	<g>
		<text transform="matrix(0.88 0 0 1 256.6313 238.7573)"><tspan x="0" y="0" style="&st5; &st3;">2</tspan></text>
	</g>
	<g>
		<text transform="matrix(0.88 0 0 1 231.2979 222.4238)"><tspan x="0" y="0" style="&st5; &st3;">1</tspan></text>
	</g>
	<g>
		<text transform="matrix(0.88 0 0 1 231.2979 238.7573)"><tspan x="0" y="0" style="&st5; &st3;">2</tspan></text>
	</g>
	<g>
		<text transform="matrix(0.88 0 0 1 205.2979 222.4238)"><tspan x="0" y="0" style="&st5; &st3;">1</tspan></text>
	</g>
	<g>
		<text transform="matrix(0.88 0 0 1 205.2979 238.7573)"><tspan x="0" y="0" style="&st5; &st3;">2</tspan></text>
	</g>
	<g>
		<text transform="matrix(0.88 0 0 1 307.9263 440.7573)"><tspan x="0" y="0" style="&st5; &st3;">2</tspan></text>
	</g>
	<g>
		<text transform="matrix(0.88 0 0 1 307.9263 456.5015)"><tspan x="0" y="0" style="&st5; &st3;">1</tspan></text>
	</g>
	<g>
		<text transform="matrix(0.88 0 0 1 337.6313 76.7573)"><tspan x="0" y="0" style="&st5; &st3;">2</tspan></text>
	</g>
	<g>
		<text transform="matrix(0.88 0 0 1 337.6313 90.7573)"><tspan x="0" y="0" style="&st5; &st3;">1</tspan></text>
	</g>
	<g>
		<text transform="matrix(0.88 0 0 1 257.2979 76.7573)"><tspan x="0" y="0" style="&st5; &st3;">2</tspan></text>
	</g>
	<g>
		<text transform="matrix(0.88 0 0 1 257.2979 90.7573)"><tspan x="0" y="0" style="&st5; &st3;">1</tspan></text>
	</g>
	<g>
		<text transform="matrix(0.88 0 0 1 175.9644 76.7573)"><tspan x="0" y="0" style="&st5; &st3;">2</tspan></text>
	</g>
	<g>
		<text transform="matrix(0.88 0 0 1 175.9644 90.7573)"><tspan x="0" y="0" style="&st5; &st3;">1</tspan></text>
	</g>
	<g>
		<text transform="matrix(0.88 0 0 1 95.2979 76.7573)"><tspan x="0" y="0" style="&st5; &st3;">2</tspan></text>
	</g>
	<g>
		<text transform="matrix(0.88 0 0 1 95.2979 90.7573)"><tspan x="0" y="0" style="&st5; &st3;">1</tspan></text>
	</g>
	<path style="&st8;" d="M259.061,125.757v76.433"/>
	<path style="&st8;" d="M97.588,125.757v39.025h110.34v37.408"/>
	<path style="&st8;" d="M178.325,125.757v28.26h55.17v48.173"/>
	<path style="&st8;" d="M339.797,125.757v28.26h-55.17v48.173"/>
	<path style="&st4;" d="M259.061,125.757v76.433"/>
	<path style="&st4;" d="M97.588,125.757v39.025h110.34v37.408"/>
	<path style="&st4;" d="M178.325,125.757v28.26h55.17v48.173"/>
	<path style="&st4;" d="M339.797,125.757v28.26h-55.17v48.173"/>
	<g>
		<text transform="matrix(0.88 0 0 1 301.813 574.896)"><tspan x="0" y="0" style="&st2; &st6;">H98</tspan></text>
	</g>
	<g>
		<text transform="matrix(0.88 0 0 1 305.2524 666.896)"><tspan x="0" y="0" style="&st5; &st6;">* H96, H97, H102 and H104 are Interchangeable.</tspan></text>
	</g>
	<g>
		<text transform="matrix(0.88 0 0 1 307.5249 612.2573)"><tspan x="0" y="0" style="&st5; &st3;">1</tspan></text>
	</g>
	<g>
		<text transform="matrix(0.88 0 0 1 307.5249 627.0591)"><tspan x="0" y="0" style="&st5; &st3;">2</tspan></text>
	</g>
	<path style="&st8;" d="M309.884,563.257v-40.834"/>
	<path style="&st8;" d="M309.884,522.423V471.31"/>
	<path style="&st4;" d="M309.884,563.257v-40.834"/>
	<path style="&st4;" d="M309.884,522.423V471.31"/>
</g>
</svg>